Record Length,2500,Points,-26.00000054E-3,119.9999973E-3,
Sample Interval,99.999997474E-6,s,-25.90000071E-3,119.9999973E-3,
Trigger Point,260.00001193,Samples,-25.80000088E-3,119.9999973E-3,
,,,-25.70000105E-3,119.9999973E-3,
,,,-25.60000122E-3,119.9999973E-3,
,,,-25.50000139E-3,119.9999973E-3,
Source,CH1,,-25.39999969E-3,119.9999973E-3,
Vertical Units,Volts,,-25.29999986E-3,119.9999973E-3,
Vertical Scale,999.999977648E-3,,-25.20000003E-3,79.999998212E-3,
Vertical Offset,0,,-25.10000020E-3,79.999998212E-3,
Horizontal Units,s,,-25.00000037E-3,119.9999973E-3,
Horizontal Scale,24.99999937E-3,,-24.90000054E-3,119.9999973E-3,
Pt Fmt,Y,,-24.80000071E-3,119.9999973E-3,
Yzero,-3.72000000,,-24.70000088E-3,119.9999973E-3,
Probe Atten,1.000000,,-24.60000105E-3,119.9999973E-3,
,,,-24.50000122E-3,119.9999973E-3,
Note,TBS 1104 - 16:35:19   08/04/2021,,-24.40000139E-3,119.9999973E-3,
,,,-24.29999970E-3,159.99999642E-3,
,,,-24.19999987E-3,159.99999642E-3,
,,,-24.10000004E-3,119.9999973E-3,
,,,-24.00000021E-3,159.99999642E-3,
,,,-23.90000038E-3,119.9999973E-3,
,,,-23.80000055E-3,119.9999973E-3,
,,,-23.70000072E-3,119.9999973E-3,
,,,-23.60000089E-3,119.9999973E-3,
,,,-23.50000106E-3,119.9999973E-3,
,,,-23.40000123E-3,119.9999973E-3,
,,,-23.30000140E-3,159.99999642E-3,
,,,-23.19999970E-3,119.9999973E-3,
,,,-23.09999987E-3,119.9999973E-3,
,,,-23.00000004E-3,119.9999973E-3,
,,,-22.90000021E-3,119.9999973E-3,
,,,-22.80000038E-3,119.9999973E-3,
,,,-22.70000055E-3,119.9999973E-3,
,,,-22.60000072E-3,119.9999973E-3,
,,,-22.50000089E-3,119.9999973E-3,
,,,-22.40000106E-3,159.99999642E-3,
,,,-22.30000123E-3,119.9999973E-3,
,,,-22.20000140E-3,159.99999642E-3,
,,,-22.09999971E-3,119.9999973E-3,
,,,-21.99999988E-3,119.9999973E-3,
,,,-21.90000005E-3,119.9999973E-3,
,,,-21.80000022E-3,119.9999973E-3,
,,,-21.70000039E-3,119.9999973E-3,
,,,-21.60000056E-3,119.9999973E-3,
,,,-21.50000073E-3,119.9999973E-3,
,,,-21.40000090E-3,119.9999973E-3,
,,,-21.30000107E-3,119.9999973E-3,
,,,-21.20000124E-3,119.9999973E-3,
,,,-21.10000141E-3,119.9999973E-3,
,,,-21.00000158E-3,119.9999973E-3,
,,,-20.89999989E-3,79.999998212E-3,
,,,-20.80000006E-3,79.999998212E-3,
,,,-20.70000023E-3,79.999998212E-3,
,,,-20.60000040E-3,39.99999911E-3,
,,,-20.50000057E-3,39.99999911E-3,
,,,-20.40000074E-3,39.99999911E-3,
,,,-20.30000091E-3,79.999998212E-3,
,,,-20.20000108E-3,79.999998212E-3,
,,,-20.10000125E-3,79.999998212E-3,
,,,-20.0000014E-3,79.999998212E-3,
,,,-19.9000016E-3,79.999998212E-3,
,,,-19.7999999E-3,39.99999911E-3,
,,,-19.7000001E-3,39.99999911E-3,
,,,-19.6000002E-3,79.999998212E-3,
,,,-19.5000004E-3,119.9999973E-3,
,,,-19.4000006E-3,79.999998212E-3,
,,,-19.3000007E-3,79.999998212E-3,
,,,-19.2000009E-3,119.9999973E-3,
,,,-19.1000011E-3,79.999998212E-3,
,,,-19.0000013E-3,119.9999973E-3,
,,,-18.9000014E-3,119.9999973E-3,
,,,-18.8000016E-3,119.9999973E-3,
,,,-18.6999999E-3,39.99999911E-3,
,,,-18.6000001E-3,119.9999973E-3,
,,,-18.5000002E-3,119.9999973E-3,
,,,-18.4000004E-3,79.999998212E-3,
,,,-18.3000006E-3,79.999998212E-3,
,,,-18.2000007E-3,119.9999973E-3,
,,,-18.1000009E-3,119.9999973E-3,
,,,-18.0000011E-3,79.999998212E-3,
,,,-17.9000013E-3,79.999998212E-3,
,,,-17.8000014E-3,79.999998212E-3,
,,,-17.7000016E-3,79.999998212E-3,
,,,-17.5999999E-3,79.999998212E-3,
,,,-17.5000001E-3,119.9999973E-3,
,,,-17.4000002E-3,79.999998212E-3,
,,,-17.3000004E-3,79.999998212E-3,
,,,-17.2000006E-3,79.999998212E-3,
,,,-17.1000008E-3,79.999998212E-3,
,,,-17.0000009E-3,79.999998212E-3,
,,,-16.9000011E-3,79.999998212E-3,
,,,-16.8000013E-3,119.9999973E-3,
,,,-16.7000014E-3,119.9999973E-3,
,,,-16.6000016E-3,119.9999973E-3,
,,,-16.4999999E-3,119.9999973E-3,
,,,-16.4000001E-3,119.9999973E-3,
,,,-16.3000003E-3,159.99999642E-3,
,,,-16.2000004E-3,119.9999973E-3,
,,,-16.1000006E-3,119.9999973E-3,
,,,-16.0000008E-3,119.9999973E-3,
,,,-15.9000009E-3,79.999998212E-3,
,,,-15.8000011E-3,119.9999973E-3,
,,,-15.7000013E-3,119.9999973E-3,
,,,-15.6000005E-3,119.9999973E-3,
,,,-15.5000007E-3,119.9999973E-3,
,,,-15.4000008E-3,119.9999973E-3,
,,,-15.3000010E-3,119.9999973E-3,
,,,-15.2000012E-3,119.9999973E-3,
,,,-15.1000004E-3,119.9999973E-3,
,,,-15.0000006E-3,119.9999973E-3,
,,,-14.9000008E-3,119.9999973E-3,
,,,-14.8000009E-3,119.9999973E-3,
,,,-14.7000011E-3,119.9999973E-3,
,,,-14.6000013E-3,119.9999973E-3,
,,,-14.5000005E-3,79.999998212E-3,
,,,-14.4000007E-3,119.9999973E-3,
,,,-14.3000009E-3,119.9999973E-3,
,,,-14.2000010E-3,119.9999973E-3,
,,,-14.1000012E-3,119.9999973E-3,
,,,-14.0000004E-3,119.9999973E-3,
,,,-13.9000006E-3,119.9999973E-3,
,,,-13.8000008E-3,119.9999973E-3,
,,,-13.7000009E-3,119.9999973E-3,
,,,-13.6000011E-3,119.9999973E-3,
,,,-13.5000013E-3,119.9999973E-3,
,,,-13.4000005E-3,119.9999973E-3,
,,,-13.3000007E-3,119.9999973E-3,
,,,-13.2000009E-3,79.999998212E-3,
,,,-13.1000010E-3,119.9999973E-3,
,,,-13.0000012E-3,119.9999973E-3,
,,,-12.9000004E-3,119.9999973E-3,
,,,-12.8000006E-3,79.999998212E-3,
,,,-12.7000008E-3,119.9999973E-3,
,,,-12.6000009E-3,119.9999973E-3,
,,,-12.5000011E-3,119.9999973E-3,
,,,-12.4000013E-3,119.9999973E-3,
,,,-12.3000005E-3,119.9999973E-3,
,,,-12.2000007E-3,119.9999973E-3,
,,,-12.1000009E-3,159.99999642E-3,
,,,-12.0000010E-3,119.9999973E-3,
,,,-11.9000012E-3,119.9999973E-3,
,,,-11.8000004E-3,79.999998212E-3,
,,,-11.7000006E-3,159.99999642E-3,
,,,-11.6000008E-3,119.9999973E-3,
,,,-11.5000010E-3,119.9999973E-3,
,,,-11.4000011E-3,119.9999973E-3,
,,,-11.3000013E-3,119.9999973E-3,
,,,-11.2000005E-3,119.9999973E-3,
,,,-11.1000007E-3,119.9999973E-3,
,,,-11.0000009E-3,119.9999973E-3,
,,,-10.9000010E-3,119.9999973E-3,
,,,-10.8000012E-3,119.9999973E-3,
,,,-10.7000014E-3,119.9999973E-3,
,,,-10.6000006E-3,119.9999973E-3,
,,,-10.5000008E-3,159.99999642E-3,
,,,-10.4000010E-3,119.9999973E-3,
,,,-10.3000011E-3,119.9999973E-3,
,,,-10.2000013E-3,119.9999973E-3,
,,,-10.1000005E-3,159.99999642E-3,
,,,-10.0000007E-3,119.9999973E-3,
,,,-9.900000878E-3,119.9999973E-3,
,,,-9.800001048E-3,119.9999973E-3,
,,,-9.700001217E-3,159.99999642E-3,
,,,-9.600001387E-3,119.9999973E-3,
,,,-9.500000626E-3,119.9999973E-3,
,,,-9.400000796E-3,119.9999973E-3,
,,,-9.300000966E-3,159.99999642E-3,
,,,-9.200001135E-3,119.9999973E-3,
,,,-9.100001305E-3,119.9999973E-3,
,,,-9.000000544E-3,119.9999973E-3,
,,,-8.900000714E-3,119.9999973E-3,
,,,-8.800000884E-3,119.9999973E-3,
,,,-8.700001054E-3,119.9999973E-3,
,,,-8.600001223E-3,119.9999973E-3,
,,,-8.500001393E-3,119.9999973E-3,
,,,-8.400000632E-3,119.9999973E-3,
,,,-8.300000802E-3,119.9999973E-3,
,,,-8.200000972E-3,119.9999973E-3,
,,,-8.100001141E-3,119.9999973E-3,
,,,-8.000001311E-3,119.9999973E-3,
,,,-7.900000550E-3,119.9999973E-3,
,,,-7.800001185E-3,119.9999973E-3,
,,,-7.700000890E-3,119.9999973E-3,
,,,-7.600001059E-3,119.9999973E-3,
,,,-7.500001229E-3,119.9999973E-3,
,,,-7.400000934E-3,119.9999973E-3,
,,,-7.30000110E-3,119.9999973E-3,
,,,-7.20000081E-3,119.9999973E-3,
,,,-7.10000098E-3,119.9999973E-3,
,,,-7.00000115E-3,159.99999642E-3,
,,,-6.90000085E-3,119.9999973E-3,
,,,-6.80000102E-3,119.9999973E-3,
,,,-6.70000119E-3,119.9999973E-3,
,,,-6.60000090E-3,119.9999973E-3,
,,,-6.50000107E-3,159.99999642E-3,
,,,-6.40000124E-3,119.9999973E-3,
,,,-6.30000094E-3,119.9999973E-3,
,,,-6.20000111E-3,159.99999642E-3,
,,,-6.10000081E-3,119.9999973E-3,
,,,-6.00000098E-3,119.9999973E-3,
,,,-5.90000115E-3,119.9999973E-3,
,,,-5.80000086E-3,119.9999973E-3,
,,,-5.70000103E-3,119.9999973E-3,
,,,-5.60000120E-3,119.9999973E-3,
,,,-5.50000090E-3,119.9999973E-3,
,,,-5.40000107E-3,119.9999973E-3,
,,,-5.30000124E-3,159.99999642E-3,
,,,-5.20000095E-3,119.9999973E-3,
,,,-5.10000112E-3,119.9999973E-3,
,,,-5.00000129E-3,119.9999973E-3,
,,,-4.90000099E-3,119.9999973E-3,
,,,-4.80000116E-3,119.9999973E-3,
,,,-4.70000086E-3,119.9999973E-3,
,,,-4.60000103E-3,119.9999973E-3,
,,,-4.50000120E-3,119.9999973E-3,
,,,-4.40000091E-3,119.9999973E-3,
,,,-4.30000108E-3,119.9999973E-3,
,,,-4.20000125E-3,119.9999973E-3,
,,,-4.10000095E-3,119.9999973E-3,
,,,-4.00000112E-3,119.9999973E-3,
,,,-3.90000106E-3,79.999998212E-3,
,,,-3.80000100E-3,119.9999973E-3,
,,,-3.70000117E-3,119.9999973E-3,
,,,-3.60000110E-3,119.9999973E-3,
,,,-3.50000104E-3,119.9999973E-3,
,,,-3.40000121E-3,119.9999973E-3,
,,,-3.30000115E-3,119.9999973E-3,
,,,-3.20000108E-3,119.9999973E-3,
,,,-3.10000102E-3,119.9999973E-3,
,,,-3.00000119E-3,119.9999973E-3,
,,,-2.90000113E-3,119.9999973E-3,
,,,-2.80000106E-3,79.999998212E-3,
,,,-2.7000012E-3,119.9999973E-3,
,,,-2.6000012E-3,119.9999973E-3,
,,,-2.5000011E-3,119.9999973E-3,
,,,-2.4000010E-3,119.9999973E-3,
,,,-2.3000012E-3,119.9999973E-3,
,,,-2.2000012E-3,119.9999973E-3,
,,,-2.1000011E-3,119.9999973E-3,
,,,-2.0000013E-3,119.9999973E-3,
,,,-1.9000012E-3,119.9999973E-3,
,,,-1.8000011E-3,119.9999973E-3,
,,,-1.7000012E-3,119.9999973E-3,
,,,-1.6000011E-3,119.9999973E-3,
,,,-1.5000012E-3,159.99999642E-3,
,,,-1.4000011E-3,159.99999642E-3,
,,,-1.3000012E-3,119.9999973E-3,
,,,-1.2000012E-3,119.9999973E-3,
,,,-1.1000012E-3,119.9999973E-3,
,,,-1.0000012E-3,119.9999973E-3,
,,,-900.001148693E-6,79.999998212E-3,
,,,-800.001202151E-6,119.9999973E-3,
,,,-700.001197401E-6,119.9999973E-3,
,,,-600.001192652E-6,119.9999973E-3,
,,,-500.001187902E-6,119.9999973E-3,
,,,-400.00118315E-6,119.9999973E-3,
,,,-300.00117840E-6,119.9999973E-3,
,,,-200.00118820E-6,119.9999973E-3,
,,,-100.0011907E-6,119.9999973E-3,
,,,-1.1932570E-9,680.000007153E-3,
,,,99.998804217E-6,3.00000000,
,,,199.99880169E-6,3.59999990,
,,,299.99879189E-6,3.55999994,
,,,399.99879664E-6,3.24000001,
,,,499.998801388E-6,2.87999988,
,,,599.998806138E-6,2.5599999,
,,,699.998810887E-6,2.2800000,
,,,799.998757429E-6,2.0000000,
,,,899.998762179E-6,1.8000000,
,,,999.998766929E-6,1.6400000,
,,,1.0999988E-3,1.4800000,
,,,1.1999988E-3,1.3600000,
,,,1.2999987E-3,1.1600000,
,,,1.3999988E-3,1.0400000,
,,,1.4999987E-3,959.999978542E-3,
,,,1.5999988E-3,839.999973774E-3,
,,,1.6999987E-3,719.999969006E-3,
,,,1.7999988E-3,639.999985695E-3,
,,,1.8999988E-3,560.000002384E-3,
,,,1.9999987E-3,479.999989271E-3,
,,,2.0999988E-3,439.999997616E-3,
,,,2.1999988E-3,359.99998450E-3,
,,,2.2999987E-3,359.99998450E-3,
,,,2.3999987E-3,280.00000119E-3,
,,,2.4999988E-3,239.99999464E-3,
,,,2.5999988E-3,199.99998808E-3,
,,,2.6999987E-3,199.99998808E-3,
,,,2.79999874E-3,199.99998808E-3,
,,,2.89999880E-3,199.99998808E-3,
,,,2.99999863E-3,159.99999642E-3,
,,,3.09999869E-3,159.99999642E-3,
,,,3.19999876E-3,159.99999642E-3,
,,,3.29999882E-3,159.99999642E-3,
,,,3.39999865E-3,159.99999642E-3,
,,,3.49999871E-3,159.99999642E-3,
,,,3.59999877E-3,159.99999642E-3,
,,,3.69999860E-3,119.9999973E-3,
,,,3.79999867E-3,159.99999642E-3,
,,,3.89999873E-3,159.99999642E-3,
,,,3.99999879E-3,119.9999973E-3,
,,,4.09999862E-3,79.999998212E-3,
,,,4.19999892E-3,119.9999973E-3,
,,,4.29999875E-3,119.9999973E-3,
,,,4.39999858E-3,79.999998212E-3,
,,,4.49999887E-3,119.9999973E-3,
,,,4.59999871E-3,159.99999642E-3,
,,,4.69999854E-3,119.9999973E-3,
,,,4.79999883E-3,119.9999973E-3,
,,,4.89999866E-3,119.9999973E-3,
,,,4.99999849E-3,119.9999973E-3,
,,,5.09999879E-3,119.9999973E-3,
,,,5.19999862E-3,119.9999973E-3,
,,,5.29999845E-3,119.9999973E-3,
,,,5.39999874E-3,119.9999973E-3,
,,,5.49999857E-3,119.9999973E-3,
,,,5.59999887E-3,119.9999973E-3,
,,,5.69999870E-3,119.9999973E-3,
,,,5.79999853E-3,119.9999973E-3,
,,,5.89999883E-3,119.9999973E-3,
,,,5.99999866E-3,119.9999973E-3,
,,,6.09999849E-3,119.9999973E-3,
,,,6.19999878E-3,119.9999973E-3,
,,,6.29999861E-3,119.9999973E-3,
,,,6.39999844E-3,159.99999642E-3,
,,,6.49999874E-3,119.9999973E-3,
,,,6.59999857E-3,119.9999973E-3,
,,,6.69999886E-3,119.9999973E-3,
,,,6.79999869E-3,119.9999973E-3,
,,,6.89999852E-3,119.9999973E-3,
,,,6.99999882E-3,79.999998212E-3,
,,,7.09999865E-3,119.9999973E-3,
,,,7.19999848E-3,119.9999973E-3,
,,,7.29999878E-3,119.9999973E-3,
,,,7.399998605E-3,119.9999973E-3,
,,,7.499998435E-3,119.9999973E-3,
,,,7.599998731E-3,119.9999973E-3,
,,,7.699998561E-3,119.9999973E-3,
,,,7.799998391E-3,159.99999642E-3,
,,,7.899998687E-3,159.99999642E-3,
,,,7.999998517E-3,159.99999642E-3,
,,,8.099998347E-3,119.9999973E-3,
,,,8.199998178E-3,119.9999973E-3,
,,,8.299998939E-3,159.99999642E-3,
,,,8.399998769E-3,119.9999973E-3,
,,,8.499998599E-3,119.9999973E-3,
,,,8.599998429E-3,119.9999973E-3,
,,,8.699998260E-3,119.9999973E-3,
,,,8.799999021E-3,79.999998212E-3,
,,,8.899998851E-3,119.9999973E-3,
,,,8.999998681E-3,119.9999973E-3,
,,,9.099998511E-3,119.9999973E-3,
,,,9.199998342E-3,119.9999973E-3,
,,,9.299998172E-3,119.9999973E-3,
,,,9.399998933E-3,119.9999973E-3,
,,,9.499998763E-3,119.9999973E-3,
,,,9.599998593E-3,119.9999973E-3,
,,,9.699998423E-3,159.99999642E-3,
,,,9.799998254E-3,159.99999642E-3,
,,,9.899999015E-3,119.9999973E-3,
,,,9.999998845E-3,159.99999642E-3,
,,,10.0999987E-3,119.9999973E-3,
,,,10.1999985E-3,119.9999973E-3,
,,,10.2999983E-3,119.9999973E-3,
,,,10.3999982E-3,119.9999973E-3,
,,,10.4999989E-3,119.9999973E-3,
,,,10.5999988E-3,119.9999973E-3,
,,,10.6999986E-3,119.9999973E-3,
,,,10.7999984E-3,119.9999973E-3,
,,,10.8999982E-3,119.9999973E-3,
,,,10.9999981E-3,119.9999973E-3,
,,,11.0999988E-3,119.9999973E-3,
,,,11.1999987E-3,119.9999973E-3,
,,,11.2999985E-3,119.9999973E-3,
,,,11.3999983E-3,159.99999642E-3,
,,,11.4999982E-3,119.9999973E-3,
,,,11.5999989E-3,119.9999973E-3,
,,,11.6999988E-3,119.9999973E-3,
,,,11.7999986E-3,119.9999973E-3,
,,,11.8999984E-3,119.9999973E-3,
,,,11.9999982E-3,119.9999973E-3,
,,,12.0999981E-3,119.9999973E-3,
,,,12.1999988E-3,119.9999973E-3,
,,,12.2999987E-3,159.99999642E-3,
,,,12.3999985E-3,119.9999973E-3,
,,,12.4999983E-3,119.9999973E-3,
,,,12.5999982E-3,119.9999973E-3,
,,,12.6999989E-3,119.9999973E-3,
,,,12.7999987E-3,159.99999642E-3,
,,,12.8999986E-3,159.99999642E-3,
,,,12.9999984E-3,119.9999973E-3,
,,,13.0999982E-3,159.99999642E-3,
,,,13.1999981E-3,119.9999973E-3,
,,,13.2999988E-3,159.99999642E-3,
,,,13.3999987E-3,159.99999642E-3,
,,,13.4999985E-3,119.9999973E-3,
,,,13.5999983E-3,119.9999973E-3,
,,,13.6999981E-3,119.9999973E-3,
,,,13.7999989E-3,119.9999973E-3,
,,,13.8999987E-3,119.9999973E-3,
,,,13.9999986E-3,119.9999973E-3,
,,,14.0999984E-3,119.9999973E-3,
,,,14.1999982E-3,119.9999973E-3,
,,,14.2999981E-3,119.9999973E-3,
,,,14.3999988E-3,119.9999973E-3,
,,,14.4999987E-3,159.99999642E-3,
,,,14.5999985E-3,119.9999973E-3,
,,,14.6999983E-3,119.9999973E-3,
,,,14.7999981E-3,119.9999973E-3,
,,,14.8999980E-3,119.9999973E-3,
,,,14.9999987E-3,159.99999642E-3,
,,,15.0999986E-3,119.9999973E-3,
,,,15.1999984E-3,119.9999973E-3,
,,,15.2999982E-3,119.9999973E-3,
,,,15.3999981E-3,119.9999973E-3,
,,,15.4999988E-3,119.9999973E-3,
,,,15.5999986E-3,119.9999973E-3,
,,,15.6999975E-3,159.99999642E-3,
,,,15.7999992E-3,119.9999973E-3,
,,,15.8999991E-3,119.9999973E-3,
,,,15.9999989E-3,119.9999973E-3,
,,,16.0999987E-3,119.9999973E-3,
,,,16.1999986E-3,119.9999973E-3,
,,,16.2999984E-3,119.9999973E-3,
,,,16.3999982E-3,119.9999973E-3,
,,,16.4999980E-3,119.9999973E-3,
,,,16.5999979E-3,119.9999973E-3,
,,,16.6999977E-3,119.9999973E-3,
,,,16.7999975E-3,119.9999973E-3,
,,,16.8999992E-3,119.9999973E-3,
,,,16.9999991E-3,119.9999973E-3,
,,,17.0999989E-3,119.9999973E-3,
,,,17.1999987E-3,119.9999973E-3,
,,,17.2999986E-3,119.9999973E-3,
,,,17.3999984E-3,159.99999642E-3,
,,,17.4999982E-3,119.9999973E-3,
,,,17.5999980E-3,119.9999973E-3,
,,,17.6999979E-3,119.9999973E-3,
,,,17.7999977E-3,119.9999973E-3,
,,,17.8999975E-3,119.9999973E-3,
,,,17.9999992E-3,159.99999642E-3,
,,,18.0999991E-3,119.9999973E-3,
,,,18.1999989E-3,79.999998212E-3,
,,,18.2999987E-3,119.9999973E-3,
,,,18.3999985E-3,119.9999973E-3,
,,,18.4999984E-3,119.9999973E-3,
,,,18.5999982E-3,119.9999973E-3,
,,,18.6999980E-3,119.9999973E-3,
,,,18.7999979E-3,119.9999973E-3,
,,,18.8999977E-3,119.9999973E-3,
,,,18.9999975E-3,119.9999973E-3,
,,,19.0999992E-3,79.999998212E-3,
,,,19.1999990E-3,119.9999973E-3,
,,,19.2999989E-3,119.9999973E-3,
,,,19.3999987E-3,119.9999973E-3,
,,,19.4999985E-3,119.9999973E-3,
,,,19.5999984E-3,119.9999973E-3,
,,,19.6999982E-3,119.9999973E-3,
,,,19.7999980E-3,119.9999973E-3,
,,,19.8999979E-3,119.9999973E-3,
,,,19.9999977E-3,119.9999973E-3,
,,,20.09999752E-3,119.9999973E-3,
,,,20.19999921E-3,79.999998212E-3,
,,,20.29999904E-3,119.9999973E-3,
,,,20.39999887E-3,119.9999973E-3,
,,,20.49999870E-3,119.9999973E-3,
,,,20.59999853E-3,119.9999973E-3,
,,,20.69999836E-3,119.9999973E-3,
,,,20.79999819E-3,119.9999973E-3,
,,,20.89999802E-3,119.9999973E-3,
,,,20.99999785E-3,119.9999973E-3,
,,,21.09999768E-3,119.9999973E-3,
,,,21.19999751E-3,119.9999973E-3,
,,,21.29999734E-3,119.9999973E-3,
,,,21.39999904E-3,119.9999973E-3,
,,,21.49999887E-3,119.9999973E-3,
,,,21.59999870E-3,119.9999973E-3,
,,,21.69999853E-3,159.99999642E-3,
,,,21.79999836E-3,119.9999973E-3,
,,,21.89999819E-3,119.9999973E-3,
,,,21.99999802E-3,119.9999973E-3,
,,,22.09999785E-3,79.999998212E-3,
,,,22.19999768E-3,79.999998212E-3,
,,,22.29999751E-3,119.9999973E-3,
,,,22.39999734E-3,119.9999973E-3,
,,,22.49999903E-3,119.9999973E-3,
,,,22.59999886E-3,119.9999973E-3,
,,,22.69999869E-3,119.9999973E-3,
,,,22.79999852E-3,79.999998212E-3,
,,,22.89999835E-3,119.9999973E-3,
,,,22.99999818E-3,119.9999973E-3,
,,,23.09999801E-3,119.9999973E-3,
,,,23.19999784E-3,119.9999973E-3,
,,,23.29999767E-3,119.9999973E-3,
,,,23.39999750E-3,119.9999973E-3,
,,,23.49999733E-3,119.9999973E-3,
,,,23.59999903E-3,119.9999973E-3,
,,,23.69999886E-3,119.9999973E-3,
,,,23.79999869E-3,119.9999973E-3,
,,,23.89999852E-3,119.9999973E-3,
,,,23.99999835E-3,119.9999973E-3,
,,,24.09999818E-3,79.999998212E-3,
,,,24.19999801E-3,119.9999973E-3,
,,,24.29999784E-3,159.99999642E-3,
,,,24.39999767E-3,119.9999973E-3,
,,,24.49999750E-3,119.9999973E-3,
,,,24.59999733E-3,119.9999973E-3,
,,,24.69999902E-3,119.9999973E-3,
,,,24.79999885E-3,79.999998212E-3,
,,,24.89999868E-3,119.9999973E-3,
,,,24.99999851E-3,119.9999973E-3,
,,,25.09999834E-3,119.9999973E-3,
,,,25.19999817E-3,119.9999973E-3,
,,,25.29999800E-3,119.9999973E-3,
,,,25.39999783E-3,79.999998212E-3,
,,,25.49999766E-3,119.9999973E-3,
,,,25.59999749E-3,119.9999973E-3,
,,,25.69999732E-3,159.99999642E-3,
,,,25.79999901E-3,159.99999642E-3,
,,,25.89999884E-3,119.9999973E-3,
,,,25.99999867E-3,119.9999973E-3,
,,,26.09999850E-3,119.9999973E-3,
,,,26.19999833E-3,79.999998212E-3,
,,,26.29999816E-3,119.9999973E-3,
,,,26.39999799E-3,159.99999642E-3,
,,,26.49999782E-3,119.9999973E-3,
,,,26.59999765E-3,119.9999973E-3,
,,,26.69999748E-3,119.9999973E-3,
,,,26.79999731E-3,119.9999973E-3,
,,,26.89999901E-3,119.9999973E-3,
,,,26.99999884E-3,119.9999973E-3,
,,,27.09999867E-3,79.999998212E-3,
,,,27.19999850E-3,119.9999973E-3,
,,,27.29999833E-3,119.9999973E-3,
,,,27.39999816E-3,119.9999973E-3,
,,,27.49999799E-3,119.9999973E-3,
,,,27.59999782E-3,119.9999973E-3,
,,,27.69999765E-3,119.9999973E-3,
,,,27.79999748E-3,159.99999642E-3,
,,,27.89999731E-3,119.9999973E-3,
,,,27.99999900E-3,119.9999973E-3,
,,,28.09999883E-3,79.999998212E-3,
,,,28.19999866E-3,119.9999973E-3,
,,,28.29999849E-3,119.9999973E-3,
,,,28.39999832E-3,119.9999973E-3,
,,,28.49999815E-3,119.9999973E-3,
,,,28.59999798E-3,119.9999973E-3,
,,,28.69999781E-3,119.9999973E-3,
,,,28.79999764E-3,119.9999973E-3,
,,,28.89999747E-3,119.9999973E-3,
,,,28.99999730E-3,159.99999642E-3,
,,,29.09999900E-3,119.9999973E-3,
,,,29.19999883E-3,119.9999973E-3,
,,,29.29999866E-3,119.9999973E-3,
,,,29.39999849E-3,119.9999973E-3,
,,,29.49999832E-3,159.99999642E-3,
,,,29.59999815E-3,119.9999973E-3,
,,,29.69999798E-3,119.9999973E-3,
,,,29.79999781E-3,159.99999642E-3,
,,,29.89999764E-3,119.9999973E-3,
,,,29.99999747E-3,119.9999973E-3,
,,,30.09999730E-3,119.9999973E-3,
,,,30.19999713E-3,79.999998212E-3,
,,,30.29999882E-3,119.9999973E-3,
,,,30.39999865E-3,119.9999973E-3,
,,,30.49999848E-3,159.99999642E-3,
,,,30.59999831E-3,159.99999642E-3,
,,,30.69999814E-3,159.99999642E-3,
,,,30.79999797E-3,119.9999973E-3,
,,,30.89999780E-3,159.99999642E-3,
,,,30.99999763E-3,159.99999642E-3,
,,,31.09999746E-3,119.9999973E-3,
,,,31.19999729E-3,119.9999973E-3,
,,,31.29999712E-3,119.9999973E-3,
,,,31.39999881E-3,119.9999973E-3,
,,,31.49999678E-3,119.9999973E-3,
,,,31.59999847E-3,119.9999973E-3,
,,,31.69999644E-3,119.9999973E-3,
,,,31.79999813E-3,119.9999973E-3,
,,,31.89999983E-3,119.9999973E-3,
,,,31.99999779E-3,119.9999973E-3,
,,,32.09999949E-3,79.999998212E-3,
,,,32.19999745E-3,79.999998212E-3,
,,,32.29999915E-3,119.9999973E-3,
,,,32.39999712E-3,119.9999973E-3,
,,,32.49999881E-3,119.9999973E-3,
,,,32.59999678E-3,119.9999973E-3,
,,,32.69999847E-3,159.99999642E-3,
,,,32.79999644E-3,119.9999973E-3,
,,,32.89999813E-3,119.9999973E-3,
,,,32.99999982E-3,159.99999642E-3,
,,,33.09999779E-3,119.9999973E-3,
,,,33.19999948E-3,119.9999973E-3,
,,,33.29999745E-3,79.999998212E-3,
,,,33.39999914E-3,119.9999973E-3,
,,,33.49999711E-3,119.9999973E-3,
,,,33.59999880E-3,119.9999973E-3,
,,,33.69999677E-3,119.9999973E-3,
,,,33.79999846E-3,119.9999973E-3,
,,,33.89999643E-3,119.9999973E-3,
,,,33.99999812E-3,119.9999973E-3,
,,,34.09999609E-3,119.9999973E-3,
,,,34.19999778E-3,119.9999973E-3,
,,,34.29999948E-3,119.9999973E-3,
,,,34.39999744E-3,119.9999973E-3,
,,,34.49999914E-3,119.9999973E-3,
,,,34.59999710E-3,119.9999973E-3,
,,,34.69999880E-3,119.9999973E-3,
,,,34.79999676E-3,119.9999973E-3,
,,,34.89999846E-3,119.9999973E-3,
,,,34.99999642E-3,119.9999973E-3,
,,,35.09999812E-3,119.9999973E-3,
,,,35.19999608E-3,119.9999973E-3,
,,,35.29999778E-3,119.9999973E-3,
,,,35.39999947E-3,119.9999973E-3,
,,,35.49999744E-3,119.9999973E-3,
,,,35.59999913E-3,119.9999973E-3,
,,,35.69999710E-3,159.99999642E-3,
,,,35.79999879E-3,119.9999973E-3,
,,,35.89999676E-3,119.9999973E-3,
,,,35.99999845E-3,119.9999973E-3,
,,,36.09999642E-3,119.9999973E-3,
,,,36.19999811E-3,119.9999973E-3,
,,,36.29999608E-3,119.9999973E-3,
,,,36.39999777E-3,119.9999973E-3,
,,,36.49999946E-3,159.99999642E-3,
,,,36.59999743E-3,119.9999973E-3,
,,,36.69999912E-3,119.9999973E-3,
,,,36.79999709E-3,119.9999973E-3,
,,,36.89999878E-3,119.9999973E-3,
,,,36.99999675E-3,119.9999973E-3,
,,,37.09999844E-3,119.9999973E-3,
,,,37.19999641E-3,119.9999973E-3,
,,,37.29999810E-3,119.9999973E-3,
,,,37.39999607E-3,119.9999973E-3,
,,,37.49999776E-3,119.9999973E-3,
,,,37.59999946E-3,119.9999973E-3,
,,,37.69999743E-3,119.9999973E-3,
,,,37.79999912E-3,119.9999973E-3,
,,,37.89999709E-3,119.9999973E-3,
,,,37.99999878E-3,119.9999973E-3,
,,,38.09999675E-3,119.9999973E-3,
,,,38.19999844E-3,119.9999973E-3,
,,,38.29999641E-3,119.9999973E-3,
,,,38.39999810E-3,159.99999642E-3,
,,,38.49999607E-3,119.9999973E-3,
,,,38.59999776E-3,119.9999973E-3,
,,,38.69999945E-3,119.9999973E-3,
,,,38.79999742E-3,119.9999973E-3,
,,,38.89999911E-3,119.9999973E-3,
,,,38.99999708E-3,119.9999973E-3,
,,,39.09999877E-3,119.9999973E-3,
,,,39.19999674E-3,119.9999973E-3,
,,,39.29999843E-3,119.9999973E-3,
,,,39.39999640E-3,119.9999973E-3,
,,,39.49999809E-3,119.9999973E-3,
,,,39.59999606E-3,119.9999973E-3,
,,,39.69999775E-3,119.9999973E-3,
,,,39.79999945E-3,119.9999973E-3,
,,,39.89999741E-3,159.99999642E-3,
,,,39.99999911E-3,119.9999973E-3,
,,,40.09999707E-3,79.999998212E-3,
,,,40.19999877E-3,79.999998212E-3,
,,,40.29999673E-3,119.9999973E-3,
,,,40.39999843E-3,119.9999973E-3,
,,,40.49999639E-3,119.9999973E-3,
,,,40.59999809E-3,119.9999973E-3,
,,,40.69999605E-3,119.9999973E-3,
,,,40.79999775E-3,119.9999973E-3,
,,,40.89999944E-3,119.9999973E-3,
,,,40.99999741E-3,119.9999973E-3,
,,,41.09999910E-3,119.9999973E-3,
,,,41.19999707E-3,119.9999973E-3,
,,,41.29999876E-3,119.9999973E-3,
,,,41.39999673E-3,159.99999642E-3,
,,,41.49999842E-3,119.9999973E-3,
,,,41.59999639E-3,119.9999973E-3,
,,,41.69999808E-3,119.9999973E-3,
,,,41.79999605E-3,119.9999973E-3,
,,,41.89999774E-3,119.9999973E-3,
,,,41.99999943E-3,159.99999642E-3,
,,,42.09999740E-3,119.9999973E-3,
,,,42.19999909E-3,119.9999973E-3,
,,,42.29999706E-3,119.9999973E-3,
,,,42.39999875E-3,159.99999642E-3,
,,,42.49999672E-3,119.9999973E-3,
,,,42.59999841E-3,119.9999973E-3,
,,,42.69999638E-3,159.99999642E-3,
,,,42.79999807E-3,79.999998212E-3,
,,,42.89999604E-3,159.99999642E-3,
,,,42.99999774E-3,119.9999973E-3,
,,,43.09999943E-3,119.9999973E-3,
,,,43.19999740E-3,119.9999973E-3,
,,,43.29999909E-3,119.9999973E-3,
,,,43.39999706E-3,119.9999973E-3,
,,,43.49999875E-3,119.9999973E-3,
,,,43.59999672E-3,119.9999973E-3,
,,,43.69999841E-3,79.999998212E-3,
,,,43.79999638E-3,119.9999973E-3,
,,,43.89999807E-3,159.99999642E-3,
,,,43.99999604E-3,159.99999642E-3,
,,,44.09999773E-3,119.9999973E-3,
,,,44.19999942E-3,119.9999973E-3,
,,,44.29999739E-3,119.9999973E-3,
,,,44.39999908E-3,119.9999973E-3,
,,,44.49999705E-3,119.9999973E-3,
,,,44.59999874E-3,119.9999973E-3,
,,,44.69999671E-3,119.9999973E-3,
,,,44.79999840E-3,119.9999973E-3,
,,,44.89999637E-3,119.9999973E-3,
,,,44.99999806E-3,119.9999973E-3,
,,,45.09999603E-3,119.9999973E-3,
,,,45.19999772E-3,119.9999973E-3,
,,,45.29999942E-3,119.9999973E-3,
,,,45.39999738E-3,119.9999973E-3,
,,,45.49999908E-3,119.9999973E-3,
,,,45.59999704E-3,119.9999973E-3,
,,,45.69999874E-3,119.9999973E-3,
,,,45.79999670E-3,119.9999973E-3,
,,,45.89999840E-3,119.9999973E-3,
,,,45.99999636E-3,119.9999973E-3,
,,,46.09999806E-3,119.9999973E-3,
,,,46.19999602E-3,119.9999973E-3,
,,,46.29999772E-3,119.9999973E-3,
,,,46.39999941E-3,119.9999973E-3,
,,,46.49999738E-3,119.9999973E-3,
,,,46.59999907E-3,119.9999973E-3,
,,,46.69999704E-3,79.999998212E-3,
,,,46.79999873E-3,159.99999642E-3,
,,,46.89999670E-3,119.9999973E-3,
,,,46.99999839E-3,119.9999973E-3,
,,,47.09999636E-3,119.9999973E-3,
,,,47.19999805E-3,119.9999973E-3,
,,,47.29999602E-3,119.9999973E-3,
,,,47.39999771E-3,119.9999973E-3,
,,,47.49999940E-3,119.9999973E-3,
,,,47.59999737E-3,119.9999973E-3,
,,,47.69999906E-3,119.9999973E-3,
,,,47.79999703E-3,119.9999973E-3,
,,,47.89999872E-3,119.9999973E-3,
,,,47.99999669E-3,119.9999973E-3,
,,,48.09999838E-3,119.9999973E-3,
,,,48.19999635E-3,79.999998212E-3,
,,,48.29999804E-3,159.99999642E-3,
,,,48.39999601E-3,119.9999973E-3,
,,,48.49999771E-3,119.9999973E-3,
,,,48.59999940E-3,119.9999973E-3,
,,,48.69999737E-3,119.9999973E-3,
,,,48.79999906E-3,119.9999973E-3,
,,,48.89999703E-3,159.99999642E-3,
,,,48.99999872E-3,119.9999973E-3,
,,,49.09999669E-3,119.9999973E-3,
,,,49.19999838E-3,79.999998212E-3,
,,,49.29999635E-3,79.999998212E-3,
,,,49.39999804E-3,39.99999911E-3,
,,,49.49999601E-3,79.999998212E-3,
,,,49.59999770E-3,39.99999911E-3,
,,,49.69999939E-3,39.99999911E-3,
,,,49.79999736E-3,39.99999911E-3,
,,,49.89999905E-3,39.99999911E-3,
,,,49.99999702E-3,39.99999911E-3,
,,,50.09999871E-3,119.9999973E-3,
,,,50.19999668E-3,79.999998212E-3,
,,,50.29999837E-3,79.999998212E-3,
,,,50.39999634E-3,119.9999973E-3,
,,,50.49999803E-3,79.999998212E-3,
,,,50.59999600E-3,79.999998212E-3,
,,,50.69999769E-3,119.9999973E-3,
,,,50.79999566E-3,119.9999973E-3,
,,,50.89999735E-3,119.9999973E-3,
,,,50.99999905E-3,79.999998212E-3,
,,,51.09999701E-3,119.9999973E-3,
,,,51.19999871E-3,79.999998212E-3,
,,,51.29999667E-3,79.999998212E-3,
,,,51.39999837E-3,119.9999973E-3,
,,,51.49999633E-3,119.9999973E-3,
,,,51.59999803E-3,119.9999973E-3,
,,,51.69999599E-3,119.9999973E-3,
,,,51.79999769E-3,119.9999973E-3,
,,,51.89999565E-3,79.999998212E-3,
,,,51.99999735E-3,119.9999973E-3,
,,,52.09999904E-3,79.999998212E-3,
,,,52.19999701E-3,79.999998212E-3,
,,,52.29999870E-3,119.9999973E-3,
,,,52.39999667E-3,79.999998212E-3,
,,,52.49999836E-3,79.999998212E-3,
,,,52.59999633E-3,79.999998212E-3,
,,,52.69999802E-3,79.999998212E-3,
,,,52.79999599E-3,79.999998212E-3,
,,,52.89999768E-3,79.999998212E-3,
,,,52.99999565E-3,119.9999973E-3,
,,,53.09999734E-3,79.999998212E-3,
,,,53.19999903E-3,79.999998212E-3,
,,,53.29999700E-3,119.9999973E-3,
,,,53.39999869E-3,79.999998212E-3,
,,,53.49999666E-3,79.999998212E-3,
,,,53.59999835E-3,79.999998212E-3,
,,,53.69999632E-3,79.999998212E-3,
,,,53.79999802E-3,119.9999973E-3,
,,,53.89999598E-3,119.9999973E-3,
,,,53.99999768E-3,79.999998212E-3,
,,,54.09999564E-3,79.999998212E-3,
,,,54.19999734E-3,119.9999973E-3,
,,,54.29999903E-3,79.999998212E-3,
,,,54.39999700E-3,79.999998212E-3,
,,,54.49999869E-3,79.999998212E-3,
,,,54.599996656E-3,79.999998212E-3,
,,,54.699998349E-3,79.999998212E-3,
,,,54.799996316E-3,119.9999973E-3,
,,,54.899998009E-3,79.999998212E-3,
,,,54.999995977E-3,119.9999973E-3,
,,,55.099997669E-3,119.9999973E-3,
,,,55.199995637E-3,79.999998212E-3,
,,,55.299997330E-3,79.999998212E-3,
,,,55.399999022E-3,119.9999973E-3,
,,,55.499996990E-3,79.999998212E-3,
,,,55.599998683E-3,79.999998212E-3,
,,,55.699996650E-3,79.999998212E-3,
,,,55.799998343E-3,119.9999973E-3,
,,,55.899996310E-3,79.999998212E-3,
,,,55.999998003E-3,79.999998212E-3,
,,,56.099995971E-3,79.999998212E-3,
,,,56.199997663E-3,79.999998212E-3,
,,,56.299995631E-3,79.999998212E-3,
,,,56.399997324E-3,79.999998212E-3,
,,,56.499999017E-3,79.999998212E-3,
,,,56.599996984E-3,79.999998212E-3,
,,,56.699998677E-3,79.999998212E-3,
,,,56.799996644E-3,79.999998212E-3,
,,,56.899998337E-3,119.9999973E-3,
,,,56.999996305E-3,79.999998212E-3,
,,,57.099997997E-3,79.999998212E-3,
,,,57.199995965E-3,79.999998212E-3,
,,,57.299997658E-3,79.999998212E-3,
,,,57.399995625E-3,79.999998212E-3,
,,,57.499997318E-3,119.9999973E-3,
,,,57.599999011E-3,79.999998212E-3,
,,,57.699996978E-3,119.9999973E-3,
,,,57.799998671E-3,119.9999973E-3,
,,,57.899996638E-3,119.9999973E-3,
,,,57.999998331E-3,119.9999973E-3,
,,,58.099996299E-3,79.999998212E-3,
,,,58.199997991E-3,79.999998212E-3,
,,,58.299995959E-3,79.999998212E-3,
,,,58.399997652E-3,119.9999973E-3,
,,,58.499995619E-3,79.999998212E-3,
,,,58.599997312E-3,79.999998212E-3,
,,,58.699999005E-3,119.9999973E-3,
,,,58.799996972E-3,79.999998212E-3,
,,,58.899998665E-3,79.999998212E-3,
,,,58.999996632E-3,39.99999911E-3,
,,,59.099998325E-3,79.999998212E-3,
,,,59.199996293E-3,79.999998212E-3,
,,,59.299997985E-3,119.9999973E-3,
,,,59.399995953E-3,119.9999973E-3,
,,,59.499997646E-3,119.9999973E-3,
,,,59.599995613E-3,119.9999973E-3,
,,,59.699997306E-3,119.9999973E-3,
,,,59.799998999E-3,119.9999973E-3,
,,,59.899996966E-3,119.9999973E-3,
,,,59.999998659E-3,119.9999973E-3,
,,,60.099996626E-3,119.9999973E-3,
,,,60.199998319E-3,119.9999973E-3,
,,,60.299996287E-3,119.9999973E-3,
,,,60.399997979E-3,119.9999973E-3,
,,,60.499995947E-3,119.9999973E-3,
,,,60.599997640E-3,119.9999973E-3,
,,,60.699995607E-3,119.9999973E-3,
,,,60.799997300E-3,119.9999973E-3,
,,,60.899998993E-3,119.9999973E-3,
,,,60.999996960E-3,119.9999973E-3,
,,,61.099998653E-3,119.9999973E-3,
,,,61.199996620E-3,119.9999973E-3,
,,,61.299998313E-3,119.9999973E-3,
,,,61.399996281E-3,119.9999973E-3,
,,,61.499997973E-3,119.9999973E-3,
,,,61.599995941E-3,119.9999973E-3,
,,,61.699997634E-3,159.99999642E-3,
,,,61.799995601E-3,119.9999973E-3,
,,,61.899997294E-3,119.9999973E-3,
,,,61.999998987E-3,119.9999973E-3,
,,,62.099996954E-3,119.9999973E-3,
,,,62.199998647E-3,119.9999973E-3,
,,,62.299996614E-3,119.9999973E-3,
,,,62.399998307E-3,119.9999973E-3,
,,,62.499996275E-3,119.9999973E-3,
,,,62.599994242E-3,119.9999973E-3,
,,,62.699995935E-3,119.9999973E-3,
,,,62.799997628E-3,119.9999973E-3,
,,,62.899999321E-3,119.9999973E-3,
,,,62.999993563E-3,119.9999973E-3,
,,,63.099995255E-3,119.9999973E-3,
,,,63.199996948E-3,119.9999973E-3,
,,,63.299998641E-3,119.9999973E-3,
,,,63.400000334E-3,119.9999973E-3,
,,,63.499994576E-3,119.9999973E-3,
,,,63.599996269E-3,79.999998212E-3,
,,,63.699997962E-3,119.9999973E-3,
,,,63.799999654E-3,159.99999642E-3,
,,,63.899993896E-3,119.9999973E-3,
,,,63.999995589E-3,119.9999973E-3,
,,,64.099997282E-3,119.9999973E-3,
,,,64.199998975E-3,119.9999973E-3,
,,,64.300000668E-3,119.9999973E-3,
,,,64.399994910E-3,119.9999973E-3,
,,,64.499996603E-3,159.99999642E-3,
,,,64.599998295E-3,119.9999973E-3,
,,,64.699999988E-3,119.9999973E-3,
,,,64.799994230E-3,119.9999973E-3,
,,,64.899995923E-3,119.9999973E-3,
,,,64.999997616E-3,119.9999973E-3,
,,,65.099999309E-3,119.9999973E-3,
,,,65.199993551E-3,119.9999973E-3,
,,,65.299995244E-3,119.9999973E-3,
,,,65.399996936E-3,119.9999973E-3,
,,,65.499998629E-3,119.9999973E-3,
,,,65.600000322E-3,119.9999973E-3,
,,,65.699994564E-3,119.9999973E-3,
,,,65.799996257E-3,119.9999973E-3,
,,,65.899997950E-3,119.9999973E-3,
,,,65.999999642E-3,119.9999973E-3,
,,,66.099993885E-3,119.9999973E-3,
,,,66.199995577E-3,119.9999973E-3,
,,,66.299997270E-3,119.9999973E-3,
,,,66.399998963E-3,119.9999973E-3,
,,,66.500000656E-3,119.9999973E-3,
,,,66.599994898E-3,159.99999642E-3,
,,,66.699996591E-3,79.999998212E-3,
,,,66.799998283E-3,119.9999973E-3,
,,,66.899999976E-3,119.9999973E-3,
,,,66.999994218E-3,119.9999973E-3,
,,,67.099995911E-3,79.999998212E-3,
,,,67.199997604E-3,119.9999973E-3,
,,,67.299999297E-3,119.9999973E-3,
,,,67.399993539E-3,119.9999973E-3,
,,,67.499995232E-3,119.9999973E-3,
,,,67.599996924E-3,119.9999973E-3,
,,,67.699998617E-3,119.9999973E-3,
,,,67.800000310E-3,79.999998212E-3,
,,,67.899994552E-3,119.9999973E-3,
,,,67.999996245E-3,119.9999973E-3,
,,,68.099997938E-3,119.9999973E-3,
,,,68.199999630E-3,119.9999973E-3,
,,,68.299993873E-3,159.99999642E-3,
,,,68.399995565E-3,119.9999973E-3,
,,,68.499997258E-3,119.9999973E-3,
,,,68.599998951E-3,119.9999973E-3,
,,,68.700000644E-3,119.9999973E-3,
,,,68.799994886E-3,119.9999973E-3,
,,,68.899996579E-3,119.9999973E-3,
,,,68.999998271E-3,159.99999642E-3,
,,,69.099999964E-3,119.9999973E-3,
,,,69.199994206E-3,119.9999973E-3,
,,,69.299995899E-3,119.9999973E-3,
,,,69.399997592E-3,119.9999973E-3,
,,,69.499999285E-3,119.9999973E-3,
,,,69.599993527E-3,119.9999973E-3,
,,,69.699995220E-3,119.9999973E-3,
,,,69.799996912E-3,119.9999973E-3,
,,,69.899998605E-3,119.9999973E-3,
,,,70.000000298E-3,159.99999642E-3,
,,,70.099994540E-3,119.9999973E-3,
,,,70.199996233E-3,79.999998212E-3,
,,,70.299997926E-3,119.9999973E-3,
,,,70.399999619E-3,119.9999973E-3,
,,,70.499993861E-3,119.9999973E-3,
,,,70.599995553E-3,159.99999642E-3,
,,,70.699997246E-3,119.9999973E-3,
,,,70.799998939E-3,119.9999973E-3,
,,,70.900000632E-3,119.9999973E-3,
,,,70.999994874E-3,119.9999973E-3,
,,,71.099996567E-3,119.9999973E-3,
,,,71.199998260E-3,119.9999973E-3,
,,,71.299999952E-3,119.9999973E-3,
,,,71.399994195E-3,159.99999642E-3,
,,,71.499995887E-3,119.9999973E-3,
,,,71.599997580E-3,119.9999973E-3,
,,,71.699999273E-3,119.9999973E-3,
,,,71.799993515E-3,119.9999973E-3,
,,,71.899995208E-3,119.9999973E-3,
,,,71.999996901E-3,119.9999973E-3,
,,,72.099998593E-3,119.9999973E-3,
,,,72.200000286E-3,119.9999973E-3,
,,,72.299994528E-3,119.9999973E-3,
,,,72.399996221E-3,159.99999642E-3,
,,,72.499997914E-3,119.9999973E-3,
,,,72.599999607E-3,119.9999973E-3,
,,,72.699993849E-3,119.9999973E-3,
,,,72.799995542E-3,119.9999973E-3,
,,,72.899997234E-3,119.9999973E-3,
,,,72.999998927E-3,119.9999973E-3,
,,,73.100000620E-3,119.9999973E-3,
,,,73.199994862E-3,119.9999973E-3,
,,,73.299996555E-3,119.9999973E-3,
,,,73.399998248E-3,79.999998212E-3,
,,,73.499999940E-3,79.999998212E-3,
,,,73.599994183E-3,119.9999973E-3,
,,,73.699995875E-3,119.9999973E-3,
,,,73.799997568E-3,119.9999973E-3,
,,,73.899999261E-3,119.9999973E-3,
,,,73.999993503E-3,119.9999973E-3,
,,,74.099995196E-3,119.9999973E-3,
,,,74.199996889E-3,119.9999973E-3,
,,,74.299998581E-3,119.9999973E-3,
,,,74.400000274E-3,119.9999973E-3,
,,,74.499994516E-3,119.9999973E-3,
,,,74.599996209E-3,119.9999973E-3,
,,,74.699997902E-3,119.9999973E-3,
,,,74.799999595E-3,159.99999642E-3,
,,,74.899993837E-3,119.9999973E-3,
,,,74.999995530E-3,119.9999973E-3,
,,,75.099997222E-3,119.9999973E-3,
,,,75.199998915E-3,119.9999973E-3,
,,,75.300000608E-3,119.9999973E-3,
,,,75.399994850E-3,119.9999973E-3,
,,,75.499996543E-3,119.9999973E-3,
,,,75.599998236E-3,119.9999973E-3,
,,,75.699999928E-3,119.9999973E-3,
,,,75.799994171E-3,119.9999973E-3,
,,,75.899995863E-3,159.99999642E-3,
,,,75.999997556E-3,119.9999973E-3,
,,,76.099999249E-3,119.9999973E-3,
,,,76.199993491E-3,119.9999973E-3,
,,,76.299995184E-3,119.9999973E-3,
,,,76.399996877E-3,119.9999973E-3,
,,,76.499998569E-3,119.9999973E-3,
,,,76.600000262E-3,119.9999973E-3,
,,,76.699994504E-3,119.9999973E-3,
,,,76.799996197E-3,119.9999973E-3,
,,,76.899997890E-3,119.9999973E-3,
,,,76.999999583E-3,119.9999973E-3,
,,,77.099993825E-3,79.999998212E-3,
,,,77.199995518E-3,119.9999973E-3,
,,,77.299997211E-3,159.99999642E-3,
,,,77.399998903E-3,119.9999973E-3,
,,,77.499993145E-3,119.9999973E-3,
,,,77.599994838E-3,159.99999642E-3,
,,,77.699996531E-3,119.9999973E-3,
,,,77.799998224E-3,119.9999973E-3,
,,,77.899999917E-3,119.9999973E-3,
,,,77.999994159E-3,159.99999642E-3,
,,,78.099995852E-3,359.99998450E-3,
,,,78.199997544E-3,359.99998450E-3,
,,,78.299999237E-3,399.99997616E-3,
,,,78.399993479E-3,319.99999285E-3,
,,,78.499995172E-3,280.00000119E-3,
,,,78.599996865E-3,280.00000119E-3,
,,,78.699998558E-3,280.00000119E-3,
,,,78.800000250E-3,199.99998808E-3,
,,,78.899994493E-3,199.99998808E-3,
,,,78.999996185E-3,199.99998808E-3,
,,,79.099997878E-3,199.99998808E-3,
,,,79.199999571E-3,159.99999642E-3,
,,,79.299993813E-3,159.99999642E-3,
,,,79.399995506E-3,159.99999642E-3,
,,,79.499997199E-3,159.99999642E-3,
,,,79.599998891E-3,119.9999973E-3,
,,,79.699993134E-3,159.99999642E-3,
,,,79.799994826E-3,119.9999973E-3,
,,,79.899996519E-3,119.9999973E-3,
,,,79.999998212E-3,159.99999642E-3,
,,,80.099999905E-3,119.9999973E-3,
,,,80.199994147E-3,119.9999973E-3,
,,,80.299995840E-3,119.9999973E-3,
,,,80.399997532E-3,119.9999973E-3,
,,,80.499999225E-3,119.9999973E-3,
,,,80.599993467E-3,119.9999973E-3,
,,,80.699995160E-3,79.999998212E-3,
,,,80.799996853E-3,119.9999973E-3,
,,,80.899998546E-3,79.999998212E-3,
,,,81.000000238E-3,119.9999973E-3,
,,,81.099994481E-3,119.9999973E-3,
,,,81.199996173E-3,119.9999973E-3,
,,,81.299997866E-3,119.9999973E-3,
,,,81.399999559E-3,119.9999973E-3,
,,,81.499993801E-3,119.9999973E-3,
,,,81.599995494E-3,119.9999973E-3,
,,,81.699997187E-3,119.9999973E-3,
,,,81.799998879E-3,119.9999973E-3,
,,,81.899993122E-3,119.9999973E-3,
,,,81.999994814E-3,119.9999973E-3,
,,,82.099996507E-3,119.9999973E-3,
,,,82.199998200E-3,79.999998212E-3,
,,,82.299999893E-3,119.9999973E-3,
,,,82.399994135E-3,79.999998212E-3,
,,,82.499995828E-3,119.9999973E-3,
,,,82.599997520E-3,119.9999973E-3,
,,,82.699999213E-3,119.9999973E-3,
,,,82.799993455E-3,119.9999973E-3,
,,,82.899995148E-3,119.9999973E-3,
,,,82.999996841E-3,119.9999973E-3,
,,,83.099998534E-3,119.9999973E-3,
,,,83.200000226E-3,119.9999973E-3,
,,,83.299994469E-3,119.9999973E-3,
,,,83.399996161E-3,119.9999973E-3,
,,,83.499997854E-3,119.9999973E-3,
,,,83.599999547E-3,119.9999973E-3,
,,,83.699993789E-3,119.9999973E-3,
,,,83.799995482E-3,119.9999973E-3,
,,,83.899997175E-3,119.9999973E-3,
,,,83.999998868E-3,119.9999973E-3,
,,,84.099993110E-3,119.9999973E-3,
,,,84.199994802E-3,119.9999973E-3,
,,,84.299996495E-3,159.99999642E-3,
,,,84.399998188E-3,119.9999973E-3,
,,,84.499999881E-3,119.9999973E-3,
,,,84.599994123E-3,159.99999642E-3,
,,,84.699995816E-3,119.9999973E-3,
,,,84.799997509E-3,119.9999973E-3,
,,,84.899999201E-3,79.999998212E-3,
,,,84.999993443E-3,119.9999973E-3,
,,,85.099995136E-3,119.9999973E-3,
,,,85.199996829E-3,119.9999973E-3,
,,,85.299998522E-3,79.999998212E-3,
,,,85.400000215E-3,119.9999973E-3,
,,,85.499994457E-3,119.9999973E-3,
,,,85.599996150E-3,119.9999973E-3,
,,,85.699997842E-3,119.9999973E-3,
,,,85.799999535E-3,119.9999973E-3,
,,,85.899993777E-3,159.99999642E-3,
,,,85.999995470E-3,119.9999973E-3,
,,,86.099997163E-3,119.9999973E-3,
,,,86.199998856E-3,119.9999973E-3,
,,,86.299993098E-3,119.9999973E-3,
,,,86.399994791E-3,119.9999973E-3,
,,,86.499996483E-3,159.99999642E-3,
,,,86.599998176E-3,159.99999642E-3,
,,,86.699999869E-3,119.9999973E-3,
,,,86.799994111E-3,119.9999973E-3,
,,,86.899995804E-3,119.9999973E-3,
,,,86.999997497E-3,119.9999973E-3,
,,,87.099999189E-3,119.9999973E-3,
,,,87.199993432E-3,119.9999973E-3,
,,,87.299995124E-3,119.9999973E-3,
,,,87.399996817E-3,119.9999973E-3,
,,,87.499998510E-3,119.9999973E-3,
,,,87.600000203E-3,119.9999973E-3,
,,,87.699994445E-3,119.9999973E-3,
,,,87.799996138E-3,119.9999973E-3,
,,,87.899997830E-3,119.9999973E-3,
,,,87.999999523E-3,119.9999973E-3,
,,,88.099993765E-3,119.9999973E-3,
,,,88.199995458E-3,119.9999973E-3,
,,,88.299997151E-3,119.9999973E-3,
,,,88.399998844E-3,119.9999973E-3,
,,,88.499993086E-3,119.9999973E-3,
,,,88.599994779E-3,119.9999973E-3,
,,,88.699996471E-3,159.99999642E-3,
,,,88.799998164E-3,119.9999973E-3,
,,,88.899999857E-3,119.9999973E-3,
,,,88.999994099E-3,119.9999973E-3,
,,,89.099995792E-3,119.9999973E-3,
,,,89.199997485E-3,119.9999973E-3,
,,,89.299999177E-3,119.9999973E-3,
,,,89.399993420E-3,119.9999973E-3,
,,,89.499995112E-3,119.9999973E-3,
,,,89.599996805E-3,119.9999973E-3,
,,,89.699998498E-3,119.9999973E-3,
,,,89.800000191E-3,119.9999973E-3,
,,,89.899994433E-3,119.9999973E-3,
,,,89.999996126E-3,119.9999973E-3,
,,,90.099997818E-3,119.9999973E-3,
,,,90.199999511E-3,119.9999973E-3,
,,,90.299993753E-3,119.9999973E-3,
,,,90.399995446E-3,119.9999973E-3,
,,,90.499997139E-3,119.9999973E-3,
,,,90.599998832E-3,119.9999973E-3,
,,,90.699993074E-3,119.9999973E-3,
,,,90.799994767E-3,119.9999973E-3,
,,,90.899996459E-3,119.9999973E-3,
,,,90.999998152E-3,159.99999642E-3,
,,,91.099999845E-3,119.9999973E-3,
,,,91.199994087E-3,159.99999642E-3,
,,,91.299995780E-3,159.99999642E-3,
,,,91.399997473E-3,119.9999973E-3,
,,,91.499999166E-3,119.9999973E-3,
,,,91.599993408E-3,119.9999973E-3,
,,,91.699995100E-3,159.99999642E-3,
,,,91.799996793E-3,159.99999642E-3,
,,,91.899998486E-3,159.99999642E-3,
,,,92.000000179E-3,119.9999973E-3,
,,,92.099994421E-3,119.9999973E-3,
,,,92.199996114E-3,119.9999973E-3,
,,,92.299997807E-3,119.9999973E-3,
,,,92.399999499E-3,119.9999973E-3,
,,,92.499993742E-3,159.99999642E-3,
,,,92.599995434E-3,159.99999642E-3,
,,,92.699997127E-3,159.99999642E-3,
,,,92.799998820E-3,119.9999973E-3,
,,,92.899993062E-3,119.9999973E-3,
,,,92.999994755E-3,159.99999642E-3,
,,,93.099996448E-3,119.9999973E-3,
,,,93.199998140E-3,119.9999973E-3,
,,,93.299999833E-3,119.9999973E-3,
,,,93.399994075E-3,119.9999973E-3,
,,,93.499995768E-3,159.99999642E-3,
,,,93.599997461E-3,119.9999973E-3,
,,,93.699999154E-3,119.9999973E-3,
,,,93.799993396E-3,119.9999973E-3,
,,,93.899995089E-3,119.9999973E-3,
,,,93.999996781E-3,119.9999973E-3,
,,,94.099998474E-3,119.9999973E-3,
,,,94.199992716E-3,119.9999973E-3,
,,,94.299994409E-3,119.9999973E-3,
,,,94.399996102E-3,119.9999973E-3,
,,,94.499997795E-3,159.99999642E-3,
,,,94.599999487E-3,119.9999973E-3,
,,,94.699993730E-3,119.9999973E-3,
,,,94.799995422E-3,119.9999973E-3,
,,,94.899997115E-3,119.9999973E-3,
,,,94.999998808E-3,119.9999973E-3,
,,,95.099993050E-3,119.9999973E-3,
,,,95.199994743E-3,119.9999973E-3,
,,,95.299996436E-3,119.9999973E-3,
,,,95.399998128E-3,119.9999973E-3,
,,,95.499999821E-3,119.9999973E-3,
,,,95.599994063E-3,119.9999973E-3,
,,,95.699995756E-3,119.9999973E-3,
,,,95.799997449E-3,119.9999973E-3,
,,,95.899999142E-3,159.99999642E-3,
,,,95.999993384E-3,119.9999973E-3,
,,,96.099995077E-3,119.9999973E-3,
,,,96.199996769E-3,119.9999973E-3,
,,,96.299998462E-3,119.9999973E-3,
,,,96.399992704E-3,119.9999973E-3,
,,,96.499994397E-3,119.9999973E-3,
,,,96.599996090E-3,119.9999973E-3,
,,,96.699997783E-3,119.9999973E-3,
,,,96.799999475E-3,119.9999973E-3,
,,,96.899993718E-3,159.99999642E-3,
,,,96.999995410E-3,159.99999642E-3,
,,,97.099997103E-3,119.9999973E-3,
,,,97.199998796E-3,119.9999973E-3,
,,,97.299993038E-3,119.9999973E-3,
,,,97.399994731E-3,119.9999973E-3,
,,,97.499996424E-3,119.9999973E-3,
,,,97.599998116E-3,119.9999973E-3,
,,,97.699999809E-3,119.9999973E-3,
,,,97.799994051E-3,119.9999973E-3,
,,,97.899995744E-3,79.999998212E-3,
,,,97.999997437E-3,119.9999973E-3,
,,,98.099999130E-3,119.9999973E-3,
,,,98.199993372E-3,119.9999973E-3,
,,,98.299995065E-3,119.9999973E-3,
,,,98.399996758E-3,119.9999973E-3,
,,,98.499998450E-3,119.9999973E-3,
,,,98.599992692E-3,119.9999973E-3,
,,,98.699994385E-3,119.9999973E-3,
,,,98.799996078E-3,119.9999973E-3,
,,,98.899997771E-3,119.9999973E-3,
,,,98.999999464E-3,119.9999973E-3,
,,,99.099993706E-3,119.9999973E-3,
,,,99.199995399E-3,119.9999973E-3,
,,,99.299997091E-3,119.9999973E-3,
,,,99.399998784E-3,119.9999973E-3,
,,,99.499993026E-3,119.9999973E-3,
,,,99.599994719E-3,159.99999642E-3,
,,,99.699996412E-3,119.9999973E-3,
,,,99.799998105E-3,159.99999642E-3,
,,,99.899999797E-3,159.99999642E-3,
,,,99.999994040E-3,119.9999973E-3,
,,,100.0999957E-3,119.9999973E-3,
,,,100.1999974E-3,119.9999973E-3,
,,,100.2999991E-3,119.9999973E-3,
,,,100.3999934E-3,119.9999973E-3,
,,,100.4999951E-3,119.9999973E-3,
,,,100.5999967E-3,119.9999973E-3,
,,,100.6999984E-3,119.9999973E-3,
,,,100.7999927E-3,119.9999973E-3,
,,,100.8999944E-3,119.9999973E-3,
,,,100.9999961E-3,119.9999973E-3,
,,,101.0999978E-3,79.999998212E-3,
,,,101.1999995E-3,119.9999973E-3,
,,,101.2999937E-3,119.9999973E-3,
,,,101.3999954E-3,119.9999973E-3,
,,,101.4999971E-3,119.9999973E-3,
,,,101.5999988E-3,119.9999973E-3,
,,,101.6999930E-3,119.9999973E-3,
,,,101.7999947E-3,119.9999973E-3,
,,,101.8999964E-3,159.99999642E-3,
,,,101.9999981E-3,119.9999973E-3,
,,,102.0999998E-3,119.9999973E-3,
,,,102.1999940E-3,119.9999973E-3,
,,,102.2999957E-3,159.99999642E-3,
,,,102.3999974E-3,119.9999973E-3,
,,,102.4999991E-3,119.9999973E-3,
,,,102.5999933E-3,119.9999973E-3,
,,,102.6999950E-3,119.9999973E-3,
,,,102.7999967E-3,159.99999642E-3,
,,,102.8999984E-3,119.9999973E-3,
,,,102.9999927E-3,119.9999973E-3,
,,,103.0999944E-3,119.9999973E-3,
,,,103.1999961E-3,119.9999973E-3,
,,,103.2999977E-3,119.9999973E-3,
,,,103.3999994E-3,159.99999642E-3,
,,,103.4999937E-3,119.9999973E-3,
,,,103.5999954E-3,119.9999973E-3,
,,,103.6999971E-3,119.9999973E-3,
,,,103.7999988E-3,119.9999973E-3,
,,,103.8999930E-3,119.9999973E-3,
,,,103.9999947E-3,119.9999973E-3,
,,,104.0999964E-3,119.9999973E-3,
,,,104.1999981E-3,119.9999973E-3,
,,,104.2999998E-3,119.9999973E-3,
,,,104.3999940E-3,119.9999973E-3,
,,,104.4999957E-3,159.99999642E-3,
,,,104.5999974E-3,159.99999642E-3,
,,,104.6999991E-3,119.9999973E-3,
,,,104.7999933E-3,119.9999973E-3,
,,,104.8999950E-3,119.9999973E-3,
,,,104.9999967E-3,119.9999973E-3,
,,,105.0999984E-3,119.9999973E-3,
,,,105.1999927E-3,119.9999973E-3,
,,,105.2999943E-3,79.999998212E-3,
,,,105.3999960E-3,119.9999973E-3,
,,,105.4999977E-3,119.9999973E-3,
,,,105.5999994E-3,119.9999973E-3,
,,,105.6999937E-3,119.9999973E-3,
,,,105.7999954E-3,119.9999973E-3,
,,,105.8999971E-3,119.9999973E-3,
,,,105.9999987E-3,159.99999642E-3,
,,,106.0999930E-3,119.9999973E-3,
,,,106.1999947E-3,119.9999973E-3,
,,,106.2999964E-3,119.9999973E-3,
,,,106.3999981E-3,119.9999973E-3,
,,,106.4999998E-3,119.9999973E-3,
,,,106.5999940E-3,119.9999973E-3,
,,,106.6999957E-3,119.9999973E-3,
,,,106.7999974E-3,159.99999642E-3,
,,,106.8999991E-3,119.9999973E-3,
,,,106.9999933E-3,119.9999973E-3,
,,,107.0999950E-3,119.9999973E-3,
,,,107.1999967E-3,119.9999973E-3,
,,,107.2999984E-3,119.9999973E-3,
,,,107.3999926E-3,119.9999973E-3,
,,,107.4999943E-3,119.9999973E-3,
,,,107.5999960E-3,119.9999973E-3,
,,,107.6999977E-3,119.9999973E-3,
,,,107.7999994E-3,119.9999973E-3,
,,,107.8999937E-3,119.9999973E-3,
,,,107.9999954E-3,119.9999973E-3,
,,,108.0999970E-3,119.9999973E-3,
,,,108.1999987E-3,119.9999973E-3,
,,,108.2999930E-3,119.9999973E-3,
,,,108.3999947E-3,119.9999973E-3,
,,,108.4999964E-3,119.9999973E-3,
,,,108.5999981E-3,119.9999973E-3,
,,,108.6999997E-3,119.9999973E-3,
,,,108.7999940E-3,119.9999973E-3,
,,,108.8999957E-3,119.9999973E-3,
,,,108.9999974E-3,119.9999973E-3,
,,,109.0999991E-3,119.9999973E-3,
,,,109.1999933E-3,119.9999973E-3,
,,,109.2999950E-3,119.9999973E-3,
,,,109.3999967E-3,119.9999973E-3,
,,,109.4999984E-3,119.9999973E-3,
,,,109.5999926E-3,119.9999973E-3,
,,,109.6999943E-3,119.9999973E-3,
,,,109.7999960E-3,119.9999973E-3,
,,,109.8999977E-3,119.9999973E-3,
,,,109.9999994E-3,119.9999973E-3,
,,,110.0999936E-3,119.9999973E-3,
,,,110.1999953E-3,79.999998212E-3,
,,,110.2999970E-3,119.9999973E-3,
,,,110.3999987E-3,119.9999973E-3,
,,,110.4999930E-3,119.9999973E-3,
,,,110.5999947E-3,119.9999973E-3,
,,,110.6999964E-3,119.9999973E-3,
,,,110.7999980E-3,119.9999973E-3,
,,,110.8999923E-3,119.9999973E-3,
,,,110.9999940E-3,159.99999642E-3,
,,,111.0999957E-3,119.9999973E-3,
,,,111.1999974E-3,119.9999973E-3,
,,,111.2999991E-3,119.9999973E-3,
,,,111.3999933E-3,119.9999973E-3,
,,,111.4999950E-3,119.9999973E-3,
,,,111.5999967E-3,119.9999973E-3,
,,,111.6999984E-3,119.9999973E-3,
,,,111.7999926E-3,119.9999973E-3,
,,,111.8999943E-3,159.99999642E-3,
,,,111.9999960E-3,119.9999973E-3,
,,,112.0999977E-3,79.999998212E-3,
,,,112.1999994E-3,79.999998212E-3,
,,,112.2999936E-3,119.9999973E-3,
,,,112.3999953E-3,119.9999973E-3,
,,,112.4999970E-3,119.9999973E-3,
,,,112.5999987E-3,119.9999973E-3,
,,,112.6999930E-3,119.9999973E-3,
,,,112.7999946E-3,119.9999973E-3,
,,,112.8999963E-3,119.9999973E-3,
,,,112.9999980E-3,119.9999973E-3,
,,,113.0999923E-3,79.999998212E-3,
,,,113.1999940E-3,119.9999973E-3,
,,,113.2999957E-3,119.9999973E-3,
,,,113.3999974E-3,119.9999973E-3,
,,,113.4999990E-3,119.9999973E-3,
,,,113.5999933E-3,119.9999973E-3,
,,,113.6999950E-3,119.9999973E-3,
,,,113.7999967E-3,119.9999973E-3,
,,,113.8999984E-3,119.9999973E-3,
,,,113.9999926E-3,159.99999642E-3,
,,,114.0999943E-3,119.9999973E-3,
,,,114.1999960E-3,119.9999973E-3,
,,,114.2999977E-3,119.9999973E-3,
,,,114.3999994E-3,119.9999973E-3,
,,,114.4999936E-3,159.99999642E-3,
,,,114.5999953E-3,119.9999973E-3,
,,,114.6999970E-3,119.9999973E-3,
,,,114.7999987E-3,119.9999973E-3,
,,,114.8999929E-3,119.9999973E-3,
,,,114.9999946E-3,119.9999973E-3,
,,,115.0999963E-3,79.999998212E-3,
,,,115.1999980E-3,119.9999973E-3,
,,,115.2999923E-3,119.9999973E-3,
,,,115.3999940E-3,119.9999973E-3,
,,,115.4999956E-3,119.9999973E-3,
,,,115.5999973E-3,159.99999642E-3,
,,,115.6999990E-3,119.9999973E-3,
,,,115.7999933E-3,119.9999973E-3,
,,,115.8999950E-3,119.9999973E-3,
,,,115.9999967E-3,119.9999973E-3,
,,,116.0999984E-3,119.9999973E-3,
,,,116.1999926E-3,119.9999973E-3,
,,,116.2999943E-3,119.9999973E-3,
,,,116.3999960E-3,119.9999973E-3,
,,,116.4999977E-3,159.99999642E-3,
,,,116.5999994E-3,159.99999642E-3,
,,,116.6999936E-3,119.9999973E-3,
,,,116.7999953E-3,119.9999973E-3,
,,,116.8999970E-3,119.9999973E-3,
,,,116.9999987E-3,119.9999973E-3,
,,,117.0999929E-3,119.9999973E-3,
,,,117.1999946E-3,79.999998212E-3,
,,,117.2999963E-3,79.999998212E-3,
,,,117.3999980E-3,119.9999973E-3,
,,,117.4999923E-3,119.9999973E-3,
,,,117.5999939E-3,119.9999973E-3,
,,,117.6999956E-3,119.9999973E-3,
,,,117.7999973E-3,119.9999973E-3,
,,,117.8999990E-3,119.9999973E-3,
,,,117.9999933E-3,119.9999973E-3,
,,,118.0999950E-3,119.9999973E-3,
,,,118.1999967E-3,119.9999973E-3,
,,,118.2999983E-3,119.9999973E-3,
,,,118.3999926E-3,119.9999973E-3,
,,,118.4999943E-3,119.9999973E-3,
,,,118.5999960E-3,119.9999973E-3,
,,,118.6999977E-3,119.9999973E-3,
,,,118.7999994E-3,119.9999973E-3,
,,,118.8999936E-3,119.9999973E-3,
,,,118.9999953E-3,119.9999973E-3,
,,,119.0999970E-3,119.9999973E-3,
,,,119.1999987E-3,119.9999973E-3,
,,,119.2999929E-3,119.9999973E-3,
,,,119.3999946E-3,159.99999642E-3,
,,,119.4999963E-3,119.9999973E-3,
,,,119.5999980E-3,119.9999973E-3,
,,,119.6999922E-3,159.99999642E-3,
,,,119.7999939E-3,119.9999973E-3,
,,,119.8999956E-3,159.99999642E-3,
,,,119.9999973E-3,119.9999973E-3,
,,,120.0999990E-3,119.9999973E-3,
,,,120.1999933E-3,119.9999973E-3,
,,,120.2999949E-3,119.9999973E-3,
,,,120.3999966E-3,119.9999973E-3,
,,,120.4999983E-3,119.9999973E-3,
,,,120.5999926E-3,119.9999973E-3,
,,,120.6999943E-3,119.9999973E-3,
,,,120.7999960E-3,119.9999973E-3,
,,,120.8999977E-3,119.9999973E-3,
,,,120.9999993E-3,119.9999973E-3,
,,,121.0999936E-3,119.9999973E-3,
,,,121.1999953E-3,119.9999973E-3,
,,,121.2999970E-3,119.9999973E-3,
,,,121.3999987E-3,119.9999973E-3,
,,,121.4999929E-3,119.9999973E-3,
,,,121.5999946E-3,119.9999973E-3,
,,,121.6999963E-3,119.9999973E-3,
,,,121.7999980E-3,119.9999973E-3,
,,,121.8999922E-3,159.99999642E-3,
,,,121.9999939E-3,119.9999973E-3,
,,,122.0999956E-3,119.9999973E-3,
,,,122.1999973E-3,119.9999973E-3,
,,,122.2999990E-3,119.9999973E-3,
,,,122.3999932E-3,119.9999973E-3,
,,,122.4999949E-3,119.9999973E-3,
,,,122.5999966E-3,119.9999973E-3,
,,,122.6999983E-3,119.9999973E-3,
,,,122.7999926E-3,119.9999973E-3,
,,,122.8999943E-3,119.9999973E-3,
,,,122.9999959E-3,119.9999973E-3,
,,,123.0999976E-3,119.9999973E-3,
,,,123.1999993E-3,79.999998212E-3,
,,,123.2999936E-3,119.9999973E-3,
,,,123.3999953E-3,119.9999973E-3,
,,,123.4999970E-3,119.9999973E-3,
,,,123.5999987E-3,119.9999973E-3,
,,,123.6999929E-3,119.9999973E-3,
,,,123.7999946E-3,119.9999973E-3,
,,,123.8999963E-3,119.9999973E-3,
,,,123.9999980E-3,119.9999973E-3,
,,,124.0999922E-3,119.9999973E-3,
,,,124.1999939E-3,119.9999973E-3,
,,,124.2999956E-3,119.9999973E-3,
,,,124.3999973E-3,119.9999973E-3,
,,,124.4999990E-3,119.9999973E-3,
,,,124.5999932E-3,119.9999973E-3,
,,,124.6999949E-3,119.9999973E-3,
,,,124.7999966E-3,119.9999973E-3,
,,,124.8999983E-3,119.9999973E-3,
,,,124.9999925E-3,119.9999973E-3,
,,,125.1000017E-3,119.9999973E-3,
,,,125.1999885E-3,119.9999973E-3,
,,,125.2999902E-3,119.9999973E-3,
,,,125.3999919E-3,119.9999973E-3,
,,,125.4999936E-3,119.9999973E-3,
,,,125.5999953E-3,119.9999973E-3,
,,,125.6999969E-3,119.9999973E-3,
,,,125.7999986E-3,119.9999973E-3,
,,,125.9000003E-3,119.9999973E-3,
,,,126.0000020E-3,119.9999973E-3,
,,,126.0999888E-3,79.999998212E-3,
,,,126.1999905E-3,39.99999911E-3,
,,,126.2999922E-3,39.99999911E-3,
,,,126.3999939E-3,39.99999911E-3,
,,,126.4999956E-3,79.999998212E-3,
,,,126.5999973E-3,79.999998212E-3,
,,,126.6999990E-3,79.999998212E-3,
,,,126.8000007E-3,79.999998212E-3,
,,,126.9000024E-3,39.99999911E-3,
,,,126.9999892E-3,39.99999911E-3,
,,,127.0999908E-3,79.999998212E-3,
,,,127.1999925E-3,79.999998212E-3,
,,,127.2999942E-3,79.999998212E-3,
,,,127.3999959E-3,79.999998212E-3,
,,,127.4999976E-3,119.9999973E-3,
,,,127.5999993E-3,119.9999973E-3,
,,,127.7000010E-3,119.9999973E-3,
,,,127.8000027E-3,119.9999973E-3,
,,,127.8999895E-3,119.9999973E-3,
,,,127.9999912E-3,119.9999973E-3,
,,,128.0999929E-3,79.999998212E-3,
,,,128.1999946E-3,79.999998212E-3,
,,,128.2999963E-3,119.9999973E-3,
,,,128.3999979E-3,119.9999973E-3,
,,,128.4999996E-3,119.9999973E-3,
,,,128.6000013E-3,119.9999973E-3,
,,,128.6999881E-3,79.999998212E-3,
,,,128.7999898E-3,79.999998212E-3,
,,,128.8999915E-3,79.999998212E-3,
,,,128.9999932E-3,119.9999973E-3,
,,,129.0999949E-3,79.999998212E-3,
,,,129.1999966E-3,79.999998212E-3,
,,,129.2999983E-3,79.999998212E-3,
,,,129.4000000E-3,39.99999911E-3,
,,,129.5000017E-3,39.99999911E-3,
,,,129.5999885E-3,79.999998212E-3,
,,,129.6999902E-3,79.999998212E-3,
,,,129.7999918E-3,119.9999973E-3,
,,,129.8999935E-3,119.9999973E-3,
,,,129.9999952E-3,119.9999973E-3,
,,,130.0999969E-3,119.9999973E-3,
,,,130.1999986E-3,119.9999973E-3,
,,,130.3000003E-3,119.9999973E-3,
,,,130.4000020E-3,159.99999642E-3,
,,,130.4999888E-3,119.9999973E-3,
,,,130.5999905E-3,159.99999642E-3,
,,,130.6999922E-3,119.9999973E-3,
,,,130.7999939E-3,119.9999973E-3,
,,,130.8999956E-3,119.9999973E-3,
,,,130.9999973E-3,159.99999642E-3,
,,,131.0999990E-3,119.9999973E-3,
,,,131.2000006E-3,79.999998212E-3,
,,,131.3000023E-3,119.9999973E-3,
,,,131.3999891E-3,119.9999973E-3,
,,,131.4999908E-3,119.9999973E-3,
,,,131.5999925E-3,119.9999973E-3,
,,,131.6999942E-3,119.9999973E-3,
,,,131.7999959E-3,119.9999973E-3,
,,,131.8999976E-3,119.9999973E-3,
,,,131.9999993E-3,119.9999973E-3,
,,,132.1000010E-3,119.9999973E-3,
,,,132.2000027E-3,119.9999973E-3,
,,,132.2999895E-3,79.999998212E-3,
,,,132.3999912E-3,119.9999973E-3,
,,,132.4999928E-3,119.9999973E-3,
,,,132.5999945E-3,119.9999973E-3,
,,,132.6999962E-3,119.9999973E-3,
,,,132.7999979E-3,119.9999973E-3,
,,,132.8999996E-3,159.99999642E-3,
,,,133.0000013E-3,119.9999973E-3,
,,,133.0999881E-3,119.9999973E-3,
,,,133.1999898E-3,119.9999973E-3,
,,,133.2999915E-3,119.9999973E-3,
,,,133.3999932E-3,119.9999973E-3,
,,,133.4999949E-3,119.9999973E-3,
,,,133.5999966E-3,119.9999973E-3,
,,,133.6999983E-3,119.9999973E-3,
,,,133.8000000E-3,119.9999973E-3,
,,,133.9000016E-3,119.9999973E-3,
,,,133.9999884E-3,119.9999973E-3,
,,,134.0999901E-3,119.9999973E-3,
,,,134.1999918E-3,79.999998212E-3,
,,,134.2999935E-3,79.999998212E-3,
,,,134.3999952E-3,119.9999973E-3,
,,,134.4999969E-3,159.99999642E-3,
,,,134.5999986E-3,119.9999973E-3,
,,,134.7000003E-3,159.99999642E-3,
,,,134.8000020E-3,159.99999642E-3,
,,,134.8999888E-3,119.9999973E-3,
,,,134.9999905E-3,119.9999973E-3,
,,,135.0999922E-3,79.999998212E-3,
,,,135.1999938E-3,119.9999973E-3,
,,,135.2999955E-3,119.9999973E-3,
,,,135.3999972E-3,119.9999973E-3,
,,,135.4999989E-3,119.9999973E-3,
,,,135.6000006E-3,119.9999973E-3,
,,,135.7000023E-3,159.99999642E-3,
,,,135.7999891E-3,119.9999973E-3,
,,,135.8999908E-3,119.9999973E-3,
,,,135.9999925E-3,119.9999973E-3,
,,,136.0999942E-3,119.9999973E-3,
,,,136.1999959E-3,119.9999973E-3,
,,,136.2999976E-3,119.9999973E-3,
,,,136.3999993E-3,119.9999973E-3,
,,,136.5000010E-3,119.9999973E-3,
,,,136.6000026E-3,119.9999973E-3,
,,,136.6999894E-3,119.9999973E-3,
,,,136.7999911E-3,119.9999973E-3,
,,,136.8999928E-3,119.9999973E-3,
,,,136.9999945E-3,119.9999973E-3,
,,,137.0999962E-3,119.9999973E-3,
,,,137.1999979E-3,119.9999973E-3,
,,,137.2999996E-3,119.9999973E-3,
,,,137.4000013E-3,119.9999973E-3,
,,,137.4999881E-3,119.9999973E-3,
,,,137.5999898E-3,119.9999973E-3,
,,,137.6999915E-3,119.9999973E-3,
,,,137.7999932E-3,159.99999642E-3,
,,,137.8999949E-3,119.9999973E-3,
,,,137.9999965E-3,159.99999642E-3,
,,,138.0999982E-3,119.9999973E-3,
,,,138.1999999E-3,119.9999973E-3,
,,,138.3000016E-3,119.9999973E-3,
,,,138.3999884E-3,159.99999642E-3,
,,,138.4999901E-3,119.9999973E-3,
,,,138.5999918E-3,119.9999973E-3,
,,,138.6999935E-3,159.99999642E-3,
,,,138.7999952E-3,119.9999973E-3,
,,,138.8999969E-3,119.9999973E-3,
,,,138.9999986E-3,119.9999973E-3,
,,,139.1000003E-3,119.9999973E-3,
,,,139.2000020E-3,119.9999973E-3,
,,,139.2999887E-3,119.9999973E-3,
,,,139.3999904E-3,119.9999973E-3,
,,,139.4999921E-3,159.99999642E-3,
,,,139.5999938E-3,119.9999973E-3,
,,,139.6999955E-3,119.9999973E-3,
,,,139.7999972E-3,119.9999973E-3,
,,,139.8999989E-3,119.9999973E-3,
,,,140.0000006E-3,119.9999973E-3,
,,,140.1000023E-3,119.9999973E-3,
,,,140.1999891E-3,119.9999973E-3,
,,,140.2999908E-3,119.9999973E-3,
,,,140.3999925E-3,119.9999973E-3,
,,,140.4999942E-3,119.9999973E-3,
,,,140.5999959E-3,119.9999973E-3,
,,,140.6999975E-3,119.9999973E-3,
,,,140.7999992E-3,119.9999973E-3,
,,,140.9000009E-3,119.9999973E-3,
,,,141.0000026E-3,119.9999973E-3,
,,,141.0999894E-3,79.999998212E-3,
,,,141.1999911E-3,119.9999973E-3,
,,,141.2999928E-3,119.9999973E-3,
,,,141.3999945E-3,119.9999973E-3,
,,,141.4999962E-3,119.9999973E-3,
,,,141.5999979E-3,119.9999973E-3,
,,,141.6999996E-3,119.9999973E-3,
,,,141.8000013E-3,119.9999973E-3,
,,,141.8999881E-3,119.9999973E-3,
,,,141.9999897E-3,119.9999973E-3,
,,,142.0999914E-3,159.99999642E-3,
,,,142.1999931E-3,119.9999973E-3,
,,,142.2999948E-3,119.9999973E-3,
,,,142.3999965E-3,119.9999973E-3,
,,,142.4999982E-3,159.99999642E-3,
,,,142.5999999E-3,119.9999973E-3,
,,,142.7000016E-3,119.9999973E-3,
,,,142.7999884E-3,119.9999973E-3,
,,,142.8999901E-3,119.9999973E-3,
,,,142.9999918E-3,159.99999642E-3,
,,,143.0999935E-3,119.9999973E-3,
,,,143.1999952E-3,119.9999973E-3,
,,,143.2999969E-3,119.9999973E-3,
,,,143.3999985E-3,119.9999973E-3,
,,,143.5000002E-3,119.9999973E-3,
,,,143.6000019E-3,119.9999973E-3,
,,,143.6999887E-3,119.9999973E-3,
,,,143.7999904E-3,119.9999973E-3,
,,,143.8999921E-3,119.9999973E-3,
,,,143.9999938E-3,159.99999642E-3,
,,,144.0999955E-3,119.9999973E-3,
,,,144.1999972E-3,119.9999973E-3,
,,,144.2999989E-3,119.9999973E-3,
,,,144.4000006E-3,119.9999973E-3,
,,,144.5000023E-3,119.9999973E-3,
,,,144.5999891E-3,119.9999973E-3,
,,,144.6999907E-3,119.9999973E-3,
,,,144.7999924E-3,119.9999973E-3,
,,,144.8999941E-3,159.99999642E-3,
,,,144.9999958E-3,119.9999973E-3,
,,,145.0999975E-3,119.9999973E-3,
,,,145.1999992E-3,79.999998212E-3,
,,,145.3000009E-3,119.9999973E-3,
,,,145.3999877E-3,119.9999973E-3,
,,,145.4999894E-3,119.9999973E-3,
,,,145.5999911E-3,119.9999973E-3,
,,,145.6999928E-3,159.99999642E-3,
,,,145.7999945E-3,159.99999642E-3,
,,,145.8999962E-3,159.99999642E-3,
,,,145.9999979E-3,159.99999642E-3,
,,,146.0999995E-3,119.9999973E-3,
,,,146.2000012E-3,119.9999973E-3,
,,,146.2999880E-3,119.9999973E-3,
,,,146.3999897E-3,159.99999642E-3,
,,,146.4999914E-3,119.9999973E-3,
,,,146.5999931E-3,119.9999973E-3,
,,,146.6999948E-3,119.9999973E-3,
,,,146.7999965E-3,119.9999973E-3,
,,,146.8999982E-3,159.99999642E-3,
,,,146.9999999E-3,159.99999642E-3,
,,,147.1000016E-3,119.9999973E-3,
,,,147.1999884E-3,119.9999973E-3,
,,,147.2999901E-3,119.9999973E-3,
,,,147.3999918E-3,119.9999973E-3,
,,,147.4999934E-3,119.9999973E-3,
,,,147.5999951E-3,119.9999973E-3,
,,,147.6999968E-3,119.9999973E-3,
,,,147.7999985E-3,119.9999973E-3,
,,,147.9000002E-3,119.9999973E-3,
,,,148.0000019E-3,119.9999973E-3,
,,,148.0999887E-3,159.99999642E-3,
,,,148.1999904E-3,159.99999642E-3,
,,,148.2999921E-3,119.9999973E-3,
,,,148.3999938E-3,159.99999642E-3,
,,,148.49999547E-3,119.9999973E-3,
,,,148.59999716E-3,119.9999973E-3,
,,,148.69999886E-3,119.9999973E-3,
,,,148.80000055E-3,119.9999973E-3,
,,,148.90000224E-3,159.99999642E-3,
,,,148.99998903E-3,119.9999973E-3,
,,,149.09999073E-3,119.9999973E-3,
,,,149.19999242E-3,119.9999973E-3,
,,,149.29999411E-3,119.9999973E-3,
,,,149.39999580E-3,119.9999973E-3,
,,,149.49999750E-3,119.9999973E-3,
,,,149.59999919E-3,159.99999642E-3,
,,,149.70000088E-3,119.9999973E-3,
,,,149.79998767E-3,119.9999973E-3,
,,,149.89998937E-3,119.9999973E-3,
,,,149.99999106E-3,119.9999973E-3,
,,,150.09999275E-3,79.999998212E-3,
,,,150.19999444E-3,119.9999973E-3,
,,,150.29999614E-3,119.9999973E-3,
,,,150.39999783E-3,119.9999973E-3,
,,,150.49999952E-3,119.9999973E-3,
,,,150.60000122E-3,119.9999973E-3,
,,,150.69998801E-3,159.99999642E-3,
,,,150.79998970E-3,119.9999973E-3,
,,,150.89999139E-3,159.99999642E-3,
,,,150.99999309E-3,119.9999973E-3,
,,,151.09999478E-3,119.9999973E-3,
,,,151.19999647E-3,119.9999973E-3,
,,,151.29999816E-3,119.9999973E-3,
,,,151.39999986E-3,119.9999973E-3,
,,,151.50000155E-3,79.999998212E-3,
,,,151.59998834E-3,119.9999973E-3,
,,,151.69999003E-3,159.99999642E-3,
,,,151.79999173E-3,119.9999973E-3,
,,,151.89999342E-3,119.9999973E-3,
,,,151.99999511E-3,119.9999973E-3,
,,,152.09999681E-3,79.999998212E-3,
,,,152.19999850E-3,119.9999973E-3,
,,,152.30000019E-3,119.9999973E-3,
,,,152.40000188E-3,159.99999642E-3,
,,,152.49998868E-3,159.99999642E-3,
,,,152.59999037E-3,159.99999642E-3,
,,,152.69999206E-3,159.99999642E-3,
,,,152.79999375E-3,159.99999642E-3,
,,,152.89999545E-3,159.99999642E-3,
,,,152.99999714E-3,199.99998808E-3,
,,,153.09999883E-3,199.99998808E-3,
,,,153.20000052E-3,199.99998808E-3,
,,,153.30000222E-3,199.99998808E-3,
,,,153.39998901E-3,199.99998808E-3,
,,,153.49999070E-3,239.99999464E-3,
,,,153.59999239E-3,239.99999464E-3,
,,,153.69999409E-3,239.99999464E-3,
,,,153.79999578E-3,280.00000119E-3,
,,,153.89999747E-3,319.99999285E-3,
,,,153.99999917E-3,359.99998450E-3,
,,,154.10000086E-3,359.99998450E-3,
,,,154.19998765E-3,399.99997616E-3,
,,,154.29998934E-3,399.99997616E-3,
,,,154.39999104E-3,479.999989271E-3,
,,,154.49999273E-3,479.999989271E-3,
,,,154.59999442E-3,519.999980927E-3,
,,,154.69999611E-3,560.000002384E-3,
,,,154.79999781E-3,599.999964237E-3,
,,,154.89999950E-3,599.999964237E-3,
,,,155.00000119E-3,639.999985695E-3,
,,,155.09998798E-3,680.000007153E-3,
,,,155.19998968E-3,680.000007153E-3,
,,,155.29999137E-3,719.999969006E-3,
,,,155.39999306E-3,719.999969006E-3,
,,,155.49999475E-3,759.999990463E-3,
,,,155.59999645E-3,799.999952316E-3,
,,,155.69999814E-3,759.999990463E-3,
,,,155.79999983E-3,759.999990463E-3,
,,,155.90000153E-3,799.999952316E-3,
,,,155.99998832E-3,799.999952316E-3,
,,,156.09999001E-3,799.999952316E-3,
,,,156.19999170E-3,799.999952316E-3,
,,,156.29999340E-3,799.999952316E-3,
,,,156.39999509E-3,759.999990463E-3,
,,,156.49999678E-3,759.999990463E-3,
,,,156.59999847E-3,719.999969006E-3,
,,,156.70000017E-3,719.999969006E-3,
,,,156.80000186E-3,719.999969006E-3,
,,,156.89998865E-3,719.999969006E-3,
,,,156.99999034E-3,639.999985695E-3,
,,,157.09999204E-3,639.999985695E-3,
,,,157.19999373E-3,599.999964237E-3,
,,,157.29999542E-3,599.999964237E-3,
,,,157.39999712E-3,560.000002384E-3,
,,,157.49999881E-3,519.999980927E-3,
,,,157.60000050E-3,479.999989271E-3,
,,,157.70000219E-3,439.999997616E-3,
,,,157.79998899E-3,439.999997616E-3,
,,,157.89999068E-3,319.99999285E-3,
,,,157.99999237E-3,359.99998450E-3,
,,,158.09999406E-3,319.99999285E-3,
,,,158.19999576E-3,280.00000119E-3,
,,,158.29999745E-3,280.00000119E-3,
,,,158.39999914E-3,239.99999464E-3,
,,,158.50000083E-3,239.99999464E-3,
,,,158.59998763E-3,199.99998808E-3,
,,,158.69998932E-3,239.99999464E-3,
,,,158.79999101E-3,199.99998808E-3,
,,,158.89999270E-3,199.99998808E-3,
,,,158.99999440E-3,199.99998808E-3,
,,,159.09999609E-3,159.99999642E-3,
,,,159.19999778E-3,159.99999642E-3,
,,,159.29999948E-3,119.9999973E-3,
,,,159.40000117E-3,159.99999642E-3,
,,,159.49998796E-3,159.99999642E-3,
,,,159.59998965E-3,119.9999973E-3,
,,,159.69999135E-3,119.9999973E-3,
,,,159.79999304E-3,119.9999973E-3,
,,,159.89999473E-3,119.9999973E-3,
,,,159.99999642E-3,119.9999973E-3,
,,,160.09999812E-3,119.9999973E-3,
,,,160.19999981E-3,119.9999973E-3,
,,,160.30000150E-3,159.99999642E-3,
,,,160.39998829E-3,119.9999973E-3,
,,,160.49998999E-3,119.9999973E-3,
,,,160.59999168E-3,159.99999642E-3,
,,,160.69999337E-3,119.9999973E-3,
,,,160.79999506E-3,119.9999973E-3,
,,,160.89999676E-3,119.9999973E-3,
,,,160.99999845E-3,119.9999973E-3,
,,,161.10000014E-3,119.9999973E-3,
,,,161.20000184E-3,119.9999973E-3,
,,,161.29998863E-3,119.9999973E-3,
,,,161.39999032E-3,119.9999973E-3,
,,,161.49999201E-3,119.9999973E-3,
,,,161.59999371E-3,119.9999973E-3,
,,,161.69999540E-3,159.99999642E-3,
,,,161.79999709E-3,119.9999973E-3,
,,,161.89999878E-3,119.9999973E-3,
,,,162.00000048E-3,119.9999973E-3,
,,,162.09998727E-3,119.9999973E-3,
,,,162.19998896E-3,79.999998212E-3,
,,,162.29999065E-3,119.9999973E-3,
,,,162.39999235E-3,119.9999973E-3,
,,,162.49999404E-3,119.9999973E-3,
,,,162.59999573E-3,119.9999973E-3,
,,,162.69999743E-3,119.9999973E-3,
,,,162.79999912E-3,119.9999973E-3,
,,,162.90000081E-3,119.9999973E-3,
,,,162.99998760E-3,119.9999973E-3,
,,,163.09998930E-3,119.9999973E-3,
,,,163.19999099E-3,119.9999973E-3,
,,,163.29999268E-3,119.9999973E-3,
,,,163.39999437E-3,119.9999973E-3,
,,,163.49999607E-3,119.9999973E-3,
,,,163.59999776E-3,119.9999973E-3,
,,,163.69999945E-3,159.99999642E-3,
,,,163.80000114E-3,119.9999973E-3,
,,,163.89998794E-3,119.9999973E-3,
,,,163.99998963E-3,119.9999973E-3,
,,,164.09999132E-3,119.9999973E-3,
,,,164.19999301E-3,119.9999973E-3,
,,,164.29999471E-3,119.9999973E-3,
,,,164.39999640E-3,159.99999642E-3,
,,,164.49999809E-3,119.9999973E-3,
,,,164.59999979E-3,119.9999973E-3,
,,,164.70000148E-3,159.99999642E-3,
,,,164.79998827E-3,119.9999973E-3,
,,,164.89998996E-3,119.9999973E-3,
,,,164.99999166E-3,119.9999973E-3,
,,,165.09999335E-3,119.9999973E-3,
,,,165.19999504E-3,119.9999973E-3,
,,,165.29999673E-3,119.9999973E-3,
,,,165.39999843E-3,159.99999642E-3,
,,,165.50000012E-3,119.9999973E-3,
,,,165.60000181E-3,119.9999973E-3,
,,,165.69998860E-3,159.99999642E-3,
,,,165.79999030E-3,159.99999642E-3,
,,,165.89999199E-3,119.9999973E-3,
,,,165.99999368E-3,119.9999973E-3,
,,,166.09999537E-3,79.999998212E-3,
,,,166.19999707E-3,119.9999973E-3,
,,,166.29999876E-3,119.9999973E-3,
,,,166.40000045E-3,119.9999973E-3,
,,,166.49998724E-3,119.9999973E-3,
,,,166.59998894E-3,119.9999973E-3,
,,,166.69999063E-3,119.9999973E-3,
,,,166.79999232E-3,119.9999973E-3,
,,,166.89999402E-3,159.99999642E-3,
,,,166.99999571E-3,119.9999973E-3,
,,,167.09999740E-3,119.9999973E-3,
,,,167.19999909E-3,119.9999973E-3,
,,,167.30000079E-3,119.9999973E-3,
,,,167.39998758E-3,119.9999973E-3,
,,,167.49998927E-3,119.9999973E-3,
,,,167.59999096E-3,119.9999973E-3,
,,,167.69999266E-3,159.99999642E-3,
,,,167.79999435E-3,119.9999973E-3,
,,,167.89999604E-3,119.9999973E-3,
,,,167.99999774E-3,159.99999642E-3,
,,,168.09999943E-3,119.9999973E-3,
,,,168.20000112E-3,79.999998212E-3,
,,,168.29998791E-3,119.9999973E-3,
,,,168.39998960E-3,119.9999973E-3,
,,,168.49999130E-3,119.9999973E-3,
,,,168.59999299E-3,119.9999973E-3,
,,,168.69999468E-3,119.9999973E-3,
,,,168.79999638E-3,119.9999973E-3,
,,,168.89999807E-3,119.9999973E-3,
,,,168.99999976E-3,119.9999973E-3,
,,,169.10000145E-3,119.9999973E-3,
,,,169.19998825E-3,119.9999973E-3,
,,,169.29998994E-3,119.9999973E-3,
,,,169.39999163E-3,119.9999973E-3,
,,,169.49999332E-3,119.9999973E-3,
,,,169.59999502E-3,119.9999973E-3,
,,,169.69999671E-3,119.9999973E-3,
,,,169.79999840E-3,119.9999973E-3,
,,,169.90000010E-3,119.9999973E-3,
,,,170.00000179E-3,119.9999973E-3,
,,,170.09998858E-3,119.9999973E-3,
,,,170.19999027E-3,119.9999973E-3,
,,,170.29999197E-3,119.9999973E-3,
,,,170.39999366E-3,119.9999973E-3,
,,,170.49999535E-3,119.9999973E-3,
,,,170.59999704E-3,159.99999642E-3,
,,,170.69999874E-3,119.9999973E-3,
,,,170.80000043E-3,119.9999973E-3,
,,,170.89998722E-3,119.9999973E-3,
,,,170.99998891E-3,119.9999973E-3,
,,,171.09999061E-3,119.9999973E-3,
,,,171.19999230E-3,119.9999973E-3,
,,,171.29999399E-3,119.9999973E-3,
,,,171.39999568E-3,119.9999973E-3,
,,,171.49999738E-3,119.9999973E-3,
,,,171.59999907E-3,119.9999973E-3,
,,,171.70000076E-3,119.9999973E-3,
,,,171.79998755E-3,119.9999973E-3,
,,,171.89998925E-3,119.9999973E-3,
,,,171.99999094E-3,119.9999973E-3,
,,,172.09999263E-3,119.9999973E-3,
,,,172.19999433E-3,119.9999973E-3,
,,,172.29999602E-3,119.9999973E-3,
,,,172.39999771E-3,119.9999973E-3,
,,,172.49999940E-3,119.9999973E-3,
,,,172.60000110E-3,119.9999973E-3,
,,,172.69998789E-3,119.9999973E-3,
,,,172.79998958E-3,119.9999973E-3,
,,,172.89999127E-3,119.9999973E-3,
,,,172.99999297E-3,119.9999973E-3,
,,,173.09999466E-3,119.9999973E-3,
,,,173.19999635E-3,119.9999973E-3,
,,,173.29999804E-3,119.9999973E-3,
,,,173.39999974E-3,119.9999973E-3,
,,,173.50000143E-3,119.9999973E-3,
,,,173.59998822E-3,119.9999973E-3,
,,,173.69998991E-3,119.9999973E-3,
,,,173.79999161E-3,119.9999973E-3,
,,,173.89999330E-3,119.9999973E-3,
,,,173.99999499E-3,119.9999973E-3,
,,,174.09999669E-3,119.9999973E-3,
,,,174.19999838E-3,119.9999973E-3,
,,,174.30000007E-3,119.9999973E-3,
,,,174.40000176E-3,119.9999973E-3,
,,,174.49998856E-3,119.9999973E-3,
,,,174.59999025E-3,119.9999973E-3,
,,,174.69999194E-3,119.9999973E-3,
,,,174.79999363E-3,119.9999973E-3,
,,,174.89999533E-3,119.9999973E-3,
,,,174.99999702E-3,119.9999973E-3,
,,,175.09999871E-3,119.9999973E-3,
,,,175.20000041E-3,119.9999973E-3,
,,,175.29998720E-3,119.9999973E-3,
,,,175.39998889E-3,119.9999973E-3,
,,,175.49999058E-3,119.9999973E-3,
,,,175.59999228E-3,119.9999973E-3,
,,,175.69999397E-3,119.9999973E-3,
,,,175.79999566E-3,119.9999973E-3,
,,,175.89999735E-3,119.9999973E-3,
,,,175.99999905E-3,119.9999973E-3,
,,,176.10000074E-3,159.99999642E-3,
,,,176.19998753E-3,119.9999973E-3,
,,,176.29998922E-3,119.9999973E-3,
,,,176.39999092E-3,119.9999973E-3,
,,,176.49999261E-3,119.9999973E-3,
,,,176.59999430E-3,119.9999973E-3,
,,,176.69999599E-3,159.99999642E-3,
,,,176.79999769E-3,119.9999973E-3,
,,,176.89999938E-3,119.9999973E-3,
,,,177.00000107E-3,119.9999973E-3,
,,,177.09998786E-3,119.9999973E-3,
,,,177.19998956E-3,119.9999973E-3,
,,,177.29999125E-3,119.9999973E-3,
,,,177.39999294E-3,119.9999973E-3,
,,,177.49999464E-3,119.9999973E-3,
,,,177.59999633E-3,159.99999642E-3,
,,,177.69999802E-3,119.9999973E-3,
,,,177.79999971E-3,159.99999642E-3,
,,,177.90000141E-3,119.9999973E-3,
,,,177.99998820E-3,119.9999973E-3,
,,,178.09998989E-3,119.9999973E-3,
,,,178.19999158E-3,119.9999973E-3,
,,,178.29999328E-3,119.9999973E-3,
,,,178.39999497E-3,119.9999973E-3,
,,,178.49999666E-3,119.9999973E-3,
,,,178.59999835E-3,79.999998212E-3,
,,,178.70000005E-3,119.9999973E-3,
,,,178.79998684E-3,119.9999973E-3,
,,,178.89998853E-3,119.9999973E-3,
,,,178.99999022E-3,119.9999973E-3,
,,,179.09999192E-3,79.999998212E-3,
,,,179.19999361E-3,79.999998212E-3,
,,,179.29999530E-3,119.9999973E-3,
,,,179.39999700E-3,79.999998212E-3,
,,,179.49999869E-3,119.9999973E-3,
,,,179.60000038E-3,159.99999642E-3,
,,,179.69998717E-3,119.9999973E-3,
,,,179.79998887E-3,119.9999973E-3,
,,,179.89999056E-3,119.9999973E-3,
,,,179.99999225E-3,119.9999973E-3,
,,,180.09999394E-3,119.9999973E-3,
,,,180.19999564E-3,119.9999973E-3,
,,,180.29999733E-3,119.9999973E-3,
,,,180.39999902E-3,119.9999973E-3,
,,,180.50000072E-3,119.9999973E-3,
,,,180.59998751E-3,119.9999973E-3,
,,,180.69998920E-3,119.9999973E-3,
,,,180.79999089E-3,119.9999973E-3,
,,,180.89999259E-3,159.99999642E-3,
,,,180.99999428E-3,159.99999642E-3,
,,,181.09999597E-3,119.9999973E-3,
,,,181.19999766E-3,119.9999973E-3,
,,,181.29999936E-3,119.9999973E-3,
,,,181.40000105E-3,119.9999973E-3,
,,,181.49998784E-3,119.9999973E-3,
,,,181.59998953E-3,119.9999973E-3,
,,,181.69999123E-3,119.9999973E-3,
,,,181.79999292E-3,119.9999973E-3,
,,,181.89999461E-3,119.9999973E-3,
,,,181.99999630E-3,119.9999973E-3,
,,,182.09999800E-3,119.9999973E-3,
,,,182.19999969E-3,119.9999973E-3,
,,,182.30000138E-3,119.9999973E-3,
,,,182.39998817E-3,119.9999973E-3,
,,,182.49998987E-3,119.9999973E-3,
,,,182.59999156E-3,119.9999973E-3,
,,,182.69999325E-3,119.9999973E-3,
,,,182.79999495E-3,119.9999973E-3,
,,,182.89999664E-3,119.9999973E-3,
,,,182.99999833E-3,119.9999973E-3,
,,,183.10000002E-3,79.999998212E-3,
,,,183.19998682E-3,119.9999973E-3,
,,,183.29998851E-3,119.9999973E-3,
,,,183.39999020E-3,119.9999973E-3,
,,,183.49999189E-3,119.9999973E-3,
,,,183.59999359E-3,119.9999973E-3,
,,,183.69999528E-3,119.9999973E-3,
,,,183.79999697E-3,119.9999973E-3,
,,,183.89999866E-3,119.9999973E-3,
,,,184.00000036E-3,159.99999642E-3,
,,,184.09998715E-3,119.9999973E-3,
,,,184.19998884E-3,119.9999973E-3,
,,,184.29999053E-3,119.9999973E-3,
,,,184.39999223E-3,119.9999973E-3,
,,,184.49999392E-3,119.9999973E-3,
,,,184.59999561E-3,119.9999973E-3,
,,,184.69999731E-3,119.9999973E-3,
,,,184.79999900E-3,119.9999973E-3,
,,,184.90000069E-3,119.9999973E-3,
,,,184.99998748E-3,119.9999973E-3,
,,,185.09998918E-3,119.9999973E-3,
,,,185.19999087E-3,119.9999973E-3,
,,,185.29999256E-3,119.9999973E-3,
,,,185.39999425E-3,119.9999973E-3,
,,,185.49999595E-3,119.9999973E-3,
,,,185.59999764E-3,119.9999973E-3,
,,,185.69999933E-3,119.9999973E-3,
,,,185.80000103E-3,119.9999973E-3,
,,,185.89998782E-3,159.99999642E-3,
,,,185.99998951E-3,159.99999642E-3,
,,,186.09999120E-3,119.9999973E-3,
,,,186.19999290E-3,79.999998212E-3,
,,,186.29999459E-3,119.9999973E-3,
,,,186.39999628E-3,119.9999973E-3,
,,,186.49999797E-3,119.9999973E-3,
,,,186.59999967E-3,119.9999973E-3,
,,,186.70000136E-3,119.9999973E-3,
,,,186.79998815E-3,119.9999973E-3,
,,,186.89998984E-3,119.9999973E-3,
,,,186.99999154E-3,119.9999973E-3,
,,,187.09999323E-3,119.9999973E-3,
,,,187.19999492E-3,119.9999973E-3,
,,,187.29999661E-3,159.99999642E-3,
,,,187.39999831E-3,119.9999973E-3,
,,,187.50000000E-3,119.9999973E-3,
,,,187.59998679E-3,119.9999973E-3,
,,,187.69998848E-3,119.9999973E-3,
,,,187.79999018E-3,119.9999973E-3,
,,,187.89999187E-3,119.9999973E-3,
,,,187.99999356E-3,119.9999973E-3,
,,,188.09999526E-3,119.9999973E-3,
,,,188.19999695E-3,119.9999973E-3,
,,,188.29999864E-3,119.9999973E-3,
,,,188.40000033E-3,119.9999973E-3,
,,,188.49998713E-3,119.9999973E-3,
,,,188.59998882E-3,119.9999973E-3,
,,,188.69999051E-3,119.9999973E-3,
,,,188.79999220E-3,119.9999973E-3,
,,,188.89999390E-3,119.9999973E-3,
,,,188.99999559E-3,159.99999642E-3,
,,,189.09999728E-3,119.9999973E-3,
,,,189.19999897E-3,119.9999973E-3,
,,,189.30000067E-3,119.9999973E-3,
,,,189.39998746E-3,119.9999973E-3,
,,,189.49998915E-3,119.9999973E-3,
,,,189.59999084E-3,159.99999642E-3,
,,,189.69999254E-3,159.99999642E-3,
,,,189.79999423E-3,119.9999973E-3,
,,,189.89999592E-3,159.99999642E-3,
,,,189.99999762E-3,119.9999973E-3,
,,,190.09999931E-3,119.9999973E-3,
,,,190.20000100E-3,119.9999973E-3,
,,,190.29998779E-3,119.9999973E-3,
,,,190.39998949E-3,119.9999973E-3,
,,,190.49999118E-3,119.9999973E-3,
,,,190.59999287E-3,119.9999973E-3,
,,,190.69999456E-3,119.9999973E-3,
,,,190.79999626E-3,159.99999642E-3,
,,,190.89999795E-3,119.9999973E-3,
,,,190.99999964E-3,79.999998212E-3,
,,,191.10000134E-3,119.9999973E-3,
,,,191.19998813E-3,79.999998212E-3,
,,,191.29998982E-3,119.9999973E-3,
,,,191.39999151E-3,119.9999973E-3,
,,,191.49999321E-3,119.9999973E-3,
,,,191.59999490E-3,119.9999973E-3,
,,,191.69999659E-3,119.9999973E-3,
,,,191.79999828E-3,119.9999973E-3,
,,,191.89999998E-3,119.9999973E-3,
,,,191.99998677E-3,159.99999642E-3,
,,,192.09998846E-3,119.9999973E-3,
,,,192.19999015E-3,119.9999973E-3,
,,,192.29999185E-3,119.9999973E-3,
,,,192.39999354E-3,79.999998212E-3,
,,,192.49999523E-3,119.9999973E-3,
,,,192.59999692E-3,119.9999973E-3,
,,,192.69999862E-3,159.99999642E-3,
,,,192.80000031E-3,119.9999973E-3,
,,,192.89998710E-3,119.9999973E-3,
,,,192.99998879E-3,119.9999973E-3,
,,,193.09999049E-3,119.9999973E-3,
,,,193.19999218E-3,119.9999973E-3,
,,,193.29999387E-3,119.9999973E-3,
,,,193.39999557E-3,119.9999973E-3,
,,,193.49999726E-3,159.99999642E-3,
,,,193.59999895E-3,119.9999973E-3,
,,,193.70000064E-3,119.9999973E-3,
,,,193.79998744E-3,159.99999642E-3,
,,,193.89998913E-3,119.9999973E-3,
,,,193.99999082E-3,119.9999973E-3,
,,,194.09999251E-3,119.9999973E-3,
,,,194.19999421E-3,119.9999973E-3,
,,,194.29999590E-3,119.9999973E-3,
,,,194.39999759E-3,159.99999642E-3,
,,,194.49999928E-3,119.9999973E-3,
,,,194.60000098E-3,119.9999973E-3,
,,,194.69998777E-3,119.9999973E-3,
,,,194.79998946E-3,119.9999973E-3,
,,,194.89999115E-3,119.9999973E-3,
,,,194.99999285E-3,119.9999973E-3,
,,,195.09999454E-3,119.9999973E-3,
,,,195.19999623E-3,119.9999973E-3,
,,,195.29999793E-3,119.9999973E-3,
,,,195.39999962E-3,159.99999642E-3,
,,,195.50000131E-3,119.9999973E-3,
,,,195.59998810E-3,119.9999973E-3,
,,,195.69998980E-3,119.9999973E-3,
,,,195.79999149E-3,119.9999973E-3,
,,,195.89999318E-3,119.9999973E-3,
,,,195.99999487E-3,119.9999973E-3,
,,,196.09999657E-3,119.9999973E-3,
,,,196.19999826E-3,119.9999973E-3,
,,,196.29999995E-3,119.9999973E-3,
,,,196.39998674E-3,119.9999973E-3,
,,,196.49998844E-3,119.9999973E-3,
,,,196.59999013E-3,119.9999973E-3,
,,,196.69999182E-3,119.9999973E-3,
,,,196.79999352E-3,119.9999973E-3,
,,,196.89999521E-3,119.9999973E-3,
,,,196.99999690E-3,119.9999973E-3,
,,,197.09999859E-3,119.9999973E-3,
,,,197.20000029E-3,119.9999973E-3,
,,,197.29998708E-3,119.9999973E-3,
,,,197.39998877E-3,119.9999973E-3,
,,,197.49999046E-3,159.99999642E-3,
,,,197.59999216E-3,119.9999973E-3,
,,,197.69999385E-3,159.99999642E-3,
,,,197.79999554E-3,119.9999973E-3,
,,,197.89999723E-3,119.9999973E-3,
,,,197.99999893E-3,119.9999973E-3,
,,,198.10000062E-3,119.9999973E-3,
,,,198.19998741E-3,119.9999973E-3,
,,,198.29998910E-3,119.9999973E-3,
,,,198.39999080E-3,119.9999973E-3,
,,,198.49999249E-3,119.9999973E-3,
,,,198.59999418E-3,119.9999973E-3,
,,,198.69999588E-3,119.9999973E-3,
,,,198.79999757E-3,119.9999973E-3,
,,,198.89999926E-3,119.9999973E-3,
,,,199.00000095E-3,119.9999973E-3,
,,,199.09998775E-3,119.9999973E-3,
,,,199.19998944E-3,119.9999973E-3,
,,,199.29999113E-3,119.9999973E-3,
,,,199.39999282E-3,119.9999973E-3,
,,,199.49999452E-3,119.9999973E-3,
,,,199.59999621E-3,119.9999973E-3,
,,,199.69999790E-3,119.9999973E-3,
,,,199.79999959E-3,119.9999973E-3,
,,,199.89998639E-3,119.9999973E-3,
,,,199.99998808E-3,119.9999973E-3,
,,,200.09998977E-3,119.9999973E-3,
,,,200.19999146E-3,119.9999973E-3,
,,,200.29999316E-3,159.99999642E-3,
,,,200.39999485E-3,119.9999973E-3,
,,,200.49999654E-3,119.9999973E-3,
,,,200.59999824E-3,119.9999973E-3,
,,,200.69999993E-3,119.9999973E-3,
,,,200.79998672E-3,119.9999973E-3,
,,,200.89998841E-3,119.9999973E-3,
,,,200.99999011E-3,119.9999973E-3,
,,,201.09999180E-3,119.9999973E-3,
,,,201.19999349E-3,79.999998212E-3,
,,,201.29999518E-3,119.9999973E-3,
,,,201.39999688E-3,119.9999973E-3,
,,,201.49999857E-3,119.9999973E-3,
,,,201.60000026E-3,119.9999973E-3,
,,,201.69998705E-3,119.9999973E-3,
,,,201.79998875E-3,119.9999973E-3,
,,,201.89999044E-3,119.9999973E-3,
,,,201.99999213E-3,119.9999973E-3,
,,,202.09999382E-3,119.9999973E-3,
,,,202.19999552E-3,119.9999973E-3,
,,,202.29999721E-3,119.9999973E-3,
,,,202.39999890E-3,119.9999973E-3,
,,,202.50000060E-3,119.9999973E-3,
,,,202.59998739E-3,119.9999973E-3,
,,,202.69998908E-3,119.9999973E-3,
,,,202.79999077E-3,119.9999973E-3,
,,,202.89999247E-3,159.99999642E-3,
,,,202.99999416E-3,119.9999973E-3,
,,,203.09999585E-3,119.9999973E-3,
,,,203.19999754E-3,119.9999973E-3,
,,,203.29999924E-3,119.9999973E-3,
,,,203.40000093E-3,119.9999973E-3,
,,,203.49998772E-3,119.9999973E-3,
,,,203.59998941E-3,159.99999642E-3,
,,,203.69999111E-3,119.9999973E-3,
,,,203.79999280E-3,119.9999973E-3,
,,,203.89999449E-3,119.9999973E-3,
,,,203.99999619E-3,119.9999973E-3,
,,,204.09999788E-3,79.999998212E-3,
,,,204.19999957E-3,119.9999973E-3,
,,,204.29998636E-3,119.9999973E-3,
,,,204.39998806E-3,119.9999973E-3,
,,,204.49998975E-3,119.9999973E-3,
,,,204.59999144E-3,119.9999973E-3,
,,,204.69999313E-3,119.9999973E-3,
,,,204.79999483E-3,119.9999973E-3,
,,,204.89999652E-3,119.9999973E-3,
,,,204.99999821E-3,119.9999973E-3,
,,,205.09999990E-3,79.999998212E-3,
,,,205.19998670E-3,119.9999973E-3,
,,,205.29998839E-3,119.9999973E-3,
,,,205.39999008E-3,119.9999973E-3,
,,,205.49999177E-3,119.9999973E-3,
,,,205.59999347E-3,119.9999973E-3,
,,,205.69999516E-3,159.99999642E-3,
,,,205.79999685E-3,119.9999973E-3,
,,,205.89999855E-3,119.9999973E-3,
,,,206.00000024E-3,119.9999973E-3,
,,,206.09998703E-3,79.999998212E-3,
,,,206.19998872E-3,119.9999973E-3,
,,,206.29999042E-3,119.9999973E-3,
,,,206.39999211E-3,119.9999973E-3,
,,,206.49999380E-3,119.9999973E-3,
,,,206.59999549E-3,119.9999973E-3,
,,,206.69999719E-3,119.9999973E-3,
,,,206.79999888E-3,119.9999973E-3,
,,,206.90000057E-3,119.9999973E-3,
,,,206.99998736E-3,119.9999973E-3,
,,,207.09998906E-3,79.999998212E-3,
,,,207.19999075E-3,119.9999973E-3,
,,,207.29999244E-3,119.9999973E-3,
,,,207.39999413E-3,119.9999973E-3,
,,,207.49999583E-3,159.99999642E-3,
,,,207.59999752E-3,119.9999973E-3,
,,,207.69999921E-3,119.9999973E-3,
,,,207.80000091E-3,119.9999973E-3,
,,,207.89998770E-3,119.9999973E-3,
,,,207.99998939E-3,119.9999973E-3,
,,,208.09999108E-3,119.9999973E-3,
,,,208.19999278E-3,119.9999973E-3,
,,,208.29999447E-3,119.9999973E-3,
,,,208.39999616E-3,119.9999973E-3,
,,,208.49999785E-3,119.9999973E-3,
,,,208.59999955E-3,119.9999973E-3,
,,,208.69998634E-3,119.9999973E-3,
,,,208.79998803E-3,159.99999642E-3,
,,,208.89998972E-3,119.9999973E-3,
,,,208.99999142E-3,119.9999973E-3,
,,,209.09999311E-3,119.9999973E-3,
,,,209.19999480E-3,79.999998212E-3,
,,,209.29999650E-3,119.9999973E-3,
,,,209.39999819E-3,119.9999973E-3,
,,,209.49999988E-3,119.9999973E-3,
,,,209.59998667E-3,119.9999973E-3,
,,,209.69998837E-3,119.9999973E-3,
,,,209.79999006E-3,119.9999973E-3,
,,,209.89999175E-3,119.9999973E-3,
,,,209.99999344E-3,119.9999973E-3,
,,,210.09999514E-3,119.9999973E-3,
,,,210.19999683E-3,119.9999973E-3,
,,,210.29999852E-3,119.9999973E-3,
,,,210.40000021E-3,119.9999973E-3,
,,,210.49998701E-3,119.9999973E-3,
,,,210.59998870E-3,119.9999973E-3,
,,,210.69999039E-3,119.9999973E-3,
,,,210.79999208E-3,119.9999973E-3,
,,,210.89999378E-3,119.9999973E-3,
,,,210.99999547E-3,159.99999642E-3,
,,,211.09999716E-3,119.9999973E-3,
,,,211.19999886E-3,79.999998212E-3,
,,,211.30000055E-3,119.9999973E-3,
,,,211.39998734E-3,119.9999973E-3,
,,,211.49998903E-3,119.9999973E-3,
,,,211.59999073E-3,119.9999973E-3,
,,,211.69999242E-3,119.9999973E-3,
,,,211.79999411E-3,159.99999642E-3,
,,,211.89999580E-3,119.9999973E-3,
,,,211.99999750E-3,119.9999973E-3,
,,,212.09999919E-3,119.9999973E-3,
,,,212.20000088E-3,119.9999973E-3,
,,,212.29998767E-3,119.9999973E-3,
,,,212.39998937E-3,159.99999642E-3,
,,,212.49999106E-3,119.9999973E-3,
,,,212.59999275E-3,119.9999973E-3,
,,,212.69999444E-3,159.99999642E-3,
,,,212.79999614E-3,119.9999973E-3,
,,,212.89999783E-3,119.9999973E-3,
,,,212.99999952E-3,159.99999642E-3,
,,,213.09998631E-3,119.9999973E-3,
,,,213.19998801E-3,119.9999973E-3,
,,,213.29998970E-3,159.99999642E-3,
,,,213.39999139E-3,159.99999642E-3,
,,,213.49999309E-3,159.99999642E-3,
,,,213.59999478E-3,159.99999642E-3,
,,,213.69999647E-3,159.99999642E-3,
,,,213.79999816E-3,159.99999642E-3,
,,,213.89999986E-3,119.9999973E-3,
,,,213.99998665E-3,119.9999973E-3,
,,,214.09998834E-3,119.9999973E-3,
,,,214.19999003E-3,119.9999973E-3,
,,,214.29999173E-3,119.9999973E-3,
,,,214.39999342E-3,159.99999642E-3,
,,,214.49999511E-3,119.9999973E-3,
,,,214.59999681E-3,119.9999973E-3,
,,,214.69999850E-3,119.9999973E-3,
,,,214.80000019E-3,119.9999973E-3,
,,,214.89998698E-3,119.9999973E-3,
,,,214.99998868E-3,119.9999973E-3,
,,,215.09999037E-3,119.9999973E-3,
,,,215.19999206E-3,119.9999973E-3,
,,,215.29999375E-3,119.9999973E-3,
,,,215.39999545E-3,159.99999642E-3,
,,,215.49999714E-3,119.9999973E-3,
,,,215.59999883E-3,119.9999973E-3,
,,,215.70000052E-3,119.9999973E-3,
,,,215.79998732E-3,119.9999973E-3,
,,,215.89998901E-3,119.9999973E-3,
,,,215.99999070E-3,119.9999973E-3,
,,,216.09999239E-3,79.999998212E-3,
,,,216.19999409E-3,119.9999973E-3,
,,,216.29999578E-3,119.9999973E-3,
,,,216.39999747E-3,119.9999973E-3,
,,,216.49999917E-3,119.9999973E-3,
,,,216.59998596E-3,119.9999973E-3,
,,,216.69998765E-3,119.9999973E-3,
,,,216.79998934E-3,119.9999973E-3,
,,,216.89999104E-3,119.9999973E-3,
,,,216.99999273E-3,119.9999973E-3,
,,,217.09999442E-3,119.9999973E-3,
,,,217.19999611E-3,119.9999973E-3,
,,,217.29999781E-3,119.9999973E-3,
,,,217.39999950E-3,119.9999973E-3,
,,,217.49998629E-3,119.9999973E-3,
,,,217.59998798E-3,119.9999973E-3,
,,,217.69998968E-3,119.9999973E-3,
,,,217.79999137E-3,159.99999642E-3,
,,,217.89999306E-3,119.9999973E-3,
,,,217.99999475E-3,159.99999642E-3,
,,,218.09999645E-3,119.9999973E-3,
,,,218.19999814E-3,119.9999973E-3,
,,,218.29999983E-3,119.9999973E-3,
,,,218.39998662E-3,119.9999973E-3,
,,,218.49998832E-3,119.9999973E-3,
,,,218.59999001E-3,159.99999642E-3,
,,,218.69999170E-3,119.9999973E-3,
,,,218.79999340E-3,119.9999973E-3,
,,,218.89999509E-3,119.9999973E-3,
,,,218.99999678E-3,119.9999973E-3,
,,,219.09999847E-3,79.999998212E-3,
,,,219.20000017E-3,119.9999973E-3,
,,,219.29998696E-3,159.99999642E-3,
,,,219.39998865E-3,119.9999973E-3,
,,,219.49999034E-3,119.9999973E-3,
,,,219.59999204E-3,119.9999973E-3,
,,,219.69999373E-3,119.9999973E-3,
,,,219.79999542E-3,159.99999642E-3,
,,,219.89999712E-3,159.99999642E-3,
,,,219.99999881E-3,119.9999973E-3,
,,,220.10000050E-3,119.9999973E-3,
,,,220.19998729E-3,119.9999973E-3,
,,,220.29998899E-3,119.9999973E-3,
,,,220.39999068E-3,119.9999973E-3,
,,,220.49999237E-3,119.9999973E-3,
,,,220.59999406E-3,119.9999973E-3,
,,,220.69999576E-3,119.9999973E-3,
,,,220.79999745E-3,119.9999973E-3,
,,,220.89999914E-3,119.9999973E-3,
,,,220.99998593E-3,119.9999973E-3,
,,,221.09998763E-3,119.9999973E-3,
,,,221.19998932E-3,119.9999973E-3,
,,,221.29999101E-3,79.999998212E-3,
,,,221.39999270E-3,119.9999973E-3,
,,,221.49999440E-3,119.9999973E-3,
,,,221.59999609E-3,119.9999973E-3,
,,,221.69999778E-3,119.9999973E-3,
,,,221.79999948E-3,119.9999973E-3,
,,,221.89998627E-3,119.9999973E-3,
,,,221.99998796E-3,119.9999973E-3,
,,,222.09998965E-3,119.9999973E-3,
,,,222.19999135E-3,119.9999973E-3,
,,,222.29999304E-3,119.9999973E-3,
,,,222.39999473E-3,119.9999973E-3,
,,,222.49999642E-3,119.9999973E-3,
,,,222.59999812E-3,119.9999973E-3,
,,,222.69999981E-3,119.9999973E-3,
,,,222.79998660E-3,119.9999973E-3,
,,,222.89998829E-3,119.9999973E-3,
,,,222.99998999E-3,119.9999973E-3,
,,,223.09999168E-3,119.9999973E-3,
,,,223.19999337E-3,119.9999973E-3,
,,,223.29999506E-3,119.9999973E-3,
,,,223.39999676E-3,79.999998212E-3,
,,,223.49999845E-3,119.9999973E-3,
,,,223.60000014E-3,119.9999973E-3,
,,,223.69998693E-3,119.9999973E-3,
,,,223.79998863E-3,119.9999973E-3,
,,,223.89999032E-3,119.9999973E-3,
