90.57986359554597,-0.003178333333333333,-184.0417393466936
92.38073032041139,-0.003188333333333333,-184.0440275128471
94.1750296875,-0.00317,-184.0340885209572
95.98365587797618,-0.00318,-184.0145048917215
97.96246150568182,-0.003177142857142857,-184.0113704896443
99.94761150568182,-0.003171666666666667,-184.0257406874398
101.7149268785112,-0.00318,-184.0206882847936
103.4724796875,-0.003151666666666667,-183.9969338063536
105.2490671875,-0.003161666666666666,-183.969570492975
107.055156431686,-0.003166,-183.9974918668783
108.8078501420455,-0.003175,-183.9705877238539
110.7999499577703,-0.003171428571428572,-183.9727647686787
112.7842544001437,-0.003158,-183.9701277850114
114.5305433238636,-0.003163333333333333,-183.9747461717858
116.3089410511364,-0.003174,-183.9512642683469
118.0732314116379,-0.003181666666666667,-183.9556029111412
119.8366455965909,-0.00317,-183.9311481845498
121.5903615056818,-0.00319,-183.9597747675131
123.5685879443808,-0.00317,-183.9337125399859
125.5616115056818,-0.003166,-183.930117264332
127.3113808369253,-0.003178333333333333,-183.9126950736099
129.0893019097223,-0.003166,-183.9174673530878
130.8677137784091,-0.003166666666666667,-183.933142938729
132.6211854346264,-0.003168333333333333,-183.9115514380208
134.5997968046171,-0.003174285714285714,-183.9185137814862
136.5923763167135,-0.003174,-183.9178833688747
138.3632705965909,-0.003168333333333333,-183.8952898825997
140.132139457615,-0.003172,-183.8918466927949
141.8797695751405,-0.003171666666666667,-183.889532062205
143.6445111481742,-0.003172,-183.8852081473873
145.4067371587644,-0.00317,-183.8886813455979
147.3640040118244,-0.003171428571428572,-183.9036630485619
149.3580819863506,-0.003182,-183.9338561979441
151.1315660511364,-0.003178333333333333,-183.9082330733712
152.8854637784091,-0.003186666666666667,-183.9259458562826
154.6397365056818,-0.003196,-183.9187500625687
156.3934549683989,-0.00319,-183.899753920109
158.3964160511364,-0.003182857142857143,-183.8812196525646
160.3773201369382,-0.003212,-183.9134357328143
162.1266122717697,-0.003188333333333333,-183.9062246063337
163.9030130208334,-0.00318,-183.9029190074104
165.6809685763889,-0.003196666666666667,-183.9068102950819
167.4460819863506,-0.003193333333333334,-183.90061792171
169.2141241319445,-0.003196,-183.9106868090382
171.2251069602273,-0.003194285714285714,-183.9165525322178
173.2165463541667,-0.003186666666666667,-183.9199058483514
174.9857933238637,-0.00316,-183.9219029717266
176.747145596591,-0.003176666666666667,-183.9455178432038
178.5039044066012,-0.003176666666666667,-183.9635000019241
180.2670392380618,-0.003182,-183.9455311670832
182.0376122717697,-0.003173333333333333,-183.9675469414119
184.0329319397523,-0.003178571428571429,-183.9837054322426
186.0018032830056,-0.00316,-183.9829647408864
187.7705673279495,-0.003186666666666667,-183.9976454085838
189.5266352430556,-0.003183333333333334,-183.9992372083422
191.2913615056819,-0.003194,-183.9966404623025
193.0479605863765,-0.003166666666666667,-184.0155098963013
194.8149942942416,-0.003188,-183.9761839996349
196.8017787865991,-0.003155714285714286,-183.9887727561917
198.7961019097222,-0.003181666666666667,-183.9874191591582
200.5869268785112,-0.003165,-183.9983708415683
202.3410774147727,-0.003176,-184.0156497095638
204.0960617099719,-0.00318,-183.9979388501485
205.8725092329546,-0.003176,-184.0111835576268
207.8406886160715,-0.003184285714285715,-184.0310562486032
209.8361624461207,-0.003198333333333333,-184.0018318352301
211.6054463541667,-0.003174,-184.0311991415979
213.3817831357759,-0.003186666666666667,-184.0137791423418
215.1400774147727,-0.003191666666666666,-184.0435963242934
216.904587733477,-0.003186,-183.9946184963101
218.6612077773877,-0.003195,-184.0098985849403
220.6529433238636,-0.003191428571428572,-184.0042131863268
222.6266235077247,-0.003184,-184.0090335419175
224.3938145189607,-0.003178333333333334,-183.9717327685385
226.1698463541667,-0.003182,-183.9891628502961
227.9412314116379,-0.00319,-183.9789342483051
229.7099095725575,-0.0032,-183.9692908037131
231.4761905570652,-0.003188,-184.0041361814368
233.4419832589286,-0.003175714285714286,-184.0058217721917
235.4259324347528,-0.003191666666666667,-184.0203948753008
237.1853615056818,-0.00317,-184.0006613762589
238.9846165296053,-0.0032,-184.0034093718591
240.717586229556,-0.00319,-184.0090196262703
242.4934960140306,-0.003186666666666667,-184.0035626775252
244.276712654533,-0.0032,-184.0238563907101
246.2898998709862,-0.003198571428571429,-184.0128549986378
248.2757574652778,-0.0032,-184.0155105397652
250.0558594627809,-0.003168333333333333,-184.0006616900685
251.8287241319444,-0.003198,-184.0209810349814
253.5829775598404,-0.00317,-184.0214154224848
255.3983463541666,-0.003176666666666667,-184.0598746394565
257.1083786122311,-0.003166,-184.0365312997273
259.1043850446428,-0.003172857142857143,-184.05100257759
261.0766796875,-0.00319,-184.0496399501464
262.8493685763889,-0.003182,-184.0641882462525
264.5981796875,-0.003171666666666667,-184.0780394725919
266.3782009640957,-0.003174,-184.0336714048111
268.1526082589285,-0.003188333333333333,-184.0639087282302
270.1391171874999,-0.003185714285714286,-184.0556156697922
272.0408302251344,-0.003184,-184.0531181532034
273.8505744243421,-0.003196666666666667,-184.0656416779668
275.5537007401315,-0.003195,-184.0747163181222
277.3537808110955,-0.003184,-184.0856641335216
279.1083313728932,-0.003176666666666667,-184.0993640778039
280.8771403616573,-0.003198,-184.0920039041197
282.8722615056818,-0.003188571428571429,-184.0744033787259
284.8465774147727,-0.003171666666666666,-184.0722737593014
286.6109718223315,-0.003168,-184.0840865738618
288.3546572155899,-0.003181666666666667,-184.0412919350566
290.1249978693181,-0.003192,-184.0631975979103
291.9063862092391,-0.00318,-184.1036794612666
293.8520481085526,-0.0032,-184.0718615264325
295.8671291257022,-0.00318,-184.0650683678776
297.6464437324437,-0.00318,-184.0241361234379
299.3906001420454,-0.003194,-184.059287005053
301.1696235077247,-0.003191666666666667,-184.0562716345933
302.9406796875,-0.003203333333333334,-184.0577096744128
304.733905177696,-0.0032,-184.0482174984004
306.7009478034419,-0.003205714285714286,-184.0621835991651
308.6875695957568,-0.003198333333333333,-184.0473509558669
310.4381932010135,-0.003192,-184.0705272124702
312.1841707589285,-0.0032,-184.0863912292886
313.9476060032894,-0.003184,-184.1283320230548
315.7283356014785,-0.003201666666666667,-184.0964728373161
317.5161524147726,-0.003186,-184.0980515987137
319.452588778409,-0.003192857142857143,-184.1097987272784
321.5054425740979,-0.003181666666666667,-184.076294336245
323.2747119455645,-0.003176666666666667,-184.0800235130328
324.9870839428191,-0.003192,-184.0907189310309
326.8015533717105,-0.003185,-184.1064316632054
328.5668096874999,-0.003176,-184.1078557406494
330.4750271451271,-0.003192857142857143,-184.0868491005679
332.5001436050258,-0.003203333333333333,-184.1034000673299
334.2229296875,-0.003172,-184.1345214511043
335.9766699787621,-0.003188333333333334,-184.1378462641679
337.7401522149725,-0.003188,-184.1198261553224
339.5346235077247,-0.003176666666666667,-184.1105927206682
341.3151796875,-0.003193333333333334,-184.1205378147324
343.3488636874999,-0.003172857142857143,-184.1190152719419
345.2916236127336,-0.003198,-184.1215577275132
347.0127815393518,-0.003183333333333334,-184.125594958052
348.7945311726484,-0.003208,-184.1216978619303
350.5295685763888,-0.003183333333333334,-184.1021014382632
352.3123046875,-0.00319,-184.1018093648333
354.3296886160715,-0.003187142857142857,-184.1311183526282
356.3334130208333,-0.003205,-184.1209718192459
358.0556985554244,-0.003201666666666666,-184.1231360419095
359.8153711768617,-0.003188,-184.1362669366794
361.6162241319444,-0.003191666666666667,-184.1412958071028
363.3909296874999,-0.00318,-184.1355549407245
365.1702854567307,-0.003178,-184.1691282706259
367.1310528218283,-0.003184285714285715,-184.1560417063194
369.0605534739077,-0.003196,-184.1576004988038
370.8488984374999,-0.003181666666666667,-184.1219905350278
372.6237581188725,-0.00319,-184.1505312174856
374.3442189031862,-0.003184,-184.1476396553926
376.1390203468406,-0.00318,-184.1451793879583
378.1299118303571,-0.003181428571428572,-184.15708137809
380.0533430538366,-0.003176666666666667,-184.1424568478236
381.8432495799731,-0.00316,-184.1464927386886
383.6382463541667,-0.00317,-184.1446078769018
385.418990798611,-0.003166,-184.1524036090801
387.2013495904126,-0.003171666666666667,-184.1691272577977
388.9483633609693,-0.003186,-184.1492312497181
390.9081196874999,-0.00319,-184.1439269290268
392.831668698489,-0.003178333333333333,-184.1428748594645
394.6377014266304,-0.003172,-184.1266012016334
396.3920504740169,-0.003196666666666667,-184.153422956781
398.1511241319444,-0.003195,-184.1780711367939
399.9229907986111,-0.003188,-184.1577405765684
401.9047796875,-0.003200000000000001,-184.1464630369583
403.8659321146844,-0.003193333333333333,-184.1770504272052
405.6714345894607,-0.003196,-184.1083026204465
407.4374612966954,-0.0032,-184.1221301975424
409.1993955965909,-0.00319,-184.1676890341381
410.9589493504213,-0.003185,-184.1620573039708
412.7221164691091,-0.003178333333333333,-184.1760448300211
414.7054995073198,-0.003186666666666667,-184.2021887642114
416.6922639571629,-0.003186666666666667,-184.167115346501
418.4572019097222,-0.00319,-184.1610520618262
420.2261019097222,-0.003178,-184.1877264938915
421.9843987886235,-0.003185,-184.1585936401717
423.7539044066011,-0.0032,-184.1900327846356
425.5434796875,-0.003191666666666667,-184.1694216987071
427.5256975446428,-0.003175714285714286,-184.187420393459
429.5521302369505,-0.003176666666666667,-184.1929279094578
431.2960280021067,-0.003186,-184.2033100003979
433.0577029433138,-0.003191666666666667,-184.1924934982532
434.8430651041666,-0.003194,-184.2054758377986
436.5515266262755,-0.00318,-184.2056174607654
438.357286429073,-0.003188,-184.2200567654059
440.3501487140487,-0.003177142857142857,-184.2119949995985
442.3493987886235,-0.003191666666666667,-184.2594375638167
444.1093987886235,-0.003195,-184.2197465011004
445.8878115556317,-0.003186,-184.2386329098931
447.6357000956632,-0.003173333333333334,-184.236187041274
449.4082463541666,-0.003192,-184.2160004558777
451.1704322648196,-0.003188333333333333,-184.2425466506521
453.1610220298423,-0.003175714285714286,-184.2541124410293
455.1420504740169,-0.003188,-184.2771675029284
456.894331861413,-0.003181666666666667,-184.2705393084746
458.6816342329545,-0.003192,-184.242267280969
460.4480617099719,-0.003196666666666667,-184.259995323587
462.2280475035919,-0.003186666666666667,-184.2463081230862
464.0038862092391,-0.00319,-184.2644859001044
465.9840099627293,-0.003175714285714286,-184.256653022387
467.9577246313202,-0.00318,-184.2361867998326
469.7146463541666,-0.003194,-184.2424072130941
471.4866796874999,-0.003168333333333333,-184.24443466081
473.3047796874999,-0.003174,-184.2815022973756
474.9916796875,-0.003166666666666667,-184.2535081671566
477.0233978693181,-0.003172857142857143,-184.2785990125469
479.0271096874999,-0.003193333333333333,-184.2389407336317
480.7213112664473,-0.003182,-184.2676447438263
482.5497133953651,-0.003173333333333333,-184.2530897082227
484.3167583391854,-0.00317,-184.2854037691717
486.040477764423,-0.003178333333333333,-184.2556751850912
487.8439907986111,-0.0032,-184.2670717181207
489.6203984374999,-0.003175,-184.2858383807893
491.6257927309782,-0.003182857142857143,-184.2500642893988
493.5976347436797,-0.003173333333333334,-184.2758661532259
495.3611455965908,-0.003188,-184.285543340322
497.121386209239,-0.003171666666666667,-184.2809147885224
498.8891463541666,-0.003192,-184.2364940971819
500.6862775135869,-0.003173333333333333,-184.2768733785072
502.5950380208332,-0.00317,-184.2766311299063
504.6591082589285,-0.003176,-184.2706785203281
506.3156665296052,-0.00318,-184.2572696174302
508.2628842329545,-0.003185,-184.26829214503
509.8460231218434,-0.003196666666666667,-184.2630438782147
511.817578125,-0.003192857142857143,-184.2843609733561
513.7519088541666,-0.003186,-184.2884259679134
515.5416459796348,-0.003203333333333333,-184.2862565511247
517.3158728693181,-0.003196,-184.3024241322489
519.0747785885989,-0.003191666666666667,-184.3021446053536
520.8535092329545,-0.003193333333333334,-184.2915995763714
522.5765750363372,-0.00318,-184.2882867396098
524.5781036005434,-0.003172857142857143,-184.3013333246735
526.7372826286763,-0.003175,-184.3006895767594
528.4720854846014,-0.003174,-184.2802163858049
530.2246115056818,-0.00317,-184.2800611905565
532.0029929405119,-0.00317,-184.2900045108402
533.8859892113094,-0.003156,-184.2934735718144
535.6540574652778,-0.003168333333333333,-184.2920462207256
537.4345223841292,-0.003186666666666667,-184.2719802025917
539.2131961710164,-0.003158,-184.2770268980642
541.0434735019329,-0.003176666666666667,-184.2728326066664
542.7183398816746,-0.00316,-184.3061864343335
544.7022591267523,-0.003168571428571429,-184.2827494764637
546.7894054939517,-0.003166666666666667,-184.25957668394
548.6079971478175,-0.003195,-184.2623029921483
550.4279296875,-0.003184,-184.2657720505806
552.1671796874999,-0.00319,-184.2624424425213
553.9365151305379,-0.00319,-184.2700913498082
555.8542914522058,-0.00319,-184.2868299772154
557.6140546874999,-0.0032,-184.2928995807039
559.4005592055722,-0.003191666666666667,-184.2767341563248
561.141893170646,-0.003192,-184.282941956524
562.903613753434,-0.003185,-184.3001165678455
564.6748842329544,-0.003196666666666667,-184.2812223323677
566.6420853478774,-0.003187142857142858,-184.314033648932
568.7354748682227,-0.003198,-184.314271660246
570.4508549452319,-0.00319,-184.3135442549791
572.2213987886236,-0.0032,-184.3151242831353
574.0028996875,-0.003188333333333333,-184.280928428962
575.7552242419554,-0.003188,-184.2768876229787
577.7375963541666,-0.003194285714285715,-184.2891039125745
579.6456208639705,-0.003192,-184.3050277668321
581.6358605385637,-0.003175,-184.2703999407888
583.2904873798076,-0.003184,-184.288998168005
585.0105572385203,-0.003188333333333333,-184.2540953027703
586.8329325610631,-0.003205,-184.27140580758
588.5902165296052,-0.003208,-184.2819368783707
590.3401910511362,-0.003193333333333334,-184.276747236668
592.3232524147726,-0.003182857142857143,-184.3242966161273
594.2997246313201,-0.003176,-184.3050260433397
596.0744774403089,-0.003173333333333333,-184.3168599522376
597.8902526041664,-0.003196,-184.3185932592885
599.6590287441037,-0.003191666666666666,-184.3185935037193
601.4104910082547,-0.003186,-184.3126907983598
603.1643306308961,-0.00318,-184.3161483322644
605.1529019097221,-0.00319,-184.3140332277189
607.146792895047,-0.003186,-184.3069002948607
608.8990415922618,-0.003188333333333333,-184.310662309821
610.6827496874998,-0.003212,-184.3209028877459
612.393174424342,-0.003196666666666667,-184.3277002064908
614.1819865056816,-0.00321,-184.3500702106963
616.1503796874998,-0.003202857142857143,-184.3143690941266
618.1466569602271,-0.003184,-184.3100761005665
619.928088778409,-0.003201666666666667,-184.3080605398072
621.6814524147726,-0.003202,-184.3300077887135
623.4436463541665,-0.00321,-184.3536666300698
625.2098032830055,-0.003188,-184.2995607465343
627.0321796874999,-0.003196666666666667,-184.304019868782
628.9414014266304,-0.003192857142857143,-184.3280107685799
630.9662478693181,-0.003191666666666667,-184.3252237084758
632.7215897998594,-0.003188,-184.3463061398783
634.4953842329544,-0.003191666666666667,-184.3347507626218
636.2569183238635,-0.003174,-184.3190267700707
638.0214069602272,-0.003196666666666667,-184.3405422635418
639.7641851820055,-0.003176,-184.3442918022237
641.7472421874999,-0.003188571428571429,-184.3203904305433
643.7517819602272,-0.003173333333333334,-184.3035710380822
645.5549104567307,-0.003166666666666667,-184.335645725033
647.2553359374999,-0.00317,-184.3123826513026
649.0555223841292,-0.003168333333333333,-184.3102148011037
650.8577954769736,-0.003158,-184.2927598488202
652.561896668632,-0.003181666666666666,-184.3240632734706
654.5290873798076,-0.003164285714285715,-184.3379375089182
656.5784751420454,-0.00317,-184.3556947260948
658.3421342329544,-0.00318,-184.3182994560828
660.1129210668101,-0.003175,-184.3157008090498
661.8869942942415,-0.003186,-184.3260937062805
663.6857566105768,-0.003205,-184.3421381655397
665.3858605385637,-0.00319,-184.3145661527175
667.4682141702585,-0.0032,-184.3221125838212
669.406525841346,-0.003196666666666667,-184.344432158575
671.197558808379,-0.0032,-184.3520876576417
672.9715897998594,-0.003202,-184.3591645757718
674.7532024147725,-0.0032,-184.3692815517654
676.5085205965909,-0.00322,-184.3450194905029
678.252488676264,-0.00321,-184.3601579634372
680.2464069602271,-0.003225714285714286,-184.3293887667648
682.2240241319444,-0.00319,-184.3301347748286
684.0115241319444,-0.003198333333333333,-184.3238112796974
685.7722314116378,-0.003173333333333333,-184.3548416416206
687.540122869318,-0.003194,-184.3275461169874
689.3025019097221,-0.003208333333333333,-184.3301354113572
691.0596130208331,-0.003208,-184.3136990846786
693.0418615056817,-0.0032,-184.3342577827704
695.0148955965908,-0.003186666666666667,-184.3440121112222
696.7748907986111,-0.00319,-184.3617677224038
698.5424296874999,-0.003178333333333333,-184.341269804375
700.3194708962911,-0.003164,-184.3416900230712
702.0924352430554,-0.003171666666666666,-184.3412590851907
703.8645302622126,-0.0032,-184.3486301624798
705.8332903069689,-0.003187142857142857,-184.3358495247128
707.836622869318,-0.00319,-184.3206087240099
709.608838778409,-0.003205,-184.3409627128442
711.3745992277297,-0.00321,-184.3689875632271
713.1255448560391,-0.003203333333333334,-184.3304281226476
714.8877819602271,-0.003192,-184.3425707753944
716.8695814732141,-0.003195714285714286,-184.3546936605285
718.8792527212078,-0.0032,-184.3476079455925
720.6407933238635,-0.003195,-184.3701350821917
722.3957358672751,-0.003208,-184.367252488554
724.1580392380616,-0.003198333333333333,-184.3635024743136
725.9380205965907,-0.003192,-184.3619070895651
727.7077371587643,-0.0032,-184.350057084731
729.6710220298422,-0.003192857142857143,-184.3662463822224
731.6552685763887,-0.003198,-184.3685544698082
733.4209865056816,-0.003186666666666667,-184.3850104098258
735.1938594627808,-0.003191666666666667,-184.3769080416166
736.9731628335674,-0.003184,-184.3818479101787
738.726771641523,-0.003191666666666666,-184.3824086744436
740.4820752918955,-0.003188,-184.4029267866251
742.4789564732142,-0.003182857142857143,-184.374663755169
744.4724820130812,-0.003181666666666667,-184.3904976213751
746.2212302492976,-0.003182,-184.3499171401407
748.005297665028,-0.003203333333333333,-184.3769216701418
749.7691628335673,-0.003181666666666667,-184.3988662743873
751.5537241319444,-0.00318,-184.3802539345719
753.3060392380617,-0.003173333333333334,-184.3928073087819
755.3013733811936,-0.003187142857142857,-184.4052858845898
757.2964818853021,-0.003186,-184.4078402517121
759.0608955965909,-0.003196666666666667,-184.3727387551478
760.8391115056818,-0.003205,-184.3894895873553
762.5951569602272,-0.003184,-184.3782109645372
764.3372544001436,-0.003186666666666667,-184.3761963080017
766.2982562640764,-0.003182857142857143,-184.3770926851286
768.3107808110954,-0.003192,-184.3552622035193
770.0815072737068,-0.00318,-184.3866063028595
771.8497471032301,-0.003174,-184.377929367025
773.6248160511362,-0.00318,-184.3809677715872
775.3780167661516,-0.003185,-184.3871660013063
777.1465907986109,-0.003166,-184.3737452797481
779.1224160511363,-0.003201428571428572,-184.3705101185268
781.1138032830055,-0.003188333333333333,-184.3663852501445
782.8688819346909,-0.003208,-184.362341176872
784.6354907986109,-0.003195,-184.3603259678389
786.4250660511362,-0.003193333333333334,-184.3774960671749
788.1846569602271,-0.00319,-184.3305676603732
789.9218615056817,-0.003206666666666667,-184.3067610795952
791.8928524147726,-0.003197142857142857,-184.3499583124731
793.8858274147726,-0.0032,-184.3567171620884
795.6622819602271,-0.003188333333333333,-184.3313107390804
797.4273538448032,-0.00318,-184.3662307851985
799.1821907986109,-0.003186666666666667,-184.3799583857499
800.9490433238635,-0.003191666666666667,-184.3510780147216
802.9245433238635,-0.003198571428571429,-184.3346048050929
804.9067819602271,-0.003204,-184.3491892973475
806.6707933238636,-0.003193333333333333,-184.3710025367626
808.4412077773875,-0.00319,-184.3569819392715
810.2073842329544,-0.0032,-184.350923736062
811.9655546874999,-0.003206,-184.3461806619171
813.9434160511363,-0.003202857142857143,-184.3529471405597
815.9415647449712,-0.003211666666666667,-184.3305831490372
817.708116469109,-0.003198333333333334,-184.3574296998846
819.4639410511363,-0.003202,-184.352518502916
821.2329410511361,-0.003216666666666667,-184.3610541902848
822.988106653792,-0.003214,-184.3863120058805
824.7589830582864,-0.00319,-184.3899231697415
826.5491853054774,-0.003216,-184.3715902883096
828.5348850446428,-0.003212857142857143,-184.3647472891198
830.5333615056816,-0.003211666666666667,-184.348041927885
832.2817819602271,-0.003202,-184.3970066250075
834.0507685763888,-0.003198333333333333,-184.3800849288713
835.8374153196838,-0.003202,-184.3457472757459
837.6124049622252,-0.003213333333333333,-184.3419845013319
839.3941796874999,-0.00319,-184.3564220202321
841.3670725446427,-0.003193333333333334,-184.3650706925594
843.3488842329543,-0.003193333333333334,-184.3704150126462
845.1230423248626,-0.003193333333333334,-184.396990491798
846.8971515976123,-0.003188,-184.3627890483786
848.666106653792,-0.003198333333333333,-184.37981864924
850.4168955965907,-0.003196,-184.3652375074935
852.178088778409,-0.003196666666666667,-184.3803933227384
854.1620251420453,-0.00318,-184.3744419420709
856.1464437324437,-0.00321,-184.3782092708204
857.9068032830055,-0.003196,-184.3857384153188
859.6862976650281,-0.003215,-184.3261200184055
861.4571851820054,-0.003192,-184.3492035801032
863.2082527212077,-0.003195,-184.3418161163286
864.9745785639044,-0.003211666666666667,-184.3730317336641
866.9804978693181,-0.003207142857142857,-184.3250001647026
868.9506796874999,-0.003206000000000001,-184.3125228235963
870.7070319602271,-0.003216666666666667,-184.3415499964323
872.4803693426722,-0.003214,-184.3453131642709
874.2340092329545,-0.003203333333333333,-184.3551216581127
876.0007024147726,-0.003216000000000001,-184.3237857113382
878.0097524147726,-0.003195714285714286,-184.3565404793625
879.9978728693181,-0.003196666666666667,-184.3454543175948
881.7517808110955,-0.003198,-184.3730173223686
883.5204100245785,-0.003193333333333334,-184.2954880201942
885.2766228693181,-0.0032,-184.3197403914564
887.0361741929944,-0.003192,-184.3401088449594
888.8084928743132,-0.0032,-184.3053066404005
890.8080546874999,-0.003207142857142857,-184.341061166141
892.7999019097221,-0.003196,-184.3278419258091
894.5745352430555,-0.003205,-184.3569959297645
896.3666796874999,-0.00321,-184.317152968682
898.1116796874999,-0.003198,-184.3073345357612
899.8707378270348,-0.003203333333333334,-184.3128302862764
901.6022077773874,-0.0032,-184.2940464533384
903.594542072821,-0.003197142857142858,-184.3111578307835
905.5790092329544,-0.003188333333333333,-184.2898648222124
907.3374019097221,-0.003202,-184.2846776901669
909.0962527212077,-0.003183333333333334,-184.2959361458168
910.8641403616572,-0.003204,-184.3159916910916
912.6203842329544,-0.003206666666666667,-184.2835161513038
914.6059251420454,-0.003198571428571429,-184.3135749311579
916.5898241319444,-0.003188,-184.3541145862908
918.3606685763888,-0.003186666666666667,-184.3425585597073
920.1397251420454,-0.003191666666666667,-184.3148450176525
921.8774999122189,-0.003192,-184.3237968080727
923.6406572155897,-0.003185,-184.3305674483612
925.4117130208332,-0.00321,-184.3214750734507
927.4238081278669,-0.003198571428571429,-184.3225845491593
929.3862019097222,-0.003196666666666667,-184.3571506498679
931.1505796874998,-0.0032,-184.3499298275218
932.921497869318,-0.003191666666666667,-184.3193064663065
934.6844352430554,-0.003194,-184.3235182365618
936.459297665028,-0.003195,-184.3413972483216
938.2196459796347,-0.003205,-184.3092077962128
940.2233978693181,-0.003201666666666667,-184.3217555679634
942.1929718223314,-0.003188333333333333,-184.3439988539976
943.9647358672752,-0.003176666666666667,-184.3336180268566
945.7444978693181,-0.003214,-184.3645101309915
947.507463778409,-0.0032,-184.34328457339
949.2833578484193,-0.003196,-184.3541138286248
951.2650490568693,-0.003205714285714286,-184.3516704748237
953.2530130208332,-0.003213333333333333,-184.3671130807159
955.0049936409882,-0.003196,-184.3237974344554
956.7471965414325,-0.003191666666666667,-184.3041597609446
958.5160574652776,-0.00321,-184.3347668429264
960.2789296874998,-0.003201666666666667,-184.3247916950484
962.2527824912381,-0.003207142857142857,-184.3380640354685
964.2373808369252,-0.003218333333333333,-184.3395208573779
966.0023003771551,-0.00321,-184.3493437545715
967.7722796874999,-0.003206666666666667,-184.348603790554
969.5401796874997,-0.003204,-184.3437180172835
971.3163685763888,-0.003186666666666667,-184.3567023215099
973.079915642556,-0.003203333333333333,-184.330009374936
975.064877885698,-0.00321,-184.340961507888
977.0560280021067,-0.003196,-184.3437184998579
978.8163875526684,-0.003213333333333333,-184.3526738642653
980.5912840831044,-0.00321,-184.3512186809597
982.3498176185343,-0.003206666666666667,-184.3588850497866
984.1125560919943,-0.003204,-184.341396229954
985.8876684515449,-0.003193333333333333,-184.3528130899684
987.8729090452981,-0.003204285714285714,-184.3482234882476
989.8536796874999,-0.003203333333333334,-184.3562683882011
991.6195897998593,-0.003194,-184.3463079770204
993.402490798611,-0.0032,-184.3378023621464
995.1736455965907,-0.0032,-184.3200351891758
996.9516241319444,-0.00319,-184.310802081803
998.7073842329544,-0.003215,-184.3395364030006
1000.684325142045,-0.003211666666666666,-184.3157678206168
1002.656952414773,-0.003201666666666667,-184.3298543390266
1004.425254400144,-0.003203333333333333,-184.329994712374
1006.197611505682,-0.003206,-184.3292809675426
1007.954530262213,-0.003183333333333334,-184.3229296613646
1009.711690798611,-0.003194,-184.3162858405027
1011.701516051136,-0.00319,-184.3391129801564
1013.669906960227,-0.003178333333333333,-184.3269744383465
1015.441556091994,-0.003198,-184.3307079820882
1017.201219013343,-0.0032,-184.331450135179
1018.979935243055,-0.003213333333333333,-184.3041585762466
1020.748770596591,-0.0032,-184.3084823420392
1022.523077414773,-0.003203333333333333,-184.2884244851039
1024.489725142045,-0.003191428571428572,-184.3225728026054
1026.475971822332,-0.003194,-184.2975175869946
1028.247219013343,-0.003191666666666667,-184.323517052227
1030.009077414773,-0.003198,-184.3301480457385
1031.785668451545,-0.003193333333333333,-184.3110823639307
1033.553852101293,-0.003196666666666667,-184.3268184586173
1035.299005530197,-0.003196,-184.3372276176893
1037.290443323864,-0.003201428571428572,-184.3148512419713
1039.268645979635,-0.003196666666666667,-184.3077670197566
1041.037463778409,-0.003196,-184.3253935511596
1042.807535243056,-0.003195,-184.3207618852805
1044.581507273707,-0.003198,-184.3066198719822
1046.346061709972,-0.003203333333333333,-184.3146910467867
1048.117757465278,-0.003183333333333334,-184.357864301341
1050.116688696509,-0.003214285714285714,-184.3135749406226
1052.090895596591,-0.0032,-184.3285532209117
1053.842486505682,-0.00319,-184.3357744646259
1055.61651876796,-0.003196,-184.333323416823
1057.37872463132,-0.003196666666666667,-184.3126628432061
1059.148139457615,-0.003186666666666667,-184.3535262970969
1060.910140361657,-0.0032,-184.3578640291834
1062.912443323864,-0.003194285714285715,-184.3605804711842
1064.9051796875,-0.00322,-184.3840040519242
1066.680859462781,-0.003194,-184.3647901809697
1068.432884232955,-0.00318,-184.3725981190067
1070.1885546875,-0.00321,-184.3777898583295
1071.962156960227,-0.003188333333333333,-184.3564088384453
1073.942274282095,-0.003182857142857143,-184.3512229177952
1075.925941051136,-0.003202,-184.3558360156365
1077.67558979986,-0.003193333333333333,-184.3386676680576
1079.4364296875,-0.003198333333333333,-184.3688357392509
1081.191398788624,-0.003202,-184.3594456352418
1082.950816051136,-0.00321,-184.3674063654003
1084.924112119932,-0.003197142857142857,-184.3395725597969
1086.907690923455,-0.00319,-184.332754213549
1088.691398788624,-0.003185,-184.3231958776192
1090.444219013343,-0.003198,-184.3282620996818
1092.19174710323,-0.003193333333333334,-184.340977757832
1093.953668323864,-0.003186,-184.307908588823
1095.725623507725,-0.00319,-184.2927463209101
1097.713958966779,-0.003191428571428572,-184.3043324073281
1099.685361505682,-0.00318,-184.296367841822
1101.470702676006,-0.003198,-184.2965088058291
1103.212493640988,-0.003205,-184.300116434702
1104.971589799859,-0.00319,-184.2836702195777
1106.726635243055,-0.00318,-184.2990959454695
1108.507230249298,-0.003185,-184.2630302112444
1110.492297869318,-0.003205,-184.2928971736056
1112.482558808379,-0.003198333333333333,-184.2793357118114
1114.244668323863,-0.003198333333333333,-184.3207615274808
1116.019702414773,-0.0032,-184.3572769660411
1117.772576239224,-0.003185,-184.3333235003221
1119.536376316713,-0.00321,-184.3353246634496
1121.524294366399,-0.003181428571428572,-184.3565417933012
1123.506213778409,-0.0032,-184.3502101078891
1125.278190798611,-0.003201666666666667,-184.3382481387027
1127.045293323863,-0.003198,-184.3217838297072
1128.803758339185,-0.003178333333333333,-184.3001183813401
1130.561066051136,-0.003188,-184.3115162361646
1132.340168576389,-0.003201666666666667,-184.3359122577681
1134.327036830357,-0.003197142857142857,-184.3187785844022
1136.325997869318,-0.003186666666666667,-184.3248042524319
1138.082904406601,-0.003208,-184.3416765080254
1139.844320136938,-0.003196666666666667,-184.3405562271224
1141.594088778409,-0.003192,-184.324958552581
1143.36679204705,-0.003196666666666667,-184.3392551894454
1145.140441051136,-0.003215,-184.354408405004
1147.134841849662,-0.003195714285714286,-184.3257180062739
1149.110814518961,-0.003192,-184.3318695455524
1150.888509232954,-0.003173333333333334,-184.3442920950655
1152.6518046875,-0.00318,-184.2859770588111
1154.4170796875,-0.003194,-184.294927851862
1156.187097269917,-0.00319,-184.3007082123032
1157.9802796875,-0.00319,-184.2669311863102
1159.977983258929,-0.003196666666666667,-184.2850545160664
1161.979477440309,-0.003191666666666667,-184.2843828381065
1163.736331372893,-0.003205,-184.2692378288962
1165.497156960227,-0.003194,-184.2527676354979
1167.2455546875,-0.003188333333333333,-184.2878505423215
1169.0014296875,-0.003214,-184.2650431553458
1170.980522280093,-0.00319,-184.2736208638351
1172.937005530197,-0.003205,-184.2856833721397
1174.696361505682,-0.003194,-184.2383537137304
1176.453190798611,-0.003178333333333333,-184.2552421019617
1178.221061709972,-0.003185,-184.2568219976885
1179.994701909722,-0.00319,-184.2317270046855
1181.970418426239,-0.003218571428571429,-184.2396954576123
1183.962872869318,-0.003206666666666667,-184.2499150863551
1185.729918323864,-0.003204,-184.264315990179
1187.48563474368,-0.003201666666666667,-184.2431200373735
1189.253904406601,-0.003198,-184.249761657187
1191.021475142045,-0.003195,-184.2253800459151
1192.790050474017,-0.003192,-184.1929141585491
1194.757126116071,-0.003187142857142857,-184.214176802706
1196.745201909722,-0.003193333333333333,-184.2164356680494
1198.532449802442,-0.00319,-184.2242355815782
1200.278201909722,-0.003201666666666667,-184.2320059409726
1202.056816051136,-0.003193333333333334,-184.2503340584091
1203.799556091994,-0.003184,-184.2487411107758
1205.581320136938,-0.0032,-184.2522215787634
1207.578361505682,-0.003211428571428572,-184.2481063246603
1209.539236505682,-0.003192,-184.2460044025407
1211.324213778409,-0.003206666666666667,-184.2438518601427
1213.09763474368,-0.003195,-184.2462966650252
1214.860963778409,-0.003206000000000001,-184.2637570129199
1216.614530262212,-0.003193333333333334,-184.2421272032104
1218.589238246059,-0.003191428571428572,-184.2766298153858
1220.581140361657,-0.003208,-184.3116690350847
1222.359507273707,-0.003193333333333334,-184.2701056733542
1224.11765721559,-0.003188,-184.2895852532519
1225.885997869318,-0.003196666666666667,-184.2894325826784
1227.633509232954,-0.003215,-184.3096559486478
1229.389301909722,-0.003194,-184.308060748951
1231.396224330357,-0.0032,-184.3188905872934
1233.3686796875,-0.003206666666666667,-184.3014203098977
1235.134162833567,-0.00319,-184.3038790796419
1236.923140361657,-0.003198333333333333,-184.3237831108915
1238.701624131944,-0.003191666666666667,-184.2972359801534
1240.462746354166,-0.003222,-184.3132645825367
1242.241780811095,-0.003203333333333333,-184.3207620874425
1244.225364372185,-0.003195714285714286,-184.2957853145726
1246.217306061126,-0.003195,-184.2907466975642
1247.983070492098,-0.00319,-184.2992492273498
1249.740039238062,-0.003176666666666667,-184.3060478510133
1251.502129125702,-0.003204,-184.3139774137362
1253.264507273707,-0.003186666666666667,-184.3184568287409
1255.028863595546,-0.003195,-184.3112233530009
1257.019832840653,-0.003205714285714286,-184.3189794165569
1259.014886584052,-0.003204,-184.2891524225635
1260.768106653792,-0.00319,-184.3031372846699
1262.543486505682,-0.003218,-184.3067602205776
1264.311477440309,-0.003195,-184.2992491551166
1266.075270596591,-0.003196,-184.3005500572156
1267.849387552668,-0.003185,-184.273712716096
1269.821552414772,-0.0032,-184.2979878904524
1271.80270215941,-0.0032,-184.3034316668389
1273.578440557065,-0.003184,-184.290746506305
1275.349219013343,-0.003198333333333333,-184.3087751067583
1277.112191051137,-0.003185,-184.2917530844742
1278.885827414773,-0.003186,-184.2862577619947
1280.6677796875,-0.003186666666666667,-184.293486760725
1282.640886584052,-0.003211428571428572,-184.2798518375926
1284.627668576389,-0.003188,-184.3011242986809
1286.422824131944,-0.00321,-184.3132510057237
1288.18858979986,-0.003185,-184.2877114538146
1289.960342608848,-0.003192,-184.3070549801135
1291.746259232955,-0.0032,-184.3103551182227
1293.5056796875,-0.003202,-184.2807764800002
1295.274024131944,-0.003195,-184.3034306934681
1297.290653371711,-0.003202857142857143,-184.3113814151893
1299.295320136938,-0.003191666666666667,-184.3180058429502
1301.059838778409,-0.00319,-184.275152862488
1302.813050474017,-0.0032,-184.2972362025843
1304.5834296875,-0.003208333333333333,-184.3252246533013
1306.347286429073,-0.003178,-184.2836701984253
1308.1061796875,-0.003198333333333334,-184.274007043061
1310.097832840653,-0.003187142857142858,-184.2862173109271
1312.073156960227,-0.003192,-184.2767340985825
1313.843813020833,-0.003191666666666666,-184.2737133122925
1315.609543323864,-0.003188333333333333,-184.2672285773139
1317.361151597612,-0.0032,-184.2584311447777
1319.145758339185,-0.003186666666666667,-184.2636172217403
1320.919001909722,-0.003176,-184.2689583764057
1322.918813616071,-0.003194285714285714,-184.2635875777804
1324.891509232954,-0.003201666666666667,-184.2725526206591
1326.642410024578,-0.003185,-184.2812081432004
1328.410331372893,-0.0032,-184.2598442602548
1330.194735867275,-0.003205,-184.2525034509132
1331.964567327949,-0.003212,-184.249760711564
1333.928161830357,-0.003205714285714286,-184.2259505449869
1335.916994294241,-0.003186666666666667,-184.2380740337312
1337.705418323863,-0.00319,-184.2341872527873
1339.473870698736,-0.00321,-184.2157086145025
1341.223331372893,-0.0032,-184.2148426618135
1342.981338778409,-0.00319,-184.2160013984071
1344.738270596591,-0.003188333333333333,-184.1875867488055
1346.718175182996,-0.003204285714285714,-184.1928419459526
1348.707701665522,-0.003204,-184.1591792665519
1350.487024515086,-0.003191666666666666,-184.1483787577929
1352.249645596591,-0.003206,-184.1555764569118
1354.005875089799,-0.00319,-184.1813852721768
1355.766338778409,-0.003198333333333333,-184.1679539623385
1357.747777901786,-0.003197142857142857,-184.1747312587789
1359.733783135776,-0.003196,-184.1958041290399
1361.489499912219,-0.003188333333333333,-184.1753314697301
1363.257622869318,-0.003192,-184.1661089784557
1365.051273094093,-0.003196666666666667,-184.1692668872345
1366.817311871408,-0.003211666666666667,-184.1684014748189
1368.566219013343,-0.003212,-184.1447629670103
1370.5293046875,-0.0032,-184.1539627052413
1372.526624131944,-0.003225,-184.1290586328412
1374.313031960227,-0.00322,-184.1116124948909
1376.061308900983,-0.003223333333333333,-184.1165151043431
1377.830252721208,-0.003226,-184.0801921567584
1379.616046354166,-0.003205,-184.0964755876828
1381.379758339185,-0.00322,-184.1019477789445
1383.378778786599,-0.003208571428571429,-184.1079538244532
1385.337967043822,-0.00321,-184.1359738209022
1387.105986505682,-0.003208,-184.117523493529
1388.857886584052,-0.003211666666666667,-184.1218523655806
1390.616701665522,-0.003228,-184.1025341110819
1392.407535243055,-0.003215,-184.0822171133055
1394.167441051136,-0.0032,-184.0993635270473
1396.151009962729,-0.003215714285714286,-184.0703711919305
1398.130117889747,-0.003224,-184.0708210466096
1399.891016766152,-0.003215,-184.0804842001608
1401.645031960227,-0.003204,-184.0819227311318
1403.422792047051,-0.003206666666666667,-184.0630443255637
1405.202588778409,-0.003198,-184.0437486734796
1407.1801171875,-0.003211428571428571,-184.0320967276124
1409.144338778409,-0.003211666666666667,-184.0484821895595
1410.92935001717,-0.003218333333333333,-184.0238563918464
1412.698156960227,-0.003206,-184.0245824984161
1414.448691051136,-0.003213333333333334,-184.0189574254518
1416.2136796875,-0.00319,-184.0349548636314
1417.972983058286,-0.003196666666666667,-184.0127598017261
1419.9638796875,-0.003221428571428571,-183.9967227394789
1421.935884232955,-0.003205,-183.9885742681506
1423.699566051136,-0.003212,-184.0078760087051
1425.468290798611,-0.003228333333333333,-183.9805091513087
1427.228190798611,-0.0032,-183.970992613939
1429.010135243055,-0.003215,-183.9720262985825
1431.002370596591,-0.003224285714285714,-183.9660780482214
1432.98670215941,-0.003226,-183.9442330694161
1434.747016896802,-0.003226666666666667,-183.9520183368018
1436.488803283005,-0.003226,-183.9553240624824
1438.245645979635,-0.003216666666666667,-183.9797831005625
1440.011535243056,-0.003223333333333333,-183.9941987735216
1441.784435243056,-0.003204,-183.9409140403475
1443.767759333518,-0.003224285714285714,-183.9507653600211
1445.757949350421,-0.003213333333333333,-183.9337180735379
1447.529424131944,-0.003222,-183.9344405980642
1449.318737158764,-0.003215,-183.9560367264501
1451.079904406601,-0.003222,-183.9432163801108
1452.844868576389,-0.00322,-183.9327151677257
1454.599567327949,-0.003216666666666667,-183.9334359900549
1456.583052414773,-0.003205714285714286,-183.8923841094309
1458.605470385174,-0.003208,-183.9024997819566
1460.358254400143,-0.003203333333333333,-183.8996157403344
1462.122168059593,-0.003218,-183.8981643458847
1463.897208423132,-0.003205,-183.8990274626138
1465.642888989825,-0.003208333333333333,-183.8937007362848
1467.424450771837,-0.003194,-183.9079556676105
1469.392371276285,-0.003192857142857143,-183.9155130329823
1471.37056340843,-0.00321,-183.874430721568
1473.146726199128,-0.0032,-183.9090966182011
1474.9286796875,-0.003221666666666667,-183.9312737382123
1476.699326746324,-0.003224,-183.8996140242555
1478.498585569853,-0.003228333333333333,-183.8667904437512
1480.278609920058,-0.003211666666666667,-183.8524014812988
1482.258004011824,-0.003212857142857143,-183.8502665515983
1484.283526746324,-0.003218,-183.8537112412097
1486.032950275735,-0.003211666666666667,-183.8643625919443
1487.799891452206,-0.003224,-183.7960348693219
1489.581126746324,-0.003238333333333334,-183.7892623965695
1491.350185434626,-0.00321,-183.780512035495
1493.107358258929,-0.00324,-183.7977483348557
1495.078955877976,-0.003237142857142857,-183.8066439282439
1497.073773805147,-0.003231666666666667,-183.8033650419371
1498.824127963362,-0.003222,-183.8040891655475
1500.581318241717,-0.003233333333333333,-183.7885392692202
1502.37383085029,-0.003222,-183.7691426918445
1504.151725664512,-0.003215,-183.7471435910523
1505.898935785061,-0.00323,-183.769002588598
1507.876127306547,-0.003218571428571429,-183.7715507677307
1509.871209099265,-0.003195,-183.71984393273
1511.612005268895,-0.00322,-183.7145094573306
1513.365571253765,-0.003223333333333333,-183.732907500401
1515.111327414772,-0.003208,-183.7000119399267
1516.891819222384,-0.003213333333333334,-183.7162356274358
1518.875832068452,-0.0032,-183.678987644269
1520.857432628676,-0.003223333333333333,-183.6643522591098
1522.641296971451,-0.003218,-183.6502777665158
1524.368353844803,-0.00322,-183.6448342496232
1526.14324595256,-0.003238,-183.6612074999514
1527.89822086397,-0.003228333333333333,-183.642816529659
1529.673412245639,-0.00321,-183.6263079746864
1531.663877800708,-0.003214285714285714,-183.6106238039351
1533.654291452206,-0.003215,-183.5873830530434
1535.420456158088,-0.003226,-183.5885382022712
1537.190486916415,-0.00323,-183.5793411056682
1538.969926746323,-0.003223333333333333,-183.5536451767476
1540.728932561063,-0.003242,-183.5556488130886
1542.511832628677,-0.003235,-183.5280938552026
1544.483272280092,-0.003231428571428572,-183.5156435939072
1546.462373805147,-0.003226,-183.513726426348
1548.249415319684,-0.003228333333333333,-183.5052711825484
1550.023846354167,-0.003218,-183.5120170125283
1551.786586664244,-0.003241666666666667,-183.5134341407788
1553.5226796875,-0.003236666666666667,-183.4767100292513
1555.292338511029,-0.003236,-183.4465859672386
1557.310784449405,-0.003228571428571429,-183.4443561312778
1559.301004988705,-0.00325,-183.4216360357177
1561.050798735119,-0.00323,-183.4157435182895
1562.793536830357,-0.003253333333333333,-183.3920925248851
1564.579788121235,-0.003244,-183.3641394712819
1566.323576239224,-0.003233333333333333,-183.3483722432131
1568.318075913915,-0.003224285714285714,-183.3274665506088
1570.275056158088,-0.003244,-183.276993144119
1572.04987016369,-0.003243333333333333,-183.2814240562672
1573.822291452206,-0.00324,-183.2772848572368
1575.566598292151,-0.00323,-183.2744378815349
1577.323528524709,-0.003232,-183.2456195627142
1579.111284338663,-0.003245,-183.22915926809
1581.087538178066,-0.003237142857142857,-183.194524028095
1583.077596354166,-0.003226,-183.1809000229624
1584.8514296875,-0.003245,-183.1657214841853
1586.598977306547,-0.00325,-183.1486865602028
1588.400973805147,-0.003242,-183.1120587062982
1590.166342478198,-0.00324,-183.1177716845714
1591.936596354167,-0.003224,-183.0752885592228
1593.92097875292,-0.003237142857142857,-183.0515266633911
1595.915382068452,-0.003251666666666667,-183.0193470028313
1597.670739928464,-0.003276666666666667,-182.9856764857313
1599.44300152658,-0.003266,-182.9621952539439
1601.239239211309,-0.003256666666666667,-182.9533451168857
1602.975609099264,-0.003232,-182.9417526374917
1604.753400617732,-0.003248333333333333,-182.8883142419932
1606.7521796875,-0.003242857142857143,-182.8497266883688
1608.741465401786,-0.003256,-182.8170337638722
1610.498043323863,-0.003245,-182.7929019229968
1612.280609920058,-0.003255,-182.8008990352789
1614.036435501453,-0.003242,-182.7607832753144
1615.796435785061,-0.003243333333333333,-182.7301046460968
1617.776087094907,-0.003241428571428571,-182.6781928662726
1619.749005268895,-0.003248,-182.6503480803154
1621.525973805147,-0.00325,-182.6258312340554
1623.274580922068,-0.00325,-182.5894513918929
1625.039738511029,-0.003245,-182.5978790662107
1626.827644393382,-0.003258333333333333,-182.5901840926533
1628.598786830357,-0.003264,-182.5982931745961
1630.372145596591,-0.003256666666666667,-182.4519813731045
1632.367661669482,-0.003255714285714285,-182.2220019442928
1634.34056340843,-0.00326,-182.0618349293041
1636.103009099265,-0.003255,-181.932797092628
1637.864725664512,-0.003256666666666667,-181.8163527699721
1639.637086664244,-0.003224,-181.701849768136
1641.396354106105,-0.003253333333333333,-181.5401656109055
1643.369593973214,-0.003261428571428571,-181.3157332941088
1645.3612796875,-0.003262,-181.0940346364085
1647.143990032328,-0.003253333333333333,-180.8971247506228
1648.924714571221,-0.003266,-180.705125041107
1650.6746796875,-0.003285,-180.5073629059334
1652.454531960227,-0.003285,-180.3237566797721
1654.223840181327,-0.003284,-180.126661674083
1656.196389967874,-0.003314285714285714,-179.8941782308448
1658.170405877976,-0.003298,-179.6832833970042
1659.941251116071,-0.003296666666666666,-179.4921111810341
1661.713644393382,-0.00329,-179.3157901728162
1663.493985569853,-0.003326,-179.1177251942216
1665.249834449405,-0.003325,-178.9292587066401
1667.019346354167,-0.00332,-178.7521198706776
1669.002041592262,-0.003322857142857143,-178.5471580908456
1670.980378482681,-0.00334,-178.3307275229929
1672.722104974856,-0.00335,-178.1430067582441
1674.473958757267,-0.003331666666666667,-177.95304373189
1676.211832628676,-0.003372,-177.7826454730116
1677.990781960227,-0.003353333333333334,-177.6014273138044
1680.001909045298,-0.00337,-177.3878568525658
1681.998702676006,-0.003373333333333334,-177.1783158076178
1683.765126746323,-0.003368,-176.9896110780958
1685.517380836925,-0.003363333333333334,-176.8069240200608
1687.271134232955,-0.003374,-176.6226972444263
1689.043155877976,-0.003401666666666667,-176.445819000307
1690.766691051136,-0.003408,-176.2707716875121
1692.759968149039,-0.003397142857142857,-176.0661954481309
1694.748409099265,-0.00338,-175.8667767749995
1696.531259232954,-0.0034,-175.6761091927592
1698.320606516768,-0.0034,-175.5028149662243
1700.060197759789,-0.00341,-175.3213314572121
1701.831284338663,-0.003416666666666667,-175.1289686136178
1703.83555931713,-0.003405714285714285,-174.9288939240404
1705.7992671875,-0.003406666666666667,-174.7375717143385
1707.567715401786,-0.003416,-174.561897454348
1709.329167492378,-0.00343,-174.3835712408141
1711.078265894397,-0.003426,-174.1879993639191
1712.846737827035,-0.003423333333333333,-174.0140508806811
1714.616274925595,-0.00345,-173.8280999987336
1716.582981574292,-0.00345,-173.643479649862
1718.547530262213,-0.00346,-173.4354919502933
1720.312914981618,-0.003462,-173.2763087668615
1722.074466204354,-0.003476666666666667,-173.1066261766693
1723.863645204741,-0.003483333333333334,-172.9347357059178
1725.64884060704,-0.003462,-172.754005112979
1727.622708258928,-0.003488571428571429,-172.5565786017078
1729.608526746323,-0.003478333333333334,-172.3556267254796
1731.379114981617,-0.003506,-172.1819774756942
1733.137162446121,-0.003503333333333334,-172.0160523642225
1734.945703497023,-0.0035,-171.8331195249798
1736.7088046875,-0.003508333333333333,-171.6502824504039
1738.47787016369,-0.003508333333333333,-171.4774416224709
1740.240503216912,-0.003508,-171.2743508749966
1742.253226857311,-0.003522857142857143,-171.0773033483024
1744.229143102134,-0.003521666666666666,-170.8838547519088
1745.996470385174,-0.003522,-170.7086313465008
1747.77812016369,-0.003525,-170.5380424387923
1749.537162040441,-0.003508,-170.3753960201871
1751.307254400144,-0.003541666666666666,-170.2030944948421
1753.071387004573,-0.003534,-170.0264341057386
1755.031281539352,-0.003548571428571428,-169.8420174571156
1757.028132068452,-0.003535,-169.6334344866498
1758.773318241717,-0.003582,-169.4674616161391
1760.538103216912,-0.003563333333333333,-169.2943927073843
1762.311156431686,-0.003571666666666667,-169.1290434376455
1764.081156431686,-0.003588,-168.9579214102152
1766.0599296875,-0.00358,-168.7642294044446
1768.039397334559,-0.00357,-168.5693567714673
1769.785155877976,-0.003602,-168.4017110865471
1771.54362086397,-0.003596666666666667,-168.2197579747423
1773.287950275735,-0.00361,-168.0566104849927
1775.072214571221,-0.003618333333333333,-167.8792150295071
1777.053491008255,-0.003637142857142857,-167.6916015469255
1779.0446796875,-0.003632,-167.4918563801926
1780.80722086397,-0.00363,-167.3166469479793
1782.576858258928,-0.003636666666666667,-167.1410001068521
1784.35056340843,-0.00364,-166.9719607342317
1786.09656340843,-0.003638333333333333,-166.7930036512042
1787.88324595256,-0.00364,-166.6286971470887
1789.869604921145,-0.003661428571428572,-166.4353756594383
1791.849856158088,-0.00365,-166.2484291454854
1793.619196928879,-0.003652,-166.0700486643634
1795.393800169428,-0.00366,-165.9012815389283
1797.139852101293,-0.003656,-165.7366490241118
1798.903643973214,-0.003668333333333333,-165.5669624375332
1801.000053020833,-0.003663333333333334,-165.3656609896016
1802.756870698736,-0.003662,-165.200952852975
1804.539288882902,-0.003675,-165.0169458886684
1806.292441051136,-0.003688,-164.8494493104838
1808.049886584052,-0.003673333333333333,-164.6952482352681
1809.813303216912,-0.003675,-164.5206690477928
1811.796798953555,-0.003707142857142857,-164.3286152041547
1813.786415319684,-0.003708,-164.1357128985969
1815.549531960227,-0.003731666666666667,-163.9792162225033
1817.312850142045,-0.00372,-163.8097882990986
1819.055846354167,-0.003725,-163.6388287013017
1820.822668193247,-0.003714,-163.4765489886746
1822.636191051136,-0.003731666666666667,-163.2958147091038
1824.640736291273,-0.003721428571428571,-163.1128686802453
1826.641509232954,-0.003768333333333334,-162.9191993809002
1828.411772710756,-0.003766,-162.7470738512667
1830.168528524709,-0.003746666666666667,-162.5766208826823
1831.945958757267,-0.003742,-162.4044851844172
1833.698597334559,-0.003763333333333333,-162.2330257975291
1835.467081986351,-0.00379,-162.0806371230227
1837.462846354166,-0.003765714285714285,-161.8838809187277
1839.463856158088,-0.003771666666666667,-161.7041677358885
1841.249968844126,-0.003788,-161.532968178362
1843.005397334559,-0.00378,-161.358882414422
1844.768633175872,-0.003796666666666667,-161.1973172745175
1846.542914981618,-0.003778,-161.035657911367
1848.317526746323,-0.003796666666666667,-160.861849495881
1850.307046024134,-0.003798571428571428,-160.6813368106008
1852.254426813937,-0.003814,-160.4787682451242
1854.019888989825,-0.003816666666666667,-160.3254454439568
1855.779505268895,-0.003816,-160.1549851600984
1857.527947980183,-0.00383,-159.9872432284536
1859.284251116071,-0.003821666666666667,-159.8173989794828
1861.283745108061,-0.003837142857142857,-159.6284935588412
1863.284070492097,-0.003842,-159.4502118543426
1865.028334859914,-0.003833333333333333,-159.2905385965917
1866.792523060994,-0.003838,-159.1223772831228
1868.557390530873,-0.003848333333333333,-158.9631453763496
1870.328350275735,-0.00384,-158.799445760033
1872.094550275735,-0.003868333333333333,-158.6336132004583
1874.083406102594,-0.003855714285714286,-158.4562185141334
1876.057691592262,-0.003865,-158.2614579655828
1877.795505268895,-0.003866,-158.0964006188876
1879.582032628676,-0.00389,-157.9437324829913
1881.342233904367,-0.003902,-157.7741567807257
1883.125985569853,-0.003905,-157.6093464494738
1884.870191315407,-0.003881666666666667,-157.4489336515549
1886.891737379807,-0.003901666666666667,-157.2671338283519
1888.849173663403,-0.003921666666666667,-157.0694425761081
1890.614450771837,-0.003922,-156.9108798964348
1892.388354106104,-0.003933333333333334,-156.7487320971075
1894.132125470632,-0.003931666666666668,-156.5888877530795
1895.90306340843,-0.003912000000000001,-156.4342367779507
1897.867400841346,-0.003925714285714286,-156.260340038264
1899.8974796875,-0.003938333333333334,-156.0808811800448
1901.657366434488,-0.003946,-155.9249134034803
1903.413435501453,-0.003956666666666666,-155.7735333138967
1905.1856796875,-0.003940000000000001,-155.6144966776232
1906.937772710756,-0.003951666666666667,-155.4419247649587
1908.689209099264,-0.00396,-155.2922735543633
1910.656160456731,-0.003984285714285714,-155.107652014475
1912.672114981618,-0.00398,-154.9313103609829
1914.40302908509,-0.003958,-154.7657372151247
1916.187104974856,-0.003961666666666667,-154.6143066688027
1917.954800169427,-0.003973333333333333,-154.463838727335
1919.727870163691,-0.00397,-154.3085461240466
1921.700932023948,-0.004,-154.1343730393292
1923.663017036897,-0.004008333333333333,-153.9577127289652
1925.440691452206,-0.004014,-153.8087757050254
1927.191047503592,-0.004001666666666666,-153.6452245061559
1928.950444393382,-0.004,-153.4940933470931
1930.721540152616,-0.004030000000000001,-153.3282516764168
1932.721981574292,-0.004011428571428571,-153.1523304425188
1934.693067922794,-0.004008,-152.9878996161264
1936.456127963362,-0.004030000000000001,-152.8196160875263
1938.218989211309,-0.004055,-152.666045339503
1939.981856158088,-0.004056,-152.5111982511005
1941.754318241717,-0.004053333333333333,-152.3505278445811
1943.510594321646,-0.004039999999999999,-152.2016977419118
1945.498340064858,-0.004051428571428571,-152.0300251948727
1947.472816051136,-0.004068333333333334,-151.852000069738
1949.258024925595,-0.004078,-151.6917114720768
1951.005053181476,-0.004083333333333334,-151.5394905521278
1952.773096354166,-0.004092,-151.3879734894597
1954.526789443598,-0.004095,-151.2303165838238
1956.2916796875,-0.00412,-151.0823237253431
1958.287621995192,-0.00411,-150.9124556644305
1960.275244393382,-0.00412,-150.7455611606793
1962.061366434488,-0.004116666666666667,-150.5933425378336
1963.805008955793,-0.004122,-150.4266744087469
1965.569121547965,-0.004118333333333333,-150.2730077687608
1967.339771641523,-0.004134,-150.1245605350921
1969.323736830357,-0.00415,-149.9538811956992
1971.314975142045,-0.004135,-149.7957369414167
1973.082377361919,-0.004136666666666666,-149.6468799398138
1974.842990032327,-0.004152,-149.492174088698
1976.6314421875,-0.004148333333333333,-149.3397796521604
1978.354560639881,-0.004152,-149.1944139690185
1980.11059922773,-0.004163333333333333,-149.0250348658695
1982.115606293004,-0.004164285714285715,-148.8643426693847
1984.0945421875,-0.00417,-148.6824485872654
1985.846938946759,-0.004171666666666666,-148.5311042433311
1987.603208423132,-0.004173333333333334,-148.3727820899427
1989.390291452206,-0.004182,-148.2246709774373
1991.133643542922,-0.004180000000000001,-148.0946076566392
1993.1198796875,-0.00419,-147.9241054416468
1995.113282097139,-0.0042,-147.7559586733245
1996.862191315407,-0.004201666666666667,-147.605286851651
1998.608595350151,-0.004189999999999999,-147.4639351754501
2000.364209099265,-0.004208333333333333,-147.3146476767198
2002.131132068452,-0.0042,-147.1665965944911
2003.916785569853,-0.004204,-147.0227688620022
2005.889795072115,-0.0042,-146.8662275880905
2007.876338511029,-0.004215,-146.6954416566487
2009.642748653017,-0.004208,-146.5531207217752
2011.394536830357,-0.00421,-146.4037645272664
2013.151810639881,-0.004224,-146.2650826269239
2014.914282097139,-0.004218333333333333,-146.1140484588461
2016.892355877976,-0.004231428571428572,-145.9566261938625
2018.890963778409,-0.004252000000000001,-145.7820320835388
2020.656274925595,-0.004246666666666667,-145.6346929303114
2022.423970385174,-0.004254000000000001,-145.4884696142162
2024.190516896802,-0.004266666666666667,-145.328985778387
2025.945249454942,-0.004288333333333333,-145.1887339791671
2027.717377361918,-0.004268000000000001,-145.0512932333429
2029.708077835648,-0.004274285714285714,-144.8959864740527
2031.680884506777,-0.004315,-144.7285065122997
2033.453362040441,-0.004298,-144.5813135892981
2035.226526746323,-0.004308333333333333,-144.4310117611803
2037.012914981617,-0.00431,-144.2797205594112
2038.7704796875,-0.004328333333333333,-144.1373669641404
2040.549865734012,-0.004346666666666666,-144.0032739984203
2042.53753015479,-0.004336666666666667,-143.8367154526754
2044.498905877976,-0.004323333333333334,-143.6654906357857
2046.262458757267,-0.00434,-143.5310712289343
2048.0131796875,-0.004352,-143.3945370578281
2049.774819222384,-0.004366666666666667,-143.2506470899946
2051.552598292151,-0.004372,-143.1014135187444
2053.512934404481,-0.004354285714285714,-142.9465295633806
2055.517168059593,-0.004358333333333333,-142.7962257632944
2057.269559205572,-0.004376666666666667,-142.6455882678159
2059.043832628676,-0.004376,-142.5080380688534
2060.814547157379,-0.004361666666666666,-142.3631543075559
2062.559655591114,-0.004382,-142.231014293968
2064.330020863971,-0.00439,-142.0841514931884
2066.314528744103,-0.004392857142857143,-141.9053994450364
2068.299703216912,-0.00438,-141.7680193426461
2070.068232628677,-0.004386666666666666,-141.6225018756934
2071.825420863971,-0.004388,-141.4878077586114
2073.584958757267,-0.004403333333333333,-141.3426107724337
2075.362737827035,-0.004408,-141.2067832118827
2077.359349498821,-0.00441142857142857,-141.0459940691318
2079.334609099265,-0.004425000000000001,-140.8971891008553
2081.112560639881,-0.004423333333333334,-140.7450019320741
2082.885633175872,-0.00441,-140.6202311863457
2084.638265053354,-0.004444999999999999,-140.4729721321374
2086.392564744971,-0.004424,-140.3338285806229
2088.179598292151,-0.004438333333333333,-140.1896236415486
2090.147022280093,-0.004438571428571429,-140.0291931806757
2092.144548735119,-0.004448,-139.8730545755363
2093.904267922794,-0.004458333333333333,-139.7331352652325
2095.658870163691,-0.004449999999999999,-139.5914752305293
2097.443598292151,-0.004446666666666666,-139.4551649660601
2099.213226199128,-0.004475,-139.3053067700952
2101.009432628677,-0.004476,-139.1639542350099
2102.994105613426,-0.004478571428571428,-138.9989098281917
2104.970766107253,-0.004493333333333333,-138.8374419575075
2106.737155877976,-0.004477999999999999,-138.6953494976156
2108.490503216912,-0.0045,-138.5651933435735
2110.245917782738,-0.00451,-138.4217991486342
2112.021540152617,-0.004512,-138.2788160861499
2113.776338511029,-0.004515,-138.1386557559286
2115.7723046875,-0.004518571428571428,-137.9902374881085
2117.751540152616,-0.004512,-137.8300930031587
2119.517714981618,-0.004536666666666666,-137.6916502890619
2121.287311871408,-0.00453,-137.5437144472748
2123.036256158088,-0.004525,-137.4103377996093
2124.810173805147,-0.00456,-137.2626165582862
2126.78638723467,-0.004541666666666666,-137.1152325664014
2128.748702676006,-0.004540000000000001,-136.958767407562
2130.526435501454,-0.004569999999999999,-136.8270718336577
2132.290261082849,-0.00459,-136.69537168171
2134.054228467988,-0.004593333333333334,-136.5457136023577
2135.817947980183,-0.004584,-136.4101352431878
2137.554984565549,-0.00458,-136.265621097332
2139.532955877976,-0.004571666666666667,-136.1242403634359
2141.534072544643,-0.004576666666666666,-135.9801401078972
2143.290560639881,-0.004578333333333334,-135.8193608254237
2145.052108258928,-0.004582,-135.7038393430692
2146.805449802443,-0.004598333333333334,-135.5697918028016
2148.571373805147,-0.004574,-135.4219516320782
2150.55909478184,-0.004580000000000001,-135.2699989544006
2152.545100142046,-0.004608333333333333,-135.12511601469
2154.320772710756,-0.004612,-134.9882540286565
2156.077725664511,-0.004613333333333333,-134.8593674026158
2157.86200152658,-0.004598333333333333,-134.7223883950731
2159.625807594477,-0.004634,-134.5829497480168
2161.409786830357,-0.004636666666666667,-134.4489926452595
2163.400384449405,-0.00463,-134.3104905728264
2165.3716796875,-0.00464,-134.1542479695339
2167.148127963362,-0.004653333333333333,-134.02060890219
2168.918346354167,-0.004648,-133.898285572893
2170.692330850291,-0.004658333333333333,-133.7580489560708
2172.4904796875,-0.004661666666666666,-133.6251138799549
2174.237185711597,-0.00466,-133.4856139569926
2176.223855613426,-0.004672857142857143,-133.3369624572712
2178.201162040441,-0.004678333333333334,-133.1801193568444
2179.967702414773,-0.00469,-133.0456467225674
2181.731314981618,-0.004691666666666666,-132.930785674368
2183.469691592262,-0.004686,-132.7939583056508
2185.24537016369,-0.004701666666666666,-132.6650934900337
2187.216073918269,-0.0047,-132.5153616368443
2189.18654715738,-0.004693999999999999,-132.36959842796
2190.959383391204,-0.004708333333333333,-132.2377748941253
2192.720133175872,-0.004725,-132.1089803917454
2194.496874809452,-0.004719999999999999,-131.968492165256
2196.252984565549,-0.004733333333333333,-131.8416566873572
2198.01935784842,-0.004734,-131.712573836504
2199.99359557535,-0.004744285714285715,-131.5650916611923
2201.998667639307,-0.004753333333333333,-131.4305969247922
2203.735150275735,-0.004758333333333333,-131.2962310216653
2205.514409099264,-0.004738,-131.1683579635582
2207.311227306548,-0.004755000000000001,-131.0379226081097
2209.077985569853,-0.00477,-130.9074888624375
2210.860838224085,-0.004778333333333333,-130.7837913562842
2212.8286796875,-0.004757142857142856,-130.6350818028323
2214.777888989825,-0.004773333333333333,-130.4888309778655
2216.539397334559,-0.004766,-130.3424943156356
2218.294598292151,-0.004761666666666667,-130.2105257807307
2220.064761082849,-0.004776,-130.0936089252725
2221.828051780523,-0.00478,-129.9635635690175
2223.805197869318,-0.004791428571428571,-129.81105314039
2225.79412016369,-0.004784,-129.6667619734191
2227.568632068453,-0.004786666666666667,-129.5494201147549
2229.330237827035,-0.004806666666666667,-129.4086320159485
2231.097656431686,-0.004802,-129.287400139893
2232.84100152658,-0.00481,-129.1569331278398
2234.631150275735,-0.004822,-129.0247713810768
2236.622505375573,-0.004801428571428571,-128.8831019988758
2238.585893170646,-0.004816666666666667,-128.7368573536128
2240.393251116071,-0.004811999999999999,-128.6025039966481
2242.1696796875,-0.004828333333333333,-128.475037042822
2243.913272710756,-0.004848333333333333,-128.3485856690472
2245.684256158088,-0.004816,-128.2211728973551
2247.443267922794,-0.004821666666666667,-128.1005380533722
2249.427523724197,-0.004847142857142857,-127.9584598562037
2251.410960175305,-0.004838,-127.8141104798838
2253.166420863971,-0.004863333333333334,-127.6866157999292
2254.918594321647,-0.004853333333333334,-127.5563241788942
2256.690150951868,-0.004876,-127.4312467160543
2258.44614480378,-0.004878333333333333,-127.3186522364719
2260.433860639881,-0.004885714285714286,-127.1656664166122
2262.440103216912,-0.004908,-127.0225530315704
2264.185538511029,-0.004896666666666666,-126.8961487220517
2265.970072544643,-0.004906,-126.7719701013008
2267.716909572558,-0.004893333333333334,-126.6411146413162
2269.473962040441,-0.00492,-126.5128090337339
2271.4596796875,-0.004922857142857143,-126.3803679980699
2273.435162040441,-0.00492,-126.2383400933047
2275.184997334559,-0.004918333333333334,-126.1103792886637
2276.95723921131,-0.004952,-125.9877881975101
2278.736509232955,-0.004926666666666667,-125.8453960389466
2280.53553851103,-0.004936000000000001,-125.7198131171658
2282.298978538075,-0.004945,-125.598260266944
2284.06662086397,-0.004946,-125.4709808418143
2286.034763020833,-0.004945714285714286,-125.322482740982
2288.029786830357,-0.004946666666666667,-125.1794860592905
2289.790013020833,-0.004955,-125.0629240172249
2291.545596354167,-0.004959999999999999,-124.9320141277271
2293.285162446121,-0.004961666666666667,-124.8128383030014
2295.04479596657,-0.004958,-124.6805698827059
2297.035349498821,-0.004958571428571429,-124.540108899469
2299.012667782737,-0.004966666666666667,-124.3939028517352
2300.791773805147,-0.004968,-124.2707838506308
2302.559854106105,-0.004981666666666667,-124.1475304227083
2304.325763020834,-0.004978,-124.0155654042449
2306.086162446121,-0.004985,-123.8959030689571
2307.881242905891,-0.005,-123.7648976975329
2309.874287164136,-0.004994285714285714,-123.6181894996237
2311.8541796875,-0.004986,-123.4912315276075
2313.623397334559,-0.005011666666666667,-123.3574564430599
2315.404417782738,-0.005018333333333333,-123.2334300097783
2317.149272710756,-0.00501,-123.116211250546
2318.9204296875,-0.005026666666666667,-122.9924222362386
2320.694914981618,-0.005012,-122.8586467317748
2322.67927016369,-0.00502,-122.7178860318265
2324.666997334559,-0.00503,-122.5805331869139
2326.427137518825,-0.005044000000000001,-122.4532416507378
2328.181173940374,-0.005041666666666667,-122.3358330675498
2329.959498964608,-0.005039999999999999,-122.2067850251535
2331.709725664511,-0.005055,-122.0824096379352
2333.712226857312,-0.005058571428571429,-121.9463967180552
2335.692714981618,-0.005068333333333333,-121.8028899054083
2337.460533620084,-0.005062000000000001,-121.6827472218682
2339.20137848268,-0.005075,-121.5677510567023
2340.962319222384,-0.005096000000000001,-121.4329688903879
2342.738294145331,-0.005083333333333334,-121.3158332943936
2344.501576239224,-0.005088333333333334,-121.1855934961844
2346.520462706368,-0.005098333333333333,-121.0578057794527
2348.490284338663,-0.005098333333333333,-120.9173857846113
2350.237370163691,-0.005105,-120.7957345306777
2352.0146796875,-0.005106,-120.6705668782947
2353.78279596657,-0.005121666666666667,-120.5447853330701
2355.550773805147,-0.00513,-120.421849781257
2357.307803283005,-0.005135000000000001,-120.2954334530215
2359.309275841346,-0.005134285714285714,-120.1621120845691
2361.258751116071,-0.005137999999999999,-120.0279126618994
2363.0088796875,-0.005135,-119.903279513958
2364.817715401786,-0.005142,-119.7866566390102
2366.569417782738,-0.005151666666666666,-119.6693083757085
2368.347819222384,-0.005158333333333333,-119.5469675950721
2370.125932699548,-0.005146,-119.4219374348395
2372.113174833131,-0.005157142857142858,-119.2823218573893
2374.100551780523,-0.005171666666666666,-119.1551932120806
2375.885417782738,-0.00518,-119.0319520786165
2377.6123421875,-0.005165,-118.914594616039
2379.404920651355,-0.005181666666666666,-118.7830131746562
2381.136461296695,-0.005182,-118.662063623089
2383.13829650993,-0.005152857142857143,-118.531136446888
2385.117053181476,-0.005164999999999999,-118.3973053888785
2386.871001526581,-0.005168,-118.2774331501409
2388.637402579066,-0.005188333333333334,-118.1489006899781
2390.403759232955,-0.005189999999999999,-118.0355522525842
2392.184426675452,-0.005203333333333334,-117.916181930534
2393.954372869318,-0.005203333333333333,-117.7918612467038
2395.933555877976,-0.005214285714285715,-117.6602664244281
2397.929737158764,-0.00521,-117.5270677089393
2399.714209099265,-0.005218333333333334,-117.4019013507037
2401.508215401785,-0.005229999999999999,-117.2882516893038
2403.302267922794,-0.005235,-117.1666445526906
2405.075001116071,-0.005226666666666666,-117.0419474174251
2406.822495779454,-0.005224,-116.9267282685312
2408.580772710756,-0.005223333333333333,-116.8131312714162
2410.557277726716,-0.005244285714285714,-116.6826656551245
2412.569668059593,-0.005258,-116.5468775338442
2414.334609099265,-0.005263333333333333,-116.4227244959605
2416.092967043822,-0.005253333333333333,-116.3067569735913
2417.867270048946,-0.005252000000000001,-116.1863439465144
2419.650888989825,-0.005278333333333334,-116.0733328021113
2421.416197759789,-0.00527,-115.9541293970906
2423.365511463201,-0.005278571428571429,-115.8243360965605
2425.391385569853,-0.005275,-115.6848911565604
2427.15979596657,-0.005288,-115.5625884200835
2428.91202086397,-0.005285,-115.4603764810973
2430.656084449405,-0.005302,-115.3473146132208
2432.418888989826,-0.005293333333333333,-115.2217080936566
2434.410802329009,-0.005304285714285715,-115.0957366641109
2436.392513020834,-0.005328333333333332,-114.9622596402587
2438.169609920058,-0.005318,-114.8482918069355
2439.940319222384,-0.005313333333333333,-114.7183270644133
2441.715291452206,-0.005332,-114.600704425005
2443.4928796875,-0.005326666666666666,-114.481313492643
2445.23962016369,-0.005342,-114.375804975128
2447.206025841346,-0.0053325,-114.2421351870272
2449.219460175305,-0.005356,-114.1155867699102
2450.955362040441,-0.005335,-114.0042801518588
2452.715104974856,-0.005328,-113.8913654511672
2454.5006796875,-0.005361666666666666,-113.7791057188698
2456.282366434488,-0.00538,-113.667366721581
2458.026726746323,-0.005343333333333334,-113.5478991663352
2460.014595575351,-0.005367142857142858,-113.4270185686094
2462.006621547965,-0.005362,-113.2879567520515
2463.762533346037,-0.005371666666666667,-113.1702154958094
2465.517089326054,-0.005382,-113.0611797695187
2467.279417782738,-0.005381666666666667,-112.9397209313726
2469.044384232955,-0.005398333333333333,-112.8295675180539
2470.833944747741,-0.005402,-112.7157086607673
2472.810991614106,-0.005397142857142858,-112.5924771612657
2474.791516896802,-0.005403333333333333,-112.466774297219
2476.576643973215,-0.005392,-112.3467729850521
2478.324588778409,-0.005405,-112.238807913927
2480.093482013082,-0.005416666666666667,-112.1195016148889
2481.861060639881,-0.005406,-112.0018798614916
2483.64771377841,-0.005435000000000001,-111.8907328916917
2485.665464734229,-0.005417142857142856,-111.7629678351198
2487.628167782738,-0.00543,-111.628374045493
2489.414817618534,-0.005443999999999999,-111.522374561869
2491.201338511029,-0.005446666666666666,-111.4136496465349
2492.953373805147,-0.005434,-111.2941906388533
2494.71276014727,-0.00545,-111.1833002036649
2496.499441592262,-0.005456666666666666,-111.0650040828336
2498.4856796875,-0.005467142857142858,-110.9375137788151
2500.484098292151,-0.005478,-110.8174960210375
2502.234609099265,-0.00548,-110.6992203293354
2503.992393973214,-0.005468,-110.5829861688773
2505.748807594477,-0.005488333333333333,-110.4767859841935
2507.482714170259,-0.005492,-110.3763608392173
2509.263516896802,-0.005491666666666666,-110.2585789130929
2511.287333533654,-0.0055,-110.1317233965782
2513.24537016369,-0.005491999999999999,-110.0135331595056
2514.999503216912,-0.005503333333333334,-109.8999312077673
2516.741232628677,-0.005495,-109.7779566169628
2518.513726199128,-0.005524,-109.6737321632399
2520.292867922794,-0.005515,-109.5468482469178
2522.260031539352,-0.005522857142857143,-109.4319412786628
2524.242619446536,-0.005522,-109.3119202204666
2526.005044393382,-0.005536666666666666,-109.2031040678749
2527.755551780524,-0.005534,-109.0928209108269
2529.546950275735,-0.005536666666666666,-108.9836226767268
2531.318477306548,-0.005531666666666667,-108.8761764189609
2533.303689302885,-0.005526666666666667,-108.7415130116712
2535.270587733477,-0.00554,-108.6181679868067
2537.043997334559,-0.005548333333333333,-108.5132564773073
2538.816932561063,-0.005546,-108.4083831150859
2540.586886584052,-0.005556666666666667,-108.2882190249978
2542.342575036337,-0.005558,-108.1802463864306
2544.098196928879,-0.005568333333333333,-108.0712010205208
2546.121877800708,-0.005569999999999999,-107.9504296905882
2548.094882068453,-0.005574,-107.8278844742654
2549.839846354167,-0.005586666666666667,-107.7203242291965
2551.621788121235,-0.005588,-107.6163785562646
2553.378875089799,-0.005583333333333333,-107.5029863100087
2555.097108258929,-0.005611666666666667,-107.4017556083282
2557.104542072821,-0.005585000000000001,-107.2930865035751
2559.083330850291,-0.005600000000000001,-107.1709465292431
2560.831094321646,-0.005596666666666666,-107.0644305809671
2562.613465401786,-0.005602,-106.9528199151854
2564.359024925595,-0.005600000000000001,-106.8354406225706
2566.149145596591,-0.00561,-106.7370350905138
2567.941447980183,-0.005618333333333334,-106.6230428709081
2569.902131610577,-0.005632857142857142,-106.5015792824476
2571.892282097138,-0.005618,-106.3846710234338
2573.6296796875,-0.005643333333333333,-106.2723597198667
2575.401600142045,-0.005634999999999999,-106.1632671451733
2577.181114981618,-0.005652,-106.0502109272882
2578.968256158088,-0.005643333333333333,-105.9495950661837
2580.723786830357,-0.005652,-105.8339422113719
2582.702725983796,-0.005645714285714286,-105.7118285707252
2584.658891452206,-0.005671666666666666,-105.5969247940106
2586.456144803779,-0.005667999999999999,-105.496338645876
2588.218667492378,-0.00567,-105.3769151510867
2589.983788121235,-0.005671666666666667,-105.2759457192157
2591.7371796875,-0.005682,-105.1659960921795
2593.531072544643,-0.005686666666666666,-105.0589878724995
2595.495641592262,-0.005675714285714286,-104.942740166958
2597.475397334559,-0.00569,-104.8229342640016
2599.247114981617,-0.005691666666666667,-104.7161789106668
2601.000763020833,-0.005686,-104.6078895592128
2602.770997334559,-0.005708333333333333,-104.5048310643533
2604.541531960227,-0.005722,-104.4037653355426
2606.512170596591,-0.005714285714285714,-104.2810550247396
2608.516621547965,-0.005711666666666667,-104.154311169719
2610.282044393382,-0.00572,-104.0485809235318
2612.047577414773,-0.005724,-103.9446708202945
2613.817350275735,-0.005728333333333334,-103.8367239648307
2615.574747869318,-0.005732000000000001,-103.7359582065931
2617.3518796875,-0.005736666666666668,-103.6361296042648
2619.344203051986,-0.005735714285714286,-103.5093593143315
2621.354300377155,-0.005744999999999999,-103.3956092871082
2623.111272710756,-0.005748,-103.2928856857995
2624.882116469109,-0.005756666666666666,-103.1909479157636
2626.6661796875,-0.005764,-103.0792974104279
2628.428300377155,-0.005775000000000001,-102.9782971646065
2630.191962040441,-0.00579,-102.8736398208719
2631.983607398344,-0.005786,-102.7666385588595
2633.967068576389,-0.005777142857142857,-102.6561208628443
2635.949714981617,-0.005768333333333334,-102.532581459486
2637.7269296875,-0.005772,-102.4287582597227
2639.490691452206,-0.005785,-102.3220443558492
2641.258338511029,-0.00578,-102.2190588745759
2643.007005268896,-0.005791666666666666,-102.1175837060316
2644.771005268895,-0.005796,-102.0099149731983
2646.779260639881,-0.005803749999999999,-101.892492493513
2648.779267922794,-0.0058,-101.7834473245293
2650.543270048945,-0.005813333333333334,-101.6742762188357
2652.266203497024,-0.0058,-101.5756036962136
2654.046009099265,-0.005813333333333334,-101.4641512033917
2655.829109920058,-0.005812,-101.3722288519421
2657.81355005787,-0.005821428571428571,-101.2496948857204
2659.779091452206,-0.005818333333333333,-101.1285469429432
2661.55673921131,-0.005818333333333333,-101.0276082208223
2663.345365080758,-0.00583,-100.9254482972478
2665.120167782738,-0.005833333333333334,-100.8175772101724
2666.887185569853,-0.005843999999999999,-100.7172372038109
2668.621197334559,-0.005851666666666666,-100.6246874385711
2670.399314981618,-0.005847999999999999,-100.5215141324084
2672.397538178066,-0.005862857142857143,-100.4055093927451
2674.377450771838,-0.005846666666666667,-100.2892456223672
2676.126282097139,-0.005874,-100.1869381183759
2677.90306340843,-0.005868333333333333,-100.0934961830855
2679.656798735119,-0.00587,-99.98600185690573
2681.428185569853,-0.005866,-99.87827330732158
2683.415455388435,-0.005874285714285714,-99.76549528422657
2685.368322544643,-0.005886666666666667,-99.66823952790074
2687.131467922794,-0.005898,-99.56292025365096
2688.893989211309,-0.00591,-99.46544543148651
2690.658691592262,-0.00591,-99.36394031020745
2692.404572544643,-0.0059,-99.26936564200442
2694.388576883762,-0.005911428571428572,-99.15390128612611
2696.390208423133,-0.005928,-99.03955253045113
2698.143417782738,-0.00591,-98.93605750843244
2699.697707856514,-0.005934999999999999,-98.84744167631162
