Record Length,2500,Points,-9.100000374E-3,119.9999973E-3,
Sample Interval,9.999999747E-6,s,-9.090000764E-3,119.9999973E-3,
Trigger Point,910.000060390,Samples,-9.080000222E-3,119.9999973E-3,
,,,-9.070000611E-3,79.999998212E-3,
,,,-9.060000069E-3,79.999998212E-3,
,,,-9.050000459E-3,79.999998212E-3,
Source,CH1,,-9.039999917E-3,79.999998212E-3,
Vertical Units,Volts,,-9.030000307E-3,79.999998212E-3,
Vertical Scale,999.999977648E-3,,-9.020000696E-3,79.999998212E-3,
Vertical Offset,0,,-9.010000154E-3,79.999998212E-3,
Horizontal Units,s,,-9.000000544E-3,79.999998212E-3,
Horizontal Scale,2.4999999E-3,,-8.990000002E-3,79.999998212E-3,
Pt Fmt,Y,,-8.980000392E-3,119.9999973E-3,
Yzero,-3.84000000,,-8.970000781E-3,79.999998212E-3,
Probe Atten,1.000000,,-8.960000239E-3,79.999998212E-3,
,,,-8.950000629E-3,79.999998212E-3,
Note,TBS 1104 - 15:45:48   08/04/2021,,-8.940000087E-3,79.999998212E-3,
,,,-8.930000477E-3,39.99999911E-3,
,,,-8.919999935E-3,79.999998212E-3,
,,,-8.910000324E-3,79.999998212E-3,
,,,-8.900000714E-3,79.999998212E-3,
,,,-8.890000172E-3,79.999998212E-3,
,,,-8.880000561E-3,79.999998212E-3,
,,,-8.870000020E-3,79.999998212E-3,
,,,-8.860000409E-3,79.999998212E-3,
,,,-8.850000799E-3,79.999998212E-3,
,,,-8.840000257E-3,79.999998212E-3,
,,,-8.830000646E-3,119.9999973E-3,
,,,-8.820000105E-3,79.999998212E-3,
,,,-8.810000494E-3,79.999998212E-3,
,,,-8.799999952E-3,79.999998212E-3,
,,,-8.790000342E-3,79.999998212E-3,
,,,-8.780000731E-3,119.9999973E-3,
,,,-8.770000190E-3,79.999998212E-3,
,,,-8.760000579E-3,79.999998212E-3,
,,,-8.750000037E-3,79.999998212E-3,
,,,-8.740000427E-3,119.9999973E-3,
,,,-8.730000816E-3,119.9999973E-3,
,,,-8.720000274E-3,79.999998212E-3,
,,,-8.710000664E-3,79.999998212E-3,
,,,-8.700000122E-3,119.9999973E-3,
,,,-8.690000512E-3,79.999998212E-3,
,,,-8.679999970E-3,79.999998212E-3,
,,,-8.670000359E-3,79.999998212E-3,
,,,-8.660000749E-3,119.9999973E-3,
,,,-8.650000207E-3,119.9999973E-3,
,,,-8.640000597E-3,79.999998212E-3,
,,,-8.630000055E-3,79.999998212E-3,
,,,-8.620000444E-3,79.999998212E-3,
,,,-8.610000834E-3,79.999998212E-3,
,,,-8.600000292E-3,79.999998212E-3,
,,,-8.590000682E-3,79.999998212E-3,
,,,-8.580000140E-3,79.999998212E-3,
,,,-8.570000529E-3,79.999998212E-3,
,,,-8.559999987E-3,79.999998212E-3,
,,,-8.550000377E-3,79.999998212E-3,
,,,-8.540000767E-3,79.999998212E-3,
,,,-8.530000225E-3,79.999998212E-3,
,,,-8.520000614E-3,119.9999973E-3,
,,,-8.510000072E-3,79.999998212E-3,
,,,-8.500000462E-3,79.999998212E-3,
,,,-8.490000851E-3,79.999998212E-3,
,,,-8.480000310E-3,79.999998212E-3,
,,,-8.470000699E-3,79.999998212E-3,
,,,-8.460000157E-3,79.999998212E-3,
,,,-8.450000547E-3,79.999998212E-3,
,,,-8.440000005E-3,119.9999973E-3,
,,,-8.430000395E-3,79.999998212E-3,
,,,-8.420000784E-3,119.9999973E-3,
,,,-8.410000242E-3,119.9999973E-3,
,,,-8.400000632E-3,79.999998212E-3,
,,,-8.390000090E-3,79.999998212E-3,
,,,-8.380000480E-3,119.9999973E-3,
,,,-8.369999938E-3,119.9999973E-3,
,,,-8.360000327E-3,79.999998212E-3,
,,,-8.350000717E-3,79.999998212E-3,
,,,-8.340000175E-3,79.999998212E-3,
,,,-8.330000564E-3,79.999998212E-3,
,,,-8.320000023E-3,79.999998212E-3,
,,,-8.310000412E-3,79.999998212E-3,
,,,-8.300000802E-3,79.999998212E-3,
,,,-8.290000260E-3,79.999998212E-3,
,,,-8.280000649E-3,79.999998212E-3,
,,,-8.270000108E-3,79.999998212E-3,
,,,-8.260000497E-3,79.999998212E-3,
,,,-8.249999955E-3,119.9999973E-3,
,,,-8.240000345E-3,119.9999973E-3,
,,,-8.230000734E-3,79.999998212E-3,
,,,-8.220000193E-3,79.999998212E-3,
,,,-8.210000582E-3,119.9999973E-3,
,,,-8.200000040E-3,79.999998212E-3,
,,,-8.190000430E-3,79.999998212E-3,
,,,-8.180000819E-3,119.9999973E-3,
,,,-8.170000277E-3,119.9999973E-3,
,,,-8.160000667E-3,79.999998212E-3,
,,,-8.150000125E-3,79.999998212E-3,
,,,-8.140000515E-3,119.9999973E-3,
,,,-8.129999973E-3,79.999998212E-3,
,,,-8.120000362E-3,79.999998212E-3,
,,,-8.110000752E-3,119.9999973E-3,
,,,-8.100000210E-3,79.999998212E-3,
,,,-8.090000600E-3,119.9999973E-3,
,,,-8.080000058E-3,79.999998212E-3,
,,,-8.070000447E-3,79.999998212E-3,
,,,-8.060000837E-3,79.999998212E-3,
,,,-8.050000295E-3,119.9999973E-3,
,,,-8.040000685E-3,79.999998212E-3,
,,,-8.030000143E-3,79.999998212E-3,
,,,-8.020000532E-3,79.999998212E-3,
,,,-8.009999990E-3,119.9999973E-3,
,,,-8.000000380E-3,79.999998212E-3,
,,,-7.990000769E-3,79.999998212E-3,
,,,-7.980000228E-3,79.999998212E-3,
,,,-7.970000617E-3,79.999998212E-3,
,,,-7.960000075E-3,119.9999973E-3,
,,,-7.950000465E-3,79.999998212E-3,
,,,-7.940000854E-3,119.9999973E-3,
,,,-7.930000313E-3,119.9999973E-3,
,,,-7.920000702E-3,79.999998212E-3,
,,,-7.910000160E-3,79.999998212E-3,
,,,-7.900000550E-3,79.999998212E-3,
,,,-7.890000008E-3,79.999998212E-3,
,,,-7.880000398E-3,79.999998212E-3,
,,,-7.870000787E-3,79.999998212E-3,
,,,-7.860000245E-3,79.999998212E-3,
,,,-7.850000635E-3,79.999998212E-3,
,,,-7.840000093E-3,79.999998212E-3,
,,,-7.830000482E-3,79.999998212E-3,
,,,-7.820000872E-3,119.9999973E-3,
,,,-7.810000330E-3,79.999998212E-3,
,,,-7.800000254E-3,79.999998212E-3,
,,,-7.790000178E-3,79.999998212E-3,
,,,-7.780000567E-3,79.999998212E-3,
,,,-7.770000491E-3,79.999998212E-3,
,,,-7.760000415E-3,79.999998212E-3,
,,,-7.750000339E-3,119.9999973E-3,
,,,-7.740000263E-3,79.999998212E-3,
,,,-7.730000187E-3,79.999998212E-3,
,,,-7.720000576E-3,79.999998212E-3,
,,,-7.710000500E-3,79.999998212E-3,
,,,-7.700000424E-3,79.999998212E-3,
,,,-7.690000348E-3,79.999998212E-3,
,,,-7.680000272E-3,119.9999973E-3,
,,,-7.670000196E-3,79.999998212E-3,
,,,-7.660000585E-3,79.999998212E-3,
,,,-7.650000509E-3,79.999998212E-3,
,,,-7.640000433E-3,79.999998212E-3,
,,,-7.630000357E-3,79.999998212E-3,
,,,-7.620000280E-3,79.999998212E-3,
,,,-7.610000204E-3,79.999998212E-3,
,,,-7.600000594E-3,119.9999973E-3,
,,,-7.590000518E-3,79.999998212E-3,
,,,-7.580000442E-3,119.9999973E-3,
,,,-7.570000365E-3,79.999998212E-3,
,,,-7.560000289E-3,119.9999973E-3,
,,,-7.550000213E-3,119.9999973E-3,
,,,-7.540000603E-3,119.9999973E-3,
,,,-7.530000526E-3,119.9999973E-3,
,,,-7.520000450E-3,79.999998212E-3,
,,,-7.510000374E-3,119.9999973E-3,
,,,-7.500000298E-3,79.999998212E-3,
,,,-7.490000222E-3,119.9999973E-3,
,,,-7.480000611E-3,119.9999973E-3,
,,,-7.470000535E-3,119.9999973E-3,
,,,-7.460000459E-3,79.999998212E-3,
,,,-7.450000383E-3,119.9999973E-3,
,,,-7.440000307E-3,79.999998212E-3,
,,,-7.430000231E-3,79.999998212E-3,
,,,-7.420000620E-3,119.9999973E-3,
,,,-7.410000544E-3,79.999998212E-3,
,,,-7.400000468E-3,119.9999973E-3,
,,,-7.390000392E-3,79.999998212E-3,
,,,-7.38000032E-3,79.999998212E-3,
,,,-7.37000024E-3,79.999998212E-3,
,,,-7.36000063E-3,119.9999973E-3,
,,,-7.35000055E-3,119.9999973E-3,
,,,-7.34000048E-3,79.999998212E-3,
,,,-7.33000040E-3,79.999998212E-3,
,,,-7.32000032E-3,79.999998212E-3,
,,,-7.31000025E-3,79.999998212E-3,
,,,-7.30000064E-3,79.999998212E-3,
,,,-7.29000056E-3,79.999998212E-3,
,,,-7.28000049E-3,79.999998212E-3,
,,,-7.27000041E-3,79.999998212E-3,
,,,-7.26000033E-3,79.999998212E-3,
,,,-7.25000026E-3,119.9999973E-3,
,,,-7.24000065E-3,79.999998212E-3,
,,,-7.23000057E-3,79.999998212E-3,
,,,-7.22000049E-3,79.999998212E-3,
,,,-7.21000042E-3,79.999998212E-3,
,,,-7.20000034E-3,79.999998212E-3,
,,,-7.19000027E-3,79.999998212E-3,
,,,-7.18000066E-3,79.999998212E-3,
,,,-7.17000058E-3,79.999998212E-3,
,,,-7.16000050E-3,79.999998212E-3,
,,,-7.15000043E-3,79.999998212E-3,
,,,-7.14000035E-3,79.999998212E-3,
,,,-7.13000027E-3,79.999998212E-3,
,,,-7.12000020E-3,119.9999973E-3,
,,,-7.11000059E-3,79.999998212E-3,
,,,-7.10000051E-3,79.999998212E-3,
,,,-7.09000044E-3,79.999998212E-3,
,,,-7.08000036E-3,79.999998212E-3,
,,,-7.07000028E-3,79.999998212E-3,
,,,-7.06000021E-3,79.999998212E-3,
,,,-7.05000060E-3,119.9999973E-3,
,,,-7.04000052E-3,79.999998212E-3,
,,,-7.03000044E-3,79.999998212E-3,
,,,-7.02000037E-3,119.9999973E-3,
,,,-7.01000029E-3,119.9999973E-3,
,,,-7.00000022E-3,79.999998212E-3,
,,,-6.99000061E-3,79.999998212E-3,
,,,-6.98000053E-3,79.999998212E-3,
,,,-6.97000045E-3,79.999998212E-3,
,,,-6.96000038E-3,119.9999973E-3,
,,,-6.95000030E-3,79.999998212E-3,
,,,-6.94000022E-3,79.999998212E-3,
,,,-6.93000061E-3,79.999998212E-3,
,,,-6.92000054E-3,79.999998212E-3,
,,,-6.91000046E-3,79.999998212E-3,
,,,-6.90000039E-3,79.999998212E-3,
,,,-6.89000031E-3,79.999998212E-3,
,,,-6.88000023E-3,79.999998212E-3,
,,,-6.87000062E-3,79.999998212E-3,
,,,-6.86000055E-3,79.999998212E-3,
,,,-6.85000047E-3,79.999998212E-3,
,,,-6.84000039E-3,79.999998212E-3,
,,,-6.83000032E-3,79.999998212E-3,
,,,-6.82000024E-3,79.999998212E-3,
,,,-6.81000063E-3,79.999998212E-3,
,,,-6.80000056E-3,79.999998212E-3,
,,,-6.79000048E-3,79.999998212E-3,
,,,-6.78000040E-3,79.999998212E-3,
,,,-6.77000033E-3,79.999998212E-3,
,,,-6.76000025E-3,79.999998212E-3,
,,,-6.75000064E-3,79.999998212E-3,
,,,-6.74000056E-3,79.999998212E-3,
,,,-6.73000049E-3,79.999998212E-3,
,,,-6.72000041E-3,79.999998212E-3,
,,,-6.71000034E-3,79.999998212E-3,
,,,-6.70000026E-3,79.999998212E-3,
,,,-6.69000065E-3,79.999998212E-3,
,,,-6.68000057E-3,119.9999973E-3,
,,,-6.67000050E-3,79.999998212E-3,
,,,-6.66000042E-3,79.999998212E-3,
,,,-6.65000034E-3,119.9999973E-3,
,,,-6.64000027E-3,79.999998212E-3,
,,,-6.63000066E-3,79.999998212E-3,
,,,-6.62000058E-3,79.999998212E-3,
,,,-6.61000051E-3,79.999998212E-3,
,,,-6.60000043E-3,119.9999973E-3,
,,,-6.59000035E-3,79.999998212E-3,
,,,-6.58000028E-3,79.999998212E-3,
,,,-6.57000067E-3,119.9999973E-3,
,,,-6.56000059E-3,79.999998212E-3,
,,,-6.55000051E-3,79.999998212E-3,
,,,-6.54000044E-3,79.999998212E-3,
,,,-6.53000036E-3,39.99999911E-3,
,,,-6.52000029E-3,79.999998212E-3,
,,,-6.51000021E-3,79.999998212E-3,
,,,-6.50000060E-3,79.999998212E-3,
,,,-6.49000052E-3,79.999998212E-3,
,,,-6.48000045E-3,79.999998212E-3,
,,,-6.47000037E-3,79.999998212E-3,
,,,-6.46000030E-3,79.999998212E-3,
,,,-6.45000022E-3,79.999998212E-3,
,,,-6.44000061E-3,79.999998212E-3,
,,,-6.43000053E-3,119.9999973E-3,
,,,-6.42000046E-3,119.9999973E-3,
,,,-6.41000038E-3,79.999998212E-3,
,,,-6.40000030E-3,79.999998212E-3,
,,,-6.39000023E-3,79.999998212E-3,
,,,-6.38000062E-3,79.999998212E-3,
,,,-6.37000054E-3,79.999998212E-3,
,,,-6.36000047E-3,79.999998212E-3,
,,,-6.35000039E-3,79.999998212E-3,
,,,-6.34000031E-3,119.9999973E-3,
,,,-6.33000024E-3,79.999998212E-3,
,,,-6.32000063E-3,119.9999973E-3,
,,,-6.31000055E-3,79.999998212E-3,
,,,-6.30000047E-3,79.999998212E-3,
,,,-6.29000040E-3,79.999998212E-3,
,,,-6.28000032E-3,119.9999973E-3,
,,,-6.27000025E-3,79.999998212E-3,
,,,-6.26000063E-3,79.999998212E-3,
,,,-6.25000056E-3,79.999998212E-3,
,,,-6.24000048E-3,79.999998212E-3,
,,,-6.23000041E-3,79.999998212E-3,
,,,-6.22000033E-3,119.9999973E-3,
,,,-6.21000025E-3,79.999998212E-3,
,,,-6.20000064E-3,79.999998212E-3,
,,,-6.19000057E-3,79.999998212E-3,
,,,-6.18000049E-3,119.9999973E-3,
,,,-6.17000042E-3,79.999998212E-3,
,,,-6.16000034E-3,79.999998212E-3,
,,,-6.15000026E-3,79.999998212E-3,
,,,-6.14000065E-3,79.999998212E-3,
,,,-6.13000058E-3,79.999998212E-3,
,,,-6.12000050E-3,79.999998212E-3,
,,,-6.11000042E-3,119.9999973E-3,
,,,-6.10000035E-3,79.999998212E-3,
,,,-6.09000027E-3,79.999998212E-3,
,,,-6.08000066E-3,119.9999973E-3,
,,,-6.07000059E-3,119.9999973E-3,
,,,-6.06000051E-3,79.999998212E-3,
,,,-6.05000043E-3,79.999998212E-3,
,,,-6.04000036E-3,119.9999973E-3,
,,,-6.03000028E-3,119.9999973E-3,
,,,-6.02000067E-3,79.999998212E-3,
,,,-6.01000059E-3,79.999998212E-3,
,,,-6.00000052E-3,119.9999973E-3,
,,,-5.99000044E-3,79.999998212E-3,
,,,-5.98000037E-3,119.9999973E-3,
,,,-5.97000029E-3,119.9999973E-3,
,,,-5.96000068E-3,119.9999973E-3,
,,,-5.95000060E-3,119.9999973E-3,
,,,-5.94000053E-3,119.9999973E-3,
,,,-5.93000045E-3,119.9999973E-3,
,,,-5.92000037E-3,79.999998212E-3,
,,,-5.91000030E-3,79.999998212E-3,
,,,-5.90000022E-3,79.999998212E-3,
,,,-5.89000061E-3,79.999998212E-3,
,,,-5.88000054E-3,79.999998212E-3,
,,,-5.87000046E-3,79.999998212E-3,
,,,-5.86000038E-3,79.999998212E-3,
,,,-5.85000031E-3,79.999998212E-3,
,,,-5.84000023E-3,79.999998212E-3,
,,,-5.83000062E-3,79.999998212E-3,
,,,-5.82000054E-3,39.99999911E-3,
,,,-5.81000047E-3,79.999998212E-3,
,,,-5.80000039E-3,79.999998212E-3,
,,,-5.79000032E-3,79.999998212E-3,
,,,-5.78000024E-3,119.9999973E-3,
,,,-5.77000063E-3,119.9999973E-3,
,,,-5.76000055E-3,119.9999973E-3,
,,,-5.75000048E-3,119.9999973E-3,
,,,-5.74000040E-3,119.9999973E-3,
,,,-5.73000032E-3,79.999998212E-3,
,,,-5.72000025E-3,79.999998212E-3,
,,,-5.71000064E-3,79.999998212E-3,
,,,-5.70000056E-3,79.999998212E-3,
,,,-5.69000049E-3,119.9999973E-3,
,,,-5.68000041E-3,79.999998212E-3,
,,,-5.67000033E-3,79.999998212E-3,
,,,-5.66000026E-3,79.999998212E-3,
,,,-5.65000065E-3,119.9999973E-3,
,,,-5.64000057E-3,119.9999973E-3,
,,,-5.63000049E-3,79.999998212E-3,
,,,-5.62000042E-3,119.9999973E-3,
,,,-5.61000034E-3,119.9999973E-3,
,,,-5.60000027E-3,119.9999973E-3,
,,,-5.59000066E-3,119.9999973E-3,
,,,-5.58000058E-3,119.9999973E-3,
,,,-5.57000050E-3,119.9999973E-3,
,,,-5.56000043E-3,119.9999973E-3,
,,,-5.55000035E-3,119.9999973E-3,
,,,-5.54000027E-3,119.9999973E-3,
,,,-5.53000066E-3,79.999998212E-3,
,,,-5.52000059E-3,79.999998212E-3,
,,,-5.51000051E-3,79.999998212E-3,
,,,-5.50000044E-3,79.999998212E-3,
,,,-5.49000036E-3,79.999998212E-3,
,,,-5.48000028E-3,79.999998212E-3,
,,,-5.47000067E-3,79.999998212E-3,
,,,-5.46000060E-3,119.9999973E-3,
,,,-5.45000052E-3,119.9999973E-3,
,,,-5.44000044E-3,79.999998212E-3,
,,,-5.43000037E-3,119.9999973E-3,
,,,-5.42000029E-3,119.9999973E-3,
,,,-5.41000068E-3,119.9999973E-3,
,,,-5.40000061E-3,119.9999973E-3,
,,,-5.39000053E-3,119.9999973E-3,
,,,-5.38000045E-3,119.9999973E-3,
,,,-5.37000038E-3,119.9999973E-3,
,,,-5.36000030E-3,119.9999973E-3,
,,,-5.35000069E-3,79.999998212E-3,
,,,-5.34000061E-3,79.999998212E-3,
,,,-5.33000054E-3,119.9999973E-3,
,,,-5.32000046E-3,119.9999973E-3,
,,,-5.31000039E-3,119.9999973E-3,
,,,-5.30000031E-3,119.9999973E-3,
,,,-5.29000070E-3,79.999998212E-3,
,,,-5.28000062E-3,119.9999973E-3,
,,,-5.27000055E-3,119.9999973E-3,
,,,-5.26000047E-3,79.999998212E-3,
,,,-5.25000039E-3,79.999998212E-3,
,,,-5.24000032E-3,79.999998212E-3,
,,,-5.23000024E-3,79.999998212E-3,
,,,-5.22000063E-3,79.999998212E-3,
,,,-5.21000056E-3,119.9999973E-3,
,,,-5.20000048E-3,79.999998212E-3,
,,,-5.19000040E-3,79.999998212E-3,
,,,-5.18000033E-3,79.999998212E-3,
,,,-5.17000025E-3,119.9999973E-3,
,,,-5.16000064E-3,79.999998212E-3,
,,,-5.15000056E-3,79.999998212E-3,
,,,-5.14000049E-3,79.999998212E-3,
,,,-5.13000041E-3,79.999998212E-3,
,,,-5.12000034E-3,79.999998212E-3,
,,,-5.11000026E-3,119.9999973E-3,
,,,-5.10000065E-3,79.999998212E-3,
,,,-5.09000057E-3,79.999998212E-3,
,,,-5.08000050E-3,79.999998212E-3,
,,,-5.07000042E-3,79.999998212E-3,
,,,-5.06000035E-3,79.999998212E-3,
,,,-5.05000027E-3,119.9999973E-3,
,,,-5.04000066E-3,119.9999973E-3,
,,,-5.03000058E-3,119.9999973E-3,
,,,-5.02000051E-3,79.999998212E-3,
,,,-5.01000043E-3,119.9999973E-3,
,,,-5.00000035E-3,79.999998212E-3,
,,,-4.99000028E-3,79.999998212E-3,
,,,-4.98000067E-3,119.9999973E-3,
,,,-4.97000059E-3,79.999998212E-3,
,,,-4.96000051E-3,119.9999973E-3,
,,,-4.95000044E-3,119.9999973E-3,
,,,-4.94000036E-3,119.9999973E-3,
,,,-4.93000029E-3,79.999998212E-3,
,,,-4.92000068E-3,79.999998212E-3,
,,,-4.91000060E-3,79.999998212E-3,
,,,-4.90000052E-3,79.999998212E-3,
,,,-4.89000045E-3,79.999998212E-3,
,,,-4.88000037E-3,79.999998212E-3,
,,,-4.87000030E-3,79.999998212E-3,
,,,-4.86000068E-3,79.999998212E-3,
,,,-4.85000061E-3,79.999998212E-3,
,,,-4.84000053E-3,79.999998212E-3,
,,,-4.83000046E-3,79.999998212E-3,
,,,-4.82000038E-3,79.999998212E-3,
,,,-4.81000030E-3,79.999998212E-3,
,,,-4.80000069E-3,119.9999973E-3,
,,,-4.79000062E-3,79.999998212E-3,
,,,-4.78000054E-3,79.999998212E-3,
,,,-4.77000047E-3,119.9999973E-3,
,,,-4.76000039E-3,79.999998212E-3,
,,,-4.75000031E-3,79.999998212E-3,
,,,-4.74000070E-3,79.999998212E-3,
,,,-4.73000063E-3,119.9999973E-3,
,,,-4.72000055E-3,119.9999973E-3,
,,,-4.71000047E-3,119.9999973E-3,
,,,-4.70000040E-3,79.999998212E-3,
,,,-4.69000032E-3,119.9999973E-3,
,,,-4.68000071E-3,119.9999973E-3,
,,,-4.67000064E-3,119.9999973E-3,
,,,-4.66000056E-3,79.999998212E-3,
,,,-4.65000048E-3,119.9999973E-3,
,,,-4.64000041E-3,119.9999973E-3,
,,,-4.63000033E-3,79.999998212E-3,
,,,-4.62000072E-3,79.999998212E-3,
,,,-4.61000064E-3,119.9999973E-3,
,,,-4.60000057E-3,79.999998212E-3,
,,,-4.59000049E-3,119.9999973E-3,
,,,-4.58000042E-3,79.999998212E-3,
,,,-4.57000034E-3,79.999998212E-3,
,,,-4.56000026E-3,79.999998212E-3,
,,,-4.55000065E-3,79.999998212E-3,
,,,-4.54000058E-3,79.999998212E-3,
,,,-4.53000050E-3,79.999998212E-3,
,,,-4.52000042E-3,79.999998212E-3,
,,,-4.51000035E-3,79.999998212E-3,
,,,-4.50000027E-3,79.999998212E-3,
,,,-4.49000066E-3,79.999998212E-3,
,,,-4.48000059E-3,119.9999973E-3,
,,,-4.47000051E-3,79.999998212E-3,
,,,-4.46000043E-3,119.9999973E-3,
,,,-4.45000036E-3,79.999998212E-3,
,,,-4.44000028E-3,79.999998212E-3,
,,,-4.43000067E-3,79.999998212E-3,
,,,-4.42000059E-3,79.999998212E-3,
,,,-4.41000052E-3,79.999998212E-3,
,,,-4.40000044E-3,119.9999973E-3,
,,,-4.39000037E-3,79.999998212E-3,
,,,-4.38000029E-3,79.999998212E-3,
,,,-4.37000068E-3,79.999998212E-3,
,,,-4.36000060E-3,79.999998212E-3,
,,,-4.35000053E-3,119.9999973E-3,
,,,-4.34000045E-3,119.9999973E-3,
,,,-4.33000037E-3,119.9999973E-3,
,,,-4.32000030E-3,79.999998212E-3,
,,,-4.31000069E-3,79.999998212E-3,
,,,-4.30000061E-3,119.9999973E-3,
,,,-4.29000054E-3,79.999998212E-3,
,,,-4.28000046E-3,79.999998212E-3,
,,,-4.27000038E-3,79.999998212E-3,
,,,-4.26000031E-3,79.999998212E-3,
,,,-4.25000070E-3,79.999998212E-3,
,,,-4.24000062E-3,119.9999973E-3,
,,,-4.23000054E-3,79.999998212E-3,
,,,-4.22000047E-3,79.999998212E-3,
,,,-4.21000039E-3,79.999998212E-3,
,,,-4.20000032E-3,119.9999973E-3,
,,,-4.19000071E-3,79.999998212E-3,
,,,-4.18000063E-3,79.999998212E-3,
,,,-4.17000055E-3,79.999998212E-3,
,,,-4.16000048E-3,79.999998212E-3,
,,,-4.15000040E-3,79.999998212E-3,
,,,-4.14000032E-3,79.999998212E-3,
,,,-4.13000071E-3,119.9999973E-3,
,,,-4.12000064E-3,119.9999973E-3,
,,,-4.11000056E-3,79.999998212E-3,
,,,-4.10000049E-3,79.999998212E-3,
,,,-4.09000041E-3,79.999998212E-3,
,,,-4.08000033E-3,79.999998212E-3,
,,,-4.07000072E-3,79.999998212E-3,
,,,-4.06000065E-3,79.999998212E-3,
,,,-4.05000057E-3,79.999998212E-3,
,,,-4.04000049E-3,79.999998212E-3,
,,,-4.03000042E-3,79.999998212E-3,
,,,-4.02000034E-3,79.999998212E-3,
,,,-4.01000073E-3,119.9999973E-3,
,,,-4.00000066E-3,119.9999973E-3,
,,,-3.99000058E-3,79.999998212E-3,
,,,-3.98000050E-3,79.999998212E-3,
,,,-3.97000043E-3,119.9999973E-3,
,,,-3.96000035E-3,119.9999973E-3,
,,,-3.95000027E-3,119.9999973E-3,
,,,-3.94000066E-3,79.999998212E-3,
,,,-3.93000059E-3,79.999998212E-3,
,,,-3.92000051E-3,79.999998212E-3,
,,,-3.91000044E-3,79.999998212E-3,
,,,-3.90000059E-3,79.999998212E-3,
,,,-3.89000052E-3,79.999998212E-3,
,,,-3.88000044E-3,79.999998212E-3,
,,,-3.87000060E-3,79.999998212E-3,
,,,-3.86000052E-3,79.999998212E-3,
,,,-3.85000044E-3,79.999998212E-3,
,,,-3.84000060E-3,119.9999973E-3,
,,,-3.83000053E-3,79.999998212E-3,
,,,-3.82000045E-3,79.999998212E-3,
,,,-3.81000061E-3,79.999998212E-3,
,,,-3.80000053E-3,79.999998212E-3,
,,,-3.79000045E-3,79.999998212E-3,
,,,-3.78000061E-3,79.999998212E-3,
,,,-3.77000053E-3,79.999998212E-3,
,,,-3.76000046E-3,79.999998212E-3,
,,,-3.75000061E-3,79.999998212E-3,
,,,-3.74000054E-3,119.9999973E-3,
,,,-3.73000046E-3,79.999998212E-3,
,,,-3.72000062E-3,79.999998212E-3,
,,,-3.71000054E-3,119.9999973E-3,
,,,-3.70000047E-3,119.9999973E-3,
,,,-3.69000062E-3,79.999998212E-3,
,,,-3.68000055E-3,79.999998212E-3,
,,,-3.67000047E-3,79.999998212E-3,
,,,-3.66000040E-3,79.999998212E-3,
,,,-3.65000055E-3,79.999998212E-3,
,,,-3.64000048E-3,119.9999973E-3,
,,,-3.63000040E-3,79.999998212E-3,
,,,-3.62000056E-3,119.9999973E-3,
,,,-3.61000048E-3,119.9999973E-3,
,,,-3.60000040E-3,79.999998212E-3,
,,,-3.59000056E-3,79.999998212E-3,
,,,-3.58000048E-3,79.999998212E-3,
,,,-3.57000041E-3,79.999998212E-3,
,,,-3.56000056E-3,79.999998212E-3,
,,,-3.55000049E-3,79.999998212E-3,
,,,-3.54000041E-3,119.9999973E-3,
,,,-3.53000057E-3,119.9999973E-3,
,,,-3.52000049E-3,79.999998212E-3,
,,,-3.51000042E-3,79.999998212E-3,
,,,-3.50000057E-3,79.999998212E-3,
,,,-3.49000050E-3,79.999998212E-3,
,,,-3.48000042E-3,79.999998212E-3,
,,,-3.47000058E-3,119.9999973E-3,
,,,-3.46000050E-3,79.999998212E-3,
,,,-3.45000043E-3,79.999998212E-3,
,,,-3.44000058E-3,119.9999973E-3,
,,,-3.43000051E-3,79.999998212E-3,
,,,-3.42000043E-3,79.999998212E-3,
,,,-3.41000059E-3,119.9999973E-3,
,,,-3.40000051E-3,119.9999973E-3,
,,,-3.39000043E-3,119.9999973E-3,
,,,-3.38000059E-3,79.999998212E-3,
,,,-3.37000052E-3,79.999998212E-3,
,,,-3.36000044E-3,79.999998212E-3,
,,,-3.35000060E-3,119.9999973E-3,
,,,-3.34000052E-3,79.999998212E-3,
,,,-3.33000044E-3,79.999998212E-3,
,,,-3.32000060E-3,79.999998212E-3,
,,,-3.31000052E-3,79.999998212E-3,
,,,-3.30000045E-3,79.999998212E-3,
,,,-3.29000060E-3,79.999998212E-3,
,,,-3.28000053E-3,79.999998212E-3,
,,,-3.27000045E-3,79.999998212E-3,
,,,-3.26000061E-3,79.999998212E-3,
,,,-3.25000053E-3,79.999998212E-3,
,,,-3.24000046E-3,119.9999973E-3,
,,,-3.23000061E-3,119.9999973E-3,
,,,-3.22000054E-3,79.999998212E-3,
,,,-3.21000046E-3,119.9999973E-3,
,,,-3.20000062E-3,119.9999973E-3,
,,,-3.19000054E-3,119.9999973E-3,
,,,-3.18000047E-3,119.9999973E-3,
,,,-3.17000062E-3,119.9999973E-3,
,,,-3.16000055E-3,119.9999973E-3,
,,,-3.15000047E-3,119.9999973E-3,
,,,-3.14000063E-3,79.999998212E-3,
,,,-3.13000055E-3,79.999998212E-3,
,,,-3.12000047E-3,79.999998212E-3,
,,,-3.11000063E-3,79.999998212E-3,
,,,-3.10000055E-3,119.9999973E-3,
,,,-3.09000048E-3,119.9999973E-3,
,,,-3.08000064E-3,79.999998212E-3,
,,,-3.07000056E-3,79.999998212E-3,
,,,-3.06000048E-3,119.9999973E-3,
,,,-3.05000064E-3,119.9999973E-3,
,,,-3.04000056E-3,119.9999973E-3,
,,,-3.03000049E-3,119.9999973E-3,
,,,-3.02000064E-3,119.9999973E-3,
,,,-3.01000057E-3,119.9999973E-3,
,,,-3.00000049E-3,119.9999973E-3,
,,,-2.99000042E-3,79.999998212E-3,
,,,-2.98000057E-3,119.9999973E-3,
,,,-2.97000050E-3,119.9999973E-3,
,,,-2.96000042E-3,119.9999973E-3,
,,,-2.95000058E-3,119.9999973E-3,
,,,-2.94000050E-3,79.999998212E-3,
,,,-2.93000042E-3,79.999998212E-3,
,,,-2.92000058E-3,79.999998212E-3,
,,,-2.91000050E-3,79.999998212E-3,
,,,-2.90000043E-3,79.999998212E-3,
,,,-2.89000059E-3,79.999998212E-3,
,,,-2.88000051E-3,79.999998212E-3,
,,,-2.87000043E-3,79.999998212E-3,
,,,-2.86000059E-3,79.999998212E-3,
,,,-2.85000051E-3,79.999998212E-3,
,,,-2.84000044E-3,79.999998212E-3,
,,,-2.83000059E-3,119.9999973E-3,
,,,-2.82000052E-3,79.999998212E-3,
,,,-2.81000044E-3,79.999998212E-3,
,,,-2.80000060E-3,79.999998212E-3,
,,,-2.79000052E-3,79.999998212E-3,
,,,-2.78000045E-3,79.999998212E-3,
,,,-2.77000060E-3,79.999998212E-3,
,,,-2.76000053E-3,79.999998212E-3,
,,,-2.75000045E-3,79.999998212E-3,
,,,-2.74000061E-3,79.999998212E-3,
,,,-2.73000053E-3,79.999998212E-3,
,,,-2.72000046E-3,119.9999973E-3,
,,,-2.7100006E-3,79.999998212E-3,
,,,-2.7000005E-3,79.999998212E-3,
,,,-2.6900005E-3,79.999998212E-3,
,,,-2.6800006E-3,79.999998212E-3,
,,,-2.6700005E-3,119.9999973E-3,
,,,-2.6600005E-3,79.999998212E-3,
,,,-2.6500006E-3,79.999998212E-3,
,,,-2.6400005E-3,119.9999973E-3,
,,,-2.6300005E-3,79.999998212E-3,
,,,-2.6200006E-3,119.9999973E-3,
,,,-2.6100005E-3,79.999998212E-3,
,,,-2.6000005E-3,119.9999973E-3,
,,,-2.5900006E-3,119.9999973E-3,
,,,-2.5800006E-3,119.9999973E-3,
,,,-2.5700005E-3,119.9999973E-3,
,,,-2.5600006E-3,119.9999973E-3,
,,,-2.5500006E-3,119.9999973E-3,
,,,-2.5400005E-3,119.9999973E-3,
,,,-2.5300006E-3,119.9999973E-3,
,,,-2.5200006E-3,119.9999973E-3,
,,,-2.5100005E-3,119.9999973E-3,
,,,-2.5000006E-3,119.9999973E-3,
,,,-2.4900006E-3,79.999998212E-3,
,,,-2.4800005E-3,119.9999973E-3,
,,,-2.4700006E-3,79.999998212E-3,
,,,-2.4600006E-3,79.999998212E-3,
,,,-2.4500005E-3,79.999998212E-3,
,,,-2.4400007E-3,79.999998212E-3,
,,,-2.4300006E-3,79.999998212E-3,
,,,-2.4200005E-3,119.9999973E-3,
,,,-2.4100007E-3,119.9999973E-3,
,,,-2.4000006E-3,119.9999973E-3,
,,,-2.3900005E-3,79.999998212E-3,
,,,-2.3800004E-3,119.9999973E-3,
,,,-2.3700006E-3,119.9999973E-3,
,,,-2.3600005E-3,79.999998212E-3,
,,,-2.3500004E-3,79.999998212E-3,
,,,-2.3400006E-3,119.9999973E-3,
,,,-2.3300005E-3,79.999998212E-3,
,,,-2.3200004E-3,119.9999973E-3,
,,,-2.3100006E-3,79.999998212E-3,
,,,-2.3000005E-3,79.999998212E-3,
,,,-2.2900004E-3,79.999998212E-3,
,,,-2.2800006E-3,79.999998212E-3,
,,,-2.2700005E-3,119.9999973E-3,
,,,-2.2600004E-3,119.9999973E-3,
,,,-2.2500006E-3,79.999998212E-3,
,,,-2.2400005E-3,79.999998212E-3,
,,,-2.2300004E-3,119.9999973E-3,
,,,-2.2200006E-3,119.9999973E-3,
,,,-2.2100005E-3,119.9999973E-3,
,,,-2.2000005E-3,79.999998212E-3,
,,,-2.1900006E-3,79.999998212E-3,
,,,-2.1800005E-3,119.9999973E-3,
,,,-2.1700005E-3,119.9999973E-3,
,,,-2.1600006E-3,119.9999973E-3,
,,,-2.1500005E-3,79.999998212E-3,
,,,-2.1400005E-3,119.9999973E-3,
,,,-2.1300006E-3,79.999998212E-3,
,,,-2.1200005E-3,119.9999973E-3,
,,,-2.1100005E-3,79.999998212E-3,
,,,-2.1000006E-3,79.999998212E-3,
,,,-2.0900005E-3,79.999998212E-3,
,,,-2.0800005E-3,79.999998212E-3,
,,,-2.0700006E-3,119.9999973E-3,
,,,-2.0600006E-3,79.999998212E-3,
,,,-2.0500005E-3,79.999998212E-3,
,,,-2.0400006E-3,119.9999973E-3,
,,,-2.0300006E-3,119.9999973E-3,
,,,-2.0200005E-3,79.999998212E-3,
,,,-2.0100006E-3,79.999998212E-3,
,,,-2.0000006E-3,79.999998212E-3,
,,,-1.9900005E-3,79.999998212E-3,
,,,-1.9800006E-3,79.999998212E-3,
,,,-1.9700006E-3,119.9999973E-3,
,,,-1.9600005E-3,79.999998212E-3,
,,,-1.9500005E-3,119.9999973E-3,
,,,-1.9400006E-3,119.9999973E-3,
,,,-1.9300006E-3,79.999998212E-3,
,,,-1.9200005E-3,79.999998212E-3,
,,,-1.9100006E-3,79.999998212E-3,
,,,-1.9000005E-3,79.999998212E-3,
,,,-1.8900005E-3,79.999998212E-3,
,,,-1.8800006E-3,79.999998212E-3,
,,,-1.8700005E-3,79.999998212E-3,
,,,-1.8600005E-3,79.999998212E-3,
,,,-1.8500006E-3,79.999998212E-3,
,,,-1.8400005E-3,79.999998212E-3,
,,,-1.8300005E-3,79.999998212E-3,
,,,-1.8200006E-3,79.999998212E-3,
,,,-1.8100005E-3,119.9999973E-3,
,,,-1.8000006E-3,79.999998212E-3,
,,,-1.7900006E-3,79.999998212E-3,
,,,-1.7800005E-3,119.9999973E-3,
,,,-1.7700006E-3,119.9999973E-3,
,,,-1.7600006E-3,79.999998212E-3,
,,,-1.7500005E-3,79.999998212E-3,
,,,-1.7400006E-3,79.999998212E-3,
,,,-1.7300006E-3,79.999998212E-3,
,,,-1.7200005E-3,79.999998212E-3,
,,,-1.7100006E-3,79.999998212E-3,
,,,-1.7000006E-3,79.999998212E-3,
,,,-1.6900005E-3,79.999998212E-3,
,,,-1.6800006E-3,79.999998212E-3,
,,,-1.6700006E-3,79.999998212E-3,
,,,-1.6600005E-3,79.999998212E-3,
,,,-1.6500006E-3,79.999998212E-3,
,,,-1.6400006E-3,119.9999973E-3,
,,,-1.6300005E-3,119.9999973E-3,
,,,-1.6200006E-3,79.999998212E-3,
,,,-1.6100006E-3,79.999998212E-3,
,,,-1.6000005E-3,119.9999973E-3,
,,,-1.5900006E-3,79.999998212E-3,
,,,-1.5800006E-3,119.9999973E-3,
,,,-1.5700005E-3,119.9999973E-3,
,,,-1.5600006E-3,79.999998212E-3,
,,,-1.5500005E-3,79.999998212E-3,
,,,-1.5400006E-3,79.999998212E-3,
,,,-1.5300006E-3,119.9999973E-3,
,,,-1.5200005E-3,79.999998212E-3,
,,,-1.5100006E-3,79.999998212E-3,
,,,-1.5000006E-3,79.999998212E-3,
,,,-1.4900005E-3,79.999998212E-3,
,,,-1.4800006E-3,119.9999973E-3,
,,,-1.4700006E-3,79.999998212E-3,
,,,-1.4600005E-3,79.999998212E-3,
,,,-1.4500006E-3,79.999998212E-3,
,,,-1.4400006E-3,79.999998212E-3,
,,,-1.4300005E-3,119.9999973E-3,
,,,-1.4200006E-3,119.9999973E-3,
,,,-1.4100006E-3,79.999998212E-3,
,,,-1.4000005E-3,79.999998212E-3,
,,,-1.3900006E-3,79.999998212E-3,
,,,-1.3800006E-3,119.9999973E-3,
,,,-1.3700005E-3,79.999998212E-3,
,,,-1.3600006E-3,79.999998212E-3,
,,,-1.3500006E-3,79.999998212E-3,
,,,-1.3400005E-3,119.9999973E-3,
,,,-1.3300006E-3,119.9999973E-3,
,,,-1.3200006E-3,79.999998212E-3,
,,,-1.3100005E-3,119.9999973E-3,
,,,-1.3000006E-3,119.9999973E-3,
,,,-1.2900006E-3,119.9999973E-3,
,,,-1.2800005E-3,119.9999973E-3,
,,,-1.2700006E-3,119.9999973E-3,
,,,-1.2600005E-3,79.999998212E-3,
,,,-1.2500006E-3,79.999998212E-3,
,,,-1.2400006E-3,119.9999973E-3,
,,,-1.2300005E-3,79.999998212E-3,
,,,-1.2200006E-3,79.999998212E-3,
,,,-1.2100006E-3,79.999998212E-3,
,,,-1.2000005E-3,79.999998212E-3,
,,,-1.1900006E-3,79.999998212E-3,
,,,-1.1800006E-3,79.999998212E-3,
,,,-1.1700005E-3,79.999998212E-3,
,,,-1.1600006E-3,79.999998212E-3,
,,,-1.1500006E-3,79.999998212E-3,
,,,-1.1400005E-3,79.999998212E-3,
,,,-1.1300006E-3,79.999998212E-3,
,,,-1.1200006E-3,79.999998212E-3,
,,,-1.1100005E-3,119.9999973E-3,
,,,-1.1000006E-3,79.999998212E-3,
,,,-1.0900006E-3,79.999998212E-3,
,,,-1.0800005E-3,79.999998212E-3,
,,,-1.0700006E-3,79.999998212E-3,
,,,-1.0600006E-3,79.999998212E-3,
,,,-1.0500005E-3,79.999998212E-3,
,,,-1.0400006E-3,79.999998212E-3,
,,,-1.0300006E-3,79.999998212E-3,
,,,-1.0200005E-3,79.999998212E-3,
,,,-1.0100006E-3,79.999998212E-3,
,,,-1.0000006E-3,79.999998212E-3,
,,,-990.000553429E-6,119.9999973E-3,
,,,-980.000593700E-6,79.999998212E-3,
,,,-970.000575762E-6,79.999998212E-3,
,,,-960.000557825E-6,79.999998212E-3,
,,,-950.000598095E-6,79.999998212E-3,
,,,-940.000580158E-6,79.999998212E-3,
,,,-930.000562221E-6,79.999998212E-3,
,,,-920.000602491E-6,79.999998212E-3,
,,,-910.000584554E-6,79.999998212E-3,
,,,-900.000566617E-6,39.99999911E-3,
,,,-890.000606887E-6,79.999998212E-3,
,,,-880.000588950E-6,79.999998212E-3,
,,,-870.000571012E-6,79.999998212E-3,
,,,-860.000611283E-6,39.99999911E-3,
,,,-850.000593346E-6,79.999998212E-3,
,,,-840.000575408E-6,79.999998212E-3,
,,,-830.000557471E-6,79.999998212E-3,
,,,-820.000597741E-6,79.999998212E-3,
,,,-810.000579804E-6,79.999998212E-3,
,,,-800.000561867E-6,79.999998212E-3,
,,,-790.000602137E-6,79.999998212E-3,
,,,-780.000584200E-6,79.999998212E-3,
,,,-770.000566263E-6,79.999998212E-3,
,,,-760.000606533E-6,79.999998212E-3,
,,,-750.000588596E-6,79.999998212E-3,
,,,-740.000570659E-6,39.99999911E-3,
,,,-730.000610929E-6,79.999998212E-3,
,,,-720.000592992E-6,79.999998212E-3,
,,,-710.000575054E-6,79.999998212E-3,
,,,-700.000557117E-6,79.999998212E-3,
,,,-690.000597388E-6,79.999998212E-3,
,,,-680.000579450E-6,79.999998212E-3,
,,,-670.000561513E-6,79.999998212E-3,
,,,-660.000601783E-6,79.999998212E-3,
,,,-650.000583846E-6,79.999998212E-3,
,,,-640.000565909E-6,79.999998212E-3,
,,,-630.000606179E-6,79.999998212E-3,
,,,-620.000588242E-6,79.999998212E-3,
,,,-610.000570305E-6,119.9999973E-3,
,,,-600.000610575E-6,119.9999973E-3,
,,,-590.000592638E-6,79.999998212E-3,
,,,-580.000574701E-6,119.9999973E-3,
,,,-570.000614971E-6,79.999998212E-3,
,,,-560.000597034E-6,79.999998212E-3,
,,,-550.000579096E-6,79.999998212E-3,
,,,-540.000619367E-6,79.999998212E-3,
,,,-530.000601429E-6,79.999998212E-3,
,,,-520.000583492E-6,79.999998212E-3,
,,,-510.000565555E-6,119.9999973E-3,
,,,-500.000605825E-6,79.999998212E-3,
,,,-490.000587888E-6,119.9999973E-3,
,,,-480.000599055E-6,79.999998212E-3,
,,,-470.000581117E-6,79.999998212E-3,
,,,-460.000592284E-6,119.9999973E-3,
,,,-450.000603450E-6,79.999998212E-3,
,,,-440.000585513E-6,119.9999973E-3,
,,,-430.000596680E-6,79.999998212E-3,
,,,-420.000578742E-6,79.999998212E-3,
,,,-410.000589909E-6,119.9999973E-3,
,,,-400.00060108E-6,79.999998212E-3,
,,,-390.00058314E-6,119.9999973E-3,
,,,-380.00059430E-6,79.999998212E-3,
,,,-370.00060547E-6,79.999998212E-3,
,,,-360.00058753E-6,79.999998212E-3,
,,,-350.00059870E-6,79.999998212E-3,
,,,-340.00060987E-6,79.999998212E-3,
,,,-330.00059193E-6,79.999998212E-3,
,,,-320.00060310E-6,79.999998212E-3,
,,,-310.00058516E-6,79.999998212E-3,
,,,-300.00059633E-6,119.9999973E-3,
,,,-290.00060749E-6,79.999998212E-3,
,,,-280.00058956E-6,79.999998212E-3,
,,,-270.00060072E-6,79.999998212E-3,
,,,-260.00058278E-6,79.999998212E-3,
,,,-250.00059395E-6,119.9999973E-3,
,,,-240.00060512E-6,79.999998212E-3,
,,,-230.00060173E-6,119.9999973E-3,
,,,-220.00059835E-6,119.9999973E-3,
,,,-210.00059496E-6,79.999998212E-3,
,,,-200.00059158E-6,119.9999973E-3,
,,,-190.00060274E-6,79.999998212E-3,
,,,-180.00059936E-6,79.999998212E-3,
,,,-170.00059597E-6,119.9999973E-3,
,,,-160.00060714E-6,79.999998212E-3,
,,,-150.00060375E-6,119.9999973E-3,
,,,-140.0006004E-6,119.9999973E-3,
,,,-130.0005970E-6,79.999998212E-3,
,,,-120.0006009E-6,119.9999973E-3,
,,,-110.0006048E-6,79.999998212E-3,
,,,-100.0006014E-6,79.999998212E-3,
,,,-90.000597993E-6,79.999998212E-3,
,,,-80.000601884E-6,79.999998212E-3,
,,,-70.000605774E-6,119.9999973E-3,
,,,-60.000602389E-6,79.999998212E-3,
,,,-50.00060264E-6,79.999998212E-3,
,,,-40.00060289E-6,79.999998212E-3,
,,,-30.00060315E-6,79.999998212E-3,
,,,-20.0006034E-6,79.999998212E-3,
,,,-10.0006037E-6,79.999998212E-3,
,,,-603.904479504E-12,79.999998212E-3,
,,,9.999395843E-6,79.999998212E-3,
,,,19.9993956E-6,39.99999911E-3,
,,,29.99939534E-6,39.99999911E-3,
,,,39.99939509E-6,560.000002384E-3,
,,,49.99939483E-6,1.0400000,
,,,59.999394580E-6,1.4000000,
,,,69.999397965E-6,1.7199999,
,,,79.999394075E-6,2.0400000,
,,,89.999390184E-6,2.3199999,
,,,99.999393569E-6,2.5200000,
,,,109.9993970E-6,2.72000003,
,,,119.9993931E-6,2.91999984,
,,,129.9993892E-6,3.03999996,
,,,139.9993926E-6,3.19999981,
,,,149.99939594E-6,3.27999997,
,,,159.99938478E-6,3.35999990,
,,,169.99938816E-6,3.43999982,
,,,179.99939155E-6,3.51999998,
,,,189.99939493E-6,3.51999998,
,,,199.99939832E-6,3.59999990,
,,,209.99938715E-6,3.63999987,
,,,219.99939054E-6,3.63999987,
,,,229.99939392E-6,3.63999987,
,,,239.99938276E-6,3.63999987,
,,,249.99940069E-6,3.63999987,
,,,259.99938953E-6,3.63999987,
,,,269.99937836E-6,3.59999990,
,,,279.99939630E-6,3.55999994,
,,,289.99938513E-6,3.51999998,
,,,299.99937396E-6,3.55999994,
,,,309.99939190E-6,3.51999998,
,,,319.99938074E-6,3.48000002,
,,,329.99939867E-6,3.43999982,
,,,339.99938751E-6,3.43999982,
,,,349.99937634E-6,3.35999990,
,,,359.99939428E-6,3.35999990,
,,,369.99938311E-6,3.31999993,
,,,379.99940105E-6,3.27999997,
,,,389.99938988E-6,3.24000001,
,,,399.99937871E-6,3.19999981,
,,,409.999396652E-6,3.19999981,
,,,419.999385485E-6,3.15999985,
,,,429.999374319E-6,3.11999989,
,,,439.999392256E-6,3.07999992,
,,,449.999381090E-6,3.03999996,
,,,459.999369923E-6,3.00000000,
,,,469.999387860E-6,3.00000000,
,,,479.999376694E-6,2.96000004,
,,,489.999365527E-6,2.91999984,
,,,499.999383464E-6,2.87999988,
,,,509.999401402E-6,2.87999988,
,,,519.999361131E-6,2.83999991,
,,,529.999379069E-6,2.83999991,
,,,539.999397006E-6,2.79999995,
,,,549.999356735E-6,2.79999995,
,,,559.999374673E-6,2.75999999,
,,,569.999392610E-6,2.72000003,
,,,579.999410547E-6,2.72000003,
,,,589.999370277E-6,2.6799998,
,,,599.999388214E-6,2.6799998,
,,,609.999406151E-6,2.6399999,
,,,619.999365881E-6,2.6399999,
,,,629.999383818E-6,2.5999999,
,,,639.999401756E-6,2.5999999,
,,,649.999361485E-6,2.5599999,
,,,659.999379423E-6,2.5200000,
,,,669.999397360E-6,2.5599999,
,,,679.999357089E-6,2.4800000,
,,,689.999375027E-6,2.4800000,
,,,699.999392964E-6,2.4800000,
,,,709.999352694E-6,2.4400001,
,,,719.999370631E-6,2.4400001,
,,,729.999388568E-6,2.4400001,
,,,739.999348298E-6,2.3999999,
,,,749.999366235E-6,2.3999999,
,,,759.999384172E-6,2.3599999,
,,,769.999402110E-6,2.3999999,
,,,779.999361839E-6,2.3599999,
,,,789.999379776E-6,2.3199999,
,,,799.999397714E-6,2.3199999,
,,,809.999357443E-6,2.3199999,
,,,819.999375381E-6,2.2800000,
,,,829.999393318E-6,2.2800000,
,,,839.999353047E-6,2.2800000,
,,,849.999370985E-6,2.2400000,
,,,859.999388922E-6,2.2400000,
,,,869.999348652E-6,2.2400000,
,,,879.999366589E-6,2.2000000,
,,,889.999384526E-6,2.2000000,
,,,899.999402463E-6,2.1599998,
,,,909.999362193E-6,2.2000000,
,,,919.999380130E-6,2.1599998,
,,,929.999398068E-6,2.1599998,
,,,939.999357797E-6,2.1199999,
,,,949.999375734E-6,2.1199999,
,,,959.999393672E-6,2.1199999,
,,,969.999353401E-6,2.0799999,
,,,979.999313131E-6,2.0799999,
,,,989.999389276E-6,2.0400000,
,,,999.999349006E-6,2.0400000,
,,,1.0099994E-3,2.0400000,
,,,1.0199994E-3,2.0000000,
,,,1.0299993E-3,2.0000000,
,,,1.0399994E-3,2.0000000,
,,,1.0499994E-3,2.0000000,
,,,1.0599993E-3,2.0000000,
,,,1.0699994E-3,2.0000000,
,,,1.0799994E-3,1.9599999,
,,,1.0899993E-3,1.9599999,
,,,1.0999994E-3,1.9599999,
,,,1.1099994E-3,1.9599999,
,,,1.1199993E-3,1.9200000,
,,,1.1299994E-3,1.9200000,
,,,1.1399994E-3,1.9200000,
,,,1.1499993E-3,1.9200000,
,,,1.1599994E-3,1.9200000,
,,,1.1699994E-3,1.8800000,
,,,1.1799993E-3,1.8800000,
,,,1.1899994E-3,1.8800000,
,,,1.1999994E-3,1.8800000,
,,,1.2099993E-3,1.8399999,
,,,1.2199994E-3,1.8399999,
,,,1.2299994E-3,1.8399999,
,,,1.2399993E-3,1.8399999,
,,,1.2499994E-3,1.8000000,
,,,1.2599993E-3,1.8000000,
,,,1.2699993E-3,1.8399999,
,,,1.2799994E-3,1.8000000,
,,,1.2899993E-3,1.8000000,
,,,1.2999994E-3,1.8000000,
,,,1.3099994E-3,1.8000000,
,,,1.3199993E-3,1.7600000,
,,,1.3299994E-3,1.7600000,
,,,1.3399994E-3,1.7600000,
,,,1.3499993E-3,1.7600000,
,,,1.3599994E-3,1.7600000,
,,,1.3699994E-3,1.7199999,
,,,1.3799993E-3,1.6799999,
,,,1.3899994E-3,1.7199999,
,,,1.3999994E-3,1.7199999,
,,,1.4099993E-3,1.6799999,
,,,1.4199994E-3,1.6799999,
,,,1.4299994E-3,1.6799999,
,,,1.4399993E-3,1.6799999,
,,,1.4499994E-3,1.6400000,
,,,1.4599994E-3,1.6400000,
,,,1.4699993E-3,1.6400000,
,,,1.4799994E-3,1.6400000,
,,,1.4899994E-3,1.5999999,
,,,1.4999993E-3,1.5999999,
,,,1.5099994E-3,1.5999999,
,,,1.5199994E-3,1.5999999,
,,,1.5299993E-3,1.5999999,
,,,1.5399994E-3,1.5999999,
,,,1.5499993E-3,1.5999999,
,,,1.5599993E-3,1.5999999,
,,,1.5699994E-3,1.5599999,
,,,1.5799993E-3,1.5599999,
,,,1.5899993E-3,1.5999999,
,,,1.5999994E-3,1.5599999,
,,,1.6099993E-3,1.5599999,
,,,1.6199993E-3,1.5200000,
,,,1.6299994E-3,1.5200000,
,,,1.6399993E-3,1.5200000,
,,,1.6499994E-3,1.4800000,
,,,1.6599994E-3,1.5200000,
,,,1.6699993E-3,1.4800000,
,,,1.6799994E-3,1.4800000,
,,,1.6899994E-3,1.4800000,
,,,1.6999993E-3,1.4800000,
,,,1.7099994E-3,1.4800000,
,,,1.7199994E-3,1.4800000,
,,,1.7299993E-3,1.4800000,
,,,1.7399994E-3,1.4399999,
,,,1.7499994E-3,1.4399999,
,,,1.7599993E-3,1.4399999,
,,,1.7699994E-3,1.4399999,
,,,1.7799994E-3,1.4399999,
,,,1.7899993E-3,1.4399999,
,,,1.7999994E-3,1.4000000,
,,,1.8099993E-3,1.4000000,
,,,1.8199993E-3,1.4000000,
,,,1.8299994E-3,1.4000000,
,,,1.8399993E-3,1.4000000,
,,,1.8499993E-3,1.4000000,
,,,1.8599994E-3,1.4000000,
,,,1.8699993E-3,1.4000000,
,,,1.8799993E-3,1.3600000,
,,,1.8899994E-3,1.4000000,
,,,1.8999993E-3,1.3600000,
,,,1.9099993E-3,1.3600000,
,,,1.9199994E-3,1.3600000,
,,,1.9299993E-3,1.3199999,
,,,1.9399994E-3,1.3199999,
,,,1.9499994E-3,1.3199999,
,,,1.9599993E-3,1.3199999,
,,,1.9699994E-3,1.3199999,
,,,1.9799992E-3,1.3199999,
,,,1.9899993E-3,1.3199999,
,,,1.9999994E-3,1.3199999,
,,,2.0099992E-3,1.2800000,
,,,2.0199993E-3,1.3199999,
,,,2.0299994E-3,1.2800000,
,,,2.0399992E-3,1.2800000,
,,,2.0499993E-3,1.2800000,
,,,2.0599994E-3,1.2800000,
,,,2.0699992E-3,1.2400000,
,,,2.0799993E-3,1.2800000,
,,,2.0899994E-3,1.2400000,
,,,2.0999992E-3,1.2800000,
,,,2.1099993E-3,1.2400000,
,,,2.1199994E-3,1.2800000,
,,,2.1299995E-3,1.2400000,
,,,2.1399993E-3,1.2400000,
,,,2.1499994E-3,1.2400000,
,,,2.1599995E-3,1.2400000,
,,,2.1699993E-3,1.2400000,
,,,2.1799994E-3,1.1999999,
,,,2.1899994E-3,1.1999999,
,,,2.1999993E-3,1.1999999,
,,,2.2099994E-3,1.1999999,
,,,2.2199994E-3,1.1600000,
,,,2.2299993E-3,1.1600000,
,,,2.2399994E-3,1.1600000,
,,,2.2499994E-3,1.1600000,
,,,2.2599993E-3,1.1600000,
,,,2.2699994E-3,1.1200000,
,,,2.2799994E-3,1.1200000,
,,,2.2899993E-3,1.1600000,
,,,2.2999994E-3,1.1200000,
,,,2.3099994E-3,1.1600000,
,,,2.3199993E-3,1.1200000,
,,,2.3299993E-3,1.1200000,
,,,2.3399994E-3,1.1200000,
,,,2.3499993E-3,1.1200000,
,,,2.3599993E-3,1.1200000,
,,,2.3699994E-3,1.1200000,
,,,2.3799993E-3,1.0799999,
,,,2.3899993E-3,1.1200000,
,,,2.3999994E-3,1.0799999,
,,,2.4099993E-3,1.0799999,
,,,2.4199993E-3,1.0799999,
,,,2.4299994E-3,1.0799999,
,,,2.4399993E-3,1.0799999,
,,,2.4499993E-3,1.0799999,
,,,2.4599994E-3,1.0799999,
,,,2.4699993E-3,1.0799999,
,,,2.4799993E-3,1.0799999,
,,,2.4899994E-3,1.0799999,
,,,2.4999992E-3,1.0400000,
,,,2.5099993E-3,1.0400000,
,,,2.5199994E-3,1.0400000,
,,,2.5299992E-3,1.0400000,
,,,2.5399993E-3,1.0799999,
,,,2.5499994E-3,1.0799999,
,,,2.5599992E-3,1.0400000,
,,,2.5699993E-3,1.0400000,
,,,2.5799994E-3,1.000000,
,,,2.5899992E-3,1.000000,
,,,2.5999993E-3,1.000000,
,,,2.6099994E-3,1.000000,
,,,2.6199992E-3,1.000000,
,,,2.6299993E-3,1.000000,
,,,2.6399994E-3,1.000000,
,,,2.6499992E-3,1.000000,
,,,2.6599993E-3,1.000000,
,,,2.6699994E-3,1.000000,
,,,2.6799992E-3,1.000000,
,,,2.6899993E-3,1.000000,
,,,2.6999994E-3,1.000000,
,,,2.7099992E-3,1.000000,
,,,2.71999929E-3,959.999978542E-3,
,,,2.72999937E-3,959.999978542E-3,
,,,2.73999944E-3,959.999978542E-3,
,,,2.74999929E-3,959.999978542E-3,
,,,2.75999936E-3,959.999978542E-3,
,,,2.76999944E-3,1.000000,
,,,2.77999928E-3,1.000000,
,,,2.78999936E-3,1.000000,
,,,2.79999943E-3,1.000000,
,,,2.80999928E-3,959.999978542E-3,
,,,2.81999935E-3,959.999978542E-3,
,,,2.82999943E-3,959.999978542E-3,
,,,2.83999927E-3,959.999978542E-3,
,,,2.84999935E-3,959.999978542E-3,
,,,2.85999943E-3,959.999978542E-3,
,,,2.86999927E-3,879.999995232E-3,
,,,2.87999935E-3,919.999957085E-3,
,,,2.88999942E-3,919.999957085E-3,
,,,2.89999926E-3,919.999957085E-3,
,,,2.90999934E-3,919.999957085E-3,
,,,2.91999942E-3,919.999957085E-3,
,,,2.92999926E-3,919.999957085E-3,
,,,2.93999934E-3,919.999957085E-3,
,,,2.94999941E-3,919.999957085E-3,
,,,2.95999926E-3,919.999957085E-3,
,,,2.96999933E-3,919.999957085E-3,
,,,2.97999941E-3,919.999957085E-3,
,,,2.98999925E-3,879.999995232E-3,
,,,2.99999933E-3,879.999995232E-3,
,,,3.00999940E-3,879.999995232E-3,
,,,3.01999925E-3,879.999995232E-3,
,,,3.02999932E-3,919.999957085E-3,
,,,3.03999940E-3,879.999995232E-3,
,,,3.04999924E-3,839.999973774E-3,
,,,3.05999932E-3,879.999995232E-3,
,,,3.06999939E-3,879.999995232E-3,
,,,3.07999924E-3,879.999995232E-3,
,,,3.08999931E-3,839.999973774E-3,
,,,3.09999939E-3,879.999995232E-3,
,,,3.10999923E-3,879.999995232E-3,
,,,3.11999931E-3,879.999995232E-3,
,,,3.12999939E-3,839.999973774E-3,
,,,3.13999923E-3,839.999973774E-3,
,,,3.14999931E-3,839.999973774E-3,
,,,3.15999938E-3,839.999973774E-3,
,,,3.16999923E-3,839.999973774E-3,
,,,3.17999930E-3,839.999973774E-3,
,,,3.18999938E-3,839.999973774E-3,
,,,3.19999922E-3,839.999973774E-3,
,,,3.20999930E-3,839.999973774E-3,
,,,3.21999937E-3,799.999952316E-3,
,,,3.22999922E-3,799.999952316E-3,
,,,3.23999929E-3,799.999952316E-3,
,,,3.24999937E-3,839.999973774E-3,
,,,3.25999921E-3,799.999952316E-3,
,,,3.26999929E-3,799.999952316E-3,
,,,3.27999936E-3,799.999952316E-3,
,,,3.28999921E-3,799.999952316E-3,
,,,3.29999928E-3,799.999952316E-3,
,,,3.30999936E-3,799.999952316E-3,
,,,3.31999920E-3,799.999952316E-3,
,,,3.32999928E-3,799.999952316E-3,
,,,3.33999936E-3,799.999952316E-3,
,,,3.34999920E-3,799.999952316E-3,
,,,3.35999927E-3,799.999952316E-3,
,,,3.36999935E-3,759.999990463E-3,
,,,3.37999919E-3,759.999990463E-3,
,,,3.38999927E-3,799.999952316E-3,
,,,3.39999935E-3,799.999952316E-3,
,,,3.40999942E-3,759.999990463E-3,
,,,3.41999927E-3,759.999990463E-3,
,,,3.42999934E-3,759.999990463E-3,
,,,3.43999942E-3,759.999990463E-3,
,,,3.44999926E-3,759.999990463E-3,
,,,3.45999934E-3,759.999990463E-3,
,,,3.46999941E-3,759.999990463E-3,
,,,3.47999926E-3,759.999990463E-3,
,,,3.48999933E-3,759.999990463E-3,
,,,3.49999941E-3,759.999990463E-3,
,,,3.50999925E-3,719.999969006E-3,
,,,3.51999933E-3,719.999969006E-3,
,,,3.52999941E-3,759.999990463E-3,
,,,3.53999925E-3,719.999969006E-3,
,,,3.54999932E-3,719.999969006E-3,
,,,3.55999940E-3,719.999969006E-3,
,,,3.56999924E-3,719.999969006E-3,
,,,3.57999932E-3,719.999969006E-3,
,,,3.58999940E-3,719.999969006E-3,
,,,3.59999924E-3,719.999969006E-3,
,,,3.60999932E-3,719.999969006E-3,
,,,3.61999939E-3,719.999969006E-3,
,,,3.62999924E-3,719.999969006E-3,
,,,3.63999931E-3,719.999969006E-3,
,,,3.64999939E-3,719.999969006E-3,
,,,3.65999923E-3,680.000007153E-3,
,,,3.66999931E-3,719.999969006E-3,
,,,3.67999938E-3,719.999969006E-3,
,,,3.68999923E-3,719.999969006E-3,
,,,3.69999930E-3,719.999969006E-3,
,,,3.70999938E-3,680.000007153E-3,
,,,3.71999922E-3,719.999969006E-3,
,,,3.72999930E-3,680.000007153E-3,
,,,3.73999937E-3,680.000007153E-3,
,,,3.74999922E-3,680.000007153E-3,
,,,3.75999929E-3,719.999969006E-3,
,,,3.76999937E-3,719.999969006E-3,
,,,3.77999921E-3,680.000007153E-3,
,,,3.78999929E-3,680.000007153E-3,
,,,3.79999937E-3,680.000007153E-3,
,,,3.80999921E-3,680.000007153E-3,
,,,3.81999929E-3,680.000007153E-3,
,,,3.82999936E-3,680.000007153E-3,
,,,3.83999920E-3,680.000007153E-3,
,,,3.84999928E-3,680.000007153E-3,
,,,3.85999936E-3,680.000007153E-3,
,,,3.86999920E-3,680.000007153E-3,
,,,3.87999928E-3,680.000007153E-3,
,,,3.88999935E-3,680.000007153E-3,
,,,3.89999920E-3,680.000007153E-3,
,,,3.90999950E-3,680.000007153E-3,
,,,3.91999912E-3,680.000007153E-3,
,,,3.92999919E-3,680.000007153E-3,
,,,3.93999927E-3,639.999985695E-3,
,,,3.94999934E-3,680.000007153E-3,
,,,3.95999942E-3,639.999985695E-3,
,,,3.96999950E-3,639.999985695E-3,
,,,3.97999911E-3,639.999985695E-3,
,,,3.98999918E-3,639.999985695E-3,
,,,3.99999926E-3,639.999985695E-3,
,,,4.00999933E-3,639.999985695E-3,
,,,4.01999941E-3,639.999985695E-3,
,,,4.02999949E-3,639.999985695E-3,
,,,4.03999910E-3,680.000007153E-3,
,,,4.04999917E-3,639.999985695E-3,
,,,4.05999925E-3,639.999985695E-3,
,,,4.06999933E-3,639.999985695E-3,
,,,4.07999940E-3,639.999985695E-3,
,,,4.08999948E-3,639.999985695E-3,
,,,4.09999909E-3,639.999985695E-3,
,,,4.10999916E-3,639.999985695E-3,
,,,4.11999924E-3,639.999985695E-3,
,,,4.12999932E-3,639.999985695E-3,
,,,4.13999939E-3,639.999985695E-3,
,,,4.14999947E-3,639.999985695E-3,
,,,4.15999908E-3,639.999985695E-3,
,,,4.16999916E-3,639.999985695E-3,
,,,4.17999923E-3,599.999964237E-3,
,,,4.18999931E-3,639.999985695E-3,
,,,4.19999938E-3,599.999964237E-3,
,,,4.20999946E-3,599.999964237E-3,
,,,4.21999907E-3,639.999985695E-3,
,,,4.22999915E-3,639.999985695E-3,
,,,4.23999922E-3,599.999964237E-3,
,,,4.24999930E-3,599.999964237E-3,
,,,4.25999938E-3,639.999985695E-3,
,,,4.26999945E-3,639.999985695E-3,
,,,4.27999906E-3,639.999985695E-3,
,,,4.28999914E-3,599.999964237E-3,
,,,4.29999921E-3,599.999964237E-3,
,,,4.30999929E-3,599.999964237E-3,
,,,4.31999937E-3,599.999964237E-3,
,,,4.32999944E-3,599.999964237E-3,
,,,4.33999952E-3,599.999964237E-3,
,,,4.34999913E-3,599.999964237E-3,
,,,4.35999921E-3,599.999964237E-3,
,,,4.36999928E-3,599.999964237E-3,
,,,4.37999936E-3,599.999964237E-3,
,,,4.38999943E-3,599.999964237E-3,
,,,4.39999951E-3,599.999964237E-3,
,,,4.40999912E-3,560.000002384E-3,
,,,4.41999920E-3,599.999964237E-3,
,,,4.42999927E-3,599.999964237E-3,
,,,4.43999935E-3,599.999964237E-3,
,,,4.44999943E-3,599.999964237E-3,
,,,4.45999950E-3,599.999964237E-3,
,,,4.46999911E-3,599.999964237E-3,
,,,4.47999919E-3,599.999964237E-3,
,,,4.48999926E-3,599.999964237E-3,
,,,4.49999934E-3,599.999964237E-3,
,,,4.50999942E-3,599.999964237E-3,
,,,4.51999949E-3,599.999964237E-3,
,,,4.52999910E-3,560.000002384E-3,
,,,4.53999918E-3,560.000002384E-3,
,,,4.54999926E-3,560.000002384E-3,
,,,4.55999933E-3,560.000002384E-3,
,,,4.56999941E-3,560.000002384E-3,
,,,4.57999948E-3,599.999964237E-3,
,,,4.58999909E-3,599.999964237E-3,
,,,4.59999917E-3,599.999964237E-3,
,,,4.60999925E-3,560.000002384E-3,
,,,4.61999932E-3,560.000002384E-3,
,,,4.62999940E-3,599.999964237E-3,
,,,4.63999948E-3,560.000002384E-3,
,,,4.64999909E-3,560.000002384E-3,
,,,4.65999916E-3,560.000002384E-3,
,,,4.66999924E-3,560.000002384E-3,
,,,4.67999931E-3,560.000002384E-3,
,,,4.68999939E-3,560.000002384E-3,
,,,4.69999947E-3,560.000002384E-3,
,,,4.70999908E-3,560.000002384E-3,
,,,4.71999915E-3,560.000002384E-3,
,,,4.72999923E-3,560.000002384E-3,
,,,4.73999931E-3,560.000002384E-3,
,,,4.74999938E-3,560.000002384E-3,
,,,4.75999946E-3,560.000002384E-3,
,,,4.76999907E-3,560.000002384E-3,
,,,4.77999914E-3,560.000002384E-3,
,,,4.78999922E-3,560.000002384E-3,
,,,4.79999930E-3,560.000002384E-3,
,,,4.80999937E-3,560.000002384E-3,
,,,4.81999945E-3,560.000002384E-3,
,,,4.82999906E-3,560.000002384E-3,
,,,4.83999914E-3,560.000002384E-3,
,,,4.84999921E-3,560.000002384E-3,
,,,4.85999929E-3,519.999980927E-3,
,,,4.86999936E-3,519.999980927E-3,
,,,4.87999944E-3,560.000002384E-3,
,,,4.88999905E-3,519.999980927E-3,
,,,4.89999913E-3,519.999980927E-3,
,,,4.90999920E-3,560.000002384E-3,
,,,4.91999928E-3,519.999980927E-3,
,,,4.92999936E-3,560.000002384E-3,
,,,4.93999943E-3,519.999980927E-3,
,,,4.94999904E-3,519.999980927E-3,
,,,4.95999912E-3,560.000002384E-3,
,,,4.96999919E-3,560.000002384E-3,
,,,4.97999927E-3,519.999980927E-3,
,,,4.98999935E-3,519.999980927E-3,
,,,4.99999942E-3,479.999989271E-3,
,,,5.00999950E-3,519.999980927E-3,
,,,5.01999911E-3,519.999980927E-3,
,,,5.02999919E-3,519.999980927E-3,
,,,5.03999926E-3,479.999989271E-3,
,,,5.04999934E-3,479.999989271E-3,
,,,5.05999941E-3,479.999989271E-3,
,,,5.06999949E-3,519.999980927E-3,
,,,5.07999910E-3,479.999989271E-3,
,,,5.08999918E-3,479.999989271E-3,
,,,5.09999925E-3,479.999989271E-3,
,,,5.10999933E-3,479.999989271E-3,
,,,5.11999940E-3,479.999989271E-3,
,,,5.12999948E-3,479.999989271E-3,
,,,5.13999909E-3,479.999989271E-3,
,,,5.14999917E-3,439.999997616E-3,
,,,5.15999924E-3,479.999989271E-3,
,,,5.16999932E-3,439.999997616E-3,
,,,5.17999940E-3,479.999989271E-3,
,,,5.18999947E-3,479.999989271E-3,
,,,5.19999908E-3,439.999997616E-3,
,,,5.20999916E-3,439.999997616E-3,
,,,5.21999924E-3,439.999997616E-3,
,,,5.22999931E-3,479.999989271E-3,
,,,5.23999939E-3,439.999997616E-3,
,,,5.24999946E-3,479.999989271E-3,
,,,5.25999907E-3,479.999989271E-3,
,,,5.26999915E-3,439.999997616E-3,
,,,5.27999923E-3,439.999997616E-3,
,,,5.28999930E-3,439.999997616E-3,
,,,5.29999938E-3,439.999997616E-3,
,,,5.30999945E-3,439.999997616E-3,
,,,5.31999907E-3,439.999997616E-3,
,,,5.32999914E-3,439.999997616E-3,
,,,5.33999922E-3,439.999997616E-3,
,,,5.34999929E-3,439.999997616E-3,
,,,5.35999937E-3,439.999997616E-3,
,,,5.36999945E-3,439.999997616E-3,
,,,5.37999906E-3,439.999997616E-3,
,,,5.38999913E-3,439.999997616E-3,
,,,5.39999921E-3,439.999997616E-3,
,,,5.40999928E-3,439.999997616E-3,
,,,5.41999936E-3,479.999989271E-3,
,,,5.42999944E-3,439.999997616E-3,
,,,5.43999905E-3,439.999997616E-3,
,,,5.44999912E-3,479.999989271E-3,
,,,5.45999920E-3,439.999997616E-3,
,,,5.46999928E-3,439.999997616E-3,
,,,5.47999935E-3,439.999997616E-3,
,,,5.48999943E-3,439.999997616E-3,
,,,5.49999904E-3,439.999997616E-3,
,,,5.50999912E-3,439.999997616E-3,
,,,5.51999919E-3,439.999997616E-3,
,,,5.52999927E-3,439.999997616E-3,
,,,5.53999934E-3,439.999997616E-3,
,,,5.54999942E-3,439.999997616E-3,
,,,5.55999903E-3,439.999997616E-3,
,,,5.56999911E-3,439.999997616E-3,
,,,5.57999918E-3,439.999997616E-3,
,,,5.58999926E-3,439.999997616E-3,
,,,5.59999933E-3,399.99997616E-3,
,,,5.60999941E-3,399.99997616E-3,
,,,5.61999902E-3,439.999997616E-3,
,,,5.62999910E-3,439.999997616E-3,
,,,5.63999917E-3,439.999997616E-3,
,,,5.64999925E-3,439.999997616E-3,
,,,5.65999933E-3,439.999997616E-3,
,,,5.66999940E-3,439.999997616E-3,
,,,5.67999948E-3,439.999997616E-3,
,,,5.68999909E-3,399.99997616E-3,
,,,5.69999916E-3,399.99997616E-3,
,,,5.70999924E-3,399.99997616E-3,
,,,5.71999932E-3,399.99997616E-3,
,,,5.72999939E-3,399.99997616E-3,
,,,5.73999947E-3,439.999997616E-3,
,,,5.74999908E-3,439.999997616E-3,
,,,5.75999916E-3,399.99997616E-3,
,,,5.76999923E-3,399.99997616E-3,
,,,5.77999931E-3,399.99997616E-3,
,,,5.78999938E-3,399.99997616E-3,
,,,5.79999946E-3,399.99997616E-3,
,,,5.80999907E-3,399.99997616E-3,
,,,5.81999915E-3,399.99997616E-3,
,,,5.82999922E-3,399.99997616E-3,
,,,5.83999930E-3,359.99998450E-3,
,,,5.84999938E-3,399.99997616E-3,
,,,5.85999945E-3,399.99997616E-3,
,,,5.86999906E-3,399.99997616E-3,
,,,5.87999914E-3,399.99997616E-3,
,,,5.88999921E-3,359.99998450E-3,
,,,5.89999929E-3,399.99997616E-3,
,,,5.90999937E-3,399.99997616E-3,
,,,5.91999944E-3,399.99997616E-3,
,,,5.92999905E-3,399.99997616E-3,
,,,5.93999913E-3,399.99997616E-3,
,,,5.94999921E-3,399.99997616E-3,
,,,5.95999928E-3,359.99998450E-3,
,,,5.96999936E-3,359.99998450E-3,
,,,5.97999943E-3,359.99998450E-3,
,,,5.98999904E-3,359.99998450E-3,
,,,5.99999912E-3,359.99998450E-3,
,,,6.00999920E-3,359.99998450E-3,
,,,6.01999927E-3,359.99998450E-3,
,,,6.02999935E-3,399.99997616E-3,
,,,6.03999943E-3,359.99998450E-3,
,,,6.04999904E-3,399.99997616E-3,
,,,6.05999911E-3,359.99998450E-3,
,,,6.06999919E-3,359.99998450E-3,
,,,6.07999926E-3,359.99998450E-3,
,,,6.08999934E-3,359.99998450E-3,
,,,6.09999942E-3,399.99997616E-3,
,,,6.10999903E-3,399.99997616E-3,
,,,6.11999910E-3,359.99998450E-3,
,,,6.12999918E-3,359.99998450E-3,
,,,6.13999926E-3,359.99998450E-3,
,,,6.14999933E-3,399.99997616E-3,
,,,6.15999941E-3,359.99998450E-3,
,,,6.16999902E-3,359.99998450E-3,
,,,6.17999909E-3,359.99998450E-3,
,,,6.18999917E-3,359.99998450E-3,
,,,6.19999925E-3,359.99998450E-3,
,,,6.20999932E-3,359.99998450E-3,
,,,6.21999940E-3,359.99998450E-3,
,,,6.22999901E-3,399.99997616E-3,
,,,6.23999909E-3,359.99998450E-3,
,,,6.24999916E-3,359.99998450E-3,
,,,6.25999924E-3,319.99999285E-3,
,,,6.26999931E-3,359.99998450E-3,
,,,6.27999939E-3,359.99998450E-3,
,,,6.28999947E-3,359.99998450E-3,
,,,6.29999908E-3,359.99998450E-3,
,,,6.30999915E-3,359.99998450E-3,
,,,6.31999923E-3,359.99998450E-3,
,,,6.32999931E-3,359.99998450E-3,
,,,6.33999938E-3,359.99998450E-3,
,,,6.34999946E-3,359.99998450E-3,
,,,6.35999907E-3,359.99998450E-3,
,,,6.36999914E-3,319.99999285E-3,
,,,6.37999922E-3,319.99999285E-3,
,,,6.38999930E-3,319.99999285E-3,
,,,6.39999937E-3,319.99999285E-3,
,,,6.40999945E-3,319.99999285E-3,
,,,6.41999906E-3,319.99999285E-3,
,,,6.42999914E-3,359.99998450E-3,
,,,6.43999921E-3,359.99998450E-3,
,,,6.44999929E-3,319.99999285E-3,
,,,6.45999936E-3,359.99998450E-3,
,,,6.46999944E-3,359.99998450E-3,
,,,6.47999905E-3,359.99998450E-3,
,,,6.48999913E-3,359.99998450E-3,
,,,6.49999920E-3,319.99999285E-3,
,,,6.50999928E-3,359.99998450E-3,
,,,6.51999936E-3,319.99999285E-3,
,,,6.52999943E-3,319.99999285E-3,
,,,6.53999904E-3,319.99999285E-3,
,,,6.54999912E-3,319.99999285E-3,
,,,6.55999919E-3,319.99999285E-3,
,,,6.56999927E-3,319.99999285E-3,
,,,6.57999935E-3,319.99999285E-3,
,,,6.58999942E-3,319.99999285E-3,
,,,6.59999903E-3,319.99999285E-3,
,,,6.60999911E-3,319.99999285E-3,
,,,6.61999919E-3,319.99999285E-3,
,,,6.62999926E-3,319.99999285E-3,
,,,6.63999934E-3,319.99999285E-3,
,,,6.64999941E-3,359.99998450E-3,
,,,6.65999902E-3,319.99999285E-3,
,,,6.66999910E-3,319.99999285E-3,
,,,6.67999918E-3,319.99999285E-3,
,,,6.68999925E-3,319.99999285E-3,
,,,6.69999933E-3,319.99999285E-3,
,,,6.70999940E-3,359.99998450E-3,
,,,6.71999902E-3,319.99999285E-3,
,,,6.72999909E-3,319.99999285E-3,
,,,6.73999917E-3,359.99998450E-3,
,,,6.74999924E-3,319.99999285E-3,
,,,6.75999932E-3,319.99999285E-3,
,,,6.76999940E-3,319.99999285E-3,
,,,6.77999901E-3,359.99998450E-3,
,,,6.78999908E-3,359.99998450E-3,
,,,6.79999916E-3,359.99998450E-3,
,,,6.80999923E-3,319.99999285E-3,
,,,6.81999931E-3,319.99999285E-3,
,,,6.82999939E-3,319.99999285E-3,
,,,6.83999900E-3,319.99999285E-3,
,,,6.84999907E-3,319.99999285E-3,
,,,6.85999915E-3,359.99998450E-3,
,,,6.86999923E-3,359.99998450E-3,
,,,6.87999930E-3,319.99999285E-3,
,,,6.88999938E-3,319.99999285E-3,
,,,6.89999945E-3,319.99999285E-3,
,,,6.90999907E-3,319.99999285E-3,
,,,6.91999914E-3,319.99999285E-3,
,,,6.92999922E-3,319.99999285E-3,
,,,6.93999929E-3,319.99999285E-3,
,,,6.94999937E-3,319.99999285E-3,
,,,6.95999945E-3,319.99999285E-3,
,,,6.96999906E-3,319.99999285E-3,
,,,6.97999913E-3,319.99999285E-3,
,,,6.98999921E-3,319.99999285E-3,
,,,6.99999928E-3,319.99999285E-3,
,,,7.00999936E-3,319.99999285E-3,
,,,7.01999944E-3,280.00000119E-3,
,,,7.02999905E-3,560.000002384E-3,
,,,7.03999912E-3,1.3600000,
,,,7.04999920E-3,2.0799999,
,,,7.05999928E-3,2.6399999,
,,,7.06999935E-3,3.11999989,
,,,7.07999943E-3,3.59999990,
,,,7.08999904E-3,4.03999996,
,,,7.09999911E-3,4.36000013,
,,,7.10999919E-3,4.71999979,
,,,7.11999927E-3,4.96000004,
,,,7.12999934E-3,5.19999981,
,,,7.13999942E-3,5.40000010,
,,,7.14999903E-3,5.59999990,
,,,7.15999911E-3,5.67999983,
,,,7.16999918E-3,5.87999964,
,,,7.17999926E-3,5.92000008,
,,,7.18999933E-3,6.00000000,
,,,7.19999941E-3,6.07999992,
,,,7.20999902E-3,6.11999989,
,,,7.21999910E-3,6.15999985,
,,,7.22999917E-3,6.15999985,
,,,7.23999925E-3,6.15999985,
,,,7.24999933E-3,6.15999985,
,,,7.25999940E-3,6.15999985,
,,,7.26999901E-3,6.11999989,
,,,7.27999909E-3,6.07999992,
,,,7.28999916E-3,6.07999992,
,,,7.29999924E-3,6.03999996,
,,,7.30999932E-3,6.00000000,
,,,7.31999939E-3,5.96000004,
,,,7.32999900E-3,5.92000008,
,,,7.33999908E-3,5.83999968,
,,,7.34999916E-3,5.79999971,
,,,7.35999923E-3,5.75999975,
,,,7.36999931E-3,5.67999983,
,,,7.37999938E-3,5.67999983,
,,,7.389998995E-3,5.59999990,
,,,7.399999071E-3,5.55999994,
,,,7.409999147E-3,5.48000002,
,,,7.419999223E-3,5.48000002,
,,,7.429999299E-3,5.40000010,
,,,7.439999375E-3,5.35999966,
,,,7.449998986E-3,5.31999969,
,,,7.459999062E-3,5.23999977,
,,,7.469999138E-3,5.15999985,
,,,7.479999214E-3,5.15999985,
,,,7.489999291E-3,5.07999992,
,,,7.499999367E-3,5.03999996,
,,,7.509998977E-3,5.00000000,
,,,7.519999053E-3,4.96000004,
,,,7.529999129E-3,4.96000004,
,,,7.539999206E-3,4.88000011,
,,,7.549999282E-3,4.83999968,
,,,7.559999358E-3,4.75999975,
,,,7.569999434E-3,4.75999975,
,,,7.579999045E-3,4.71999979,
,,,7.589999121E-3,4.67999983,
,,,7.599999197E-3,4.59999990,
,,,7.609999273E-3,4.59999990,
,,,7.619999349E-3,4.59999990,
,,,7.629999425E-3,4.55999994,
,,,7.639999036E-3,4.48000002,
,,,7.649999112E-3,4.48000002,
,,,7.659999188E-3,4.44000006,
,,,7.669999264E-3,4.44000006,
,,,7.679999340E-3,4.40000010,
,,,7.689999416E-3,4.40000010,
,,,7.699999027E-3,4.31999969,
,,,7.709999103E-3,4.31999969,
,,,7.719999179E-3,4.27999973,
,,,7.729999255E-3,4.23999977,
,,,7.739999332E-3,4.23999977,
,,,7.749999408E-3,4.19999981,
,,,7.759999018E-3,4.19999981,
,,,7.769999094E-3,4.15999985,
,,,7.779999170E-3,4.11999989,
,,,7.789999247E-3,4.11999989,
,,,7.799999323E-3,4.07999992,
,,,7.809999399E-3,4.07999992,
,,,7.819999009E-3,4.00000000,
,,,7.829999551E-3,4.00000000,
,,,7.839999162E-3,3.95999980,
,,,7.849998772E-3,3.95999980,
,,,7.859999314E-3,3.91999984,
,,,7.869998924E-3,3.87999988,
,,,7.879999466E-3,3.87999988,
,,,7.889999077E-3,3.87999988,
,,,7.899999619E-3,3.83999991,
,,,7.909999229E-3,3.79999995,
,,,7.919998839E-3,3.79999995,
,,,7.929999381E-3,3.75999999,
,,,7.939998992E-3,3.72000003,
,,,7.949999534E-3,3.72000003,
,,,7.959999144E-3,3.67999983,
,,,7.969998755E-3,3.67999983,
,,,7.979999296E-3,3.63999987,
,,,7.989998907E-3,3.59999990,
,,,7.999999449E-3,3.59999990,
,,,8.009999059E-3,3.59999990,
,,,8.019999601E-3,3.51999998,
,,,8.029999211E-3,3.51999998,
,,,8.039998822E-3,3.51999998,
,,,8.049999364E-3,3.51999998,
,,,8.059998974E-3,3.48000002,
,,,8.069999516E-3,3.43999982,
,,,8.079999126E-3,3.43999982,
,,,8.089998737E-3,3.39999986,
,,,8.099999279E-3,3.35999990,
,,,8.109998889E-3,3.35999990,
,,,8.119999431E-3,3.35999990,
,,,8.129999042E-3,3.31999993,
,,,8.139999583E-3,3.31999993,
,,,8.149999194E-3,3.27999997,
,,,8.159998804E-3,3.27999997,
,,,8.169999346E-3,3.27999997,
,,,8.179998957E-3,3.24000001,
,,,8.189999498E-3,3.24000001,
,,,8.199999109E-3,3.24000001,
,,,8.209999651E-3,3.19999981,
,,,8.219999261E-3,3.19999981,
,,,8.229998872E-3,3.19999981,
,,,8.239999413E-3,3.19999981,
,,,8.249999024E-3,3.15999985,
,,,8.259999566E-3,3.15999985,
,,,8.269999176E-3,3.11999989,
,,,8.279998787E-3,3.11999989,
,,,8.289999329E-3,3.11999989,
,,,8.299998939E-3,3.07999992,
,,,8.309999481E-3,3.07999992,
,,,8.319999091E-3,3.07999992,
,,,8.329999633E-3,3.07999992,
,,,8.339999244E-3,3.03999996,
,,,8.349998854E-3,3.03999996,
,,,8.359999396E-3,3.00000000,
,,,8.369999006E-3,3.00000000,
,,,8.379999548E-3,2.96000004,
,,,8.389999159E-3,2.96000004,
,,,8.399998769E-3,2.96000004,
,,,8.409999311E-3,2.91999984,
,,,8.419998921E-3,2.87999988,
,,,8.429999463E-3,2.91999984,
,,,8.439999074E-3,2.87999988,
,,,8.449999616E-3,2.87999988,
,,,8.459999226E-3,2.83999991,
,,,8.469998837E-3,2.83999991,
,,,8.479999378E-3,2.79999995,
,,,8.489998989E-3,2.79999995,
,,,8.499999531E-3,2.79999995,
,,,8.509999141E-3,2.79999995,
,,,8.519998752E-3,2.75999999,
,,,8.529999293E-3,2.75999999,
,,,8.539998904E-3,2.75999999,
,,,8.549999446E-3,2.75999999,
,,,8.559999056E-3,2.72000003,
,,,8.569999598E-3,2.6799998,
,,,8.579999208E-3,2.6799998,
,,,8.589998819E-3,2.6799998,
,,,8.599999361E-3,2.6799998,
,,,8.609998971E-3,2.6399999,
,,,8.619999513E-3,2.6399999,
,,,8.629999124E-3,2.6399999,
,,,8.639998734E-3,2.6399999,
,,,8.649999276E-3,2.5999999,
,,,8.659998886E-3,2.5999999,
,,,8.669999428E-3,2.5999999,
,,,8.679999039E-3,2.5599999,
,,,8.689999580E-3,2.5599999,
,,,8.699999191E-3,2.5599999,
,,,8.709998801E-3,2.5200000,
,,,8.719999343E-3,2.5200000,
,,,8.729998954E-3,2.5200000,
,,,8.739999495E-3,2.5200000,
,,,8.749999106E-3,2.5200000,
,,,8.759998716E-3,2.4400001,
,,,8.769999258E-3,2.4800000,
,,,8.779998869E-3,2.4400001,
,,,8.789999411E-3,2.4400001,
,,,8.799999021E-3,2.4400001,
,,,8.809999563E-3,2.4400001,
,,,8.819999173E-3,2.3999999,
,,,8.829998784E-3,2.3999999,
,,,8.839999326E-3,2.3999999,
,,,8.849998936E-3,2.3999999,
,,,8.859999478E-3,2.3999999,
,,,8.869999088E-3,2.3599999,
,,,8.879999630E-3,2.3599999,
,,,8.889999241E-3,2.3599999,
,,,8.899998851E-3,2.3599999,
,,,8.909999393E-3,2.3199999,
,,,8.919999003E-3,2.3199999,
,,,8.929999545E-3,2.3199999,
,,,8.939999156E-3,2.3199999,
,,,8.949998766E-3,2.2800000,
,,,8.959999308E-3,2.2800000,
,,,8.969998918E-3,2.2800000,
,,,8.979999460E-3,2.2800000,
,,,8.989999071E-3,2.2400000,
,,,8.999999613E-3,2.2400000,
,,,9.009999223E-3,2.2400000,
,,,9.019998834E-3,2.2400000,
,,,9.029999375E-3,2.2400000,
,,,9.039998986E-3,2.2000000,
,,,9.049999528E-3,2.2000000,
,,,9.059999138E-3,2.1599998,
,,,9.069998749E-3,2.1599998,
,,,9.079999290E-3,2.2000000,
,,,9.089998901E-3,2.1599998,
,,,9.099999443E-3,2.1199999,
,,,9.109999053E-3,2.1199999,
,,,9.119999595E-3,2.1199999,
,,,9.129999205E-3,2.1199999,
,,,9.139998816E-3,2.0799999,
,,,9.149999358E-3,2.1199999,
,,,9.159998968E-3,2.0799999,
,,,9.169999510E-3,2.0799999,
,,,9.179999121E-3,2.0400000,
,,,9.189998731E-3,2.0799999,
,,,9.199999273E-3,2.0400000,
,,,9.209998883E-3,2.0400000,
,,,9.219999425E-3,2.0400000,
,,,9.229999036E-3,2.0000000,
,,,9.239999577E-3,2.0000000,
,,,9.249999188E-3,2.0000000,
,,,9.259998798E-3,2.0000000,
,,,9.269999340E-3,2.0000000,
,,,9.279998951E-3,2.0000000,
,,,9.289999492E-3,1.9599999,
,,,9.299999103E-3,1.9599999,
,,,9.309998713E-3,1.9599999,
,,,9.319999255E-3,1.9599999,
,,,9.329998866E-3,1.9200000,
,,,9.339999408E-3,1.9200000,
,,,9.349999018E-3,1.9200000,
,,,9.359999560E-3,1.9200000,
,,,9.369999170E-3,1.9200000,
,,,9.379998781E-3,1.9200000,
,,,9.389999323E-3,1.8800000,
,,,9.399998933E-3,1.8800000,
,,,9.409999475E-3,1.8800000,
,,,9.419999085E-3,1.8800000,
,,,9.429998696E-3,1.8800000,
,,,9.439999238E-3,1.8800000,
,,,9.449998848E-3,1.8399999,
,,,9.459999390E-3,1.8800000,
,,,9.469999000E-3,1.8399999,
,,,9.479999542E-3,1.8399999,
,,,9.489999153E-3,1.8399999,
,,,9.499998763E-3,1.8000000,
,,,9.509999305E-3,1.8000000,
,,,9.519998915E-3,1.8000000,
,,,9.529999457E-3,1.8000000,
,,,9.539999068E-3,1.8000000,
,,,9.549999610E-3,1.8000000,
,,,9.559999220E-3,1.7600000,
,,,9.569998831E-3,1.7600000,
,,,9.579999372E-3,1.7600000,
,,,9.589998983E-3,1.7199999,
,,,9.599999525E-3,1.7600000,
,,,9.609999135E-3,1.7600000,
,,,9.619998746E-3,1.7199999,
,,,9.629999287E-3,1.7199999,
,,,9.639998898E-3,1.7600000,
,,,9.649999440E-3,1.7199999,
,,,9.659999050E-3,1.7199999,
,,,9.669999592E-3,1.7199999,
,,,9.679999202E-3,1.7199999,
,,,9.689998813E-3,1.7199999,
,,,9.699999355E-3,1.7199999,
,,,9.709998965E-3,1.6799999,
,,,9.719999507E-3,1.6799999,
,,,9.729999118E-3,1.6799999,
,,,9.739998728E-3,1.6799999,
,,,9.749999270E-3,1.6799999,
,,,9.759998880E-3,1.6799999,
,,,9.769999422E-3,1.6799999,
,,,9.779999033E-3,1.6400000,
,,,9.789999574E-3,1.6799999,
,,,9.799999185E-3,1.6799999,
,,,9.809998795E-3,1.6400000,
,,,9.819999337E-3,1.6400000,
,,,9.829998948E-3,1.6400000,
,,,9.839999489E-3,1.5999999,
,,,9.849999100E-3,1.6400000,
,,,9.859998710E-3,1.5999999,
,,,9.869999252E-3,1.5999999,
,,,9.879998863E-3,1.5999999,
,,,9.889999405E-3,1.5999999,
,,,9.899999015E-3,1.5999999,
,,,9.909999557E-3,1.5999999,
,,,9.919999167E-3,1.5599999,
,,,9.929998778E-3,1.5599999,
,,,9.939999320E-3,1.5999999,
,,,9.949998930E-3,1.5599999,
,,,9.959999472E-3,1.5599999,
,,,9.969999082E-3,1.5599999,
,,,9.979998693E-3,1.5599999,
,,,9.989999235E-3,1.5599999,
,,,9.999998845E-3,1.5200000,
,,,10.0099994E-3,1.5599999,
,,,10.0199990E-3,1.5200000,
,,,10.0299995E-3,1.4800000,
,,,10.0399991E-3,1.5200000,
,,,10.0499988E-3,1.5200000,
,,,10.0599993E-3,1.4800000,
,,,10.0699989E-3,1.4800000,
,,,10.0799995E-3,1.4800000,
,,,10.0899991E-3,1.4800000,
,,,10.0999996E-3,1.4800000,
,,,10.1099992E-3,1.4800000,
,,,10.1199988E-3,1.4800000,
,,,10.1299994E-3,1.4800000,
,,,10.1399990E-3,1.4800000,
,,,10.1499995E-3,1.4399999,
,,,10.1599991E-3,1.4399999,
,,,10.1699987E-3,1.4399999,
,,,10.1799993E-3,1.4399999,
,,,10.1899989E-3,1.4000000,
,,,10.1999994E-3,1.4000000,
,,,10.2099990E-3,1.4399999,
,,,10.2199996E-3,1.4000000,
,,,10.2299992E-3,1.4000000,
,,,10.2399988E-3,1.4000000,
,,,10.2499994E-3,1.4000000,
,,,10.2599990E-3,1.4000000,
,,,10.2699995E-3,1.4399999,
,,,10.2799991E-3,1.4000000,
,,,10.2899987E-3,1.4000000,
,,,10.2999993E-3,1.3600000,
,,,10.3099989E-3,1.4000000,
,,,10.3199994E-3,1.3600000,
,,,10.3299990E-3,1.4000000,
,,,10.3399996E-3,1.4000000,
,,,10.3499992E-3,1.3600000,
,,,10.3599988E-3,1.3600000,
,,,10.3699993E-3,1.3600000,
,,,10.3799989E-3,1.4000000,
,,,10.3899995E-3,1.3600000,
,,,10.3999991E-3,1.3600000,
,,,10.4099987E-3,1.3600000,
,,,10.4199992E-3,1.3199999,
,,,10.4299989E-3,1.3199999,
,,,10.4399994E-3,1.3600000,
,,,10.4499990E-3,1.3199999,
,,,10.4599996E-3,1.3199999,
,,,10.4699992E-3,1.3199999,
,,,10.4799988E-3,1.3199999,
,,,10.4899993E-3,1.3199999,
,,,10.4999989E-3,1.2800000,
,,,10.5099995E-3,1.2800000,
,,,10.5199991E-3,1.2800000,
,,,10.5299987E-3,1.2800000,
,,,10.5399992E-3,1.2800000,
,,,10.5499988E-3,1.2800000,
,,,10.5599994E-3,1.2800000,
,,,10.5699990E-3,1.2800000,
,,,10.5799995E-3,1.2800000,
,,,10.5899991E-3,1.2800000,
,,,10.5999988E-3,1.2400000,
,,,10.6099993E-3,1.2400000,
,,,10.6199989E-3,1.2400000,
,,,10.6299995E-3,1.2400000,
,,,10.6399991E-3,1.2400000,
,,,10.6499987E-3,1.1999999,
,,,10.6599992E-3,1.2400000,
,,,10.6699988E-3,1.2400000,
,,,10.6799994E-3,1.2400000,
,,,10.6899990E-3,1.1999999,
,,,10.6999995E-3,1.1999999,
,,,10.7099991E-3,1.1999999,
,,,10.7199987E-3,1.1999999,
,,,10.7299993E-3,1.1999999,
,,,10.7399989E-3,1.1999999,
,,,10.7499994E-3,1.1999999,
,,,10.7599990E-3,1.1600000,
,,,10.7699996E-3,1.1600000,
,,,10.7799992E-3,1.1999999,
,,,10.7899988E-3,1.1600000,
,,,10.7999993E-3,1.1600000,
,,,10.8099990E-3,1.1600000,
,,,10.8199995E-3,1.1200000,
,,,10.8299991E-3,1.1600000,
,,,10.8399987E-3,1.1600000,
,,,10.8499993E-3,1.1200000,
,,,10.8599989E-3,1.1600000,
,,,10.8699994E-3,1.1200000,
,,,10.8799990E-3,1.1200000,
,,,10.8899996E-3,1.1200000,
,,,10.8999992E-3,1.1200000,
,,,10.9099988E-3,1.1200000,
,,,10.9199993E-3,1.1200000,
,,,10.9299989E-3,1.1200000,
,,,10.9399995E-3,1.1200000,
,,,10.9499991E-3,1.1200000,
,,,10.9599987E-3,1.1200000,
,,,10.9699992E-3,1.0799999,
,,,10.9799989E-3,1.1200000,
,,,10.9899994E-3,1.1200000,
,,,10.9999990E-3,1.0799999,
,,,11.0099996E-3,1.0799999,
,,,11.0199992E-3,1.1200000,
,,,11.0299988E-3,1.1200000,
,,,11.0399993E-3,1.0799999,
,,,11.0499989E-3,1.0799999,
,,,11.0599995E-3,1.0799999,
,,,11.0699991E-3,1.0799999,
,,,11.0799987E-3,1.0799999,
,,,11.0899992E-3,1.0400000,
,,,11.0999988E-3,1.0799999,
,,,11.1099994E-3,1.0400000,
,,,11.1199990E-3,1.0799999,
,,,11.1299995E-3,1.0799999,
,,,11.1399991E-3,1.0799999,
,,,11.1499988E-3,1.0400000,
,,,11.1599993E-3,1.0799999,
,,,11.1699989E-3,1.0799999,
,,,11.1799994E-3,1.0400000,
,,,11.1899991E-3,1.0400000,
,,,11.1999987E-3,1.0400000,
,,,11.2099992E-3,1.0400000,
,,,11.2199988E-3,1.0400000,
,,,11.2299994E-3,1.0400000,
,,,11.2399990E-3,1.0400000,
,,,11.2499995E-3,1.000000,
,,,11.2599991E-3,1.000000,
,,,11.2699987E-3,1.0400000,
,,,11.2799993E-3,1.0400000,
,,,11.2899989E-3,1.000000,
,,,11.2999994E-3,1.000000,
,,,11.3099990E-3,1.000000,
,,,11.3199987E-3,1.000000,
,,,11.3299992E-3,1.000000,
,,,11.3399988E-3,1.000000,
,,,11.3499993E-3,1.000000,
,,,11.3599990E-3,959.999978542E-3,
,,,11.3699995E-3,959.999978542E-3,
,,,11.3799991E-3,959.999978542E-3,
,,,11.3899987E-3,959.999978542E-3,
,,,11.3999993E-3,959.999978542E-3,
,,,11.4099989E-3,959.999978542E-3,
,,,11.4199994E-3,959.999978542E-3,
,,,11.4299990E-3,959.999978542E-3,
,,,11.4399996E-3,959.999978542E-3,
,,,11.4499992E-3,959.999978542E-3,
,,,11.4599988E-3,959.999978542E-3,
,,,11.4699993E-3,959.999978542E-3,
,,,11.4799989E-3,959.999978542E-3,
,,,11.4899995E-3,959.999978542E-3,
,,,11.4999991E-3,919.999957085E-3,
,,,11.5099987E-3,959.999978542E-3,
,,,11.5199992E-3,959.999978542E-3,
,,,11.5299989E-3,919.999957085E-3,
,,,11.5399994E-3,919.999957085E-3,
,,,11.5499990E-3,919.999957085E-3,
,,,11.5599995E-3,919.999957085E-3,
,,,11.5699992E-3,959.999978542E-3,
,,,11.5799988E-3,919.999957085E-3,
,,,11.5899993E-3,919.999957085E-3,
,,,11.5999989E-3,959.999978542E-3,
,,,11.6099995E-3,919.999957085E-3,
,,,11.6199991E-3,919.999957085E-3,
,,,11.6299987E-3,919.999957085E-3,
,,,11.6399992E-3,919.999957085E-3,
,,,11.6499988E-3,919.999957085E-3,
,,,11.6599994E-3,919.999957085E-3,
,,,11.6699990E-3,919.999957085E-3,
,,,11.6799995E-3,919.999957085E-3,
,,,11.6899991E-3,879.999995232E-3,
,,,11.6999988E-3,879.999995232E-3,
,,,11.7099993E-3,919.999957085E-3,
,,,11.7199989E-3,919.999957085E-3,
,,,11.7299994E-3,919.999957085E-3,
,,,11.7399991E-3,879.999995232E-3,
,,,11.7499987E-3,879.999995232E-3,
,,,11.7599992E-3,879.999995232E-3,
,,,11.7699988E-3,919.999957085E-3,
,,,11.7799994E-3,919.999957085E-3,
,,,11.7899990E-3,879.999995232E-3,
,,,11.7999995E-3,879.999995232E-3,
,,,11.8099991E-3,839.999973774E-3,
,,,11.8199987E-3,879.999995232E-3,
,,,11.8299993E-3,879.999995232E-3,
,,,11.8399989E-3,839.999973774E-3,
,,,11.8499994E-3,879.999995232E-3,
,,,11.8599990E-3,839.999973774E-3,
,,,11.8699986E-3,879.999995232E-3,
,,,11.8799992E-3,879.999995232E-3,
,,,11.8899988E-3,879.999995232E-3,
,,,11.8999993E-3,879.999995232E-3,
,,,11.9099990E-3,839.999973774E-3,
,,,11.9199995E-3,839.999973774E-3,
,,,11.9299991E-3,839.999973774E-3,
,,,11.9399987E-3,839.999973774E-3,
,,,11.9499993E-3,839.999973774E-3,
,,,11.9599989E-3,799.999952316E-3,
,,,11.9699994E-3,799.999952316E-3,
,,,11.9799990E-3,839.999973774E-3,
,,,11.9899986E-3,799.999952316E-3,
,,,11.9999992E-3,839.999973774E-3,
,,,12.0099988E-3,839.999973774E-3,
,,,12.0199993E-3,839.999973774E-3,
,,,12.0299989E-3,799.999952316E-3,
,,,12.0399995E-3,839.999973774E-3,
,,,12.0499991E-3,799.999952316E-3,
,,,12.0599987E-3,799.999952316E-3,
,,,12.0699992E-3,799.999952316E-3,
,,,12.0799989E-3,799.999952316E-3,
,,,12.0899994E-3,799.999952316E-3,
,,,12.0999990E-3,799.999952316E-3,
,,,12.1099995E-3,799.999952316E-3,
,,,12.1199992E-3,799.999952316E-3,
,,,12.1299988E-3,799.999952316E-3,
,,,12.1399993E-3,759.999990463E-3,
,,,12.1499989E-3,799.999952316E-3,
,,,12.1599995E-3,759.999990463E-3,
,,,12.1699991E-3,799.999952316E-3,
,,,12.1799987E-3,759.999990463E-3,
,,,12.1899992E-3,759.999990463E-3,
,,,12.1999988E-3,759.999990463E-3,
,,,12.2099994E-3,759.999990463E-3,
,,,12.2199990E-3,759.999990463E-3,
,,,12.2299995E-3,799.999952316E-3,
,,,12.2399991E-3,799.999952316E-3,
,,,12.2499987E-3,759.999990463E-3,
,,,12.2599993E-3,759.999990463E-3,
,,,12.2699989E-3,759.999990463E-3,
,,,12.2799994E-3,759.999990463E-3,
,,,12.2899991E-3,759.999990463E-3,
,,,12.2999987E-3,759.999990463E-3,
,,,12.3099992E-3,759.999990463E-3,
,,,12.3199988E-3,759.999990463E-3,
,,,12.3299994E-3,759.999990463E-3,
,,,12.3399990E-3,719.999969006E-3,
,,,12.3499995E-3,759.999990463E-3,
,,,12.3599991E-3,759.999990463E-3,
,,,12.3699987E-3,759.999990463E-3,
,,,12.3799993E-3,759.999990463E-3,
,,,12.3899989E-3,759.999990463E-3,
,,,12.3999994E-3,719.999969006E-3,
,,,12.4099990E-3,759.999990463E-3,
,,,12.4199986E-3,759.999990463E-3,
,,,12.4299992E-3,719.999969006E-3,
,,,12.4399988E-3,719.999969006E-3,
,,,12.4499993E-3,719.999969006E-3,
,,,12.4599990E-3,719.999969006E-3,
,,,12.4699995E-3,719.999969006E-3,
,,,12.4799991E-3,719.999969006E-3,
,,,12.4899987E-3,719.999969006E-3,
,,,12.4999993E-3,719.999969006E-3,
,,,12.5099989E-3,719.999969006E-3,
,,,12.5199994E-3,719.999969006E-3,
,,,12.5299990E-3,719.999969006E-3,
,,,12.5399986E-3,719.999969006E-3,
,,,12.5499992E-3,719.999969006E-3,
,,,12.5599988E-3,719.999969006E-3,
,,,12.5699993E-3,719.999969006E-3,
,,,12.5799989E-3,719.999969006E-3,
,,,12.5899995E-3,719.999969006E-3,
,,,12.5999991E-3,719.999969006E-3,
,,,12.6099987E-3,719.999969006E-3,
,,,12.6199992E-3,719.999969006E-3,
,,,12.6299988E-3,719.999969006E-3,
,,,12.6399994E-3,719.999969006E-3,
,,,12.6499990E-3,719.999969006E-3,
,,,12.6599986E-3,719.999969006E-3,
,,,12.6699992E-3,719.999969006E-3,
,,,12.6799988E-3,719.999969006E-3,
,,,12.6899993E-3,719.999969006E-3,
,,,12.6999989E-3,719.999969006E-3,
,,,12.7099995E-3,719.999969006E-3,
,,,12.7199991E-3,719.999969006E-3,
,,,12.7299987E-3,719.999969006E-3,
,,,12.7399992E-3,719.999969006E-3,
,,,12.7499988E-3,719.999969006E-3,
,,,12.7599994E-3,719.999969006E-3,
,,,12.7699990E-3,719.999969006E-3,
,,,12.7799995E-3,719.999969006E-3,
,,,12.7899991E-3,719.999969006E-3,
,,,12.7999987E-3,719.999969006E-3,
,,,12.8099993E-3,719.999969006E-3,
,,,12.8199989E-3,719.999969006E-3,
,,,12.8299994E-3,719.999969006E-3,
,,,12.8399990E-3,719.999969006E-3,
,,,12.8499987E-3,680.000007153E-3,
,,,12.8599992E-3,719.999969006E-3,
,,,12.8699988E-3,719.999969006E-3,
,,,12.8799994E-3,719.999969006E-3,
,,,12.8899990E-3,719.999969006E-3,
,,,12.8999995E-3,719.999969006E-3,
,,,12.9099991E-3,719.999969006E-3,
,,,12.9199987E-3,719.999969006E-3,
,,,12.9299993E-3,719.999969006E-3,
,,,12.9399989E-3,719.999969006E-3,
,,,12.9499994E-3,719.999969006E-3,
,,,12.9599990E-3,719.999969006E-3,
,,,12.9699986E-3,719.999969006E-3,
,,,12.9799992E-3,719.999969006E-3,
,,,12.9899988E-3,719.999969006E-3,
,,,12.9999993E-3,759.999990463E-3,
,,,13.0099989E-3,719.999969006E-3,
,,,13.0199995E-3,719.999969006E-3,
,,,13.0299991E-3,719.999969006E-3,
,,,13.0399987E-3,719.999969006E-3,
,,,13.0499993E-3,719.999969006E-3,
,,,13.0599989E-3,719.999969006E-3,
,,,13.0699994E-3,719.999969006E-3,
,,,13.0799990E-3,719.999969006E-3,
,,,13.0899986E-3,719.999969006E-3,
,,,13.0999992E-3,719.999969006E-3,
,,,13.1099988E-3,719.999969006E-3,
,,,13.1199993E-3,719.999969006E-3,
,,,13.1299989E-3,719.999969006E-3,
,,,13.1399995E-3,719.999969006E-3,
,,,13.1499991E-3,719.999969006E-3,
,,,13.1599987E-3,719.999969006E-3,
,,,13.1699992E-3,759.999990463E-3,
,,,13.1799988E-3,759.999990463E-3,
,,,13.1899994E-3,759.999990463E-3,
,,,13.1999990E-3,719.999969006E-3,
,,,13.2099986E-3,719.999969006E-3,
,,,13.2199991E-3,759.999990463E-3,
,,,13.2299988E-3,719.999969006E-3,
,,,13.2399993E-3,719.999969006E-3,
,,,13.2499989E-3,759.999990463E-3,
,,,13.2599995E-3,719.999969006E-3,
,,,13.2699991E-3,719.999969006E-3,
,,,13.2799987E-3,759.999990463E-3,
,,,13.2899992E-3,719.999969006E-3,
,,,13.2999988E-3,759.999990463E-3,
,,,13.3099994E-3,759.999990463E-3,
,,,13.3199990E-3,759.999990463E-3,
,,,13.3299995E-3,759.999990463E-3,
,,,13.3399991E-3,759.999990463E-3,
,,,13.3499987E-3,759.999990463E-3,
,,,13.3599993E-3,759.999990463E-3,
,,,13.3699989E-3,759.999990463E-3,
,,,13.3799994E-3,799.999952316E-3,
,,,13.3899990E-3,759.999990463E-3,
,,,13.3999987E-3,759.999990463E-3,
,,,13.4099992E-3,759.999990463E-3,
,,,13.4199988E-3,759.999990463E-3,
,,,13.4299994E-3,759.999990463E-3,
,,,13.4399990E-3,799.999952316E-3,
,,,13.4499995E-3,799.999952316E-3,
,,,13.4599991E-3,799.999952316E-3,
,,,13.4699987E-3,759.999990463E-3,
,,,13.4799993E-3,759.999990463E-3,
,,,13.4899989E-3,759.999990463E-3,
,,,13.4999994E-3,799.999952316E-3,
,,,13.5099990E-3,759.999990463E-3,
,,,13.5199986E-3,799.999952316E-3,
,,,13.5299992E-3,759.999990463E-3,
,,,13.5399988E-3,799.999952316E-3,
,,,13.5499993E-3,839.999973774E-3,
,,,13.5599989E-3,799.999952316E-3,
,,,13.5699995E-3,839.999973774E-3,
,,,13.5799991E-3,839.999973774E-3,
,,,13.5899987E-3,839.999973774E-3,
,,,13.5999992E-3,839.999973774E-3,
,,,13.6099989E-3,799.999952316E-3,
,,,13.6199994E-3,839.999973774E-3,
,,,13.6299990E-3,839.999973774E-3,
,,,13.6399986E-3,839.999973774E-3,
,,,13.6499992E-3,839.999973774E-3,
,,,13.6599988E-3,839.999973774E-3,
,,,13.6699993E-3,879.999995232E-3,
,,,13.6799989E-3,839.999973774E-3,
,,,13.6899995E-3,879.999995232E-3,
,,,13.6999991E-3,879.999995232E-3,
,,,13.7099987E-3,879.999995232E-3,
,,,13.7199992E-3,919.999957085E-3,
,,,13.7299988E-3,919.999957085E-3,
,,,13.7399994E-3,919.999957085E-3,
,,,13.7499990E-3,959.999978542E-3,
,,,13.7599986E-3,959.999978542E-3,
,,,13.7699991E-3,959.999978542E-3,
,,,13.7799988E-3,959.999978542E-3,
,,,13.7899993E-3,1.000000,
,,,13.7999989E-3,1.000000,
,,,13.8099995E-3,1.000000,
,,,13.8199991E-3,1.000000,
,,,13.8299987E-3,1.0400000,
,,,13.8399992E-3,1.0400000,
,,,13.8499988E-3,1.0799999,
,,,13.8599994E-3,1.0799999,
,,,13.8699990E-3,1.0400000,
,,,13.8799986E-3,1.0799999,
,,,13.8899991E-3,1.0799999,
,,,13.8999987E-3,1.1200000,
,,,13.9099993E-3,1.1200000,
,,,13.9199989E-3,1.1200000,
,,,13.9299994E-3,1.1200000,
,,,13.9399990E-3,1.1200000,
,,,13.9499987E-3,1.1600000,
,,,13.9599992E-3,1.1600000,
,,,13.9699988E-3,1.1999999,
,,,13.9799993E-3,1.1600000,
,,,13.9899990E-3,1.1999999,
,,,13.9999995E-3,1.2400000,
,,,14.0099991E-3,1.1999999,
,,,14.0199987E-3,1.2400000,
,,,14.0299993E-3,1.2400000,
,,,14.0399989E-3,1.1999999,
,,,14.0499994E-3,1.1999999,
,,,14.0599990E-3,1.2400000,
,,,14.0699986E-3,1.1999999,
,,,14.0799992E-3,1.1999999,
,,,14.0899988E-3,1.1999999,
,,,14.0999993E-3,1.1600000,
,,,14.1099989E-3,1.1600000,
,,,14.1199995E-3,1.1600000,
,,,14.1299991E-3,1.1600000,
,,,14.1399987E-3,1.1200000,
,,,14.1499992E-3,1.1200000,
,,,14.1599989E-3,1.1200000,
,,,14.1699994E-3,1.0799999,
,,,14.1799990E-3,1.0799999,
,,,14.1899986E-3,1.0799999,
,,,14.1999992E-3,1.0799999,
,,,14.2099988E-3,1.000000,
,,,14.2199993E-3,1.000000,
,,,14.2299989E-3,1.000000,
,,,14.2399995E-3,1.000000,
,,,14.2499991E-3,959.999978542E-3,
,,,14.2599987E-3,959.999978542E-3,
,,,14.2699992E-3,959.999978542E-3,
,,,14.2799988E-3,919.999957085E-3,
,,,14.2899994E-3,919.999957085E-3,
,,,14.2999990E-3,919.999957085E-3,
,,,14.3099986E-3,879.999995232E-3,
,,,14.3199991E-3,879.999995232E-3,
,,,14.3299988E-3,839.999973774E-3,
,,,14.3399993E-3,839.999973774E-3,
,,,14.3499989E-3,839.999973774E-3,
,,,14.3599994E-3,799.999952316E-3,
,,,14.3699991E-3,799.999952316E-3,
,,,14.3799987E-3,799.999952316E-3,
,,,14.3899992E-3,759.999990463E-3,
,,,14.3999988E-3,759.999990463E-3,
,,,14.4099994E-3,759.999990463E-3,
,,,14.4199990E-3,759.999990463E-3,
,,,14.4299986E-3,759.999990463E-3,
,,,14.4399991E-3,759.999990463E-3,
,,,14.4499987E-3,759.999990463E-3,
,,,14.4599993E-3,719.999969006E-3,
,,,14.4699989E-3,719.999969006E-3,
,,,14.4799994E-3,719.999969006E-3,
,,,14.4899990E-3,680.000007153E-3,
,,,14.4999987E-3,719.999969006E-3,
,,,14.5099992E-3,719.999969006E-3,
,,,14.5199988E-3,719.999969006E-3,
,,,14.5299993E-3,680.000007153E-3,
,,,14.5399990E-3,680.000007153E-3,
,,,14.5499986E-3,680.000007153E-3,
,,,14.5599991E-3,680.000007153E-3,
,,,14.5699987E-3,680.000007153E-3,
,,,14.5799993E-3,639.999985695E-3,
,,,14.5899989E-3,639.999985695E-3,
,,,14.5999994E-3,680.000007153E-3,
,,,14.6099990E-3,639.999985695E-3,
,,,14.6199986E-3,639.999985695E-3,
,,,14.6299992E-3,639.999985695E-3,
,,,14.6399988E-3,639.999985695E-3,
,,,14.6499993E-3,639.999985695E-3,
,,,14.6599989E-3,639.999985695E-3,
,,,14.6699995E-3,599.999964237E-3,
,,,14.6799991E-3,599.999964237E-3,
,,,14.6899987E-3,639.999985695E-3,
,,,14.6999992E-3,599.999964237E-3,
,,,14.7099989E-3,639.999985695E-3,
,,,14.7199994E-3,599.999964237E-3,
,,,14.7299990E-3,599.999964237E-3,
,,,14.7399986E-3,639.999985695E-3,
,,,14.7499992E-3,599.999964237E-3,
,,,14.7599988E-3,599.999964237E-3,
,,,14.7699993E-3,639.999985695E-3,
,,,14.7799989E-3,599.999964237E-3,
,,,14.7899995E-3,599.999964237E-3,
,,,14.7999991E-3,599.999964237E-3,
,,,14.8099987E-3,599.999964237E-3,
,,,14.8199992E-3,599.999964237E-3,
,,,14.8299988E-3,560.000002384E-3,
,,,14.8399994E-3,599.999964237E-3,
,,,14.8499990E-3,560.000002384E-3,
,,,14.8599986E-3,560.000002384E-3,
,,,14.8699991E-3,560.000002384E-3,
,,,14.8799988E-3,560.000002384E-3,
,,,14.8899993E-3,560.000002384E-3,
,,,14.8999989E-3,560.000002384E-3,
,,,14.9099994E-3,519.999980927E-3,
,,,14.9199991E-3,519.999980927E-3,
,,,14.9299987E-3,560.000002384E-3,
,,,14.9399992E-3,560.000002384E-3,
,,,14.9499988E-3,560.000002384E-3,
,,,14.9599994E-3,560.000002384E-3,
,,,14.9699990E-3,560.000002384E-3,
,,,14.9799986E-3,560.000002384E-3,
,,,14.9899991E-3,560.000002384E-3,
,,,14.9999987E-3,560.000002384E-3,
,,,15.0099993E-3,560.000002384E-3,
,,,15.0199989E-3,560.000002384E-3,
,,,15.0299994E-3,519.999980927E-3,
,,,15.0399990E-3,560.000002384E-3,
,,,15.0499986E-3,519.999980927E-3,
,,,15.0599992E-3,560.000002384E-3,
,,,15.0699988E-3,519.999980927E-3,
,,,15.0799993E-3,560.000002384E-3,
,,,15.0899990E-3,519.999980927E-3,
,,,15.0999986E-3,519.999980927E-3,
,,,15.1099991E-3,519.999980927E-3,
,,,15.1199987E-3,519.999980927E-3,
,,,15.1299993E-3,519.999980927E-3,
,,,15.1399989E-3,519.999980927E-3,
,,,15.1499994E-3,519.999980927E-3,
,,,15.1599990E-3,519.999980927E-3,
,,,15.1699986E-3,519.999980927E-3,
,,,15.1799992E-3,519.999980927E-3,
,,,15.1899988E-3,479.999989271E-3,
,,,15.1999993E-3,479.999989271E-3,
,,,15.2099989E-3,519.999980927E-3,
,,,15.2199995E-3,519.999980927E-3,
,,,15.2299991E-3,479.999989271E-3,
,,,15.2399987E-3,519.999980927E-3,
,,,15.2499992E-3,560.000002384E-3,
,,,15.2599989E-3,519.999980927E-3,
,,,15.2699994E-3,519.999980927E-3,
,,,15.2799990E-3,519.999980927E-3,
,,,15.2899986E-3,519.999980927E-3,
,,,15.2999992E-3,519.999980927E-3,
,,,15.3099988E-3,519.999980927E-3,
,,,15.3199993E-3,519.999980927E-3,
,,,15.3299989E-3,479.999989271E-3,
,,,15.3399995E-3,479.999989271E-3,
,,,15.3499991E-3,519.999980927E-3,
,,,15.3599987E-3,479.999989271E-3,
,,,15.3699992E-3,519.999980927E-3,
,,,15.3799988E-3,479.999989271E-3,
,,,15.3899994E-3,479.999989271E-3,
,,,15.3999990E-3,479.999989271E-3,
,,,15.4099986E-3,479.999989271E-3,
,,,15.4199991E-3,479.999989271E-3,
,,,15.4299987E-3,439.999997616E-3,
,,,15.4399993E-3,479.999989271E-3,
,,,15.4499989E-3,439.999997616E-3,
,,,15.4599994E-3,479.999989271E-3,
,,,15.4699991E-3,439.999997616E-3,
,,,15.4799987E-3,479.999989271E-3,
,,,15.4899992E-3,439.999997616E-3,
,,,15.4999988E-3,439.999997616E-3,
,,,15.5099994E-3,439.999997616E-3,
,,,15.5199990E-3,439.999997616E-3,
,,,15.5299986E-3,439.999997616E-3,
,,,15.5399991E-3,439.999997616E-3,
,,,15.5499987E-3,439.999997616E-3,
,,,15.5599993E-3,439.999997616E-3,
,,,15.5699989E-3,439.999997616E-3,
,,,15.5799994E-3,439.999997616E-3,
,,,15.5899990E-3,439.999997616E-3,
,,,15.5999986E-3,439.999997616E-3,
,,,15.6099992E-3,439.999997616E-3,
,,,15.6199988E-3,479.999989271E-3,
,,,15.6299993E-3,439.999997616E-3,
,,,15.6399999E-3,439.999997616E-3,
,,,15.6499986E-3,439.999997616E-3,
,,,15.6599991E-3,439.999997616E-3,
,,,15.6699996E-3,479.999989271E-3,
,,,15.6799983E-3,439.999997616E-3,
,,,15.6899989E-3,439.999997616E-3,
,,,15.6999994E-3,439.999997616E-3,
,,,15.7099981E-3,439.999997616E-3,
,,,15.7199986E-3,439.999997616E-3,
,,,15.7299992E-3,439.999997616E-3,
,,,15.7399997E-3,479.999989271E-3,
,,,15.7499984E-3,439.999997616E-3,
,,,15.7599989E-3,439.999997616E-3,
,,,15.7699995E-3,439.999997616E-3,
,,,15.7799982E-3,439.999997616E-3,
,,,15.7899987E-3,439.999997616E-3,
,,,15.7999992E-3,439.999997616E-3,
,,,15.8099998E-3,439.999997616E-3,
,,,15.8199985E-3,439.999997616E-3,
,,,15.8299990E-3,479.999989271E-3,
,,,15.8399995E-3,439.999997616E-3,
,,,15.8499982E-3,439.999997616E-3,
,,,15.8599988E-3,439.999997616E-3,
,,,15.8699993E-3,439.999997616E-3,
,,,15.8799998E-3,439.999997616E-3,
,,,15.8899985E-3,439.999997616E-3,
