Record Length,2500,Points,-1.6000001E-3,79.999998212E-3,
Sample Interval,3.99999999E-6,s,-1.5960000E-3,79.999998212E-3,
Trigger Point,400.00002001,Samples,-1.5920001E-3,79.999998212E-3,
,,,-1.5880001E-3,79.999998212E-3,
,,,-1.5840001E-3,79.999998212E-3,
,,,-1.5800000E-3,79.999998212E-3,
Source,CH1,,-1.5760001E-3,79.999998212E-3,
Vertical Units,Volts,,-1.5720001E-3,79.999998212E-3,
Vertical Scale,999.999977648E-3,,-1.5680001E-3,79.999998212E-3,
Vertical Offset,0,,-1.5640000E-3,79.999998212E-3,
Horizontal Units,s,,-1.5600001E-3,79.999998212E-3,
Horizontal Scale,1.000000E-3,,-1.5560001E-3,79.999998212E-3,
Pt Fmt,Y,,-1.5520001E-3,79.999998212E-3,
Yzero,-4.44000000,,-1.5480000E-3,79.999998212E-3,
Probe Atten,1.000000,,-1.5440001E-3,79.999998212E-3,
,,,-1.5400001E-3,79.999998212E-3,
Note,TBS 1104 - 15:43:23   08/04/2021,,-1.5360001E-3,79.999998212E-3,
,,,-1.5320000E-3,79.999998212E-3,
,,,-1.5280001E-3,79.999998212E-3,
,,,-1.5240001E-3,79.999998212E-3,
,,,-1.5200000E-3,79.999998212E-3,
,,,-1.5160000E-3,79.999998212E-3,
,,,-1.5120001E-3,79.999998212E-3,
,,,-1.5080001E-3,79.999998212E-3,
,,,-1.5040000E-3,79.999998212E-3,
,,,-1.5000001E-3,79.999998212E-3,
,,,-1.4960001E-3,119.9999973E-3,
,,,-1.4920001E-3,79.999998212E-3,
,,,-1.4880000E-3,79.999998212E-3,
,,,-1.4840001E-3,79.999998212E-3,
,,,-1.4800001E-3,79.999998212E-3,
,,,-1.4760001E-3,79.999998212E-3,
,,,-1.4720000E-3,79.999998212E-3,
,,,-1.4680001E-3,79.999998212E-3,
,,,-1.4640001E-3,79.999998212E-3,
,,,-1.4600001E-3,119.9999973E-3,
,,,-1.4560000E-3,79.999998212E-3,
,,,-1.4520001E-3,79.999998212E-3,
,,,-1.4480001E-3,119.9999973E-3,
,,,-1.4440001E-3,39.99999911E-3,
,,,-1.4400000E-3,79.999998212E-3,
,,,-1.4360001E-3,79.999998212E-3,
,,,-1.4320001E-3,79.999998212E-3,
,,,-1.4280000E-3,79.999998212E-3,
,,,-1.4240001E-3,79.999998212E-3,
,,,-1.4200001E-3,79.999998212E-3,
,,,-1.4160001E-3,79.999998212E-3,
,,,-1.4120000E-3,79.999998212E-3,
,,,-1.4080001E-3,79.999998212E-3,
,,,-1.4040001E-3,79.999998212E-3,
,,,-1.4000001E-3,79.999998212E-3,
,,,-1.3960000E-3,79.999998212E-3,
,,,-1.3920001E-3,79.999998212E-3,
,,,-1.3880001E-3,79.999998212E-3,
,,,-1.3840001E-3,79.999998212E-3,
,,,-1.3800000E-3,79.999998212E-3,
,,,-1.3760001E-3,79.999998212E-3,
,,,-1.3720001E-3,79.999998212E-3,
,,,-1.3680001E-3,79.999998212E-3,
,,,-1.3640000E-3,79.999998212E-3,
,,,-1.3600001E-3,79.999998212E-3,
,,,-1.3560001E-3,79.999998212E-3,
,,,-1.3520001E-3,79.999998212E-3,
,,,-1.3480000E-3,79.999998212E-3,
,,,-1.3440001E-3,79.999998212E-3,
,,,-1.3400001E-3,79.999998212E-3,
,,,-1.3360000E-3,79.999998212E-3,
,,,-1.3320001E-3,79.999998212E-3,
,,,-1.3280001E-3,39.99999911E-3,
,,,-1.3240001E-3,79.999998212E-3,
,,,-1.3200000E-3,79.999998212E-3,
,,,-1.3160001E-3,39.99999911E-3,
,,,-1.3120001E-3,79.999998212E-3,
,,,-1.3080001E-3,79.999998212E-3,
,,,-1.3040000E-3,39.99999911E-3,
,,,-1.3000001E-3,79.999998212E-3,
,,,-1.2960001E-3,39.99999911E-3,
,,,-1.2920001E-3,79.999998212E-3,
,,,-1.2880000E-3,79.999998212E-3,
,,,-1.2840001E-3,79.999998212E-3,
,,,-1.2800001E-3,79.999998212E-3,
,,,-1.2760001E-3,79.999998212E-3,
,,,-1.2720000E-3,79.999998212E-3,
,,,-1.2680001E-3,79.999998212E-3,
,,,-1.2640001E-3,79.999998212E-3,
,,,-1.2600000E-3,79.999998212E-3,
,,,-1.2560001E-3,79.999998212E-3,
,,,-1.2520001E-3,39.99999911E-3,
,,,-1.2480001E-3,79.999998212E-3,
,,,-1.2440000E-3,79.999998212E-3,
,,,-1.2400001E-3,79.999998212E-3,
,,,-1.2360001E-3,79.999998212E-3,
,,,-1.2320001E-3,39.99999911E-3,
,,,-1.2280000E-3,79.999998212E-3,
,,,-1.2240001E-3,79.999998212E-3,
,,,-1.2200001E-3,79.999998212E-3,
,,,-1.2160001E-3,79.999998212E-3,
,,,-1.2120000E-3,79.999998212E-3,
,,,-1.2080001E-3,79.999998212E-3,
,,,-1.2040001E-3,79.999998212E-3,
,,,-1.2000001E-3,79.999998212E-3,
,,,-1.1960000E-3,79.999998212E-3,
,,,-1.1920001E-3,79.999998212E-3,
,,,-1.1880001E-3,79.999998212E-3,
,,,-1.1840001E-3,79.999998212E-3,
,,,-1.1800000E-3,79.999998212E-3,
,,,-1.1760001E-3,39.99999911E-3,
,,,-1.1720001E-3,79.999998212E-3,
,,,-1.1680000E-3,79.999998212E-3,
,,,-1.1640001E-3,79.999998212E-3,
,,,-1.1600001E-3,79.999998212E-3,
,,,-1.1560001E-3,79.999998212E-3,
,,,-1.1520000E-3,79.999998212E-3,
,,,-1.1480001E-3,79.999998212E-3,
,,,-1.1440001E-3,79.999998212E-3,
,,,-1.1400001E-3,79.999998212E-3,
,,,-1.1360000E-3,79.999998212E-3,
,,,-1.1320001E-3,79.999998212E-3,
,,,-1.1280001E-3,79.999998212E-3,
,,,-1.1240001E-3,79.999998212E-3,
,,,-1.1200000E-3,79.999998212E-3,
,,,-1.1160001E-3,79.999998212E-3,
,,,-1.1120001E-3,79.999998212E-3,
,,,-1.1080001E-3,79.999998212E-3,
,,,-1.1040000E-3,79.999998212E-3,
,,,-1.1000001E-3,79.999998212E-3,
,,,-1.0960001E-3,79.999998212E-3,
,,,-1.0920000E-3,79.999998212E-3,
,,,-1.0880001E-3,79.999998212E-3,
,,,-1.0840001E-3,79.999998212E-3,
,,,-1.0800001E-3,79.999998212E-3,
,,,-1.0760000E-3,79.999998212E-3,
,,,-1.0720001E-3,79.999998212E-3,
,,,-1.0680001E-3,79.999998212E-3,
,,,-1.0640001E-3,79.999998212E-3,
,,,-1.0600000E-3,79.999998212E-3,
,,,-1.0560001E-3,79.999998212E-3,
,,,-1.0520001E-3,79.999998212E-3,
,,,-1.0480001E-3,79.999998212E-3,
,,,-1.0440000E-3,79.999998212E-3,
,,,-1.0400001E-3,79.999998212E-3,
,,,-1.0360001E-3,79.999998212E-3,
,,,-1.0320001E-3,79.999998212E-3,
,,,-1.0280000E-3,39.99999911E-3,
,,,-1.0240001E-3,79.999998212E-3,
,,,-1.0200001E-3,79.999998212E-3,
,,,-1.0160001E-3,79.999998212E-3,
,,,-1.0120000E-3,39.99999911E-3,
,,,-1.0080001E-3,79.999998212E-3,
,,,-1.0040001E-3,79.999998212E-3,
,,,-1.0000000E-3,39.99999911E-3,
,,,-996.000133455E-6,79.999998212E-3,
,,,-992.000102997E-6,79.999998212E-3,
,,,-988.000072539E-6,79.999998212E-3,
,,,-984.000042081E-6,79.999998212E-3,
,,,-980.000128038E-6,79.999998212E-3,
,,,-976.000097580E-6,79.999998212E-3,
,,,-972.000067122E-6,79.999998212E-3,
,,,-968.000094872E-6,39.99999911E-3,
,,,-964.000064414E-6,39.99999911E-3,
,,,-960.000092164E-6,39.99999911E-3,
,,,-956.000061706E-6,79.999998212E-3,
,,,-952.000089455E-6,39.99999911E-3,
,,,-948.000058997E-6,79.999998212E-3,
,,,-944.000086747E-6,79.999998212E-3,
,,,-940.000056289E-6,39.99999911E-3,
,,,-936.000084039E-6,39.99999911E-3,
,,,-932.000053581E-6,79.999998212E-3,
,,,-928.000081331E-6,79.999998212E-3,
,,,-924.000050873E-6,79.999998212E-3,
,,,-920.000078622E-6,39.99999911E-3,
,,,-916.000106372E-6,79.999998212E-3,
,,,-912.000075914E-6,79.999998212E-3,
,,,-908.000103664E-6,39.99999911E-3,
,,,-904.000073206E-6,39.99999911E-3,
,,,-900.000100955E-6,79.999998212E-3,
,,,-896.000070497E-6,39.99999911E-3,
,,,-892.000098247E-6,39.99999911E-3,
,,,-888.000067789E-6,39.99999911E-3,
,,,-884.000095539E-6,39.99999911E-3,
,,,-880.000065081E-6,39.99999911E-3,
,,,-876.000092831E-6,79.999998212E-3,
,,,-872.000062373E-6,39.99999911E-3,
,,,-868.000090122E-6,39.99999911E-3,
,,,-864.000059664E-6,79.999998212E-3,
,,,-860.000087414E-6,39.99999911E-3,
,,,-856.000056956E-6,79.999998212E-3,
,,,-852.000084706E-6,79.999998212E-3,
,,,-848.000054248E-6,79.999998212E-3,
,,,-844.000081997E-6,39.99999911E-3,
,,,-840.000051539E-6,39.99999911E-3,
,,,-836.000079289E-6,79.999998212E-3,
,,,-832.000048831E-6,39.99999911E-3,
,,,-828.000076581E-6,79.999998212E-3,
,,,-824.000104330E-6,39.99999911E-3,
,,,-820.000073873E-6,39.99999911E-3,
,,,-816.000101622E-6,39.99999911E-3,
,,,-812.000071164E-6,79.999998212E-3,
,,,-808.000098914E-6,39.99999911E-3,
,,,-804.000068456E-6,79.999998212E-3,
,,,-800.000096206E-6,79.999998212E-3,
,,,-796.000065748E-6,79.999998212E-3,
,,,-792.000093497E-6,39.99999911E-3,
,,,-788.000063039E-6,79.999998212E-3,
,,,-784.000090789E-6,39.99999911E-3,
,,,-780.000060331E-6,79.999998212E-3,
,,,-776.000088081E-6,79.999998212E-3,
,,,-772.000057623E-6,79.999998212E-3,
,,,-768.000085372E-6,79.999998212E-3,
,,,-764.000054915E-6,79.999998212E-3,
,,,-760.000082664E-6,39.99999911E-3,
,,,-756.000052206E-6,79.999998212E-3,
,,,-752.000079956E-6,79.999998212E-3,
,,,-748.000049498E-6,79.999998212E-3,
,,,-744.000077248E-6,79.999998212E-3,
,,,-740.000104997E-6,79.999998212E-3,
,,,-736.000074539E-6,79.999998212E-3,
,,,-732.000102289E-6,39.99999911E-3,
,,,-728.000071831E-6,39.99999911E-3,
,,,-724.000099581E-6,79.999998212E-3,
,,,-720.000069123E-6,79.999998212E-3,
,,,-716.000096872E-6,79.999998212E-3,
,,,-712.000066414E-6,39.99999911E-3,
,,,-708.000094164E-6,79.999998212E-3,
,,,-704.000063706E-6,79.999998212E-3,
,,,-700.000091456E-6,79.999998212E-3,
,,,-696.000060998E-6,79.999998212E-3,
,,,-692.000088748E-6,79.999998212E-3,
,,,-688.000058290E-6,79.999998212E-3,
,,,-684.000086039E-6,39.99999911E-3,
,,,-680.000055581E-6,39.99999911E-3,
,,,-676.000083331E-6,39.99999911E-3,
,,,-672.000052873E-6,79.999998212E-3,
,,,-668.000080623E-6,79.999998212E-3,
,,,-664.000050165E-6,79.999998212E-3,
,,,-660.000077914E-6,79.999998212E-3,
,,,-656.000105664E-6,79.999998212E-3,
,,,-652.000075206E-6,79.999998212E-3,
,,,-648.000102956E-6,79.999998212E-3,
,,,-644.000072498E-6,79.999998212E-3,
,,,-640.000100248E-6,39.99999911E-3,
,,,-636.000069790E-6,79.999998212E-3,
,,,-632.000097539E-6,79.999998212E-3,
,,,-628.000067081E-6,79.999998212E-3,
,,,-624.000094831E-6,79.999998212E-3,
,,,-620.000064373E-6,79.999998212E-3,
,,,-616.000092123E-6,79.999998212E-3,
,,,-612.000061665E-6,39.99999911E-3,
,,,-608.000089414E-6,79.999998212E-3,
,,,-604.000058956E-6,79.999998212E-3,
,,,-600.000086706E-6,79.999998212E-3,
,,,-596.000056248E-6,39.99999911E-3,
,,,-592.000083998E-6,79.999998212E-3,
,,,-588.000053540E-6,79.999998212E-3,
,,,-584.000081290E-6,79.999998212E-3,
,,,-580.000050832E-6,79.999998212E-3,
,,,-576.000078581E-6,79.999998212E-3,
,,,-572.000106331E-6,79.999998212E-3,
,,,-568.000075873E-6,79.999998212E-3,
,,,-564.000103623E-6,39.99999911E-3,
,,,-560.000073165E-6,79.999998212E-3,
,,,-556.000100914E-6,39.99999911E-3,
,,,-552.000070456E-6,79.999998212E-3,
,,,-548.000098206E-6,39.99999911E-3,
,,,-544.000067748E-6,79.999998212E-3,
,,,-540.000095498E-6,39.99999911E-3,
,,,-536.000065040E-6,79.999998212E-3,
,,,-532.000092790E-6,79.999998212E-3,
,,,-528.000062332E-6,79.999998212E-3,
,,,-524.000090081E-6,79.999998212E-3,
,,,-520.000059623E-6,39.99999911E-3,
,,,-516.000087373E-6,79.999998212E-3,
,,,-512.000056915E-6,79.999998212E-3,
,,,-508.000084665E-6,79.999998212E-3,
,,,-504.000054207E-6,79.999998212E-3,
,,,-500.000081956E-6,79.999998212E-3,
,,,-496.000051498E-6,79.999998212E-3,
,,,-492.000079248E-6,79.999998212E-3,
,,,-488.000077894E-6,79.999998212E-3,
,,,-484.000076540E-6,79.999998212E-3,
,,,-480.000075186E-6,79.999998212E-3,
,,,-476.000073832E-6,79.999998212E-3,
,,,-472.000072477E-6,79.999998212E-3,
,,,-468.000071123E-6,79.999998212E-3,
,,,-464.000069769E-6,79.999998212E-3,
,,,-460.000068415E-6,79.999998212E-3,
,,,-456.000067061E-6,79.999998212E-3,
,,,-452.000065707E-6,39.99999911E-3,
,,,-448.000093456E-6,79.999998212E-3,
,,,-444.000092102E-6,39.99999911E-3,
,,,-440.000090748E-6,79.999998212E-3,
,,,-436.000089394E-6,79.999998212E-3,
,,,-432.000088040E-6,79.999998212E-3,
,,,-428.000086686E-6,79.999998212E-3,
,,,-424.000085331E-6,79.999998212E-3,
,,,-420.000083977E-6,79.999998212E-3,
,,,-416.000082623E-6,79.999998212E-3,
,,,-412.000081269E-6,79.999998212E-3,
,,,-408.000079915E-6,79.999998212E-3,
,,,-404.000078561E-6,79.999998212E-3,
,,,-400.00007721E-6,79.999998212E-3,
,,,-396.00007585E-6,79.999998212E-3,
,,,-392.00007450E-6,79.999998212E-3,
,,,-388.00007314E-6,79.999998212E-3,
,,,-384.00007179E-6,39.99999911E-3,
,,,-380.00007044E-6,39.99999911E-3,
,,,-376.00006908E-6,79.999998212E-3,
,,,-372.00006773E-6,79.999998212E-3,
,,,-368.00006637E-6,79.999998212E-3,
,,,-364.00006502E-6,79.999998212E-3,
,,,-360.00009277E-6,79.999998212E-3,
,,,-356.00009141E-6,79.999998212E-3,
,,,-352.00009006E-6,79.999998212E-3,
,,,-348.00008871E-6,79.999998212E-3,
,,,-344.00008735E-6,79.999998212E-3,
,,,-340.00008600E-6,79.999998212E-3,
,,,-336.00008464E-6,79.999998212E-3,
,,,-332.00008329E-6,79.999998212E-3,
,,,-328.00008194E-6,79.999998212E-3,
,,,-324.00008058E-6,79.999998212E-3,
,,,-320.00007923E-6,79.999998212E-3,
,,,-316.00007787E-6,79.999998212E-3,
,,,-312.00007652E-6,79.999998212E-3,
,,,-308.00007517E-6,79.999998212E-3,
,,,-304.00007381E-6,79.999998212E-3,
,,,-300.00007246E-6,79.999998212E-3,
,,,-296.00007110E-6,79.999998212E-3,
,,,-292.00006975E-6,79.999998212E-3,
,,,-288.00006839E-6,79.999998212E-3,
,,,-284.00006704E-6,79.999998212E-3,
,,,-280.00006569E-6,79.999998212E-3,
,,,-276.00009344E-6,79.999998212E-3,
,,,-272.00009208E-6,79.999998212E-3,
,,,-268.00009073E-6,79.999998212E-3,
,,,-264.00008937E-6,79.999998212E-3,
,,,-260.00008802E-6,79.999998212E-3,
,,,-256.00008667E-6,39.99999911E-3,
,,,-252.00008531E-6,79.999998212E-3,
,,,-248.00008396E-6,79.999998212E-3,
,,,-244.00008260E-6,79.999998212E-3,
,,,-240.00008125E-6,79.999998212E-3,
,,,-236.00007989E-6,79.999998212E-3,
,,,-232.00007854E-6,79.999998212E-3,
,,,-228.00007719E-6,79.999998212E-3,
,,,-224.00007583E-6,79.999998212E-3,
,,,-220.00007448E-6,79.999998212E-3,
,,,-216.00007312E-6,79.999998212E-3,
,,,-212.00008632E-6,79.999998212E-3,
,,,-208.00008497E-6,79.999998212E-3,
,,,-204.00008361E-6,79.999998212E-3,
,,,-200.00008226E-6,79.999998212E-3,
,,,-196.00008090E-6,79.999998212E-3,
,,,-192.00007955E-6,79.999998212E-3,
,,,-188.00007820E-6,79.999998212E-3,
,,,-184.00007684E-6,79.999998212E-3,
,,,-180.00007549E-6,39.99999911E-3,
,,,-176.00007413E-6,79.999998212E-3,
,,,-172.00007278E-6,79.999998212E-3,
,,,-168.00008598E-6,79.999998212E-3,
,,,-164.00008462E-6,79.999998212E-3,
,,,-160.00008327E-6,79.999998212E-3,
,,,-156.00008192E-6,79.999998212E-3,
,,,-152.00008056E-6,79.999998212E-3,
,,,-148.0000792E-6,79.999998212E-3,
,,,-144.0000779E-6,79.999998212E-3,
,,,-140.0000765E-6,79.999998212E-3,
,,,-136.0000751E-6,79.999998212E-3,
,,,-132.0000738E-6,79.999998212E-3,
,,,-128.0000724E-6,79.999998212E-3,
,,,-124.0000856E-6,79.999998212E-3,
,,,-120.0000770E-6,79.999998212E-3,
,,,-116.0000829E-6,79.999998212E-3,
,,,-112.0000816E-6,79.999998212E-3,
,,,-108.0000802E-6,79.999998212E-3,
,,,-104.0000789E-6,79.999998212E-3,
,,,-100.0000775E-6,79.999998212E-3,
,,,-96.000076155E-6,79.999998212E-3,
,,,-92.000082077E-6,79.999998212E-3,
,,,-88.000080723E-6,79.999998212E-3,
,,,-84.000079369E-6,79.999998212E-3,
,,,-80.000078015E-6,79.999998212E-3,
,,,-76.000076660E-6,39.99999911E-3,
,,,-72.000082582E-6,79.999998212E-3,
,,,-68.000081228E-6,79.999998212E-3,
,,,-64.000079874E-6,79.999998212E-3,
,,,-60.000078520E-6,79.999998212E-3,
,,,-56.000080804E-6,79.999998212E-3,
,,,-52.00007945E-6,79.999998212E-3,
,,,-48.00008173E-6,79.999998212E-3,
,,,-44.00008038E-6,79.999998212E-3,
,,,-40.00007903E-6,79.999998212E-3,
,,,-36.00008131E-6,79.999998212E-3,
,,,-32.00007995E-6,79.999998212E-3,
,,,-28.00008042E-6,79.999998212E-3,
,,,-24.00008088E-6,119.9999973E-3,
,,,-20.0000795E-6,79.999998212E-3,
,,,-16.0000800E-6,79.999998212E-3,
,,,-12.0000805E-6,79.999998212E-3,
,,,-8.000080015E-6,79.999998212E-3,
,,,-4.00008003E-6,79.999998212E-3,
,,,-80.035533428E-12,39.99999911E-3,
,,,3.99991995E-6,39.99999911E-3,
,,,7.999919944E-6,39.99999911E-3,
,,,11.9999204E-6,39.99999911E-3,
,,,15.9999199E-6,39.99999911E-3,
,,,19.9999195E-6,39.99999911E-3,
,,,23.99992081E-6,39.99999911E-3,
,,,27.99992035E-6,39.99999911E-3,
,,,31.99991988E-6,0.0,
,,,35.99992124E-6,119.9999973E-3,
,,,39.99991895E-6,359.99998450E-3,
,,,43.99992031E-6,560.000002384E-3,
,,,47.99992166E-6,759.999990463E-3,
,,,51.99991938E-6,919.999957085E-3,
,,,55.999920733E-6,1.1200000,
,,,59.999918449E-6,1.2400000,
,,,63.999919803E-6,1.4000000,
,,,67.999921157E-6,1.5599999,
,,,71.999922511E-6,1.6799999,
,,,75.999916589E-6,1.8399999,
,,,79.999917943E-6,1.9599999,
,,,83.999919298E-6,2.0799999,
,,,87.999920652E-6,2.1599998,
,,,91.999922006E-6,2.2800000,
,,,95.999916084E-6,2.3999999,
,,,99.999917438E-6,2.4800000,
,,,103.9999188E-6,2.5999999,
,,,107.9999201E-6,2.6799998,
,,,111.9999215E-6,2.75999999,
,,,115.9999229E-6,2.79999995,
,,,119.9999169E-6,2.87999988,
,,,123.9999256E-6,2.96000004,
,,,127.9999269E-6,3.00000000,
,,,131.9999137E-6,3.03999996,
,,,135.9999151E-6,3.15999985,
,,,139.9999164E-6,3.19999981,
,,,143.9999178E-6,3.24000001,
,,,147.9999191E-6,3.31999993,
,,,151.99992049E-6,3.31999993,
,,,155.99992184E-6,3.35999990,
,,,159.99992320E-6,3.39999986,
,,,163.99992455E-6,3.43999982,
,,,167.99992591E-6,3.48000002,
,,,171.99991271E-6,3.48000002,
,,,175.99991406E-6,3.51999998,
,,,179.99991542E-6,3.55999994,
,,,183.99991677E-6,3.59999990,
,,,187.99991813E-6,3.59999990,
,,,191.99991948E-6,3.63999987,
,,,195.99992083E-6,3.63999987,
,,,199.99992219E-6,3.63999987,
,,,203.99992354E-6,3.67999983,
,,,207.99992490E-6,3.67999983,
,,,211.99992625E-6,3.67999983,
,,,215.99991305E-6,3.67999983,
,,,219.99991441E-6,3.72000003,
,,,223.99991576E-6,3.72000003,
,,,227.99991712E-6,3.67999983,
,,,231.99991847E-6,3.72000003,
,,,235.99991982E-6,3.72000003,
,,,239.99992118E-6,3.72000003,
,,,243.99992253E-6,3.72000003,
,,,247.99990933E-6,3.72000003,
,,,251.99991069E-6,3.72000003,
,,,255.99991204E-6,3.72000003,
,,,259.99991340E-6,3.67999983,
,,,263.99991475E-6,3.72000003,
,,,267.99991610E-6,3.67999983,
,,,271.99991746E-6,3.72000003,
,,,275.99991881E-6,3.67999983,
,,,279.99992017E-6,3.67999983,
,,,283.99992152E-6,3.67999983,
,,,287.99992288E-6,3.67999983,
,,,291.99992423E-6,3.63999987,
,,,295.99992558E-6,3.63999987,
,,,299.99992694E-6,3.63999987,
,,,303.99992829E-6,3.63999987,
,,,307.99992965E-6,3.59999990,
,,,311.99993100E-6,3.59999990,
,,,315.99993235E-6,3.59999990,
,,,319.99993371E-6,3.59999990,
,,,323.99990596E-6,3.55999994,
,,,327.99990731E-6,3.55999994,
,,,331.99990867E-6,3.55999994,
,,,335.99991002E-6,3.51999998,
,,,339.99991138E-6,3.51999998,
,,,343.99991273E-6,3.48000002,
,,,347.99991408E-6,3.48000002,
,,,351.99991544E-6,3.48000002,
,,,355.99991679E-6,3.43999982,
,,,359.99991815E-6,3.43999982,
,,,363.99991950E-6,3.39999986,
,,,367.99992085E-6,3.39999986,
,,,371.99992221E-6,3.39999986,
,,,375.99992356E-6,3.39999986,
,,,379.99992492E-6,3.35999990,
,,,383.99992627E-6,3.35999990,
,,,387.99992763E-6,3.35999990,
,,,391.99992898E-6,3.31999993,
,,,395.99993033E-6,3.27999997,
,,,399.99993169E-6,3.31999993,
,,,403.999933042E-6,3.27999997,
,,,407.999905292E-6,3.24000001,
,,,411.999906646E-6,3.24000001,
,,,415.999908000E-6,3.24000001,
,,,419.999909354E-6,3.24000001,
,,,423.999910709E-6,3.19999981,
,,,427.999912063E-6,3.19999981,
,,,431.999913417E-6,3.19999981,
,,,435.999914771E-6,3.15999985,
,,,439.999916125E-6,3.15999985,
,,,443.999917479E-6,3.15999985,
,,,447.999918833E-6,3.15999985,
,,,451.999920188E-6,3.11999989,
,,,455.999921542E-6,3.07999992,
,,,459.999922896E-6,3.11999989,
,,,463.999924250E-6,3.07999992,
,,,467.999925604E-6,3.07999992,
,,,471.999926958E-6,3.03999996,
,,,475.999928312E-6,3.03999996,
,,,479.999929667E-6,3.00000000,
,,,483.999931021E-6,3.00000000,
,,,487.999932375E-6,3.00000000,
,,,491.999904625E-6,3.00000000,
,,,495.999935083E-6,2.96000004,
,,,499.999907333E-6,2.96000004,
,,,503.999937791E-6,2.96000004,
,,,507.999910042E-6,2.96000004,
,,,511.999940500E-6,2.96000004,
,,,515.999912750E-6,2.96000004,
,,,519.999943208E-6,2.91999984,
,,,523.999915458E-6,2.91999984,
,,,527.999945916E-6,2.91999984,
,,,531.999918167E-6,2.87999988,
,,,535.999890417E-6,2.87999988,
,,,539.999920875E-6,2.87999988,
,,,543.999893125E-6,2.87999988,
,,,547.999923583E-6,2.83999991,
,,,551.999895833E-6,2.83999991,
,,,555.999926291E-6,2.83999991,
,,,559.999898542E-6,2.83999991,
,,,563.999929000E-6,2.79999995,
,,,567.999901250E-6,2.79999995,
,,,571.999931708E-6,2.75999999,
,,,575.999903958E-6,2.75999999,
,,,579.999934416E-6,2.75999999,
,,,583.999906667E-6,2.72000003,
,,,587.999937125E-6,2.72000003,
,,,591.999909375E-6,2.72000003,
,,,595.999939833E-6,2.72000003,
,,,599.999912083E-6,2.6799998,
,,,603.999942541E-6,2.72000003,
,,,607.999914791E-6,2.6399999,
,,,611.999945249E-6,2.6799998,
,,,615.999917500E-6,2.6799998,
,,,619.999889750E-6,2.6799998,
,,,623.999920208E-6,2.6399999,
,,,627.999892458E-6,2.6399999,
,,,631.999922916E-6,2.6399999,
,,,635.999895167E-6,2.6399999,
,,,639.999925625E-6,2.6399999,
,,,643.999897875E-6,2.6399999,
,,,647.999928333E-6,2.5999999,
,,,651.999900583E-6,2.5999999,
,,,655.999931041E-6,2.5999999,
,,,659.999903291E-6,2.5999999,
,,,663.999933749E-6,2.5999999,
,,,667.999906000E-6,2.5999999,
,,,671.999936458E-6,2.5999999,
,,,675.999908708E-6,2.5599999,
,,,679.999939166E-6,2.5599999,
,,,683.999911416E-6,2.5599999,
,,,687.999941874E-6,2.5599999,
,,,691.999914125E-6,2.5599999,
,,,695.999944583E-6,2.5200000,
,,,699.999916833E-6,2.5599999,
,,,703.999889083E-6,2.5200000,
,,,707.999919541E-6,2.5200000,
,,,711.999891791E-6,2.5200000,
,,,715.999922249E-6,2.4800000,
,,,719.999894500E-6,2.5200000,
,,,723.999924958E-6,2.4800000,
,,,727.999897208E-6,2.4800000,
,,,731.999927666E-6,2.4800000,
,,,735.999899916E-6,2.4400001,
,,,739.999930374E-6,2.4800000,
,,,743.999902625E-6,2.4400001,
,,,747.999933083E-6,2.3999999,
,,,751.999905333E-6,2.4400001,
,,,755.999935791E-6,2.3999999,
,,,759.999908041E-6,2.4400001,
,,,763.999938499E-6,2.3999999,
,,,767.999910749E-6,2.3999999,
,,,771.999941207E-6,2.3999999,
,,,775.999913458E-6,2.3999999,
,,,779.999943916E-6,2.3599999,
,,,783.999916166E-6,2.3999999,
,,,787.999946624E-6,2.3599999,
,,,791.999918874E-6,2.3599999,
,,,795.999891125E-6,2.3599999,
,,,799.999921583E-6,2.3599999,
,,,803.999893833E-6,2.3599999,
,,,807.999924291E-6,2.3599999,
,,,811.999896541E-6,2.3199999,
,,,815.999926999E-6,2.3199999,
,,,819.999899250E-6,2.3199999,
,,,823.999929707E-6,2.3599999,
,,,827.999901958E-6,2.3199999,
,,,831.999932416E-6,2.3199999,
,,,835.999904666E-6,2.2800000,
,,,839.999935124E-6,2.2800000,
,,,843.999907374E-6,2.2800000,
,,,847.999937832E-6,2.3199999,
,,,851.999910083E-6,2.2800000,
,,,855.999940541E-6,2.2800000,
,,,859.999912791E-6,2.2800000,
,,,863.999943249E-6,2.2800000,
,,,867.999915499E-6,2.2400000,
,,,871.999945957E-6,2.2400000,
,,,875.999918208E-6,2.2400000,
,,,879.999890458E-6,2.2400000,
,,,883.999920916E-6,2.2800000,
,,,887.999893166E-6,2.2400000,
,,,891.999923624E-6,2.2400000,
,,,895.999895874E-6,2.2400000,
,,,899.999926332E-6,2.2000000,
,,,903.999898583E-6,2.2000000,
,,,907.999929041E-6,2.2400000,
,,,911.999901291E-6,2.2000000,
,,,915.999931749E-6,2.2000000,
,,,919.999903999E-6,2.2000000,
,,,923.999934457E-6,2.2000000,
,,,927.999906708E-6,2.1599998,
,,,931.999937166E-6,2.1599998,
,,,935.999909416E-6,2.2000000,
,,,939.999939874E-6,2.1599998,
,,,943.999912124E-6,2.1599998,
,,,947.999942582E-6,2.1599998,
,,,951.999914832E-6,2.1599998,
,,,955.999945290E-6,2.1599998,
,,,959.999917541E-6,2.1599998,
,,,963.999889791E-6,2.1199999,
,,,967.999920249E-6,2.1199999,
,,,971.999892499E-6,2.1199999,
,,,975.999922957E-6,2.1199999,
,,,979.999895208E-6,2.1199999,
,,,983.999925666E-6,2.1599998,
,,,987.999956124E-6,2.1599998,
,,,991.999870166E-6,2.1199999,
,,,995.999900624E-6,2.1199999,
,,,999.999931082E-6,2.0799999,
,,,1.0040000E-3,2.0799999,
,,,1.0079999E-3,2.0799999,
,,,1.0119999E-3,2.0400000,
,,,1.0159999E-3,2.0799999,
,,,1.0200000E-3,2.0799999,
,,,1.0239999E-3,2.0400000,
,,,1.0279999E-3,2.0799999,
,,,1.0319999E-3,2.0799999,
,,,1.0360000E-3,2.0799999,
,,,1.0399999E-3,2.0799999,
,,,1.0439999E-3,2.0400000,
,,,1.0479999E-3,2.0400000,
,,,1.0519999E-3,2.0799999,
,,,1.0559999E-3,2.0400000,
,,,1.0599999E-3,2.0400000,
,,,1.0640000E-3,2.0400000,
,,,1.0679999E-3,2.0400000,
,,,1.0719999E-3,2.0400000,
,,,1.0759999E-3,2.0400000,
,,,1.0800000E-3,2.0400000,
,,,1.0839999E-3,2.0000000,
,,,1.0879999E-3,2.0000000,
,,,1.0919999E-3,2.0000000,
,,,1.0960000E-3,2.0400000,
,,,1.0999999E-3,2.0000000,
,,,1.1039999E-3,2.0000000,
,,,1.1079999E-3,2.0000000,
,,,1.1120000E-3,2.0000000,
,,,1.1159999E-3,2.0000000,
,,,1.1199999E-3,1.9599999,
,,,1.1239999E-3,1.9599999,
,,,1.1280000E-3,2.0000000,
,,,1.1319999E-3,1.9599999,
,,,1.1359999E-3,1.9599999,
,,,1.1399999E-3,1.9599999,
,,,1.1439999E-3,1.9200000,
,,,1.1479999E-3,1.9599999,
,,,1.1519999E-3,1.9599999,
,,,1.1560000E-3,1.9200000,
,,,1.1599999E-3,1.9599999,
,,,1.1639999E-3,1.9599999,
,,,1.1679999E-3,1.9200000,
,,,1.1720000E-3,1.9599999,
,,,1.1759999E-3,1.9200000,
,,,1.1799999E-3,1.9200000,
,,,1.1839999E-3,1.9200000,
,,,1.1880000E-3,1.9200000,
,,,1.1919999E-3,1.9200000,
,,,1.1959999E-3,1.9200000,
,,,1.1999999E-3,1.9200000,
,,,1.2040000E-3,1.9200000,
,,,1.2079999E-3,1.9200000,
,,,1.2119999E-3,1.8800000,
,,,1.2159999E-3,1.8800000,
,,,1.2199999E-3,1.8800000,
,,,1.2239999E-3,1.8800000,
,,,1.2279999E-3,1.8800000,
,,,1.2320000E-3,1.8800000,
,,,1.2359999E-3,1.8800000,
,,,1.2399999E-3,1.8800000,
,,,1.2439999E-3,1.8399999,
,,,1.2480000E-3,1.8399999,
,,,1.2519999E-3,1.8800000,
,,,1.2559999E-3,1.8399999,
,,,1.2599999E-3,1.8399999,
,,,1.2640000E-3,1.8399999,
,,,1.2679999E-3,1.8399999,
,,,1.2719999E-3,1.8399999,
,,,1.2759999E-3,1.8399999,
,,,1.2800000E-3,1.8399999,
,,,1.2839999E-3,1.8399999,
,,,1.2879999E-3,1.8399999,
,,,1.2919999E-3,1.8399999,
,,,1.2960000E-3,1.8000000,
,,,1.2999999E-3,1.8000000,
,,,1.3039999E-3,1.8000000,
,,,1.3079999E-3,1.8000000,
,,,1.3119999E-3,1.8399999,
,,,1.3159999E-3,1.8000000,
,,,1.3199999E-3,1.7600000,
,,,1.3240000E-3,1.8000000,
,,,1.3279999E-3,1.7600000,
,,,1.3319999E-3,1.8000000,
,,,1.3359999E-3,1.7600000,
,,,1.3400000E-3,1.7600000,
,,,1.3439999E-3,1.7600000,
,,,1.3479999E-3,1.7600000,
,,,1.3519999E-3,1.7600000,
,,,1.3560000E-3,1.7600000,
,,,1.3599999E-3,1.7199999,
,,,1.3639999E-3,1.7199999,
,,,1.3679999E-3,1.7600000,
,,,1.3720000E-3,1.7600000,
,,,1.3759999E-3,1.7600000,
,,,1.3799999E-3,1.7600000,
,,,1.3839999E-3,1.7600000,
,,,1.3879999E-3,1.7600000,
,,,1.3919999E-3,1.7600000,
,,,1.3959999E-3,1.7600000,
,,,1.4000000E-3,1.7600000,
,,,1.4039999E-3,1.7600000,
,,,1.4079999E-3,1.7199999,
,,,1.4119999E-3,1.7199999,
,,,1.4160000E-3,1.7199999,
,,,1.4199999E-3,1.7199999,
,,,1.4239999E-3,1.7199999,
,,,1.4279999E-3,1.7199999,
,,,1.4320000E-3,1.7199999,
,,,1.4359999E-3,1.7199999,
,,,1.4399999E-3,1.6799999,
,,,1.4439999E-3,1.6799999,
,,,1.4480000E-3,1.6799999,
,,,1.4519999E-3,1.6799999,
,,,1.4559999E-3,1.6799999,
,,,1.4599999E-3,1.6799999,
,,,1.4640000E-3,1.6799999,
,,,1.4679999E-3,1.6799999,
,,,1.4719999E-3,1.6799999,
,,,1.4759999E-3,1.6799999,
,,,1.4799999E-3,1.6799999,
,,,1.4839999E-3,1.6799999,
,,,1.4879999E-3,1.6799999,
,,,1.4920000E-3,1.6400000,
,,,1.4959999E-3,1.6400000,
,,,1.4999999E-3,1.6400000,
,,,1.5039999E-3,1.6400000,
,,,1.5080000E-3,1.6400000,
,,,1.5119999E-3,1.6400000,
,,,1.5159999E-3,1.6400000,
,,,1.5199999E-3,1.6400000,
,,,1.5240000E-3,1.6400000,
,,,1.5279999E-3,1.6400000,
,,,1.5319999E-3,1.5999999,
,,,1.5359999E-3,1.6400000,
,,,1.5400000E-3,1.6400000,
,,,1.5439999E-3,1.6400000,
,,,1.5479999E-3,1.6400000,
,,,1.5519999E-3,1.5999999,
,,,1.5560000E-3,1.5999999,
,,,1.5599999E-3,1.5999999,
,,,1.5639999E-3,1.5999999,
,,,1.5679999E-3,1.5999999,
,,,1.5719999E-3,1.5999999,
,,,1.5759999E-3,1.5999999,
,,,1.5799999E-3,1.5599999,
,,,1.5840000E-3,1.5999999,
,,,1.5879999E-3,1.5999999,
,,,1.5919999E-3,1.5999999,
,,,1.5959999E-3,1.5999999,
,,,1.6000000E-3,1.5999999,
,,,1.6039999E-3,1.5999999,
,,,1.6079999E-3,1.5599999,
,,,1.6119999E-3,1.5999999,
,,,1.6160000E-3,1.5599999,
,,,1.6199999E-3,1.5599999,
,,,1.6239999E-3,1.5999999,
,,,1.6279999E-3,1.5599999,
,,,1.6320000E-3,1.5599999,
,,,1.6359999E-3,1.5599999,
,,,1.6399999E-3,1.5599999,
,,,1.6439999E-3,1.5599999,
,,,1.6479999E-3,1.5599999,
,,,1.6519999E-3,1.5599999,
,,,1.6559999E-3,1.5599999,
,,,1.6600000E-3,1.5599999,
,,,1.6639999E-3,1.5599999,
,,,1.6679999E-3,1.5200000,
,,,1.6719999E-3,1.5200000,
,,,1.6760000E-3,1.5200000,
,,,1.6799999E-3,1.4800000,
,,,1.6839999E-3,1.5200000,
,,,1.6879999E-3,1.5200000,
,,,1.6920000E-3,1.5200000,
,,,1.6959999E-3,1.5200000,
,,,1.6999999E-3,1.5200000,
,,,1.7039999E-3,1.5200000,
,,,1.7080000E-3,1.5200000,
,,,1.7119999E-3,1.4800000,
,,,1.7159999E-3,1.5200000,
,,,1.7199999E-3,1.5200000,
,,,1.7240000E-3,1.4800000,
,,,1.7279999E-3,1.4800000,
,,,1.7319999E-3,1.4800000,
,,,1.7359999E-3,1.4800000,
,,,1.7399999E-3,1.4800000,
,,,1.7439999E-3,1.4800000,
,,,1.7479999E-3,1.4800000,
,,,1.7520000E-3,1.4800000,
,,,1.7559999E-3,1.4800000,
,,,1.7599999E-3,1.4800000,
,,,1.7639999E-3,1.4399999,
,,,1.7680000E-3,1.4399999,
,,,1.7719999E-3,1.4800000,
,,,1.7759999E-3,1.4399999,
,,,1.7799999E-3,1.4399999,
,,,1.7840000E-3,1.4800000,
,,,1.7879999E-3,1.4399999,
,,,1.7919999E-3,1.4399999,
,,,1.7959999E-3,1.4399999,
,,,1.8000000E-3,1.4399999,
,,,1.8039999E-3,1.4399999,
,,,1.8079999E-3,1.4399999,
,,,1.8119999E-3,1.4399999,
,,,1.8159999E-3,1.4399999,
,,,1.8199999E-3,1.4399999,
,,,1.8239999E-3,1.4000000,
,,,1.8279999E-3,1.4000000,
,,,1.8319999E-3,1.4000000,
,,,1.8359999E-3,1.4399999,
,,,1.8399999E-3,1.4000000,
,,,1.8440000E-3,1.4399999,
,,,1.8479999E-3,1.4000000,
,,,1.8519999E-3,1.4000000,
,,,1.8559999E-3,1.4399999,
,,,1.8600000E-3,1.4000000,
,,,1.8639999E-3,1.4000000,
,,,1.8679999E-3,1.4000000,
,,,1.8719999E-3,1.4000000,
,,,1.8760000E-3,1.3600000,
,,,1.8799999E-3,1.4000000,
,,,1.8839999E-3,1.4000000,
,,,1.8879999E-3,1.3600000,
,,,1.8920000E-3,1.3600000,
,,,1.8959999E-3,1.3600000,
,,,1.8999999E-3,1.3600000,
,,,1.9039999E-3,1.3600000,
,,,1.9079999E-3,1.3600000,
,,,1.9119999E-3,1.3600000,
,,,1.9159999E-3,1.3600000,
,,,1.9200000E-3,1.3199999,
,,,1.9239999E-3,1.3600000,
,,,1.9279999E-3,1.3600000,
,,,1.9319999E-3,1.3199999,
,,,1.9360000E-3,1.3600000,
,,,1.9399999E-3,1.3199999,
,,,1.9439999E-3,1.3600000,
,,,1.9479999E-3,1.3600000,
,,,1.9520000E-3,1.3199999,
,,,1.9560000E-3,1.3199999,
,,,1.9600000E-3,1.3600000,
,,,1.9639998E-3,1.3199999,
,,,1.9679999E-3,1.3199999,
,,,1.9719999E-3,1.3199999,
,,,1.9759999E-3,1.3199999,
,,,1.9799999E-3,1.3199999,
,,,1.9840000E-3,1.3199999,
,,,1.9880000E-3,1.3199999,
,,,1.9919998E-3,1.3199999,
,,,1.9959998E-3,1.3199999,
,,,1.9999999E-3,1.3199999,
,,,2.0039999E-3,1.3199999,
,,,2.0079999E-3,1.2800000,
,,,2.0120000E-3,1.1999999,
,,,2.0160000E-3,1.1600000,
,,,2.0200000E-3,1.0799999,
,,,2.0239998E-3,1.0400000,
,,,2.0279998E-3,1.000000,
,,,2.0319999E-3,1.0799999,
,,,2.0359999E-3,1.5200000,
,,,2.0399999E-3,1.9599999,
,,,2.0440000E-3,2.3599999,
,,,2.0480000E-3,2.6399999,
,,,2.0520000E-3,3.00000000,
,,,2.0559998E-3,3.27999997,
,,,2.0599999E-3,3.59999990,
,,,2.0639999E-3,3.83999991,
,,,2.0679999E-3,4.11999989,
,,,2.0719999E-3,4.40000010,
,,,2.0760000E-3,4.59999990,
,,,2.0800000E-3,4.88000011,
,,,2.0839998E-3,5.07999992,
,,,2.0879998E-3,5.27999973,
,,,2.0919999E-3,5.48000002,
,,,2.0959999E-3,5.63999987,
,,,2.0999999E-3,5.83999968,
,,,2.1040000E-3,6.00000000,
,,,2.1080000E-3,6.15999985,
,,,2.1120000E-3,6.27999973,
,,,2.1159998E-3,6.44000006,
,,,2.1199998E-3,6.55999994,
,,,2.1239999E-3,6.67999983,
,,,2.1279999E-3,6.83999968,
,,,2.1319999E-3,6.92000008,
,,,2.1360000E-3,7.03999996,
,,,2.1400000E-3,7.15999985,
,,,2.1440000E-3,7.23999977,
,,,2.1479998E-3,7.31999969,
,,,2.1519999E-3,7.399999619,
,,,2.1559999E-3,7.440000057,
,,,2.1599999E-3,7.519999981,
,,,2.1639999E-3,7.599999905,
,,,2.1680000E-3,7.639999866,
,,,2.1720000E-3,7.719999790,
,,,2.1759998E-3,7.759999752,
,,,2.1799998E-3,7.839999676,
,,,2.1839999E-3,7.839999676,
,,,2.1879999E-3,7.879999638,
,,,2.1919999E-3,7.919999599,
,,,2.1960000E-3,7.919999599,
,,,2.2000000E-3,8.000000000,
,,,2.2040000E-3,8.039999962,
,,,2.2079998E-3,8.039999962,
,,,2.2119998E-3,8.039999962,
,,,2.2159999E-3,8.079999924,
,,,2.2199999E-3,8.079999924,
,,,2.2239999E-3,8.079999924,
,,,2.2280000E-3,8.079999924,
,,,2.2320000E-3,8.119999886,
,,,2.2360000E-3,8.119999886,
,,,2.2399998E-3,8.119999886,
,,,2.2439999E-3,8.079999924,
,,,2.2479999E-3,8.079999924,
,,,2.2519999E-3,8.079999924,
,,,2.2559999E-3,8.079999924,
,,,2.2600000E-3,8.079999924,
,,,2.2640000E-3,8.079999924,
,,,2.2679998E-3,8.079999924,
,,,2.2719998E-3,8.039999962,
,,,2.2759999E-3,8.039999962,
,,,2.2799999E-3,8.039999962,
,,,2.2839999E-3,8.000000000,
,,,2.2880000E-3,8.000000000,
,,,2.2920000E-3,7.960000038,
,,,2.2960000E-3,7.960000038,
,,,2.2999998E-3,7.919999599,
,,,2.3039998E-3,7.919999599,
,,,2.3079999E-3,7.879999638,
,,,2.3119999E-3,7.839999676,
,,,2.3159999E-3,7.839999676,
,,,2.3200000E-3,7.799999714,
,,,2.3240000E-3,7.799999714,
,,,2.3279998E-3,7.799999714,
,,,2.3319998E-3,7.759999752,
,,,2.3359999E-3,7.759999752,
,,,2.3399999E-3,7.679999828,
,,,2.3439999E-3,7.679999828,
,,,2.3480000E-3,7.639999866,
,,,2.3520000E-3,7.599999905,
,,,2.3560000E-3,7.559999943,
,,,2.3599998E-3,7.559999943,
,,,2.3639998E-3,7.519999981,
,,,2.3679999E-3,7.519999981,
,,,2.3719999E-3,7.440000057,
,,,2.3759999E-3,7.480000019,
,,,2.3800000E-3,7.440000057,
,,,2.3840000E-3,7.399999619,
,,,2.3880000E-3,7.35999966,
,,,2.3919998E-3,7.31999969,
,,,2.3959999E-3,7.31999969,
,,,2.3999999E-3,7.27999973,
,,,2.4039999E-3,7.23999977,
,,,2.4079999E-3,7.19999981,
,,,2.4120000E-3,7.19999981,
,,,2.4160000E-3,7.15999985,
,,,2.4199998E-3,7.15999985,
,,,2.4239998E-3,7.11999989,
,,,2.4279999E-3,7.07999992,
,,,2.4319999E-3,7.07999992,
,,,2.4359999E-3,7.03999996,
,,,2.4400000E-3,6.96000004,
,,,2.4440000E-3,6.96000004,
,,,2.4480000E-3,6.96000004,
,,,2.4519998E-3,6.92000008,
,,,2.4559998E-3,6.92000008,
,,,2.4599999E-3,6.87999964,
,,,2.4639999E-3,6.83999968,
,,,2.4679999E-3,6.79999971,
,,,2.4720000E-3,6.83999968,
,,,2.4760000E-3,6.75999975,
,,,2.4800000E-3,6.75999975,
,,,2.4839998E-3,6.71999979,
,,,2.4879999E-3,6.67999983,
,,,2.4919999E-3,6.67999983,
,,,2.4959999E-3,6.59999990,
,,,2.4999999E-3,6.55999994,
,,,2.5040000E-3,6.55999994,
,,,2.5080000E-3,6.55999994,
,,,2.5119998E-3,6.51999998,
,,,2.5159998E-3,6.51999998,
,,,2.5199999E-3,6.44000006,
,,,2.5239999E-3,6.44000006,
,,,2.5279999E-3,6.44000006,
,,,2.5320000E-3,6.39999962,
,,,2.5360000E-3,6.39999962,
,,,2.5400000E-3,6.35999966,
,,,2.5439998E-3,6.31999969,
,,,2.5479998E-3,6.31999969,
,,,2.5519999E-3,6.27999973,
,,,2.5559999E-3,6.27999973,
,,,2.5599999E-3,6.23999977,
,,,2.5640000E-3,6.23999977,
,,,2.5680000E-3,6.19999981,
,,,2.5720000E-3,6.19999981,
,,,2.5759998E-3,6.15999985,
,,,2.5799999E-3,6.15999985,
,,,2.5839999E-3,6.11999989,
,,,2.5879999E-3,6.11999989,
,,,2.5919999E-3,6.07999992,
,,,2.5960000E-3,6.07999992,
,,,2.6000000E-3,6.07999992,
,,,2.6039998E-3,6.00000000,
,,,2.6079998E-3,6.00000000,
,,,2.6119999E-3,6.00000000,
,,,2.6159999E-3,5.96000004,
,,,2.6199999E-3,5.92000008,
,,,2.6240000E-3,5.92000008,
,,,2.6280000E-3,5.92000008,
,,,2.6320000E-3,5.87999964,
,,,2.6359998E-3,5.83999968,
,,,2.6399998E-3,5.83999968,
,,,2.6439999E-3,5.83999968,
,,,2.6479999E-3,5.79999971,
,,,2.6519999E-3,5.79999971,
,,,2.6560000E-3,5.79999971,
,,,2.6600000E-3,5.75999975,
,,,2.6640000E-3,5.75999975,
,,,2.6679998E-3,5.71999979,
,,,2.6719999E-3,5.67999983,
,,,2.6759999E-3,5.67999983,
,,,2.6799999E-3,5.63999987,
,,,2.6839999E-3,5.67999983,
,,,2.6880000E-3,5.63999987,
,,,2.6920000E-3,5.63999987,
,,,2.6959998E-3,5.59999990,
,,,2.6999998E-3,5.55999994,
,,,2.7039999E-3,5.55999994,
,,,2.7079999E-3,5.55999994,
,,,2.7119999E-3,5.55999994,
,,,2.7160000E-3,5.51999998,
,,,2.71999999E-3,5.51999998,
,,,2.72400002E-3,5.48000002,
,,,2.72799982E-3,5.48000002,
,,,2.73199985E-3,5.44000006,
,,,2.73599988E-3,5.48000002,
,,,2.73999991E-3,5.44000006,
,,,2.74399994E-3,5.44000006,
,,,2.74799997E-3,5.44000006,
,,,2.75200000E-3,5.40000010,
,,,2.75599980E-3,5.40000010,
,,,2.75999983E-3,5.40000010,
,,,2.76399986E-3,5.35999966,
,,,2.76799989E-3,5.31999969,
,,,2.77199992E-3,5.31999969,
,,,2.77599995E-3,5.31999969,
,,,2.77999998E-3,5.31999969,
,,,2.78400001E-3,5.27999973,
,,,2.78799981E-3,5.23999977,
,,,2.79199984E-3,5.27999973,
,,,2.79599987E-3,5.23999977,
,,,2.79999990E-3,5.23999977,
,,,2.80399993E-3,5.23999977,
,,,2.80799996E-3,5.19999981,
,,,2.81199999E-3,5.15999985,
,,,2.81600002E-3,5.15999985,
,,,2.81999982E-3,5.15999985,
,,,2.82399985E-3,5.15999985,
,,,2.82799988E-3,5.15999985,
,,,2.83199991E-3,5.11999989,
,,,2.83599994E-3,5.11999989,
,,,2.83999997E-3,5.11999989,
,,,2.84400000E-3,5.07999992,
,,,2.84799980E-3,5.07999992,
,,,2.85199983E-3,5.03999996,
,,,2.85599986E-3,5.03999996,
,,,2.85999989E-3,5.00000000,
,,,2.86399992E-3,5.00000000,
,,,2.86799995E-3,5.00000000,
,,,2.87199998E-3,4.96000004,
,,,2.87600001E-3,4.96000004,
,,,2.87999981E-3,4.96000004,
,,,2.88399984E-3,4.92000008,
,,,2.88799987E-3,4.92000008,
,,,2.89199990E-3,4.88000011,
,,,2.89599993E-3,4.92000008,
,,,2.89999996E-3,4.88000011,
,,,2.90399999E-3,4.88000011,
,,,2.90800002E-3,4.88000011,
,,,2.91199982E-3,4.88000011,
,,,2.91599985E-3,4.83999968,
,,,2.91999988E-3,4.79999971,
,,,2.92399991E-3,4.79999971,
,,,2.92799994E-3,4.79999971,
,,,2.93199997E-3,4.79999971,
,,,2.93600000E-3,4.79999971,
,,,2.93999980E-3,4.75999975,
,,,2.94399983E-3,4.75999975,
,,,2.94799986E-3,4.75999975,
,,,2.95199989E-3,4.71999979,
,,,2.95599992E-3,4.71999979,
,,,2.95999995E-3,4.67999983,
,,,2.96399998E-3,4.63999987,
,,,2.96800002E-3,4.63999987,
,,,2.97199981E-3,4.63999987,
,,,2.97599984E-3,4.59999990,
,,,2.97999987E-3,4.59999990,
,,,2.98399990E-3,4.59999990,
,,,2.98799993E-3,4.59999990,
,,,2.99199997E-3,4.59999990,
,,,2.99600000E-3,4.59999990,
,,,3.00000003E-3,4.55999994,
,,,3.00399982E-3,4.59999990,
,,,3.00799985E-3,4.55999994,
,,,3.01199988E-3,4.51999998,
,,,3.01599992E-3,4.51999998,
,,,3.01999995E-3,4.48000002,
,,,3.02399998E-3,4.48000002,
,,,3.02800001E-3,4.48000002,
,,,3.03199980E-3,4.48000002,
,,,3.03599983E-3,4.44000006,
,,,3.03999986E-3,4.44000006,
,,,3.04399990E-3,4.44000006,
,,,3.04799993E-3,4.40000010,
,,,3.05199996E-3,4.40000010,
,,,3.05599999E-3,4.40000010,
,,,3.06000002E-3,4.36000013,
,,,3.06399981E-3,4.36000013,
,,,3.06799985E-3,4.36000013,
,,,3.07199988E-3,4.36000013,
,,,3.07599991E-3,4.36000013,
,,,3.07999994E-3,4.31999969,
,,,3.08399997E-3,4.27999973,
,,,3.08800000E-3,4.27999973,
,,,3.09200003E-3,4.31999969,
,,,3.09599983E-3,4.27999973,
,,,3.09999986E-3,4.27999973,
,,,3.10399989E-3,4.27999973,
,,,3.10799992E-3,4.23999977,
,,,3.11199995E-3,4.23999977,
,,,3.11599998E-3,4.19999981,
,,,3.12000001E-3,4.15999985,
,,,3.12399981E-3,4.19999981,
,,,3.12799984E-3,4.19999981,
,,,3.13199987E-3,4.19999981,
,,,3.13599990E-3,4.15999985,
,,,3.13999993E-3,4.15999985,
,,,3.14399996E-3,4.15999985,
,,,3.14799999E-3,4.15999985,
,,,3.15200002E-3,4.11999989,
,,,3.15599982E-3,4.11999989,
,,,3.15999985E-3,4.11999989,
,,,3.16399988E-3,4.11999989,
,,,3.16799991E-3,4.07999992,
,,,3.17199994E-3,4.07999992,
,,,3.17599997E-3,4.03999996,
,,,3.18000000E-3,4.03999996,
,,,3.18399980E-3,4.03999996,
,,,3.18799983E-3,4.03999996,
,,,3.19199986E-3,4.03999996,
,,,3.19599989E-3,4.00000000,
,,,3.19999992E-3,4.00000000,
,,,3.20399995E-3,4.00000000,
,,,3.20799998E-3,3.95999980,
,,,3.21200001E-3,3.95999980,
,,,3.21599981E-3,3.95999980,
,,,3.21999984E-3,3.95999980,
,,,3.22399987E-3,3.91999984,
,,,3.22799990E-3,3.95999980,
,,,3.23199993E-3,3.91999984,
,,,3.23599996E-3,3.91999984,
,,,3.23999999E-3,3.91999984,
,,,3.24400002E-3,3.87999988,
,,,3.24799982E-3,3.87999988,
,,,3.25199985E-3,3.83999991,
,,,3.25599988E-3,3.83999991,
,,,3.25999991E-3,3.83999991,
,,,3.26399994E-3,3.83999991,
,,,3.26799997E-3,3.79999995,
,,,3.27200000E-3,3.79999995,
,,,3.27599980E-3,3.79999995,
,,,3.27999983E-3,3.79999995,
,,,3.28399986E-3,3.79999995,
,,,3.28799989E-3,3.79999995,
,,,3.29199992E-3,3.79999995,
,,,3.29599995E-3,3.75999999,
,,,3.29999998E-3,3.75999999,
,,,3.30400001E-3,3.72000003,
,,,3.30799981E-3,3.72000003,
,,,3.31199984E-3,3.72000003,
,,,3.31599987E-3,3.75999999,
,,,3.31999990E-3,3.72000003,
,,,3.32399993E-3,3.72000003,
,,,3.32799996E-3,3.67999983,
,,,3.33199999E-3,3.67999983,
,,,3.33600002E-3,3.67999983,
,,,3.33999982E-3,3.67999983,
,,,3.34399985E-3,3.63999987,
,,,3.34799988E-3,3.63999987,
,,,3.35199991E-3,3.63999987,
,,,3.35599994E-3,3.63999987,
,,,3.35999997E-3,3.63999987,
,,,3.36400000E-3,3.59999990,
,,,3.36799980E-3,3.59999990,
,,,3.37199983E-3,3.59999990,
,,,3.37599986E-3,3.59999990,
,,,3.37999989E-3,3.59999990,
,,,3.38399992E-3,3.55999994,
,,,3.38799995E-3,3.55999994,
,,,3.39199998E-3,3.55999994,
,,,3.39600001E-3,3.55999994,
,,,3.39999981E-3,3.51999998,
,,,3.40399984E-3,3.51999998,
,,,3.40799987E-3,3.51999998,
,,,3.41199990E-3,3.51999998,
,,,3.41599993E-3,3.48000002,
,,,3.41999996E-3,3.48000002,
,,,3.42399999E-3,3.48000002,
,,,3.42800003E-3,3.48000002,
,,,3.43199982E-3,3.43999982,
,,,3.43599985E-3,3.48000002,
,,,3.43999988E-3,3.43999982,
,,,3.44399991E-3,3.39999986,
,,,3.44799994E-3,3.39999986,
,,,3.45199998E-3,3.39999986,
,,,3.45600001E-3,3.39999986,
,,,3.45999980E-3,3.39999986,
,,,3.46399983E-3,3.39999986,
,,,3.46799986E-3,3.35999990,
,,,3.47199989E-3,3.35999990,
,,,3.47599993E-3,3.35999990,
,,,3.47999996E-3,3.35999990,
,,,3.48399999E-3,3.31999993,
,,,3.48800002E-3,3.31999993,
,,,3.49199981E-3,3.31999993,
,,,3.49599984E-3,3.31999993,
,,,3.49999988E-3,3.27999997,
,,,3.50399991E-3,3.31999993,
,,,3.50799994E-3,3.27999997,
,,,3.51199997E-3,3.27999997,
,,,3.51600000E-3,3.27999997,
,,,3.51999979E-3,3.24000001,
,,,3.52399983E-3,3.27999997,
,,,3.52799986E-3,3.24000001,
,,,3.53199989E-3,3.24000001,
,,,3.53599992E-3,3.24000001,
,,,3.53999995E-3,3.24000001,
,,,3.54399998E-3,3.19999981,
,,,3.54800001E-3,3.19999981,
,,,3.55199981E-3,3.19999981,
,,,3.55599984E-3,3.19999981,
,,,3.55999987E-3,3.15999985,
,,,3.56399990E-3,3.15999985,
,,,3.56799993E-3,3.15999985,
,,,3.57199996E-3,3.15999985,
,,,3.57599999E-3,3.15999985,
,,,3.58000002E-3,3.11999989,
,,,3.58399982E-3,3.15999985,
,,,3.58799985E-3,3.11999989,
,,,3.59199988E-3,3.07999992,
,,,3.59599991E-3,3.07999992,
,,,3.59999994E-3,3.11999989,
,,,3.60399997E-3,3.07999992,
,,,3.60800000E-3,3.03999996,
,,,3.61199980E-3,3.03999996,
,,,3.61599983E-3,3.03999996,
,,,3.61999986E-3,3.03999996,
,,,3.62399989E-3,3.03999996,
,,,3.62799992E-3,3.00000000,
,,,3.63199995E-3,3.00000000,
,,,3.63599998E-3,3.00000000,
,,,3.64000001E-3,3.00000000,
,,,3.64399981E-3,3.00000000,
,,,3.64799984E-3,2.96000004,
,,,3.65199987E-3,2.96000004,
,,,3.65599990E-3,2.91999984,
,,,3.65999993E-3,2.96000004,
,,,3.66399996E-3,2.96000004,
,,,3.66799999E-3,2.91999984,
,,,3.67200002E-3,2.91999984,
,,,3.67599982E-3,2.91999984,
,,,3.67999985E-3,2.87999988,
,,,3.68399988E-3,2.87999988,
,,,3.68799991E-3,2.83999991,
,,,3.69199994E-3,2.83999991,
,,,3.69599997E-3,2.83999991,
,,,3.70000000E-3,2.83999991,
,,,3.70399980E-3,2.83999991,
,,,3.70799983E-3,2.83999991,
,,,3.71199986E-3,2.79999995,
,,,3.71599989E-3,2.79999995,
,,,3.71999992E-3,2.79999995,
,,,3.72399995E-3,2.79999995,
,,,3.72799998E-3,2.79999995,
,,,3.73200001E-3,2.79999995,
,,,3.73599981E-3,2.75999999,
,,,3.73999984E-3,2.75999999,
,,,3.74399987E-3,2.75999999,
,,,3.74799990E-3,2.72000003,
,,,3.75199993E-3,2.72000003,
,,,3.75599996E-3,2.6799998,
,,,3.75999999E-3,2.6799998,
,,,3.76400002E-3,2.6799998,
,,,3.76799982E-3,2.6799998,
,,,3.77199985E-3,2.6799998,
,,,3.77599988E-3,2.6399999,
,,,3.77999991E-3,2.6399999,
,,,3.78399994E-3,2.6399999,
,,,3.78799997E-3,2.5999999,
,,,3.79200000E-3,2.5999999,
,,,3.79599980E-3,2.5999999,
,,,3.79999983E-3,2.5999999,
,,,3.80399986E-3,2.5999999,
,,,3.80799989E-3,2.5999999,
,,,3.81199992E-3,2.5999999,
,,,3.81599995E-3,2.5999999,
,,,3.81999998E-3,2.5599999,
,,,3.82400001E-3,2.5599999,
,,,3.82799981E-3,2.5200000,
,,,3.83199984E-3,2.5200000,
,,,3.83599987E-3,2.5200000,
,,,3.83999990E-3,2.5200000,
,,,3.84399993E-3,2.5200000,
,,,3.84799996E-3,2.4800000,
,,,3.85199999E-3,2.4800000,
,,,3.85600002E-3,2.4800000,
,,,3.85999982E-3,2.4400001,
,,,3.86399985E-3,2.4400001,
,,,3.86799988E-3,2.4400001,
,,,3.87199991E-3,2.3999999,
,,,3.87599994E-3,2.3999999,
,,,3.87999997E-3,2.3999999,
,,,3.88400001E-3,2.3999999,
,,,3.88799980E-3,2.3599999,
,,,3.89199983E-3,2.3599999,
,,,3.89599986E-3,2.3999999,
,,,3.89999989E-3,2.3199999,
,,,3.90399992E-3,2.3599999,
,,,3.90799996E-3,2.3199999,
,,,3.91199999E-3,2.3199999,
,,,3.91600002E-3,2.2800000,
,,,3.92000005E-3,2.2800000,
,,,3.92400008E-3,2.2800000,
,,,3.92800011E-3,2.2800000,
,,,3.93200014E-3,2.2400000,
,,,3.93599970E-3,2.2400000,
,,,3.93999973E-3,2.2400000,
,,,3.94399976E-3,2.2000000,
,,,3.94799979E-3,2.2000000,
,,,3.95199982E-3,2.2000000,
,,,3.95599985E-3,2.1599998,
,,,3.95999989E-3,2.1599998,
,,,3.96399992E-3,2.1599998,
,,,3.96799995E-3,2.1199999,
,,,3.97199998E-3,2.1199999,
,,,3.97600001E-3,2.1199999,
,,,3.98000004E-3,2.1199999,
,,,3.98400007E-3,2.0799999,
,,,3.98800010E-3,2.0799999,
,,,3.99200013E-3,2.0400000,
,,,3.99599969E-3,2.0400000,
,,,3.99999972E-3,2.0400000,
,,,4.00399975E-3,2.0000000,
,,,4.00799979E-3,2.0000000,
,,,4.01199982E-3,2.0000000,
,,,4.01599985E-3,2.0000000,
,,,4.01999988E-3,1.9599999,
,,,4.02399991E-3,1.9599999,
,,,4.02799994E-3,1.9200000,
,,,4.03199997E-3,1.9200000,
,,,4.03600000E-3,1.9200000,
,,,4.04000003E-3,1.8800000,
,,,4.04400006E-3,1.8800000,
,,,4.04800009E-3,1.8399999,
,,,4.05200012E-3,1.8800000,
,,,4.05599969E-3,1.8399999,
,,,4.05999972E-3,1.8399999,
,,,4.06399975E-3,1.8399999,
,,,4.06799978E-3,1.8000000,
,,,4.07199981E-3,1.8000000,
,,,4.07599984E-3,1.7600000,
,,,4.07999987E-3,1.7600000,
,,,4.08399990E-3,1.7600000,
,,,4.08799993E-3,1.7600000,
,,,4.09199996E-3,1.7199999,
,,,4.09599999E-3,1.7199999,
,,,4.10000002E-3,1.7600000,
,,,4.10400005E-3,1.7600000,
,,,4.10800008E-3,1.7199999,
,,,4.11200011E-3,1.7199999,
,,,4.11600014E-3,1.7199999,
,,,4.11999971E-3,1.6799999,
,,,4.12399974E-3,1.6799999,
,,,4.12799977E-3,1.6799999,
,,,4.13199980E-3,1.6799999,
,,,4.13599983E-3,1.6400000,
,,,4.13999986E-3,1.6400000,
,,,4.14399989E-3,1.6400000,
,,,4.14799992E-3,1.6799999,
,,,4.15199995E-3,1.6400000,
,,,4.15599998E-3,1.6400000,
,,,4.16000001E-3,1.6400000,
,,,4.16400004E-3,1.5999999,
,,,4.16800007E-3,1.6400000,
,,,4.17200010E-3,1.6400000,
,,,4.17600013E-3,1.5999999,
,,,4.17999970E-3,1.5999999,
,,,4.18399973E-3,1.6400000,
,,,4.18799976E-3,1.6400000,
,,,4.19199979E-3,1.6400000,
,,,4.19599982E-3,1.5999999,
,,,4.19999985E-3,1.5999999,
,,,4.20399988E-3,1.6400000,
,,,4.20799991E-3,1.5999999,
,,,4.21199994E-3,1.5999999,
,,,4.21599997E-3,1.5999999,
,,,4.22000000E-3,1.5999999,
,,,4.22400003E-3,1.5999999,
,,,4.22800006E-3,1.5999999,
,,,4.23200009E-3,1.5999999,
,,,4.23600012E-3,1.5999999,
,,,4.23999969E-3,1.6400000,
,,,4.24399972E-3,1.5999999,
,,,4.24799975E-3,1.5999999,
,,,4.25199978E-3,1.6400000,
,,,4.25599981E-3,1.6400000,
,,,4.25999984E-3,1.5999999,
,,,4.26399987E-3,1.6400000,
,,,4.26799990E-3,1.6400000,
,,,4.27199993E-3,1.6400000,
,,,4.27599996E-3,1.6400000,
,,,4.27999999E-3,1.5999999,
,,,4.28400002E-3,1.6400000,
,,,4.28800005E-3,1.6400000,
,,,4.29200009E-3,1.6400000,
,,,4.29600012E-3,1.6400000,
,,,4.29999968E-3,1.6400000,
,,,4.30399971E-3,1.6799999,
,,,4.30799974E-3,1.6400000,
,,,4.31199977E-3,1.6799999,
,,,4.31599980E-3,1.6799999,
,,,4.31999983E-3,1.6799999,
,,,4.32399986E-3,1.6799999,
,,,4.32799989E-3,1.6400000,
,,,4.33199992E-3,1.6400000,
,,,4.33599995E-3,1.6400000,
,,,4.33999998E-3,1.6400000,
,,,4.34400002E-3,1.6799999,
,,,4.34800005E-3,1.6799999,
,,,4.35200008E-3,1.6799999,
,,,4.35600011E-3,1.6799999,
,,,4.36000014E-3,1.6799999,
,,,4.36399970E-3,1.6799999,
,,,4.36799973E-3,1.6799999,
,,,4.37199976E-3,1.6799999,
,,,4.37599979E-3,1.6799999,
,,,4.37999982E-3,1.6799999,
,,,4.38399985E-3,1.6799999,
,,,4.38799988E-3,1.6799999,
,,,4.39199992E-3,1.6799999,
,,,4.39599995E-3,1.6799999,
,,,4.39999998E-3,1.6799999,
,,,4.40400001E-3,1.6799999,
,,,4.40800004E-3,1.6799999,
,,,4.41200007E-3,1.6799999,
,,,4.41600010E-3,1.6799999,
,,,4.42000013E-3,1.6799999,
,,,4.42399969E-3,1.6799999,
,,,4.42799972E-3,1.6799999,
,,,4.43199975E-3,1.6799999,
,,,4.43599978E-3,1.6799999,
,,,4.43999982E-3,1.6799999,
,,,4.44399985E-3,1.6799999,
,,,4.44799988E-3,1.6799999,
,,,4.45199991E-3,1.7199999,
,,,4.45599994E-3,1.6799999,
,,,4.45999997E-3,1.7199999,
,,,4.46400000E-3,1.6799999,
,,,4.46800003E-3,1.7199999,
,,,4.47200006E-3,1.6799999,
,,,4.47600009E-3,1.6799999,
,,,4.48000012E-3,1.6799999,
,,,4.48399968E-3,1.6799999,
,,,4.48799971E-3,1.7199999,
,,,4.49199975E-3,1.6799999,
,,,4.49599978E-3,1.6799999,
,,,4.49999981E-3,1.7199999,
,,,4.50399984E-3,1.7199999,
,,,4.50799987E-3,1.7199999,
,,,4.51199990E-3,1.7199999,
,,,4.51599993E-3,1.6799999,
,,,4.51999996E-3,1.7199999,
,,,4.52399999E-3,1.6799999,
,,,4.52800002E-3,1.6799999,
,,,4.53200005E-3,1.6799999,
,,,4.53600008E-3,1.6799999,
,,,4.54000011E-3,1.6799999,
,,,4.54400014E-3,1.6799999,
,,,4.54799971E-3,1.6799999,
,,,4.55199974E-3,1.6799999,
,,,4.55599977E-3,1.6799999,
,,,4.55999980E-3,1.7199999,
,,,4.56399983E-3,1.7199999,
,,,4.56799986E-3,1.7199999,
,,,4.57199989E-3,1.6799999,
,,,4.57599992E-3,1.6400000,
,,,4.57999995E-3,1.7199999,
,,,4.58399998E-3,1.6799999,
,,,4.58800001E-3,1.7199999,
,,,4.59200004E-3,1.6799999,
,,,4.59600007E-3,1.6799999,
,,,4.60000010E-3,1.6799999,
,,,4.60400013E-3,1.6799999,
,,,4.60799970E-3,1.7199999,
,,,4.61199973E-3,1.6799999,
,,,4.61599976E-3,1.6799999,
,,,4.61999979E-3,1.6799999,
,,,4.62399982E-3,1.6799999,
,,,4.62799985E-3,1.6799999,
,,,4.63199988E-3,1.6799999,
,,,4.63599991E-3,1.6799999,
,,,4.63999994E-3,1.6799999,
,,,4.64399997E-3,1.6799999,
,,,4.64800000E-3,1.6799999,
,,,4.65200003E-3,1.6799999,
,,,4.65600006E-3,1.6400000,
,,,4.66000009E-3,1.6799999,
,,,4.66400012E-3,1.6799999,
,,,4.66799969E-3,1.6799999,
,,,4.67199972E-3,1.6799999,
,,,4.67599975E-3,1.6799999,
,,,4.67999978E-3,1.6799999,
,,,4.68399981E-3,1.6400000,
,,,4.68799984E-3,1.6799999,
,,,4.69199987E-3,1.6799999,
,,,4.69599990E-3,1.6799999,
,,,4.69999993E-3,1.6799999,
,,,4.70399996E-3,1.6799999,
,,,4.70799999E-3,1.6799999,
,,,4.71200002E-3,1.6400000,
,,,4.71600005E-3,1.6400000,
,,,4.72000008E-3,1.6799999,
,,,4.72400011E-3,1.6799999,
,,,4.72799968E-3,1.6400000,
,,,4.73199971E-3,1.6799999,
,,,4.73599974E-3,1.6400000,
,,,4.73999977E-3,1.6400000,
,,,4.74399980E-3,1.6400000,
,,,4.74799983E-3,1.6400000,
,,,4.75199986E-3,1.6400000,
,,,4.75599989E-3,1.6400000,
,,,4.75999992E-3,1.6799999,
,,,4.76399995E-3,1.6799999,
,,,4.76799998E-3,1.6799999,
,,,4.77200001E-3,1.6400000,
,,,4.77600005E-3,1.6400000,
,,,4.78000008E-3,1.6400000,
,,,4.78400011E-3,1.6799999,
,,,4.78800014E-3,1.6400000,
,,,4.79199970E-3,1.6400000,
,,,4.79599973E-3,1.6400000,
,,,4.79999976E-3,1.6400000,
,,,4.80399979E-3,1.6400000,
,,,4.80799982E-3,1.6799999,
,,,4.81199985E-3,1.6400000,
,,,4.81599988E-3,1.6400000,
,,,4.81999991E-3,1.5999999,
,,,4.82399995E-3,1.6400000,
,,,4.82799998E-3,1.6400000,
,,,4.83200001E-3,1.6400000,
,,,4.83600004E-3,1.6400000,
,,,4.84000007E-3,1.5999999,
,,,4.84400010E-3,1.6400000,
,,,4.84800013E-3,1.5999999,
,,,4.85199969E-3,1.6400000,
,,,4.85599972E-3,1.6400000,
,,,4.85999975E-3,1.5999999,
,,,4.86399978E-3,1.5999999,
,,,4.86799981E-3,1.5999999,
,,,4.87199984E-3,1.5999999,
,,,4.87599988E-3,1.5999999,
,,,4.87999991E-3,1.5999999,
,,,4.88399994E-3,1.5999999,
,,,4.88799997E-3,1.5999999,
,,,4.89200000E-3,1.5999999,
,,,4.89600003E-3,1.5999999,
,,,4.90000006E-3,1.5999999,
,,,4.90400009E-3,1.5599999,
,,,4.90800012E-3,1.5999999,
,,,4.91199968E-3,1.5999999,
,,,4.91599971E-3,1.5999999,
,,,4.91999974E-3,1.5999999,
,,,4.92399978E-3,1.5999999,
,,,4.92799981E-3,1.5999999,
,,,4.93199984E-3,1.5999999,
,,,4.93599987E-3,1.5999999,
,,,4.93999990E-3,1.6400000,
,,,4.94399993E-3,1.5999999,
,,,4.94799996E-3,1.5999999,
,,,4.95199999E-3,1.5999999,
,,,4.95600002E-3,1.5999999,
,,,4.96000005E-3,1.5999999,
,,,4.96400008E-3,1.5999999,
,,,4.96800011E-3,1.5999999,
,,,4.97199968E-3,1.5999999,
,,,4.97599971E-3,1.5999999,
,,,4.97999974E-3,1.5999999,
,,,4.98399977E-3,1.5599999,
,,,4.98799980E-3,1.5999999,
,,,4.99199983E-3,1.5999999,
,,,4.99599986E-3,1.5599999,
,,,4.99999989E-3,1.5999999,
,,,5.00399992E-3,1.5999999,
,,,5.00799995E-3,1.5999999,
,,,5.01199998E-3,1.5599999,
,,,5.01600001E-3,1.5999999,
,,,5.02000004E-3,1.5599999,
,,,5.02400007E-3,1.5999999,
,,,5.02800010E-3,1.5999999,
,,,5.03200013E-3,1.5999999,
,,,5.03599970E-3,1.5999999,
,,,5.03999973E-3,1.5599999,
,,,5.04399976E-3,1.5599999,
,,,5.04799979E-3,1.5999999,
,,,5.05199982E-3,1.5999999,
,,,5.05599985E-3,1.5599999,
,,,5.05999988E-3,1.5599999,
,,,5.06399991E-3,1.5999999,
,,,5.06799994E-3,1.5599999,
,,,5.07199997E-3,1.5599999,
,,,5.07600000E-3,1.5599999,
,,,5.08000003E-3,1.5599999,
,,,5.08400006E-3,1.5999999,
,,,5.08800009E-3,1.5599999,
,,,5.09200012E-3,1.5999999,
,,,5.09599969E-3,1.5599999,
,,,5.09999972E-3,1.5999999,
,,,5.10399975E-3,1.5599999,
,,,5.10799978E-3,1.5599999,
,,,5.11199981E-3,1.5599999,
,,,5.11599984E-3,1.5599999,
,,,5.11999987E-3,1.5599999,
,,,5.12399990E-3,1.5599999,
,,,5.12799993E-3,1.5599999,
,,,5.13199996E-3,1.5599999,
,,,5.13599999E-3,1.5599999,
,,,5.14000002E-3,1.5599999,
,,,5.14400005E-3,1.5599999,
,,,5.14800008E-3,1.5999999,
,,,5.15200011E-3,1.5999999,
,,,5.15599968E-3,1.5599999,
,,,5.15999971E-3,1.5599999,
,,,5.16399974E-3,1.5599999,
,,,5.16799977E-3,1.5599999,
,,,5.17199980E-3,1.5599999,
,,,5.17599983E-3,1.5599999,
,,,5.17999986E-3,1.5599999,
,,,5.18399989E-3,1.5599999,
,,,5.18799992E-3,1.5200000,
,,,5.19199995E-3,1.5599999,
,,,5.19599998E-3,1.5599999,
,,,5.20000001E-3,1.5599999,
,,,5.20400004E-3,1.5599999,
,,,5.20800008E-3,1.5599999,
,,,5.21200011E-3,1.5200000,
,,,5.21600014E-3,1.5200000,
,,,5.21999970E-3,1.5200000,
,,,5.22399973E-3,1.5599999,
,,,5.22799976E-3,1.5200000,
,,,5.23199979E-3,1.5200000,
,,,5.23599982E-3,1.5200000,
,,,5.23999985E-3,1.5200000,
,,,5.24399988E-3,1.5599999,
,,,5.24799991E-3,1.5200000,
,,,5.25199994E-3,1.5200000,
,,,5.25599997E-3,1.5599999,
,,,5.26000001E-3,1.5200000,
,,,5.26400004E-3,1.5200000,
,,,5.26800007E-3,1.5200000,
,,,5.27200010E-3,1.5200000,
,,,5.27600013E-3,1.5200000,
,,,5.27999969E-3,1.4800000,
,,,5.28399972E-3,1.5200000,
,,,5.28799975E-3,1.4800000,
,,,5.29199978E-3,1.5200000,
,,,5.29599981E-3,1.5200000,
,,,5.29999984E-3,1.5200000,
,,,5.30399987E-3,1.5200000,
,,,5.30799991E-3,1.4800000,
,,,5.31199994E-3,1.4800000,
,,,5.31599997E-3,1.4800000,
,,,5.32000000E-3,1.4800000,
,,,5.32400003E-3,1.4800000,
,,,5.32800006E-3,1.4800000,
,,,5.33200009E-3,1.4800000,
,,,5.33600012E-3,1.4399999,
,,,5.33999968E-3,1.5200000,
,,,5.34399971E-3,1.4800000,
,,,5.34799974E-3,1.4800000,
,,,5.35199977E-3,1.4800000,
,,,5.35599981E-3,1.4399999,
,,,5.35999984E-3,1.5200000,
,,,5.36399987E-3,1.4800000,
,,,5.36799990E-3,1.4800000,
,,,5.37199993E-3,1.4800000,
,,,5.37599996E-3,1.4800000,
,,,5.37999999E-3,1.4800000,
,,,5.38400002E-3,1.4800000,
,,,5.38800005E-3,1.4800000,
,,,5.39200008E-3,1.4800000,
,,,5.39600011E-3,1.4800000,
,,,5.39999967E-3,1.4800000,
,,,5.40399970E-3,1.4800000,
,,,5.40799974E-3,1.4800000,
,,,5.41199977E-3,1.4399999,
,,,5.41599980E-3,1.4399999,
,,,5.41999983E-3,1.4800000,
,,,5.42399986E-3,1.4399999,
,,,5.42799989E-3,1.4399999,
,,,5.43199992E-3,1.4399999,
,,,5.43599995E-3,1.4399999,
,,,5.43999998E-3,1.4399999,
,,,5.44400001E-3,1.4399999,
,,,5.44800004E-3,1.4399999,
,,,5.45200007E-3,1.4399999,
,,,5.45600010E-3,1.4000000,
,,,5.46000013E-3,1.4399999,
,,,5.46399970E-3,1.4399999,
,,,5.46799973E-3,1.4399999,
,,,5.47199976E-3,1.4399999,
,,,5.47599979E-3,1.4399999,
,,,5.47999982E-3,1.4000000,
,,,5.48399985E-3,1.4000000,
,,,5.48799988E-3,1.4399999,
,,,5.49199991E-3,1.4000000,
,,,5.49599994E-3,1.4000000,
,,,5.49999997E-3,1.4000000,
,,,5.50400000E-3,1.4000000,
,,,5.50800003E-3,1.4399999,
,,,5.51200006E-3,1.4000000,
,,,5.51600009E-3,1.4000000,
,,,5.52000012E-3,1.4000000,
,,,5.52399969E-3,1.4399999,
,,,5.52799972E-3,1.4000000,
,,,5.53199975E-3,1.4000000,
,,,5.53599978E-3,1.4399999,
,,,5.53999981E-3,1.4000000,
,,,5.54399984E-3,1.4000000,
,,,5.54799987E-3,1.4000000,
,,,5.55199990E-3,1.4000000,
,,,5.55599993E-3,1.4000000,
,,,5.55999996E-3,1.4000000,
,,,5.56399999E-3,1.4000000,
,,,5.56800002E-3,1.4000000,
,,,5.57200005E-3,1.4000000,
,,,5.57600008E-3,1.4000000,
,,,5.58000011E-3,1.4000000,
,,,5.58399968E-3,1.4000000,
,,,5.58799971E-3,1.4000000,
,,,5.59199974E-3,1.4000000,
,,,5.59599977E-3,1.4000000,
,,,5.59999980E-3,1.3600000,
,,,5.60399983E-3,1.4000000,
,,,5.60799986E-3,1.4000000,
,,,5.61199989E-3,1.4000000,
,,,5.61599992E-3,1.3600000,
,,,5.61999995E-3,1.3600000,
,,,5.62399998E-3,1.3600000,
,,,5.62800001E-3,1.3600000,
,,,5.63200004E-3,1.3600000,
,,,5.63600007E-3,1.4000000,
,,,5.64000010E-3,1.3600000,
,,,5.64400014E-3,1.3600000,
,,,5.64799970E-3,1.3600000,
,,,5.65199973E-3,1.3600000,
,,,5.65599976E-3,1.3600000,
,,,5.65999979E-3,1.3600000,
,,,5.66399982E-3,1.3600000,
,,,5.66799985E-3,1.3600000,
,,,5.67199988E-3,1.3600000,
,,,5.67599991E-3,1.3199999,
,,,5.67999994E-3,1.3600000,
,,,5.68399997E-3,1.3199999,
,,,5.68800000E-3,1.3600000,
,,,5.69200004E-3,1.3600000,
,,,5.69600007E-3,1.3199999,
,,,5.70000010E-3,1.3199999,
,,,5.70400013E-3,1.3199999,
,,,5.70799969E-3,1.3199999,
,,,5.71199972E-3,1.3600000,
,,,5.71599975E-3,1.3600000,
,,,5.71999978E-3,1.3600000,
,,,5.72399981E-3,1.3199999,
,,,5.72799984E-3,1.3199999,
,,,5.73199987E-3,1.3600000,
,,,5.73599990E-3,1.3199999,
,,,5.73999994E-3,1.3199999,
,,,5.74399997E-3,1.3199999,
,,,5.74800000E-3,1.3199999,
,,,5.75200003E-3,1.3199999,
,,,5.75600006E-3,1.3199999,
,,,5.76000009E-3,1.3600000,
,,,5.76400012E-3,1.3199999,
,,,5.76799968E-3,1.3600000,
,,,5.77199971E-3,1.3199999,
,,,5.77599974E-3,1.3600000,
,,,5.77999977E-3,1.3199999,
,,,5.78399980E-3,1.3199999,
,,,5.78799983E-3,1.3199999,
,,,5.79199987E-3,1.3199999,
,,,5.79599990E-3,1.3199999,
,,,5.79999993E-3,1.3199999,
,,,5.80399996E-3,1.3199999,
,,,5.80799999E-3,1.3199999,
,,,5.81200002E-3,1.3199999,
,,,5.81600005E-3,1.3199999,
,,,5.82000008E-3,1.3199999,
,,,5.82400011E-3,1.3199999,
,,,5.82799967E-3,1.3199999,
,,,5.83199970E-3,1.3199999,
,,,5.83599973E-3,1.3199999,
,,,5.83999977E-3,1.3199999,
,,,5.84399980E-3,1.3199999,
,,,5.84799983E-3,1.3199999,
,,,5.85199986E-3,1.3199999,
,,,5.85599989E-3,1.3199999,
,,,5.85999992E-3,1.3199999,
,,,5.86399995E-3,1.3199999,
,,,5.86799998E-3,1.3199999,
,,,5.87200001E-3,1.3199999,
,,,5.87600004E-3,1.3199999,
,,,5.88000007E-3,1.3199999,
,,,5.88400010E-3,1.3199999,
,,,5.88800013E-3,1.3199999,
,,,5.89199970E-3,1.2800000,
,,,5.89599973E-3,1.2800000,
,,,5.89999976E-3,1.3199999,
,,,5.90399979E-3,1.3199999,
,,,5.90799982E-3,1.3199999,
,,,5.91199985E-3,1.2800000,
,,,5.91599988E-3,1.3199999,
,,,5.91999991E-3,1.3199999,
,,,5.92399994E-3,1.3199999,
,,,5.92799997E-3,1.3199999,
,,,5.93200000E-3,1.2800000,
,,,5.93600003E-3,1.2800000,
,,,5.94000006E-3,1.2800000,
,,,5.94400009E-3,1.2800000,
,,,5.94800012E-3,1.3199999,
,,,5.95199969E-3,1.2800000,
,,,5.95599972E-3,1.2800000,
,,,5.95999975E-3,1.3199999,
,,,5.96399978E-3,1.2800000,
,,,5.96799981E-3,1.3199999,
,,,5.97199984E-3,1.3199999,
,,,5.97599987E-3,1.2800000,
,,,5.97999990E-3,1.2800000,
,,,5.98399993E-3,1.2800000,
,,,5.98799996E-3,1.2800000,
,,,5.99199999E-3,1.2800000,
,,,5.99600002E-3,1.2800000,
,,,6.00000005E-3,1.2800000,
,,,6.00400008E-3,1.2800000,
,,,6.00800011E-3,1.2800000,
,,,6.01199968E-3,1.2800000,
,,,6.01599971E-3,1.2800000,
,,,6.01999974E-3,1.2800000,
,,,6.02399977E-3,1.2800000,
,,,6.02799980E-3,1.2800000,
,,,6.03199983E-3,1.2800000,
,,,6.03599986E-3,1.2800000,
,,,6.03999989E-3,1.2800000,
,,,6.04399992E-3,1.2400000,
,,,6.04799995E-3,1.2800000,
,,,6.05199998E-3,1.2800000,
,,,6.05600001E-3,1.2400000,
,,,6.06000004E-3,1.2400000,
,,,6.06400007E-3,1.2800000,
,,,6.06800010E-3,1.2400000,
,,,6.07200013E-3,1.2400000,
,,,6.07599970E-3,1.2400000,
,,,6.07999973E-3,1.2400000,
,,,6.08399976E-3,1.2400000,
,,,6.08799979E-3,1.2400000,
,,,6.09199982E-3,1.2400000,
,,,6.09599985E-3,1.2400000,
,,,6.09999988E-3,1.2400000,
,,,6.10399991E-3,1.2400000,
,,,6.10799994E-3,1.2400000,
,,,6.11199997E-3,1.2400000,
,,,6.11600000E-3,1.2400000,
,,,6.12000003E-3,1.2400000,
,,,6.12400007E-3,1.2400000,
,,,6.12800010E-3,1.2400000,
,,,6.13200013E-3,1.1999999,
,,,6.13599969E-3,1.2400000,
,,,6.13999972E-3,1.2400000,
,,,6.14399975E-3,1.2400000,
,,,6.14799978E-3,1.2400000,
,,,6.15199981E-3,1.1999999,
,,,6.15599984E-3,1.2400000,
,,,6.15999987E-3,1.2400000,
,,,6.16399990E-3,1.1999999,
,,,6.16799993E-3,1.1999999,
,,,6.17199996E-3,1.1999999,
,,,6.17600000E-3,1.1999999,
,,,6.18000003E-3,1.2400000,
,,,6.18400006E-3,1.1999999,
,,,6.18800009E-3,1.1999999,
,,,6.19200012E-3,1.2400000,
,,,6.19599968E-3,1.1999999,
,,,6.19999971E-3,1.1999999,
,,,6.20399974E-3,1.1999999,
,,,6.20799977E-3,1.1999999,
,,,6.21199980E-3,1.1999999,
,,,6.21599983E-3,1.1999999,
,,,6.21999986E-3,1.2400000,
,,,6.22399990E-3,1.1999999,
,,,6.22799993E-3,1.1999999,
,,,6.23199996E-3,1.1999999,
,,,6.23599999E-3,1.1999999,
,,,6.24000002E-3,1.1999999,
,,,6.24400005E-3,1.1999999,
,,,6.24800008E-3,1.1999999,
,,,6.25200011E-3,1.1999999,
,,,6.25599967E-3,1.1999999,
,,,6.25999970E-3,1.1999999,
,,,6.26399973E-3,1.1999999,
,,,6.26799976E-3,1.1999999,
,,,6.27199979E-3,1.1999999,
,,,6.27599983E-3,1.1999999,
,,,6.27999986E-3,1.1999999,
,,,6.28399989E-3,1.1999999,
,,,6.28799992E-3,1.1999999,
,,,6.29199995E-3,1.1999999,
,,,6.29599998E-3,1.1999999,
,,,6.30000001E-3,1.1999999,
,,,6.30400004E-3,1.1999999,
,,,6.30800007E-3,1.1999999,
,,,6.31200010E-3,1.1999999,
,,,6.31600013E-3,1.1999999,
,,,6.31999969E-3,1.1999999,
,,,6.32399973E-3,1.1999999,
,,,6.32799976E-3,1.1999999,
,,,6.33199979E-3,1.1999999,
,,,6.33599982E-3,1.1600000,
,,,6.33999985E-3,1.1999999,
,,,6.34399988E-3,1.1999999,
,,,6.34799991E-3,1.1999999,
,,,6.35199994E-3,1.1999999,
,,,6.35599997E-3,1.1999999,
,,,6.36000000E-3,1.1600000,
,,,6.36400003E-3,1.1999999,
,,,6.36800006E-3,1.1600000,
,,,6.37200009E-3,1.1600000,
,,,6.37600012E-3,1.1600000,
,,,6.37999969E-3,1.1600000,
,,,6.38399972E-3,1.1600000,
,,,6.38799975E-3,1.1999999,
,,,6.39199978E-3,1.1600000,
,,,6.39599981E-3,1.1600000,
,,,6.39999984E-3,1.1600000,
,,,6.40399987E-3,1.1600000,
,,,6.40799990E-3,1.1600000,
,,,6.41199993E-3,1.1600000,
,,,6.41599996E-3,1.1200000,
,,,6.41999999E-3,1.1600000,
,,,6.42400002E-3,1.1600000,
,,,6.42800005E-3,1.1600000,
,,,6.43200008E-3,1.1600000,
,,,6.43600011E-3,1.1600000,
,,,6.43999968E-3,1.1600000,
,,,6.44399971E-3,1.1999999,
,,,6.44799974E-3,1.1600000,
,,,6.45199977E-3,1.1600000,
,,,6.45599980E-3,1.1600000,
,,,6.45999983E-3,1.1600000,
,,,6.46399986E-3,1.1600000,
,,,6.46799989E-3,1.1999999,
,,,6.47199992E-3,1.1600000,
,,,6.47599995E-3,1.1600000,
,,,6.47999998E-3,1.1600000,
,,,6.48400001E-3,1.1600000,
,,,6.48800004E-3,1.1600000,
,,,6.49200007E-3,1.1600000,
,,,6.49600010E-3,1.1600000,
,,,6.50000013E-3,1.1200000,
,,,6.50399970E-3,1.1600000,
,,,6.50799973E-3,1.1600000,
,,,6.51199976E-3,1.1200000,
,,,6.51599979E-3,1.1600000,
,,,6.51999982E-3,1.1600000,
,,,6.52399985E-3,1.1200000,
,,,6.52799988E-3,1.1600000,
,,,6.53199991E-3,1.1600000,
,,,6.53599994E-3,1.1600000,
,,,6.53999997E-3,1.1200000,
,,,6.54400000E-3,1.1600000,
,,,6.54800003E-3,1.1600000,
,,,6.55200006E-3,1.1600000,
,,,6.55600009E-3,1.1200000,
,,,6.56000013E-3,1.1600000,
,,,6.56399969E-3,1.1200000,
,,,6.56799972E-3,1.1200000,
,,,6.57199975E-3,1.1200000,
,,,6.57599978E-3,1.1200000,
,,,6.57999981E-3,1.1200000,
,,,6.58399984E-3,1.1200000,
,,,6.58799987E-3,1.1200000,
,,,6.59199990E-3,1.1200000,
,,,6.59599993E-3,1.1200000,
,,,6.59999996E-3,1.1200000,
,,,6.60399999E-3,1.0799999,
,,,6.60800003E-3,1.1200000,
,,,6.61200006E-3,1.1200000,
,,,6.61600009E-3,1.0799999,
,,,6.62000012E-3,1.1200000,
,,,6.62399968E-3,1.1200000,
,,,6.62799971E-3,1.1200000,
,,,6.63199974E-3,1.1200000,
,,,6.63599977E-3,1.1200000,
,,,6.63999980E-3,1.0799999,
,,,6.64399983E-3,1.0799999,
,,,6.64799986E-3,1.0799999,
,,,6.65199989E-3,1.0799999,
,,,6.65599992E-3,1.0799999,
,,,6.65999996E-3,1.0799999,
,,,6.66399999E-3,1.0799999,
,,,6.66800002E-3,1.0799999,
,,,6.67200005E-3,1.0799999,
,,,6.67600008E-3,1.0799999,
,,,6.68000011E-3,1.0799999,
,,,6.68399967E-3,1.0400000,
,,,6.68799970E-3,1.0799999,
,,,6.69199973E-3,1.0799999,
,,,6.69599976E-3,1.0799999,
,,,6.69999979E-3,1.0799999,
,,,6.70399982E-3,1.0799999,
,,,6.70799986E-3,1.0799999,
,,,6.71199989E-3,1.0799999,
,,,6.71599992E-3,1.0799999,
,,,6.71999995E-3,1.0799999,
,,,6.72399998E-3,1.0400000,
,,,6.72800001E-3,1.0799999,
,,,6.73200004E-3,1.0799999,
,,,6.73600007E-3,1.0400000,
,,,6.74000010E-3,1.0799999,
,,,6.74400013E-3,1.0799999,
,,,6.74799969E-3,1.0799999,
,,,6.75199972E-3,1.0400000,
,,,6.75599976E-3,1.0799999,
,,,6.75999979E-3,1.0400000,
,,,6.76399982E-3,1.0400000,
,,,6.76799985E-3,1.0400000,
,,,6.77199988E-3,1.0400000,
,,,6.77599991E-3,1.0400000,
,,,6.77999994E-3,1.0400000,
,,,6.78399997E-3,1.0400000,
,,,6.78800000E-3,1.0400000,
,,,6.79200003E-3,1.0799999,
,,,6.79600006E-3,1.0799999,
,,,6.80000009E-3,1.0400000,
,,,6.80400012E-3,1.0400000,
,,,6.80799969E-3,1.0799999,
,,,6.81199972E-3,1.0400000,
,,,6.81599975E-3,1.0400000,
,,,6.81999978E-3,1.0799999,
,,,6.82399981E-3,1.0400000,
,,,6.82799984E-3,1.0400000,
,,,6.83199987E-3,1.0400000,
,,,6.83599990E-3,1.0400000,
,,,6.83999993E-3,1.0400000,
,,,6.84399996E-3,1.0400000,
,,,6.84799999E-3,1.0400000,
,,,6.85200002E-3,1.0400000,
,,,6.85600005E-3,1.0400000,
,,,6.86000008E-3,1.0400000,
,,,6.86400011E-3,1.000000,
,,,6.86799968E-3,1.0400000,
,,,6.87199971E-3,1.0400000,
,,,6.87599974E-3,1.0400000,
,,,6.87999977E-3,1.0400000,
,,,6.88399980E-3,1.0400000,
,,,6.88799983E-3,1.000000,
,,,6.89199986E-3,1.0400000,
,,,6.89599989E-3,1.0400000,
,,,6.89999992E-3,1.000000,
,,,6.90399995E-3,1.0400000,
,,,6.90799998E-3,1.000000,
,,,6.91200001E-3,1.000000,
,,,6.91600004E-3,1.000000,
,,,6.92000007E-3,1.000000,
,,,6.92400010E-3,1.000000,
,,,6.92800013E-3,1.0400000,
,,,6.93199970E-3,1.0400000,
,,,6.93599973E-3,1.000000,
,,,6.93999976E-3,1.0400000,
,,,6.94399979E-3,1.000000,
,,,6.94799982E-3,1.0400000,
,,,6.95199985E-3,1.000000,
,,,6.95599988E-3,1.000000,
,,,6.95999991E-3,1.000000,
,,,6.96399994E-3,1.000000,
,,,6.96799997E-3,1.000000,
,,,6.97200000E-3,1.000000,
,,,6.97600003E-3,1.000000,
,,,6.98000006E-3,1.000000,
,,,6.98400009E-3,1.000000,
,,,6.98800012E-3,1.000000,
,,,6.99199969E-3,1.000000,
,,,6.99599972E-3,1.000000,
,,,6.99999975E-3,1.000000,
,,,7.00399978E-3,1.000000,
,,,7.00799981E-3,1.000000,
,,,7.01199984E-3,1.000000,
,,,7.01599987E-3,1.000000,
,,,7.01999990E-3,1.000000,
,,,7.02399993E-3,1.000000,
,,,7.02799996E-3,959.999978542E-3,
,,,7.03199999E-3,1.000000,
,,,7.03600002E-3,959.999978542E-3,
,,,7.04000005E-3,1.000000,
,,,7.04400009E-3,1.000000,
,,,7.04800012E-3,1.000000,
,,,7.05199968E-3,959.999978542E-3,
,,,7.05599971E-3,959.999978542E-3,
,,,7.05999974E-3,1.000000,
,,,7.06399977E-3,959.999978542E-3,
,,,7.06799980E-3,959.999978542E-3,
,,,7.07199983E-3,959.999978542E-3,
,,,7.07599986E-3,959.999978542E-3,
,,,7.07999989E-3,1.000000,
,,,7.08399992E-3,959.999978542E-3,
,,,7.08799995E-3,959.999978542E-3,
,,,7.09199999E-3,959.999978542E-3,
,,,7.09600002E-3,959.999978542E-3,
,,,7.10000005E-3,959.999978542E-3,
,,,7.10400008E-3,959.999978542E-3,
,,,7.10800011E-3,959.999978542E-3,
,,,7.11199967E-3,959.999978542E-3,
,,,7.11599970E-3,959.999978542E-3,
,,,7.11999973E-3,959.999978542E-3,
,,,7.12399976E-3,959.999978542E-3,
,,,7.12799979E-3,959.999978542E-3,
,,,7.13199982E-3,1.000000,
,,,7.13599985E-3,959.999978542E-3,
,,,7.13999989E-3,959.999978542E-3,
,,,7.14399992E-3,959.999978542E-3,
,,,7.14799995E-3,959.999978542E-3,
,,,7.15199998E-3,959.999978542E-3,
,,,7.15600001E-3,959.999978542E-3,
,,,7.16000004E-3,959.999978542E-3,
,,,7.16400007E-3,959.999978542E-3,
,,,7.16800010E-3,959.999978542E-3,
,,,7.17200013E-3,959.999978542E-3,
,,,7.17599969E-3,959.999978542E-3,
,,,7.17999972E-3,959.999978542E-3,
,,,7.18399975E-3,959.999978542E-3,
,,,7.18799978E-3,959.999978542E-3,
,,,7.19199982E-3,959.999978542E-3,
,,,7.19599985E-3,959.999978542E-3,
,,,7.19999988E-3,959.999978542E-3,
,,,7.20399991E-3,959.999978542E-3,
,,,7.20799994E-3,959.999978542E-3,
,,,7.21199997E-3,959.999978542E-3,
,,,7.21600000E-3,959.999978542E-3,
,,,7.22000003E-3,959.999978542E-3,
,,,7.22400006E-3,959.999978542E-3,
,,,7.22800009E-3,959.999978542E-3,
,,,7.23200012E-3,919.999957085E-3,
,,,7.23599968E-3,959.999978542E-3,
,,,7.23999972E-3,919.999957085E-3,
,,,7.24399975E-3,959.999978542E-3,
,,,7.24799978E-3,959.999978542E-3,
,,,7.25199981E-3,959.999978542E-3,
,,,7.25599984E-3,919.999957085E-3,
,,,7.25999987E-3,959.999978542E-3,
,,,7.26399990E-3,959.999978542E-3,
,,,7.26799993E-3,959.999978542E-3,
,,,7.27199996E-3,959.999978542E-3,
,,,7.27599999E-3,919.999957085E-3,
,,,7.28000002E-3,919.999957085E-3,
,,,7.28400005E-3,919.999957085E-3,
,,,7.28800008E-3,919.999957085E-3,
,,,7.29200011E-3,919.999957085E-3,
,,,7.29599968E-3,919.999957085E-3,
,,,7.29999971E-3,919.999957085E-3,
,,,7.30399974E-3,919.999957085E-3,
,,,7.30799977E-3,919.999957085E-3,
,,,7.31199980E-3,959.999978542E-3,
,,,7.31599983E-3,919.999957085E-3,
,,,7.31999986E-3,919.999957085E-3,
,,,7.32399989E-3,919.999957085E-3,
,,,7.32799992E-3,919.999957085E-3,
,,,7.33199995E-3,919.999957085E-3,
,,,7.33599998E-3,919.999957085E-3,
,,,7.34000001E-3,919.999957085E-3,
,,,7.34400004E-3,919.999957085E-3,
,,,7.34800007E-3,919.999957085E-3,
,,,7.35200010E-3,919.999957085E-3,
,,,7.35600013E-3,919.999957085E-3,
,,,7.35999970E-3,919.999957085E-3,
,,,7.36399973E-3,919.999957085E-3,
,,,7.36799976E-3,919.999957085E-3,
,,,7.37199979E-3,919.999957085E-3,
,,,7.37599982E-3,919.999957085E-3,
,,,7.37999985E-3,919.999957085E-3,
,,,7.38399988E-3,919.999957085E-3,
,,,7.38799991E-3,919.999957085E-3,
,,,7.391999941E-3,879.999995232E-3,
,,,7.395999972E-3,919.999957085E-3,
,,,7.400000002E-3,919.999957085E-3,
,,,7.404000033E-3,919.999957085E-3,
,,,7.408000063E-3,919.999957085E-3,
,,,7.412000094E-3,879.999995232E-3,
,,,7.416000124E-3,919.999957085E-3,
,,,7.419999689E-3,919.999957085E-3,
,,,7.423999719E-3,919.999957085E-3,
,,,7.427999750E-3,919.999957085E-3,
,,,7.431999780E-3,919.999957085E-3,
,,,7.435999811E-3,919.999957085E-3,
,,,7.439999841E-3,919.999957085E-3,
,,,7.443999872E-3,919.999957085E-3,
,,,7.447999902E-3,919.999957085E-3,
,,,7.451999933E-3,919.999957085E-3,
,,,7.455999963E-3,919.999957085E-3,
,,,7.459999993E-3,919.999957085E-3,
,,,7.464000024E-3,879.999995232E-3,
,,,7.468000054E-3,919.999957085E-3,
,,,7.472000085E-3,919.999957085E-3,
,,,7.476000115E-3,919.999957085E-3,
,,,7.479999680E-3,919.999957085E-3,
,,,7.483999711E-3,919.999957085E-3,
,,,7.487999741E-3,879.999995232E-3,
,,,7.491999771E-3,919.999957085E-3,
,,,7.495999802E-3,919.999957085E-3,
,,,7.499999832E-3,879.999995232E-3,
,,,7.503999863E-3,879.999995232E-3,
,,,7.507999893E-3,919.999957085E-3,
,,,7.511999924E-3,879.999995232E-3,
,,,7.515999954E-3,919.999957085E-3,
,,,7.519999985E-3,879.999995232E-3,
,,,7.524000015E-3,919.999957085E-3,
,,,7.528000046E-3,919.999957085E-3,
,,,7.532000076E-3,919.999957085E-3,
,,,7.536000106E-3,879.999995232E-3,
,,,7.539999671E-3,919.999957085E-3,
,,,7.543999702E-3,919.999957085E-3,
,,,7.547999732E-3,919.999957085E-3,
,,,7.551999763E-3,879.999995232E-3,
,,,7.555999793E-3,919.999957085E-3,
,,,7.559999824E-3,919.999957085E-3,
,,,7.563999854E-3,879.999995232E-3,
,,,7.567999884E-3,879.999995232E-3,
,,,7.571999915E-3,879.999995232E-3,
,,,7.575999945E-3,879.999995232E-3,
,,,7.579999976E-3,879.999995232E-3,
,,,7.584000006E-3,879.999995232E-3,
,,,7.588000037E-3,879.999995232E-3,
,,,7.592000067E-3,879.999995232E-3,
,,,7.596000098E-3,879.999995232E-3,
,,,7.600000128E-3,879.999995232E-3,
,,,7.603999693E-3,879.999995232E-3,
,,,7.607999723E-3,879.999995232E-3,
,,,7.611999754E-3,879.999995232E-3,
,,,7.615999784E-3,879.999995232E-3,
,,,7.619999815E-3,879.999995232E-3,
,,,7.623999845E-3,879.999995232E-3,
,,,7.627999876E-3,839.999973774E-3,
,,,7.631999906E-3,839.999973774E-3,
,,,7.635999937E-3,879.999995232E-3,
,,,7.639999967E-3,879.999995232E-3,
,,,7.643999998E-3,839.999973774E-3,
,,,7.648000028E-3,879.999995232E-3,
,,,7.652000058E-3,839.999973774E-3,
,,,7.656000089E-3,879.999995232E-3,
,,,7.660000119E-3,839.999973774E-3,
,,,7.663999684E-3,879.999995232E-3,
,,,7.667999715E-3,839.999973774E-3,
,,,7.671999745E-3,879.999995232E-3,
,,,7.675999776E-3,839.999973774E-3,
,,,7.679999806E-3,879.999995232E-3,
,,,7.683999836E-3,839.999973774E-3,
,,,7.687999867E-3,879.999995232E-3,
,,,7.691999897E-3,839.999973774E-3,
,,,7.695999928E-3,839.999973774E-3,
,,,7.699999958E-3,839.999973774E-3,
,,,7.703999989E-3,879.999995232E-3,
,,,7.708000019E-3,839.999973774E-3,
,,,7.712000050E-3,839.999973774E-3,
,,,7.716000080E-3,879.999995232E-3,
,,,7.720000111E-3,839.999973774E-3,
,,,7.723999675E-3,839.999973774E-3,
,,,7.727999706E-3,839.999973774E-3,
,,,7.731999736E-3,839.999973774E-3,
,,,7.735999767E-3,839.999973774E-3,
,,,7.739999797E-3,839.999973774E-3,
,,,7.743999828E-3,839.999973774E-3,
,,,7.747999858E-3,879.999995232E-3,
,,,7.751999889E-3,799.999952316E-3,
,,,7.755999919E-3,839.999973774E-3,
,,,7.759999949E-3,839.999973774E-3,
,,,7.763999980E-3,839.999973774E-3,
,,,7.768000010E-3,839.999973774E-3,
,,,7.772000041E-3,839.999973774E-3,
,,,7.776000071E-3,799.999952316E-3,
,,,7.780000102E-3,839.999973774E-3,
,,,7.784000132E-3,839.999973774E-3,
,,,7.787999697E-3,839.999973774E-3,
,,,7.791999727E-3,839.999973774E-3,
,,,7.795999758E-3,839.999973774E-3,
,,,7.799999788E-3,879.999995232E-3,
,,,7.803999819E-3,839.999973774E-3,
,,,7.807999849E-3,839.999973774E-3,
,,,7.811999880E-3,839.999973774E-3,
,,,7.815999910E-3,839.999973774E-3,
,,,7.819999941E-3,799.999952316E-3,
,,,7.823999971E-3,879.999995232E-3,
,,,7.828000002E-3,839.999973774E-3,
,,,7.832000032E-3,839.999973774E-3,
,,,7.836000063E-3,839.999973774E-3,
,,,7.840000093E-3,839.999973774E-3,
,,,7.844000123E-3,839.999973774E-3,
,,,7.848000154E-3,839.999973774E-3,
,,,7.852000184E-3,839.999973774E-3,
,,,7.856000215E-3,839.999973774E-3,
,,,7.860000245E-3,839.999973774E-3,
,,,7.864000276E-3,799.999952316E-3,
,,,7.868000306E-3,839.999973774E-3,
,,,7.872000337E-3,799.999952316E-3,
,,,7.875999436E-3,839.999973774E-3,
,,,7.879999466E-3,799.999952316E-3,
,,,7.883999497E-3,799.999952316E-3,
,,,7.887999527E-3,839.999973774E-3,
,,,7.891999558E-3,839.999973774E-3,
,,,7.895999588E-3,799.999952316E-3,
,,,7.899999619E-3,839.999973774E-3,
,,,7.903999649E-3,799.999952316E-3,
,,,7.907999679E-3,799.999952316E-3,
,,,7.911999710E-3,839.999973774E-3,
,,,7.915999740E-3,839.999973774E-3,
,,,7.919999771E-3,799.999952316E-3,
,,,7.923999801E-3,839.999973774E-3,
,,,7.927999832E-3,799.999952316E-3,
,,,7.931999862E-3,839.999973774E-3,
,,,7.935999893E-3,799.999952316E-3,
,,,7.939999923E-3,799.999952316E-3,
,,,7.943999954E-3,799.999952316E-3,
,,,7.947999984E-3,839.999973774E-3,
,,,7.952000014E-3,799.999952316E-3,
,,,7.956000045E-3,839.999973774E-3,
,,,7.960000075E-3,799.999952316E-3,
,,,7.964000106E-3,799.999952316E-3,
,,,7.968000136E-3,799.999952316E-3,
,,,7.972000167E-3,799.999952316E-3,
,,,7.976000197E-3,839.999973774E-3,
,,,7.980000228E-3,799.999952316E-3,
,,,7.984000258E-3,799.999952316E-3,
,,,7.988000289E-3,759.999990463E-3,
,,,7.992000319E-3,799.999952316E-3,
,,,7.996000350E-3,799.999952316E-3,
,,,7.999999449E-3,799.999952316E-3,
,,,8.003999479E-3,799.999952316E-3,
,,,8.007999510E-3,799.999952316E-3,
,,,8.011999540E-3,839.999973774E-3,
,,,8.015999570E-3,799.999952316E-3,
,,,8.019999601E-3,799.999952316E-3,
,,,8.023999631E-3,799.999952316E-3,
,,,8.027999662E-3,799.999952316E-3,
,,,8.031999692E-3,799.999952316E-3,
,,,8.035999723E-3,799.999952316E-3,
,,,8.039999753E-3,799.999952316E-3,
,,,8.043999784E-3,799.999952316E-3,
,,,8.047999814E-3,799.999952316E-3,
,,,8.051999845E-3,759.999990463E-3,
,,,8.055999875E-3,759.999990463E-3,
,,,8.059999906E-3,759.999990463E-3,
,,,8.063999936E-3,799.999952316E-3,
,,,8.067999966E-3,759.999990463E-3,
,,,8.071999997E-3,759.999990463E-3,
,,,8.076000027E-3,759.999990463E-3,
,,,8.080000058E-3,759.999990463E-3,
,,,8.084000088E-3,759.999990463E-3,
,,,8.088000119E-3,759.999990463E-3,
,,,8.092000149E-3,759.999990463E-3,
,,,8.096000180E-3,759.999990463E-3,
,,,8.100000210E-3,759.999990463E-3,
,,,8.104000241E-3,759.999990463E-3,
,,,8.108000271E-3,759.999990463E-3,
,,,8.112000301E-3,759.999990463E-3,
,,,8.116000332E-3,759.999990463E-3,
,,,8.120000362E-3,759.999990463E-3,
,,,8.123999462E-3,759.999990463E-3,
,,,8.127999492E-3,759.999990463E-3,
,,,8.131999522E-3,759.999990463E-3,
,,,8.135999553E-3,759.999990463E-3,
,,,8.139999583E-3,759.999990463E-3,
,,,8.143999614E-3,719.999969006E-3,
,,,8.147999644E-3,759.999990463E-3,
,,,8.151999675E-3,759.999990463E-3,
,,,8.155999705E-3,759.999990463E-3,
,,,8.159999736E-3,759.999990463E-3,
,,,8.163999766E-3,759.999990463E-3,
,,,8.167999797E-3,759.999990463E-3,
,,,8.171999827E-3,799.999952316E-3,
,,,8.175999857E-3,759.999990463E-3,
,,,8.179999888E-3,719.999969006E-3,
,,,8.183999918E-3,759.999990463E-3,
,,,8.187999949E-3,759.999990463E-3,
,,,8.191999979E-3,719.999969006E-3,
,,,8.196000010E-3,759.999990463E-3,
,,,8.200000040E-3,759.999990463E-3,
,,,8.204000071E-3,759.999990463E-3,
,,,8.208000101E-3,799.999952316E-3,
,,,8.212000132E-3,759.999990463E-3,
,,,8.216000162E-3,759.999990463E-3,
,,,8.220000193E-3,759.999990463E-3,
,,,8.224000223E-3,759.999990463E-3,
,,,8.228000253E-3,719.999969006E-3,
,,,8.232000284E-3,759.999990463E-3,
,,,8.236000314E-3,759.999990463E-3,
,,,8.240000345E-3,759.999990463E-3,
,,,8.243999444E-3,759.999990463E-3,
,,,8.247999474E-3,719.999969006E-3,
,,,8.251999505E-3,719.999969006E-3,
,,,8.255999535E-3,759.999990463E-3,
,,,8.259999566E-3,759.999990463E-3,
,,,8.263999596E-3,759.999990463E-3,
,,,8.267999627E-3,759.999990463E-3,
,,,8.271999657E-3,719.999969006E-3,
,,,8.275999688E-3,719.999969006E-3,
,,,8.279999718E-3,719.999969006E-3,
,,,8.283999749E-3,759.999990463E-3,
,,,8.287999779E-3,719.999969006E-3,
,,,8.291999809E-3,759.999990463E-3,
,,,8.295999840E-3,719.999969006E-3,
,,,8.299999870E-3,719.999969006E-3,
,,,8.303999901E-3,759.999990463E-3,
,,,8.307999931E-3,759.999990463E-3,
,,,8.311999962E-3,719.999969006E-3,
,,,8.315999992E-3,759.999990463E-3,
,,,8.320000023E-3,759.999990463E-3,
,,,8.324000053E-3,759.999990463E-3,
,,,8.328000084E-3,719.999969006E-3,
,,,8.332000114E-3,719.999969006E-3,
,,,8.336000144E-3,719.999969006E-3,
,,,8.340000175E-3,719.999969006E-3,
,,,8.344000205E-3,759.999990463E-3,
,,,8.348000236E-3,759.999990463E-3,
,,,8.352000266E-3,719.999969006E-3,
,,,8.356000297E-3,719.999969006E-3,
,,,8.360000327E-3,719.999969006E-3,
,,,8.364000358E-3,759.999990463E-3,
,,,8.367999457E-3,759.999990463E-3,
,,,8.371999487E-3,759.999990463E-3,
,,,8.375999518E-3,719.999969006E-3,
,,,8.379999548E-3,759.999990463E-3,
,,,8.383999579E-3,719.999969006E-3,
,,,8.387999609E-3,719.999969006E-3,
,,,8.391999640E-3,719.999969006E-3,
,,,8.395999670E-3,719.999969006E-3,
