Record Length,2500,Points,-2.3000001E-3,79.999998212E-3,
Sample Interval,9.999999747E-6,s,-2.2900000E-3,79.999998212E-3,
Trigger Point,230.00001091,Samples,-2.2800001E-3,119.9999973E-3,
,,,-2.2700001E-3,79.999998212E-3,
,,,-2.2600000E-3,79.999998212E-3,
,,,-2.2500001E-3,79.999998212E-3,
Source,CH1,,-2.2400001E-3,79.999998212E-3,
Vertical Units,Volts,,-2.2300000E-3,79.999998212E-3,
Vertical Scale,999.999977648E-3,,-2.2200001E-3,79.999998212E-3,
Vertical Offset,0,,-2.2100001E-3,79.999998212E-3,
Horizontal Units,s,,-2.2000000E-3,79.999998212E-3,
Horizontal Scale,2.4999999E-3,,-2.1900001E-3,79.999998212E-3,
Pt Fmt,Y,,-2.1800001E-3,79.999998212E-3,
Yzero,-3.84000000,,-2.1700000E-3,79.999998212E-3,
Probe Atten,1.000000,,-2.1600001E-3,119.9999973E-3,
,,,-2.1500001E-3,79.999998212E-3,
Note,TBS 1104 - 15:48:23   08/04/2021,,-2.1400000E-3,79.999998212E-3,
,,,-2.1300002E-3,119.9999973E-3,
,,,-2.1200001E-3,119.9999973E-3,
,,,-2.1100000E-3,79.999998212E-3,
,,,-2.1000002E-3,79.999998212E-3,
,,,-2.0900001E-3,119.9999973E-3,
,,,-2.0800000E-3,79.999998212E-3,
,,,-2.0700002E-3,119.9999973E-3,
,,,-2.0600001E-3,79.999998212E-3,
,,,-2.0500000E-3,79.999998212E-3,
,,,-2.0400002E-3,79.999998212E-3,
,,,-2.0300001E-3,119.9999973E-3,
,,,-2.0200000E-3,119.9999973E-3,
,,,-2.0100002E-3,119.9999973E-3,
,,,-2.0000001E-3,119.9999973E-3,
,,,-1.9900000E-3,119.9999973E-3,
,,,-1.9800002E-3,79.999998212E-3,
,,,-1.9700001E-3,119.9999973E-3,
,,,-1.9600000E-3,79.999998212E-3,
,,,-1.9500001E-3,119.9999973E-3,
,,,-1.9400001E-3,119.9999973E-3,
,,,-1.9300000E-3,79.999998212E-3,
,,,-1.9200001E-3,119.9999973E-3,
,,,-1.9100001E-3,119.9999973E-3,
,,,-1.9000000E-3,79.999998212E-3,
,,,-1.8900001E-3,79.999998212E-3,
,,,-1.8800001E-3,79.999998212E-3,
,,,-1.8700000E-3,79.999998212E-3,
,,,-1.8600001E-3,79.999998212E-3,
,,,-1.8500001E-3,79.999998212E-3,
,,,-1.8400000E-3,119.9999973E-3,
,,,-1.8300001E-3,79.999998212E-3,
,,,-1.8200001E-3,119.9999973E-3,
,,,-1.8100000E-3,79.999998212E-3,
,,,-1.8000001E-3,119.9999973E-3,
,,,-1.7900000E-3,119.9999973E-3,
,,,-1.7800000E-3,79.999998212E-3,
,,,-1.7700001E-3,119.9999973E-3,
,,,-1.7600000E-3,119.9999973E-3,
,,,-1.7500001E-3,119.9999973E-3,
,,,-1.7400001E-3,119.9999973E-3,
,,,-1.7300000E-3,119.9999973E-3,
,,,-1.7200001E-3,119.9999973E-3,
,,,-1.7100001E-3,119.9999973E-3,
,,,-1.7000000E-3,79.999998212E-3,
,,,-1.6900001E-3,119.9999973E-3,
,,,-1.6800001E-3,119.9999973E-3,
,,,-1.6700000E-3,79.999998212E-3,
,,,-1.6600001E-3,119.9999973E-3,
,,,-1.6500001E-3,119.9999973E-3,
,,,-1.6400000E-3,79.999998212E-3,
,,,-1.6300001E-3,119.9999973E-3,
,,,-1.6200001E-3,119.9999973E-3,
,,,-1.6100000E-3,119.9999973E-3,
,,,-1.6000001E-3,119.9999973E-3,
,,,-1.5900001E-3,79.999998212E-3,
,,,-1.5800000E-3,79.999998212E-3,
,,,-1.5700001E-3,79.999998212E-3,
,,,-1.5600001E-3,119.9999973E-3,
,,,-1.5500000E-3,119.9999973E-3,
,,,-1.5400001E-3,79.999998212E-3,
,,,-1.5300001E-3,119.9999973E-3,
,,,-1.5200000E-3,119.9999973E-3,
,,,-1.5100001E-3,119.9999973E-3,
,,,-1.5000000E-3,119.9999973E-3,
,,,-1.4900001E-3,119.9999973E-3,
,,,-1.4800001E-3,119.9999973E-3,
,,,-1.4700000E-3,79.999998212E-3,
,,,-1.4600001E-3,119.9999973E-3,
,,,-1.4500001E-3,119.9999973E-3,
,,,-1.4400000E-3,79.999998212E-3,
,,,-1.4300001E-3,79.999998212E-3,
,,,-1.4200001E-3,119.9999973E-3,
,,,-1.4100000E-3,119.9999973E-3,
,,,-1.4000001E-3,119.9999973E-3,
,,,-1.3900001E-3,79.999998212E-3,
,,,-1.3800000E-3,79.999998212E-3,
,,,-1.3700001E-3,79.999998212E-3,
,,,-1.3600001E-3,79.999998212E-3,
,,,-1.3500000E-3,79.999998212E-3,
,,,-1.3400001E-3,79.999998212E-3,
,,,-1.3300001E-3,119.9999973E-3,
,,,-1.3200000E-3,119.9999973E-3,
,,,-1.3100001E-3,79.999998212E-3,
,,,-1.3000001E-3,119.9999973E-3,
,,,-1.2900000E-3,119.9999973E-3,
,,,-1.2800001E-3,119.9999973E-3,
,,,-1.2700001E-3,119.9999973E-3,
,,,-1.2600000E-3,119.9999973E-3,
,,,-1.2500001E-3,119.9999973E-3,
,,,-1.2400001E-3,119.9999973E-3,
,,,-1.2300001E-3,79.999998212E-3,
,,,-1.2200001E-3,79.999998212E-3,
,,,-1.2100001E-3,119.9999973E-3,
,,,-1.2000001E-3,119.9999973E-3,
,,,-1.1900001E-3,79.999998212E-3,
,,,-1.1800001E-3,79.999998212E-3,
,,,-1.1700001E-3,119.9999973E-3,
,,,-1.1600001E-3,119.9999973E-3,
,,,-1.1500000E-3,79.999998212E-3,
,,,-1.1400001E-3,119.9999973E-3,
,,,-1.1300001E-3,79.999998212E-3,
,,,-1.1200000E-3,79.999998212E-3,
,,,-1.1100001E-3,79.999998212E-3,
,,,-1.1000001E-3,79.999998212E-3,
,,,-1.0900000E-3,119.9999973E-3,
,,,-1.0800001E-3,79.999998212E-3,
,,,-1.0700001E-3,79.999998212E-3,
,,,-1.0600000E-3,79.999998212E-3,
,,,-1.0500001E-3,119.9999973E-3,
,,,-1.0400001E-3,119.9999973E-3,
,,,-1.0300000E-3,79.999998212E-3,
,,,-1.0200001E-3,79.999998212E-3,
,,,-1.0100001E-3,79.999998212E-3,
,,,-1.0000000E-3,79.999998212E-3,
,,,-990.000087768E-6,119.9999973E-3,
,,,-980.000128038E-6,119.9999973E-3,
,,,-970.000110101E-6,79.999998212E-3,
,,,-960.000092164E-6,79.999998212E-3,
,,,-950.000074226E-6,79.999998212E-3,
,,,-940.000056289E-6,79.999998212E-3,
,,,-930.000096560E-6,79.999998212E-3,
,,,-920.000078622E-6,79.999998212E-3,
,,,-910.000060685E-6,79.999998212E-3,
,,,-900.000100955E-6,79.999998212E-3,
,,,-890.000083018E-6,79.999998212E-3,
,,,-880.000065081E-6,79.999998212E-3,
,,,-870.000105351E-6,79.999998212E-3,
,,,-860.000087414E-6,79.999998212E-3,
,,,-850.000069477E-6,79.999998212E-3,
,,,-840.000109747E-6,79.999998212E-3,
,,,-830.000091810E-6,79.999998212E-3,
,,,-820.000073873E-6,79.999998212E-3,
,,,-810.000114143E-6,79.999998212E-3,
,,,-800.000096206E-6,79.999998212E-3,
,,,-790.000078268E-6,79.999998212E-3,
,,,-780.000118539E-6,79.999998212E-3,
,,,-770.000100601E-6,79.999998212E-3,
,,,-760.000082664E-6,79.999998212E-3,
,,,-750.000064727E-6,119.9999973E-3,
,,,-740.000104997E-6,79.999998212E-3,
,,,-730.000087060E-6,119.9999973E-3,
,,,-720.000069123E-6,79.999998212E-3,
,,,-710.000109393E-6,79.999998212E-3,
,,,-700.000091456E-6,79.999998212E-3,
,,,-690.000073519E-6,119.9999973E-3,
,,,-680.000113789E-6,119.9999973E-3,
,,,-670.000095852E-6,119.9999973E-3,
,,,-660.000077914E-6,79.999998212E-3,
,,,-650.000118185E-6,119.9999973E-3,
,,,-640.000100248E-6,79.999998212E-3,
,,,-630.000082310E-6,79.999998212E-3,
,,,-620.000064373E-6,79.999998212E-3,
,,,-610.000104643E-6,119.9999973E-3,
,,,-600.000086706E-6,119.9999973E-3,
,,,-590.000068769E-6,119.9999973E-3,
,,,-580.000109039E-6,119.9999973E-3,
,,,-570.000091102E-6,79.999998212E-3,
,,,-560.000073165E-6,119.9999973E-3,
,,,-550.000113435E-6,119.9999973E-3,
,,,-540.000095498E-6,119.9999973E-3,
,,,-530.000077561E-6,79.999998212E-3,
,,,-520.000117831E-6,79.999998212E-3,
,,,-510.000099894E-6,79.999998212E-3,
,,,-500.000081956E-6,79.999998212E-3,
,,,-490.000122227E-6,79.999998212E-3,
,,,-480.000104290E-6,79.999998212E-3,
,,,-470.000086352E-6,119.9999973E-3,
,,,-460.000097519E-6,79.999998212E-3,
,,,-450.000108685E-6,79.999998212E-3,
,,,-440.000090748E-6,119.9999973E-3,
,,,-430.000101915E-6,119.9999973E-3,
,,,-420.000113081E-6,79.999998212E-3,
,,,-410.000095144E-6,119.9999973E-3,
,,,-400.00010631E-6,119.9999973E-3,
,,,-390.00008837E-6,119.9999973E-3,
,,,-380.00009954E-6,79.999998212E-3,
,,,-370.00011071E-6,79.999998212E-3,
,,,-360.00009277E-6,79.999998212E-3,
,,,-350.00010394E-6,119.9999973E-3,
,,,-340.00008600E-6,79.999998212E-3,
,,,-330.00009716E-6,79.999998212E-3,
,,,-320.00010833E-6,119.9999973E-3,
,,,-310.00009039E-6,79.999998212E-3,
,,,-300.00010156E-6,79.999998212E-3,
,,,-290.00011273E-6,79.999998212E-3,
,,,-280.00009479E-6,79.999998212E-3,
,,,-270.00010596E-6,79.999998212E-3,
,,,-260.00011712E-6,79.999998212E-3,
,,,-250.00009919E-6,79.999998212E-3,
,,,-240.00011035E-6,79.999998212E-3,
,,,-230.00010697E-6,79.999998212E-3,
,,,-220.00010358E-6,79.999998212E-3,
,,,-210.00010020E-6,79.999998212E-3,
,,,-200.00009681E-6,79.999998212E-3,
,,,-190.00010798E-6,119.9999973E-3,
,,,-180.00010459E-6,79.999998212E-3,
,,,-170.00010121E-6,79.999998212E-3,
,,,-160.00011237E-6,79.999998212E-3,
,,,-150.00010899E-6,79.999998212E-3,
,,,-140.0001056E-6,79.999998212E-3,
,,,-130.0001022E-6,79.999998212E-3,
,,,-120.0001061E-6,79.999998212E-3,
,,,-110.0001100E-6,79.999998212E-3,
,,,-100.0001066E-6,79.999998212E-3,
,,,-90.000103228E-6,119.9999973E-3,
,,,-80.000107118E-6,119.9999973E-3,
,,,-70.000111009E-6,119.9999973E-3,
,,,-60.000107624E-6,119.9999973E-3,
,,,-50.00010788E-6,79.999998212E-3,
,,,-40.00010813E-6,119.9999973E-3,
,,,-30.00010838E-6,79.999998212E-3,
,,,-20.0001086E-6,119.9999973E-3,
,,,-10.0001089E-6,79.999998212E-3,
,,,-109.1393638E-12,79.999998212E-3,
,,,9.999890608E-6,79.999998212E-3,
,,,19.9998904E-6,79.999998212E-3,
,,,29.99989010E-6,39.99999911E-3,
,,,39.99988985E-6,560.000002384E-3,
,,,49.99988960E-6,1.0400000,
,,,59.999889345E-6,1.4399999,
,,,69.999892730E-6,1.7600000,
,,,79.999888840E-6,2.0400000,
,,,89.999884949E-6,2.3599999,
,,,99.999888334E-6,2.5999999,
,,,109.9998917E-6,2.79999995,
,,,119.9998878E-6,3.00000000,
,,,129.9998839E-6,3.11999989,
,,,139.9998873E-6,3.24000001,
,,,149.99989071E-6,3.35999990,
,,,159.99987954E-6,3.43999982,
,,,169.99988293E-6,3.55999994,
,,,179.99988631E-6,3.59999990,
,,,189.99988970E-6,3.63999987,
,,,199.99989308E-6,3.67999983,
,,,209.99988192E-6,3.72000003,
,,,219.99988530E-6,3.75999999,
,,,229.99988869E-6,3.72000003,
,,,239.99987752E-6,3.72000003,
,,,249.99989546E-6,3.75999999,
,,,259.99988429E-6,3.72000003,
,,,269.99987313E-6,3.72000003,
,,,279.99989106E-6,3.67999983,
,,,289.99987990E-6,3.67999983,
,,,299.99989783E-6,3.67999983,
,,,309.99988667E-6,3.63999987,
,,,319.99987550E-6,3.59999990,
,,,329.99989344E-6,3.55999994,
,,,339.99988227E-6,3.55999994,
,,,349.99987110E-6,3.48000002,
,,,359.99988904E-6,3.48000002,
,,,369.99987788E-6,3.43999982,
,,,379.99986671E-6,3.39999986,
,,,389.99988465E-6,3.35999990,
,,,399.99987348E-6,3.31999993,
,,,409.999891417E-6,3.27999997,
,,,419.999880251E-6,3.24000001,
,,,429.999869084E-6,3.19999981,
,,,439.999887021E-6,3.19999981,
,,,449.999875855E-6,3.15999985,
,,,459.999893792E-6,3.11999989,
,,,469.999882625E-6,3.07999992,
,,,479.999871459E-6,3.03999996,
,,,489.999889396E-6,3.00000000,
,,,499.999849126E-6,3.00000000,
,,,509.999867063E-6,2.96000004,
,,,519.999885000E-6,2.91999984,
,,,529.999902938E-6,2.87999988,
,,,539.999862667E-6,2.83999991,
,,,549.999880604E-6,2.79999995,
,,,559.999898542E-6,2.79999995,
,,,569.999858271E-6,2.75999999,
,,,579.999876209E-6,2.75999999,
,,,589.999894146E-6,2.72000003,
,,,599.999853875E-6,2.72000003,
,,,609.999871813E-6,2.6799998,
,,,619.999889750E-6,2.6799998,
,,,629.999849480E-6,2.6399999,
,,,639.999867417E-6,2.6399999,
,,,649.999885354E-6,2.5999999,
,,,659.999903291E-6,2.5999999,
,,,669.999863021E-6,2.5999999,
,,,679.999880958E-6,2.5599999,
,,,689.999898896E-6,2.5599999,
,,,699.999858625E-6,2.5599999,
,,,709.999876563E-6,2.5200000,
,,,719.999894500E-6,2.5200000,
,,,729.999854229E-6,2.4800000,
,,,739.999872167E-6,2.4400001,
,,,749.999890104E-6,2.4400001,
,,,759.999849834E-6,2.4400001,
,,,769.999867771E-6,2.3999999,
,,,779.999885708E-6,2.3999999,
,,,789.999845438E-6,2.3999999,
,,,799.999863375E-6,2.3999999,
,,,809.999881312E-6,2.3599999,
,,,819.999841042E-6,2.3199999,
,,,829.999858979E-6,2.3199999,
,,,839.999876916E-6,2.3199999,
,,,849.999894854E-6,2.3199999,
,,,859.999854583E-6,2.3199999,
,,,869.999872521E-6,2.2800000,
,,,879.999890458E-6,2.2800000,
,,,889.999850187E-6,2.2400000,
,,,899.999868125E-6,2.2400000,
,,,909.999886062E-6,2.2400000,
,,,919.999845792E-6,2.2000000,
,,,929.999863729E-6,2.2000000,
,,,939.999881666E-6,2.2000000,
,,,949.999841396E-6,2.1599998,
,,,959.999859333E-6,2.1199999,
,,,969.999877270E-6,2.1199999,
,,,979.999895208E-6,2.1199999,
,,,989.999854937E-6,2.1199999,
,,,999.999814667E-6,2.0799999,
,,,1.0099999E-3,2.0799999,
,,,1.0199999E-3,2.0799999,
,,,1.0299998E-3,2.0799999,
,,,1.0399999E-3,2.0400000,
,,,1.0499998E-3,2.0400000,
,,,1.0599999E-3,2.0400000,
,,,1.0699999E-3,2.0400000,
,,,1.0799998E-3,2.0000000,
,,,1.0899999E-3,2.0400000,
,,,1.0999999E-3,2.0000000,
,,,1.1099998E-3,1.9599999,
,,,1.1199999E-3,2.0000000,
,,,1.1299999E-3,1.9599999,
,,,1.1399998E-3,1.9599999,
,,,1.1499999E-3,1.9599999,
,,,1.1599999E-3,1.9599999,
,,,1.1699998E-3,1.9599999,
,,,1.1799999E-3,1.9599999,
,,,1.1899999E-3,1.9200000,
,,,1.1999998E-3,1.9200000,
,,,1.2099999E-3,1.8800000,
,,,1.2199999E-3,1.9200000,
,,,1.2299998E-3,1.9200000,
,,,1.2399999E-3,1.8800000,
,,,1.2499999E-3,1.8800000,
,,,1.2599998E-3,1.8800000,
,,,1.2699999E-3,1.8399999,
,,,1.2799999E-3,1.8399999,
,,,1.2899998E-3,1.8000000,
,,,1.2999999E-3,1.8000000,
,,,1.3099998E-3,1.8000000,
,,,1.3199998E-3,1.8000000,
,,,1.3299999E-3,1.8000000,
,,,1.3399998E-3,1.7600000,
,,,1.3499998E-3,1.7600000,
,,,1.3599999E-3,1.7600000,
,,,1.3699998E-3,1.7600000,
,,,1.3799998E-3,1.7600000,
,,,1.3899999E-3,1.7199999,
,,,1.3999998E-3,1.7600000,
,,,1.4099999E-3,1.7199999,
,,,1.4199999E-3,1.7199999,
,,,1.4299998E-3,1.7199999,
,,,1.4399999E-3,1.7199999,
,,,1.4499999E-3,1.7199999,
,,,1.4599998E-3,1.7199999,
,,,1.4699999E-3,1.6799999,
,,,1.4799999E-3,1.7199999,
,,,1.4899998E-3,1.6799999,
,,,1.4999999E-3,1.6799999,
,,,1.5099999E-3,1.6799999,
,,,1.5199998E-3,1.6799999,
,,,1.5299999E-3,1.6799999,
,,,1.5399999E-3,1.6799999,
,,,1.5499998E-3,1.6400000,
,,,1.5599999E-3,1.6400000,
,,,1.5699998E-3,1.5999999,
,,,1.5799998E-3,1.6400000,
,,,1.5899999E-3,1.5999999,
,,,1.5999998E-3,1.6400000,
,,,1.6099998E-3,1.5999999,
,,,1.6199999E-3,1.5999999,
,,,1.6299998E-3,1.5999999,
,,,1.6399998E-3,1.5999999,
,,,1.6499999E-3,1.5599999,
,,,1.6599998E-3,1.5599999,
,,,1.6699998E-3,1.5599999,
,,,1.6799999E-3,1.5599999,
,,,1.6899998E-3,1.5599999,
,,,1.6999999E-3,1.5599999,
,,,1.7099999E-3,1.5599999,
,,,1.7199998E-3,1.5599999,
,,,1.7299999E-3,1.5200000,
,,,1.7399999E-3,1.5200000,
,,,1.7499998E-3,1.4800000,
,,,1.7599999E-3,1.5599999,
,,,1.7699999E-3,1.5200000,
,,,1.7799998E-3,1.4800000,
,,,1.7899999E-3,1.4800000,
,,,1.7999999E-3,1.4800000,
,,,1.8099998E-3,1.4800000,
,,,1.8199999E-3,1.4800000,
,,,1.8299998E-3,1.4800000,
,,,1.8399998E-3,1.4399999,
,,,1.8499999E-3,1.4800000,
,,,1.8599998E-3,1.4399999,
,,,1.8699998E-3,1.4800000,
,,,1.8799999E-3,1.4399999,
,,,1.8899998E-3,1.4399999,
,,,1.8999998E-3,1.4399999,
,,,1.9099999E-3,1.4000000,
,,,1.9199998E-3,1.4399999,
,,,1.9299998E-3,1.4000000,
,,,1.9399999E-3,1.4399999,
,,,1.9499998E-3,1.4000000,
,,,1.9599998E-3,1.4000000,
,,,1.9699999E-3,1.4000000,
,,,1.9799999E-3,1.3600000,
,,,1.9899998E-3,1.3600000,
,,,1.9999999E-3,1.3199999,
,,,2.0099999E-3,1.3600000,
,,,2.0199998E-3,1.3600000,
,,,2.0299999E-3,1.3600000,
,,,2.0399999E-3,1.3600000,
,,,2.0499998E-3,1.3600000,
,,,2.0599999E-3,1.3199999,
,,,2.0699999E-3,1.3199999,
,,,2.0799998E-3,1.3199999,
,,,2.0899998E-3,1.2800000,
,,,2.0999999E-3,1.2800000,
,,,2.1099998E-3,1.2800000,
,,,2.1199998E-3,1.3199999,
,,,2.1299999E-3,1.2800000,
,,,2.1399998E-3,1.2800000,
,,,2.1499998E-3,1.2400000,
,,,2.1599999E-3,1.2800000,
,,,2.1699998E-3,1.2800000,
,,,2.1799998E-3,1.2400000,
,,,2.1899999E-3,1.2400000,
,,,2.1999998E-3,1.2400000,
,,,2.2099998E-3,1.2400000,
,,,2.2199999E-3,1.1999999,
,,,2.2299998E-3,1.1999999,
,,,2.2399998E-3,1.1999999,
,,,2.2499999E-3,1.1600000,
,,,2.2599997E-3,1.1999999,
,,,2.2699998E-3,1.2400000,
,,,2.2799999E-3,1.1999999,
,,,2.2899997E-3,1.1600000,
,,,2.2999998E-3,1.1600000,
,,,2.3099999E-3,1.1600000,
,,,2.3199997E-3,1.1600000,
,,,2.3299998E-3,1.1600000,
,,,2.3399999E-3,1.1999999,
,,,2.3499997E-3,1.1600000,
,,,2.3599998E-3,1.1600000,
,,,2.3699999E-3,1.1600000,
,,,2.3799997E-3,1.1600000,
,,,2.3899998E-3,1.1600000,
,,,2.3999999E-3,1.1600000,
,,,2.4099997E-3,1.1600000,
,,,2.4199998E-3,1.1600000,
,,,2.4299999E-3,1.1600000,
,,,2.4399997E-3,1.1200000,
,,,2.4499998E-3,1.1200000,
,,,2.4599999E-3,1.0799999,
,,,2.4699997E-3,1.0799999,
,,,2.4799998E-3,1.0799999,
,,,2.4899999E-3,1.0799999,
,,,2.4999999E-3,1.0799999,
,,,2.5099998E-3,1.0799999,
,,,2.5199999E-3,1.0799999,
,,,2.5299999E-3,1.0799999,
,,,2.5399998E-3,1.0400000,
,,,2.5499999E-3,1.0400000,
,,,2.5599999E-3,1.0799999,
,,,2.5699998E-3,1.0799999,
,,,2.5799999E-3,1.0400000,
,,,2.5899999E-3,1.0400000,
,,,2.5999998E-3,1.0400000,
,,,2.6099999E-3,1.0400000,
,,,2.6199999E-3,1.000000,
,,,2.6299998E-3,1.000000,
,,,2.6399998E-3,1.0400000,
,,,2.6499999E-3,1.0400000,
,,,2.6599998E-3,1.0400000,
,,,2.6699998E-3,1.000000,
,,,2.6799999E-3,1.000000,
,,,2.6899998E-3,1.0400000,
,,,2.6999998E-3,1.0400000,
,,,2.7099999E-3,1.000000,
,,,2.71999976E-3,1.000000,
,,,2.72999983E-3,1.000000,
,,,2.73999991E-3,1.000000,
,,,2.74999975E-3,959.999978542E-3,
,,,2.75999983E-3,1.000000,
,,,2.76999990E-3,1.000000,
,,,2.77999975E-3,959.999978542E-3,
,,,2.78999982E-3,959.999978542E-3,
,,,2.79999990E-3,959.999978542E-3,
,,,2.80999974E-3,1.000000,
,,,2.81999982E-3,959.999978542E-3,
,,,2.82999990E-3,959.999978542E-3,
,,,2.83999974E-3,959.999978542E-3,
,,,2.84999982E-3,959.999978542E-3,
,,,2.85999989E-3,959.999978542E-3,
,,,2.86999973E-3,959.999978542E-3,
,,,2.87999981E-3,919.999957085E-3,
,,,2.88999989E-3,959.999978542E-3,
,,,2.89999973E-3,919.999957085E-3,
,,,2.90999981E-3,919.999957085E-3,
,,,2.91999988E-3,919.999957085E-3,
,,,2.92999973E-3,919.999957085E-3,
,,,2.93999980E-3,919.999957085E-3,
,,,2.94999988E-3,919.999957085E-3,
,,,2.95999972E-3,919.999957085E-3,
,,,2.96999980E-3,919.999957085E-3,
,,,2.97999987E-3,879.999995232E-3,
,,,2.98999972E-3,919.999957085E-3,
,,,2.99999979E-3,919.999957085E-3,
,,,3.00999987E-3,879.999995232E-3,
,,,3.01999971E-3,919.999957085E-3,
,,,3.02999979E-3,839.999973774E-3,
,,,3.03999986E-3,919.999957085E-3,
,,,3.04999971E-3,879.999995232E-3,
,,,3.05999978E-3,879.999995232E-3,
,,,3.06999986E-3,879.999995232E-3,
,,,3.07999970E-3,919.999957085E-3,
,,,3.08999978E-3,879.999995232E-3,
,,,3.09999986E-3,839.999973774E-3,
,,,3.10999970E-3,839.999973774E-3,
,,,3.11999978E-3,879.999995232E-3,
,,,3.12999985E-3,839.999973774E-3,
,,,3.13999970E-3,839.999973774E-3,
,,,3.14999977E-3,879.999995232E-3,
,,,3.15999985E-3,839.999973774E-3,
,,,3.16999992E-3,879.999995232E-3,
,,,3.17999977E-3,879.999995232E-3,
,,,3.18999984E-3,839.999973774E-3,
,,,3.19999992E-3,839.999973774E-3,
,,,3.20999976E-3,839.999973774E-3,
,,,3.21999984E-3,839.999973774E-3,
,,,3.22999991E-3,839.999973774E-3,
,,,3.23999976E-3,839.999973774E-3,
,,,3.24999983E-3,839.999973774E-3,
,,,3.25999991E-3,839.999973774E-3,
,,,3.26999975E-3,839.999973774E-3,
,,,3.27999983E-3,839.999973774E-3,
,,,3.28999991E-3,799.999952316E-3,
,,,3.29999975E-3,839.999973774E-3,
,,,3.30999983E-3,839.999973774E-3,
,,,3.31999990E-3,799.999952316E-3,
,,,3.32999974E-3,799.999952316E-3,
,,,3.33999982E-3,799.999952316E-3,
,,,3.34999990E-3,799.999952316E-3,
,,,3.35999974E-3,799.999952316E-3,
,,,3.36999982E-3,799.999952316E-3,
,,,3.37999989E-3,799.999952316E-3,
,,,3.38999974E-3,759.999990463E-3,
,,,3.39999981E-3,799.999952316E-3,
,,,3.40999989E-3,759.999990463E-3,
,,,3.41999973E-3,759.999990463E-3,
,,,3.42999981E-3,759.999990463E-3,
,,,3.43999988E-3,759.999990463E-3,
,,,3.44999973E-3,759.999990463E-3,
,,,3.45999980E-3,759.999990463E-3,
,,,3.46999988E-3,799.999952316E-3,
,,,3.47999972E-3,759.999990463E-3,
,,,3.48999980E-3,759.999990463E-3,
,,,3.49999988E-3,759.999990463E-3,
,,,3.50999972E-3,759.999990463E-3,
,,,3.51999979E-3,759.999990463E-3,
,,,3.52999987E-3,759.999990463E-3,
,,,3.53999971E-3,719.999969006E-3,
,,,3.54999979E-3,719.999969006E-3,
,,,3.55999987E-3,759.999990463E-3,
,,,3.56999971E-3,759.999990463E-3,
,,,3.57999979E-3,759.999990463E-3,
,,,3.58999986E-3,719.999969006E-3,
,,,3.59999971E-3,719.999969006E-3,
,,,3.60999978E-3,719.999969006E-3,
,,,3.61999986E-3,759.999990463E-3,
,,,3.62999970E-3,719.999969006E-3,
,,,3.63999978E-3,719.999969006E-3,
,,,3.64999985E-3,719.999969006E-3,
,,,3.65999970E-3,719.999969006E-3,
,,,3.66999977E-3,719.999969006E-3,
,,,3.67999985E-3,719.999969006E-3,
,,,3.68999969E-3,719.999969006E-3,
,,,3.69999977E-3,719.999969006E-3,
,,,3.70999984E-3,719.999969006E-3,
,,,3.71999969E-3,759.999990463E-3,
,,,3.72999976E-3,719.999969006E-3,
,,,3.73999984E-3,759.999990463E-3,
,,,3.74999968E-3,719.999969006E-3,
,,,3.75999976E-3,719.999969006E-3,
,,,3.76999984E-3,719.999969006E-3,
,,,3.77999991E-3,719.999969006E-3,
,,,3.78999976E-3,719.999969006E-3,
,,,3.79999983E-3,680.000007153E-3,
,,,3.80999991E-3,680.000007153E-3,
,,,3.81999975E-3,719.999969006E-3,
,,,3.82999983E-3,719.999969006E-3,
,,,3.83999990E-3,719.999969006E-3,
,,,3.84999975E-3,719.999969006E-3,
,,,3.85999982E-3,719.999969006E-3,
,,,3.86999990E-3,719.999969006E-3,
,,,3.87999974E-3,719.999969006E-3,
,,,3.88999982E-3,719.999969006E-3,
,,,3.89999989E-3,680.000007153E-3,
,,,3.90999997E-3,719.999969006E-3,
,,,3.91999958E-3,680.000007153E-3,
,,,3.92999966E-3,680.000007153E-3,
,,,3.93999973E-3,719.999969006E-3,
,,,3.94999981E-3,680.000007153E-3,
,,,3.95999989E-3,680.000007153E-3,
,,,3.96999996E-3,719.999969006E-3,
,,,3.97999957E-3,719.999969006E-3,
,,,3.98999965E-3,680.000007153E-3,
,,,3.99999972E-3,680.000007153E-3,
,,,4.00999980E-3,680.000007153E-3,
,,,4.01999988E-3,680.000007153E-3,
,,,4.02999995E-3,680.000007153E-3,
,,,4.03999956E-3,680.000007153E-3,
,,,4.04999964E-3,680.000007153E-3,
,,,4.05999972E-3,680.000007153E-3,
,,,4.06999979E-3,680.000007153E-3,
,,,4.07999987E-3,680.000007153E-3,
,,,4.08999994E-3,680.000007153E-3,
,,,4.09999955E-3,639.999985695E-3,
,,,4.10999963E-3,680.000007153E-3,
,,,4.11999971E-3,639.999985695E-3,
,,,4.12999978E-3,680.000007153E-3,
,,,4.13999986E-3,639.999985695E-3,
,,,4.14999994E-3,680.000007153E-3,
,,,4.16000001E-3,639.999985695E-3,
,,,4.16999962E-3,639.999985695E-3,
,,,4.17999970E-3,639.999985695E-3,
,,,4.18999977E-3,639.999985695E-3,
,,,4.19999985E-3,639.999985695E-3,
,,,4.20999993E-3,599.999964237E-3,
,,,4.22000000E-3,639.999985695E-3,
,,,4.22999961E-3,639.999985695E-3,
,,,4.23999969E-3,639.999985695E-3,
,,,4.24999977E-3,639.999985695E-3,
,,,4.25999984E-3,639.999985695E-3,
,,,4.26999992E-3,639.999985695E-3,
,,,4.27999999E-3,639.999985695E-3,
,,,4.28999960E-3,639.999985695E-3,
,,,4.29999968E-3,599.999964237E-3,
,,,4.30999976E-3,599.999964237E-3,
,,,4.31999983E-3,639.999985695E-3,
,,,4.32999991E-3,599.999964237E-3,
,,,4.33999998E-3,599.999964237E-3,
,,,4.34999960E-3,639.999985695E-3,
,,,4.35999967E-3,639.999985695E-3,
,,,4.36999975E-3,599.999964237E-3,
,,,4.37999982E-3,599.999964237E-3,
,,,4.38999990E-3,599.999964237E-3,
,,,4.39999998E-3,639.999985695E-3,
,,,4.40999959E-3,599.999964237E-3,
,,,4.41999966E-3,599.999964237E-3,
,,,4.42999974E-3,599.999964237E-3,
,,,4.43999982E-3,599.999964237E-3,
,,,4.44999989E-3,599.999964237E-3,
,,,4.45999997E-3,599.999964237E-3,
,,,4.46999958E-3,599.999964237E-3,
,,,4.47999965E-3,599.999964237E-3,
,,,4.48999973E-3,599.999964237E-3,
,,,4.49999981E-3,639.999985695E-3,
,,,4.50999988E-3,599.999964237E-3,
,,,4.51999996E-3,599.999964237E-3,
,,,4.52999957E-3,599.999964237E-3,
,,,4.53999965E-3,599.999964237E-3,
,,,4.54999972E-3,599.999964237E-3,
,,,4.55999980E-3,599.999964237E-3,
,,,4.56999987E-3,599.999964237E-3,
,,,4.57999995E-3,599.999964237E-3,
,,,4.58999956E-3,599.999964237E-3,
,,,4.59999964E-3,599.999964237E-3,
,,,4.60999971E-3,599.999964237E-3,
,,,4.61999979E-3,599.999964237E-3,
,,,4.62999986E-3,599.999964237E-3,
,,,4.63999994E-3,560.000002384E-3,
,,,4.64999955E-3,560.000002384E-3,
,,,4.65999963E-3,560.000002384E-3,
,,,4.66999970E-3,560.000002384E-3,
,,,4.67999978E-3,560.000002384E-3,
,,,4.68999986E-3,599.999964237E-3,
,,,4.69999993E-3,560.000002384E-3,
,,,4.70999954E-3,560.000002384E-3,
,,,4.71999962E-3,599.999964237E-3,
,,,4.72999969E-3,599.999964237E-3,
,,,4.73999977E-3,560.000002384E-3,
,,,4.74999985E-3,560.000002384E-3,
,,,4.75999992E-3,560.000002384E-3,
,,,4.77000000E-3,560.000002384E-3,
,,,4.77999961E-3,560.000002384E-3,
,,,4.78999969E-3,560.000002384E-3,
,,,4.79999976E-3,560.000002384E-3,
,,,4.80999984E-3,560.000002384E-3,
,,,4.81999991E-3,560.000002384E-3,
,,,4.82999999E-3,560.000002384E-3,
,,,4.83999960E-3,560.000002384E-3,
,,,4.84999968E-3,560.000002384E-3,
,,,4.85999975E-3,560.000002384E-3,
,,,4.86999983E-3,519.999980927E-3,
,,,4.87999991E-3,519.999980927E-3,
,,,4.88999998E-3,519.999980927E-3,
,,,4.89999959E-3,519.999980927E-3,
,,,4.90999967E-3,519.999980927E-3,
,,,4.91999974E-3,519.999980927E-3,
,,,4.92999982E-3,519.999980927E-3,
,,,4.93999990E-3,479.999989271E-3,
,,,4.94999997E-3,519.999980927E-3,
,,,4.95999958E-3,519.999980927E-3,
,,,4.96999966E-3,519.999980927E-3,
,,,4.97999974E-3,479.999989271E-3,
,,,4.98999981E-3,519.999980927E-3,
,,,4.99999989E-3,519.999980927E-3,
,,,5.00999996E-3,519.999980927E-3,
,,,5.01999957E-3,519.999980927E-3,
,,,5.02999965E-3,479.999989271E-3,
,,,5.03999973E-3,560.000002384E-3,
,,,5.04999980E-3,519.999980927E-3,
,,,5.05999988E-3,560.000002384E-3,
,,,5.06999996E-3,519.999980927E-3,
,,,5.07999957E-3,519.999980927E-3,
,,,5.08999964E-3,519.999980927E-3,
,,,5.09999972E-3,479.999989271E-3,
,,,5.10999979E-3,479.999989271E-3,
,,,5.11999987E-3,479.999989271E-3,
,,,5.12999995E-3,479.999989271E-3,
,,,5.13999956E-3,479.999989271E-3,
,,,5.14999963E-3,519.999980927E-3,
,,,5.15999971E-3,519.999980927E-3,
,,,5.16999979E-3,560.000002384E-3,
,,,5.17999986E-3,519.999980927E-3,
,,,5.18999994E-3,479.999989271E-3,
,,,5.19999955E-3,519.999980927E-3,
,,,5.20999962E-3,479.999989271E-3,
,,,5.21999970E-3,479.999989271E-3,
,,,5.22999978E-3,479.999989271E-3,
,,,5.23999985E-3,479.999989271E-3,
,,,5.24999993E-3,479.999989271E-3,
,,,5.25999954E-3,479.999989271E-3,
,,,5.26999962E-3,479.999989271E-3,
,,,5.27999969E-3,479.999989271E-3,
,,,5.28999977E-3,479.999989271E-3,
,,,5.29999984E-3,479.999989271E-3,
,,,5.30999992E-3,479.999989271E-3,
,,,5.31999953E-3,479.999989271E-3,
,,,5.32999961E-3,479.999989271E-3,
,,,5.33999968E-3,479.999989271E-3,
,,,5.34999976E-3,479.999989271E-3,
,,,5.35999984E-3,479.999989271E-3,
,,,5.36999991E-3,479.999989271E-3,
,,,5.37999999E-3,479.999989271E-3,
,,,5.38999960E-3,479.999989271E-3,
,,,5.39999967E-3,439.999997616E-3,
,,,5.40999975E-3,479.999989271E-3,
,,,5.41999983E-3,439.999997616E-3,
,,,5.42999990E-3,439.999997616E-3,
,,,5.43999998E-3,439.999997616E-3,
,,,5.44999959E-3,479.999989271E-3,
,,,5.45999967E-3,439.999997616E-3,
,,,5.46999974E-3,439.999997616E-3,
,,,5.47999982E-3,439.999997616E-3,
,,,5.48999989E-3,439.999997616E-3,
,,,5.49999997E-3,439.999997616E-3,
,,,5.50999958E-3,479.999989271E-3,
,,,5.51999966E-3,439.999997616E-3,
,,,5.52999973E-3,439.999997616E-3,
,,,5.53999981E-3,439.999997616E-3,
,,,5.54999989E-3,399.99997616E-3,
,,,5.55999996E-3,439.999997616E-3,
,,,5.56999957E-3,439.999997616E-3,
,,,5.57999965E-3,439.999997616E-3,
,,,5.58999972E-3,439.999997616E-3,
,,,5.59999980E-3,439.999997616E-3,
,,,5.60999988E-3,399.99997616E-3,
,,,5.61999995E-3,439.999997616E-3,
,,,5.62999956E-3,439.999997616E-3,
,,,5.63999964E-3,399.99997616E-3,
,,,5.64999972E-3,439.999997616E-3,
,,,5.65999979E-3,399.99997616E-3,
,,,5.66999987E-3,399.99997616E-3,
,,,5.67999994E-3,439.999997616E-3,
,,,5.68999955E-3,439.999997616E-3,
,,,5.69999963E-3,439.999997616E-3,
,,,5.70999971E-3,439.999997616E-3,
,,,5.71999978E-3,439.999997616E-3,
,,,5.72999986E-3,439.999997616E-3,
,,,5.73999994E-3,399.99997616E-3,
,,,5.74999955E-3,439.999997616E-3,
,,,5.75999962E-3,439.999997616E-3,
,,,5.76999970E-3,439.999997616E-3,
,,,5.77999977E-3,399.99997616E-3,
,,,5.78999985E-3,439.999997616E-3,
,,,5.79999993E-3,439.999997616E-3,
,,,5.80999954E-3,399.99997616E-3,
,,,5.81999961E-3,439.999997616E-3,
,,,5.82999969E-3,399.99997616E-3,
,,,5.83999977E-3,439.999997616E-3,
,,,5.84999984E-3,439.999997616E-3,
,,,5.85999992E-3,399.99997616E-3,
,,,5.86999953E-3,399.99997616E-3,
,,,5.87999960E-3,399.99997616E-3,
,,,5.88999968E-3,399.99997616E-3,
,,,5.89999976E-3,399.99997616E-3,
,,,5.90999983E-3,399.99997616E-3,
,,,5.91999991E-3,399.99997616E-3,
,,,5.92999952E-3,399.99997616E-3,
,,,5.93999960E-3,399.99997616E-3,
,,,5.94999967E-3,359.99998450E-3,
,,,5.95999975E-3,359.99998450E-3,
,,,5.96999982E-3,399.99997616E-3,
,,,5.97999990E-3,399.99997616E-3,
,,,5.98999951E-3,399.99997616E-3,
,,,5.99999959E-3,399.99997616E-3,
,,,6.00999966E-3,399.99997616E-3,
,,,6.01999974E-3,359.99998450E-3,
,,,6.02999981E-3,399.99997616E-3,
,,,6.03999989E-3,359.99998450E-3,
,,,6.04999997E-3,399.99997616E-3,
,,,6.05999958E-3,359.99998450E-3,
,,,6.06999965E-3,399.99997616E-3,
,,,6.07999973E-3,399.99997616E-3,
,,,6.08999981E-3,359.99998450E-3,
,,,6.09999988E-3,399.99997616E-3,
,,,6.10999996E-3,399.99997616E-3,
,,,6.11999957E-3,399.99997616E-3,
,,,6.12999965E-3,359.99998450E-3,
,,,6.13999972E-3,399.99997616E-3,
,,,6.14999980E-3,359.99998450E-3,
,,,6.15999987E-3,359.99998450E-3,
,,,6.16999995E-3,399.99997616E-3,
,,,6.17999956E-3,399.99997616E-3,
,,,6.18999964E-3,359.99998450E-3,
,,,6.19999971E-3,399.99997616E-3,
,,,6.20999979E-3,359.99998450E-3,
,,,6.21999986E-3,399.99997616E-3,
,,,6.22999994E-3,359.99998450E-3,
,,,6.23999955E-3,359.99998450E-3,
,,,6.24999963E-3,399.99997616E-3,
,,,6.25999970E-3,359.99998450E-3,
,,,6.26999978E-3,359.99998450E-3,
,,,6.27999986E-3,359.99998450E-3,
,,,6.28999993E-3,359.99998450E-3,
,,,6.29999954E-3,359.99998450E-3,
,,,6.30999962E-3,359.99998450E-3,
,,,6.31999969E-3,319.99999285E-3,
,,,6.32999977E-3,359.99998450E-3,
,,,6.33999985E-3,359.99998450E-3,
,,,6.34999992E-3,399.99997616E-3,
,,,6.35999953E-3,359.99998450E-3,
,,,6.36999961E-3,359.99998450E-3,
,,,6.37999969E-3,359.99998450E-3,
,,,6.38999976E-3,359.99998450E-3,
,,,6.39999984E-3,359.99998450E-3,
,,,6.40999991E-3,359.99998450E-3,
,,,6.41999952E-3,359.99998450E-3,
,,,6.42999960E-3,359.99998450E-3,
,,,6.43999968E-3,359.99998450E-3,
,,,6.44999975E-3,359.99998450E-3,
,,,6.45999983E-3,359.99998450E-3,
,,,6.46999991E-3,399.99997616E-3,
,,,6.47999952E-3,359.99998450E-3,
,,,6.48999959E-3,359.99998450E-3,
,,,6.49999967E-3,359.99998450E-3,
,,,6.50999974E-3,359.99998450E-3,
,,,6.51999982E-3,319.99999285E-3,
,,,6.52999990E-3,359.99998450E-3,
,,,6.53999951E-3,359.99998450E-3,
,,,6.54999958E-3,359.99998450E-3,
,,,6.55999966E-3,319.99999285E-3,
,,,6.56999974E-3,359.99998450E-3,
,,,6.57999981E-3,359.99998450E-3,
,,,6.58999989E-3,359.99998450E-3,
,,,6.59999950E-3,359.99998450E-3,
,,,6.60999957E-3,359.99998450E-3,
,,,6.61999965E-3,359.99998450E-3,
,,,6.62999973E-3,359.99998450E-3,
,,,6.63999980E-3,359.99998450E-3,
,,,6.64999988E-3,359.99998450E-3,
,,,6.65999949E-3,359.99998450E-3,
,,,6.66999957E-3,319.99999285E-3,
,,,6.67999964E-3,359.99998450E-3,
,,,6.68999972E-3,359.99998450E-3,
,,,6.69999979E-3,359.99998450E-3,
,,,6.70999987E-3,359.99998450E-3,
,,,6.71999995E-3,359.99998450E-3,
,,,6.72999956E-3,359.99998450E-3,
,,,6.73999963E-3,319.99999285E-3,
,,,6.74999971E-3,319.99999285E-3,
,,,6.75999979E-3,319.99999285E-3,
,,,6.76999986E-3,359.99998450E-3,
,,,6.77999994E-3,359.99998450E-3,
,,,6.78999955E-3,359.99998450E-3,
,,,6.79999962E-3,359.99998450E-3,
,,,6.80999970E-3,359.99998450E-3,
,,,6.81999978E-3,319.99999285E-3,
,,,6.82999985E-3,359.99998450E-3,
,,,6.83999993E-3,359.99998450E-3,
,,,6.84999954E-3,319.99999285E-3,
,,,6.85999962E-3,319.99999285E-3,
,,,6.86999969E-3,319.99999285E-3,
,,,6.87999977E-3,319.99999285E-3,
,,,6.88999984E-3,319.99999285E-3,
,,,6.89999992E-3,359.99998450E-3,
,,,6.90999953E-3,319.99999285E-3,
,,,6.91999961E-3,319.99999285E-3,
,,,6.92999968E-3,319.99999285E-3,
,,,6.93999976E-3,319.99999285E-3,
,,,6.94999984E-3,319.99999285E-3,
,,,6.95999991E-3,359.99998450E-3,
,,,6.96999952E-3,319.99999285E-3,
,,,6.97999960E-3,319.99999285E-3,
,,,6.98999967E-3,319.99999285E-3,
,,,6.99999975E-3,319.99999285E-3,
,,,7.00999983E-3,319.99999285E-3,
,,,7.01999990E-3,319.99999285E-3,
,,,7.02999951E-3,319.99999285E-3,
,,,7.03999959E-3,319.99999285E-3,
,,,7.04999967E-3,319.99999285E-3,
,,,7.05999974E-3,319.99999285E-3,
,,,7.06999982E-3,319.99999285E-3,
,,,7.07999989E-3,319.99999285E-3,
,,,7.08999950E-3,319.99999285E-3,
,,,7.09999958E-3,319.99999285E-3,
,,,7.10999966E-3,319.99999285E-3,
,,,7.11999973E-3,319.99999285E-3,
,,,7.12999981E-3,319.99999285E-3,
,,,7.13999989E-3,280.00000119E-3,
,,,7.14999950E-3,319.99999285E-3,
,,,7.15999957E-3,319.99999285E-3,
,,,7.16999965E-3,319.99999285E-3,
,,,7.17999972E-3,319.99999285E-3,
,,,7.18999980E-3,319.99999285E-3,
,,,7.19999988E-3,319.99999285E-3,
,,,7.20999949E-3,319.99999285E-3,
,,,7.21999956E-3,359.99998450E-3,
,,,7.22999964E-3,319.99999285E-3,
,,,7.23999972E-3,319.99999285E-3,
,,,7.24999979E-3,319.99999285E-3,
,,,7.25999987E-3,319.99999285E-3,
,,,7.26999948E-3,319.99999285E-3,
,,,7.27999955E-3,319.99999285E-3,
,,,7.28999963E-3,319.99999285E-3,
,,,7.29999971E-3,319.99999285E-3,
,,,7.30999978E-3,319.99999285E-3,
,,,7.31999986E-3,319.99999285E-3,
,,,7.32999993E-3,319.99999285E-3,
,,,7.33999955E-3,319.99999285E-3,
,,,7.34999962E-3,319.99999285E-3,
,,,7.35999970E-3,319.99999285E-3,
,,,7.36999977E-3,319.99999285E-3,
,,,7.37999985E-3,319.99999285E-3,
,,,7.389999926E-3,319.99999285E-3,
,,,7.399999537E-3,319.99999285E-3,
,,,7.409999613E-3,319.99999285E-3,
,,,7.419999689E-3,319.99999285E-3,
,,,7.429999765E-3,319.99999285E-3,
,,,7.439999841E-3,319.99999285E-3,
,,,7.449999917E-3,319.99999285E-3,
,,,7.459999528E-3,319.99999285E-3,
,,,7.469999604E-3,319.99999285E-3,
,,,7.479999680E-3,319.99999285E-3,
,,,7.489999756E-3,319.99999285E-3,
,,,7.499999832E-3,319.99999285E-3,
,,,7.509999909E-3,280.00000119E-3,
,,,7.519999519E-3,319.99999285E-3,
,,,7.529999595E-3,319.99999285E-3,
,,,7.539999671E-3,280.00000119E-3,
,,,7.549999747E-3,280.00000119E-3,
,,,7.559999824E-3,319.99999285E-3,
,,,7.569999900E-3,319.99999285E-3,
,,,7.579999510E-3,319.99999285E-3,
,,,7.589999586E-3,280.00000119E-3,
,,,7.599999662E-3,280.00000119E-3,
,,,7.609999739E-3,280.00000119E-3,
,,,7.619999815E-3,280.00000119E-3,
,,,7.629999891E-3,280.00000119E-3,
,,,7.639999501E-3,280.00000119E-3,
,,,7.649999578E-3,319.99999285E-3,
,,,7.659999654E-3,280.00000119E-3,
,,,7.669999730E-3,280.00000119E-3,
,,,7.679999806E-3,280.00000119E-3,
,,,7.689999882E-3,280.00000119E-3,
,,,7.699999493E-3,280.00000119E-3,
,,,7.709999569E-3,280.00000119E-3,
,,,7.719999645E-3,280.00000119E-3,
,,,7.729999721E-3,319.99999285E-3,
,,,7.739999797E-3,280.00000119E-3,
,,,7.749999873E-3,280.00000119E-3,
,,,7.759999484E-3,280.00000119E-3,
,,,7.769999560E-3,280.00000119E-3,
,,,7.779999636E-3,280.00000119E-3,
,,,7.789999712E-3,280.00000119E-3,
,,,7.799999788E-3,280.00000119E-3,
,,,7.809999865E-3,280.00000119E-3,
,,,7.819999941E-3,280.00000119E-3,
,,,7.829999551E-3,280.00000119E-3,
,,,7.840000093E-3,280.00000119E-3,
,,,7.849999703E-3,280.00000119E-3,
,,,7.859999314E-3,239.99999464E-3,
,,,7.869999856E-3,280.00000119E-3,
,,,7.879999466E-3,280.00000119E-3,
,,,7.890000008E-3,280.00000119E-3,
,,,7.899999619E-3,280.00000119E-3,
,,,7.909999229E-3,239.99999464E-3,
,,,7.919999771E-3,280.00000119E-3,
,,,7.929999381E-3,239.99999464E-3,
,,,7.939999923E-3,239.99999464E-3,
,,,7.949999534E-3,239.99999464E-3,
,,,7.960000075E-3,239.99999464E-3,
,,,7.969999686E-3,280.00000119E-3,
,,,7.979999296E-3,280.00000119E-3,
,,,7.989999838E-3,280.00000119E-3,
,,,7.999999449E-3,280.00000119E-3,
,,,8.009999990E-3,280.00000119E-3,
,,,8.019999601E-3,239.99999464E-3,
,,,8.030000143E-3,280.00000119E-3,
,,,8.039999753E-3,239.99999464E-3,
,,,8.049999364E-3,280.00000119E-3,
,,,8.059999906E-3,239.99999464E-3,
,,,8.069999516E-3,280.00000119E-3,
,,,8.080000058E-3,280.00000119E-3,
,,,8.089999668E-3,280.00000119E-3,
,,,8.099999279E-3,280.00000119E-3,
,,,8.109999821E-3,280.00000119E-3,
,,,8.119999431E-3,239.99999464E-3,
,,,8.129999973E-3,239.99999464E-3,
,,,8.139999583E-3,280.00000119E-3,
,,,8.150000125E-3,280.00000119E-3,
,,,8.159999736E-3,239.99999464E-3,
,,,8.169999346E-3,280.00000119E-3,
,,,8.179999888E-3,239.99999464E-3,
,,,8.189999498E-3,280.00000119E-3,
,,,8.200000040E-3,239.99999464E-3,
,,,8.209999651E-3,280.00000119E-3,
,,,8.219999261E-3,239.99999464E-3,
,,,8.229999803E-3,280.00000119E-3,
,,,8.239999413E-3,239.99999464E-3,
,,,8.249999955E-3,239.99999464E-3,
,,,8.259999566E-3,239.99999464E-3,
,,,8.270000108E-3,280.00000119E-3,
,,,8.279999718E-3,280.00000119E-3,
,,,8.289999329E-3,239.99999464E-3,
,,,8.299999870E-3,239.99999464E-3,
,,,8.309999481E-3,239.99999464E-3,
,,,8.320000023E-3,239.99999464E-3,
,,,8.329999633E-3,239.99999464E-3,
,,,8.339999244E-3,239.99999464E-3,
,,,8.349999785E-3,239.99999464E-3,
,,,8.359999396E-3,239.99999464E-3,
,,,8.369999938E-3,239.99999464E-3,
,,,8.379999548E-3,239.99999464E-3,
,,,8.390000090E-3,239.99999464E-3,
,,,8.399999700E-3,239.99999464E-3,
,,,8.409999311E-3,239.99999464E-3,
,,,8.419999853E-3,239.99999464E-3,
,,,8.429999463E-3,239.99999464E-3,
,,,8.440000005E-3,199.99998808E-3,
,,,8.449999616E-3,239.99999464E-3,
,,,8.459999226E-3,239.99999464E-3,
,,,8.469999768E-3,239.99999464E-3,
,,,8.479999378E-3,239.99999464E-3,
,,,8.489999920E-3,239.99999464E-3,
,,,8.499999531E-3,239.99999464E-3,
,,,8.510000072E-3,239.99999464E-3,
,,,8.519999683E-3,239.99999464E-3,
,,,8.529999293E-3,280.00000119E-3,
,,,8.539999835E-3,239.99999464E-3,
,,,8.549999446E-3,239.99999464E-3,
,,,8.559999987E-3,239.99999464E-3,
,,,8.569999598E-3,239.99999464E-3,
,,,8.579999208E-3,239.99999464E-3,
,,,8.589999750E-3,239.99999464E-3,
,,,8.599999361E-3,239.99999464E-3,
,,,8.609999903E-3,239.99999464E-3,
,,,8.619999513E-3,280.00000119E-3,
,,,8.630000055E-3,280.00000119E-3,
,,,8.639999665E-3,239.99999464E-3,
,,,8.649999276E-3,239.99999464E-3,
,,,8.659999818E-3,239.99999464E-3,
,,,8.669999428E-3,239.99999464E-3,
,,,8.679999970E-3,239.99999464E-3,
,,,8.689999580E-3,239.99999464E-3,
,,,8.700000122E-3,239.99999464E-3,
,,,8.709999733E-3,239.99999464E-3,
,,,8.719999343E-3,280.00000119E-3,
,,,8.729999885E-3,239.99999464E-3,
,,,8.739999495E-3,280.00000119E-3,
,,,8.750000037E-3,239.99999464E-3,
,,,8.759999648E-3,239.99999464E-3,
,,,8.769999258E-3,239.99999464E-3,
,,,8.779999800E-3,239.99999464E-3,
,,,8.789999411E-3,239.99999464E-3,
,,,8.799999952E-3,239.99999464E-3,
,,,8.809999563E-3,239.99999464E-3,
,,,8.820000105E-3,239.99999464E-3,
,,,8.829999715E-3,239.99999464E-3,
,,,8.839999326E-3,280.00000119E-3,
,,,8.849999867E-3,239.99999464E-3,
,,,8.859999478E-3,239.99999464E-3,
,,,8.870000020E-3,239.99999464E-3,
,,,8.879999630E-3,239.99999464E-3,
,,,8.889999241E-3,239.99999464E-3,
,,,8.899999782E-3,280.00000119E-3,
,,,8.909999393E-3,239.99999464E-3,
,,,8.919999935E-3,239.99999464E-3,
,,,8.929999545E-3,239.99999464E-3,
,,,8.940000087E-3,239.99999464E-3,
,,,8.949999698E-3,239.99999464E-3,
,,,8.959999308E-3,239.99999464E-3,
,,,8.969999850E-3,239.99999464E-3,
,,,8.979999460E-3,239.99999464E-3,
,,,8.990000002E-3,239.99999464E-3,
,,,8.999999613E-3,239.99999464E-3,
,,,9.009999223E-3,280.00000119E-3,
,,,9.019999765E-3,239.99999464E-3,
,,,9.029999375E-3,239.99999464E-3,
,,,9.039999917E-3,239.99999464E-3,
,,,9.049999528E-3,239.99999464E-3,
,,,9.060000069E-3,280.00000119E-3,
,,,9.069999680E-3,239.99999464E-3,
,,,9.079999290E-3,239.99999464E-3,
,,,9.089999832E-3,239.99999464E-3,
,,,9.099999443E-3,239.99999464E-3,
,,,9.109999985E-3,239.99999464E-3,
,,,9.119999595E-3,239.99999464E-3,
,,,9.129999205E-3,199.99998808E-3,
,,,9.139999747E-3,239.99999464E-3,
,,,9.149999358E-3,239.99999464E-3,
,,,9.159999900E-3,239.99999464E-3,
,,,9.169999510E-3,199.99998808E-3,
,,,9.180000052E-3,239.99999464E-3,
,,,9.189999662E-3,199.99998808E-3,
,,,9.199999273E-3,239.99999464E-3,
,,,9.209999815E-3,239.99999464E-3,
,,,9.219999425E-3,239.99999464E-3,
,,,9.229999967E-3,239.99999464E-3,
,,,9.239999577E-3,199.99998808E-3,
,,,9.250000119E-3,239.99999464E-3,
,,,9.259999730E-3,239.99999464E-3,
,,,9.269999340E-3,199.99998808E-3,
,,,9.279999882E-3,199.99998808E-3,
,,,9.289999492E-3,199.99998808E-3,
,,,9.300000034E-3,199.99998808E-3,
,,,9.309999645E-3,199.99998808E-3,
,,,9.319999255E-3,199.99998808E-3,
,,,9.329999797E-3,239.99999464E-3,
,,,9.339999408E-3,199.99998808E-3,
,,,9.349999949E-3,199.99998808E-3,
,,,9.359999560E-3,199.99998808E-3,
,,,9.370000102E-3,199.99998808E-3,
,,,9.379999712E-3,199.99998808E-3,
,,,9.389999323E-3,199.99998808E-3,
,,,9.399999864E-3,239.99999464E-3,
,,,9.409999475E-3,159.99999642E-3,
,,,9.420000017E-3,199.99998808E-3,
,,,9.429999627E-3,199.99998808E-3,
,,,9.439999238E-3,159.99999642E-3,
,,,9.449999779E-3,199.99998808E-3,
,,,9.459999390E-3,199.99998808E-3,
,,,9.469999932E-3,199.99998808E-3,
,,,9.479999542E-3,199.99998808E-3,
,,,9.490000084E-3,239.99999464E-3,
,,,9.499999695E-3,199.99998808E-3,
,,,9.509999305E-3,199.99998808E-3,
,,,9.519999847E-3,239.99999464E-3,
,,,9.529999457E-3,199.99998808E-3,
,,,9.539999999E-3,239.99999464E-3,
,,,9.549999610E-3,239.99999464E-3,
,,,9.559999220E-3,239.99999464E-3,
,,,9.569999762E-3,239.99999464E-3,
,,,9.579999372E-3,239.99999464E-3,
,,,9.589999914E-3,199.99998808E-3,
,,,9.599999525E-3,199.99998808E-3,
,,,9.610000066E-3,199.99998808E-3,
,,,9.619999677E-3,159.99999642E-3,
,,,9.629999287E-3,199.99998808E-3,
,,,9.639999829E-3,159.99999642E-3,
,,,9.649999440E-3,159.99999642E-3,
,,,9.659999982E-3,159.99999642E-3,
,,,9.669999592E-3,159.99999642E-3,
,,,9.679999202E-3,159.99999642E-3,
,,,9.689999744E-3,199.99998808E-3,
,,,9.699999355E-3,199.99998808E-3,
,,,9.709999897E-3,199.99998808E-3,
,,,9.719999507E-3,159.99999642E-3,
,,,9.730000049E-3,159.99999642E-3,
,,,9.739999659E-3,159.99999642E-3,
,,,9.749999270E-3,159.99999642E-3,
,,,9.759999812E-3,159.99999642E-3,
,,,9.769999422E-3,159.99999642E-3,
,,,9.779999964E-3,159.99999642E-3,
,,,9.789999574E-3,159.99999642E-3,
,,,9.799999185E-3,199.99998808E-3,
,,,9.809999727E-3,199.99998808E-3,
,,,9.819999337E-3,199.99998808E-3,
,,,9.829999879E-3,159.99999642E-3,
,,,9.839999489E-3,199.99998808E-3,
,,,9.850000031E-3,159.99999642E-3,
,,,9.859999642E-3,159.99999642E-3,
,,,9.869999252E-3,159.99999642E-3,
,,,9.879999794E-3,159.99999642E-3,
,,,9.889999405E-3,159.99999642E-3,
,,,9.899999946E-3,159.99999642E-3,
,,,9.909999557E-3,159.99999642E-3,
,,,9.920000099E-3,159.99999642E-3,
,,,9.929999709E-3,159.99999642E-3,
,,,9.939999320E-3,159.99999642E-3,
,,,9.949999861E-3,199.99998808E-3,
,,,9.959999472E-3,199.99998808E-3,
,,,9.970000014E-3,159.99999642E-3,
,,,9.979999624E-3,159.99999642E-3,
,,,9.989999235E-3,159.99999642E-3,
,,,9.999999776E-3,199.99998808E-3,
,,,10.0099994E-3,199.99998808E-3,
,,,10.0199999E-3,199.99998808E-3,
,,,10.0299995E-3,159.99999642E-3,
,,,10.0400001E-3,199.99998808E-3,
,,,10.0499997E-3,159.99999642E-3,
,,,10.0599993E-3,199.99998808E-3,
,,,10.0699998E-3,159.99999642E-3,
,,,10.0799995E-3,159.99999642E-3,
,,,10.0900000E-3,159.99999642E-3,
,,,10.0999996E-3,159.99999642E-3,
,,,10.1099992E-3,159.99999642E-3,
,,,10.1199998E-3,199.99998808E-3,
,,,10.1299994E-3,199.99998808E-3,
,,,10.1399999E-3,159.99999642E-3,
,,,10.1499995E-3,159.99999642E-3,
,,,10.1600001E-3,159.99999642E-3,
,,,10.1699997E-3,159.99999642E-3,
,,,10.1799993E-3,159.99999642E-3,
,,,10.1899998E-3,159.99999642E-3,
,,,10.1999994E-3,159.99999642E-3,
,,,10.2100000E-3,199.99998808E-3,
,,,10.2199996E-3,199.99998808E-3,
,,,10.2299992E-3,159.99999642E-3,
,,,10.2399997E-3,159.99999642E-3,
,,,10.2499994E-3,159.99999642E-3,
,,,10.2599999E-3,199.99998808E-3,
,,,10.2699995E-3,159.99999642E-3,
,,,10.2800000E-3,199.99998808E-3,
,,,10.2899997E-3,199.99998808E-3,
,,,10.2999993E-3,159.99999642E-3,
,,,10.3099998E-3,199.99998808E-3,
,,,10.3199994E-3,159.99999642E-3,
,,,10.3300000E-3,159.99999642E-3,
,,,10.3399996E-3,159.99999642E-3,
,,,10.3499992E-3,159.99999642E-3,
,,,10.3599997E-3,159.99999642E-3,
,,,10.3699993E-3,199.99998808E-3,
,,,10.3799999E-3,159.99999642E-3,
,,,10.3899995E-3,159.99999642E-3,
,,,10.4000000E-3,159.99999642E-3,
,,,10.4099996E-3,159.99999642E-3,
,,,10.4199992E-3,159.99999642E-3,
,,,10.4299998E-3,159.99999642E-3,
,,,10.4399994E-3,159.99999642E-3,
,,,10.4499999E-3,159.99999642E-3,
,,,10.4599996E-3,159.99999642E-3,
,,,10.4699992E-3,159.99999642E-3,
,,,10.4799997E-3,159.99999642E-3,
,,,10.4899993E-3,159.99999642E-3,
,,,10.4999999E-3,159.99999642E-3,
,,,10.5099995E-3,199.99998808E-3,
,,,10.5200000E-3,159.99999642E-3,
,,,10.5299996E-3,159.99999642E-3,
,,,10.5399992E-3,159.99999642E-3,
,,,10.5499998E-3,159.99999642E-3,
,,,10.5599994E-3,199.99998808E-3,
,,,10.5699999E-3,199.99998808E-3,
,,,10.5799995E-3,159.99999642E-3,
,,,10.5900001E-3,159.99999642E-3,
,,,10.5999997E-3,159.99999642E-3,
,,,10.6099993E-3,159.99999642E-3,
,,,10.6199998E-3,159.99999642E-3,
,,,10.6299995E-3,159.99999642E-3,
,,,10.6400000E-3,159.99999642E-3,
,,,10.6499996E-3,159.99999642E-3,
,,,10.6599992E-3,199.99998808E-3,
,,,10.6699998E-3,159.99999642E-3,
,,,10.6799994E-3,159.99999642E-3,
,,,10.6899999E-3,159.99999642E-3,
,,,10.6999995E-3,159.99999642E-3,
,,,10.7100001E-3,159.99999642E-3,
,,,10.7199997E-3,159.99999642E-3,
,,,10.7299993E-3,159.99999642E-3,
,,,10.7399998E-3,159.99999642E-3,
,,,10.7499994E-3,159.99999642E-3,
,,,10.7600000E-3,199.99998808E-3,
,,,10.7699996E-3,159.99999642E-3,
,,,10.7799992E-3,159.99999642E-3,
,,,10.7899997E-3,159.99999642E-3,
,,,10.7999993E-3,159.99999642E-3,
,,,10.8099999E-3,159.99999642E-3,
,,,10.8199995E-3,159.99999642E-3,
,,,10.8300000E-3,159.99999642E-3,
,,,10.8399997E-3,159.99999642E-3,
,,,10.8499993E-3,159.99999642E-3,
,,,10.8599998E-3,159.99999642E-3,
,,,10.8699994E-3,159.99999642E-3,
,,,10.8800000E-3,199.99998808E-3,
,,,10.8899996E-3,159.99999642E-3,
,,,10.8999992E-3,159.99999642E-3,
,,,10.9099997E-3,159.99999642E-3,
,,,10.9199993E-3,159.99999642E-3,
,,,10.9299999E-3,159.99999642E-3,
,,,10.9399995E-3,159.99999642E-3,
,,,10.9500000E-3,159.99999642E-3,
,,,10.9599996E-3,159.99999642E-3,
,,,10.9699992E-3,159.99999642E-3,
,,,10.9799998E-3,159.99999642E-3,
,,,10.9899994E-3,159.99999642E-3,
,,,10.9999999E-3,159.99999642E-3,
,,,11.0099996E-3,199.99998808E-3,
,,,11.0199992E-3,159.99999642E-3,
,,,11.0299997E-3,159.99999642E-3,
,,,11.0399993E-3,159.99999642E-3,
,,,11.0499999E-3,159.99999642E-3,
,,,11.0599995E-3,199.99998808E-3,
,,,11.0700000E-3,159.99999642E-3,
,,,11.0799996E-3,159.99999642E-3,
,,,11.0899992E-3,119.9999973E-3,
,,,11.0999998E-3,159.99999642E-3,
,,,11.1099994E-3,159.99999642E-3,
,,,11.1199999E-3,159.99999642E-3,
,,,11.1299995E-3,119.9999973E-3,
,,,11.1400001E-3,159.99999642E-3,
,,,11.1499997E-3,159.99999642E-3,
,,,11.1599993E-3,159.99999642E-3,
,,,11.1699998E-3,159.99999642E-3,
,,,11.1799994E-3,159.99999642E-3,
,,,11.1900000E-3,119.9999973E-3,
,,,11.1999996E-3,159.99999642E-3,
,,,11.2099992E-3,119.9999973E-3,
,,,11.2199998E-3,159.99999642E-3,
,,,11.2299994E-3,159.99999642E-3,
,,,11.2399999E-3,159.99999642E-3,
,,,11.2499995E-3,159.99999642E-3,
,,,11.2600001E-3,159.99999642E-3,
,,,11.2699997E-3,159.99999642E-3,
,,,11.2799993E-3,159.99999642E-3,
,,,11.2899998E-3,159.99999642E-3,
,,,11.2999994E-3,119.9999973E-3,
,,,11.3100000E-3,159.99999642E-3,
,,,11.3199996E-3,119.9999973E-3,
,,,11.3299992E-3,159.99999642E-3,
,,,11.3399997E-3,159.99999642E-3,
,,,11.3499993E-3,119.9999973E-3,
,,,11.3599999E-3,159.99999642E-3,
,,,11.3699995E-3,119.9999973E-3,
,,,11.3800000E-3,159.99999642E-3,
,,,11.3899997E-3,159.99999642E-3,
,,,11.3999993E-3,159.99999642E-3,
,,,11.4099998E-3,119.9999973E-3,
,,,11.4199994E-3,159.99999642E-3,
,,,11.4300000E-3,159.99999642E-3,
,,,11.4399996E-3,159.99999642E-3,
,,,11.4499992E-3,159.99999642E-3,
,,,11.4599997E-3,159.99999642E-3,
,,,11.4699993E-3,159.99999642E-3,
,,,11.4799999E-3,159.99999642E-3,
,,,11.4899995E-3,159.99999642E-3,
,,,11.5000000E-3,159.99999642E-3,
,,,11.5099996E-3,159.99999642E-3,
,,,11.5199992E-3,199.99998808E-3,
,,,11.5299998E-3,159.99999642E-3,
,,,11.5399994E-3,159.99999642E-3,
,,,11.5499999E-3,159.99999642E-3,
,,,11.5599995E-3,159.99999642E-3,
,,,11.5699992E-3,159.99999642E-3,
,,,11.5799997E-3,159.99999642E-3,
,,,11.5899993E-3,159.99999642E-3,
,,,11.5999999E-3,159.99999642E-3,
,,,11.6099995E-3,159.99999642E-3,
,,,11.6200000E-3,159.99999642E-3,
,,,11.6299996E-3,159.99999642E-3,
,,,11.6399992E-3,119.9999973E-3,
,,,11.6499998E-3,159.99999642E-3,
,,,11.6599994E-3,159.99999642E-3,
,,,11.6699999E-3,159.99999642E-3,
,,,11.6799995E-3,159.99999642E-3,
,,,11.6899991E-3,159.99999642E-3,
,,,11.6999997E-3,159.99999642E-3,
,,,11.7099993E-3,159.99999642E-3,
,,,11.7199998E-3,159.99999642E-3,
,,,11.7299994E-3,159.99999642E-3,
,,,11.7400000E-3,119.9999973E-3,
,,,11.7499996E-3,159.99999642E-3,
,,,11.7599992E-3,119.9999973E-3,
,,,11.7699997E-3,159.99999642E-3,
,,,11.7799994E-3,159.99999642E-3,
,,,11.7899999E-3,159.99999642E-3,
,,,11.7999995E-3,159.99999642E-3,
,,,11.8100001E-3,119.9999973E-3,
,,,11.8199997E-3,159.99999642E-3,
,,,11.8299993E-3,119.9999973E-3,
,,,11.8399998E-3,159.99999642E-3,
,,,11.8499994E-3,159.99999642E-3,
,,,11.8600000E-3,159.99999642E-3,
,,,11.8699996E-3,119.9999973E-3,
,,,11.8799992E-3,119.9999973E-3,
,,,11.8899997E-3,159.99999642E-3,
,,,11.8999993E-3,159.99999642E-3,
,,,11.9099999E-3,159.99999642E-3,
,,,11.9199995E-3,119.9999973E-3,
,,,11.9300000E-3,119.9999973E-3,
,,,11.9399996E-3,119.9999973E-3,
,,,11.9499993E-3,119.9999973E-3,
,,,11.9599998E-3,119.9999973E-3,
,,,11.9699994E-3,119.9999973E-3,
,,,11.9800000E-3,119.9999973E-3,
,,,11.9899996E-3,119.9999973E-3,
,,,11.9999992E-3,119.9999973E-3,
,,,12.0099997E-3,119.9999973E-3,
,,,12.0199993E-3,119.9999973E-3,
,,,12.0299999E-3,119.9999973E-3,
,,,12.0399995E-3,119.9999973E-3,
,,,12.0500000E-3,119.9999973E-3,
,,,12.0599996E-3,159.99999642E-3,
,,,12.0699992E-3,119.9999973E-3,
,,,12.0799998E-3,119.9999973E-3,
,,,12.0899994E-3,119.9999973E-3,
,,,12.0999999E-3,119.9999973E-3,
,,,12.1099995E-3,79.999998212E-3,
,,,12.1199992E-3,119.9999973E-3,
,,,12.1299997E-3,79.999998212E-3,
,,,12.1399993E-3,119.9999973E-3,
,,,12.1499998E-3,119.9999973E-3,
,,,12.1599995E-3,119.9999973E-3,
,,,12.1700000E-3,119.9999973E-3,
,,,12.1799996E-3,119.9999973E-3,
,,,12.1899992E-3,119.9999973E-3,
,,,12.1999998E-3,119.9999973E-3,
,,,12.2099994E-3,119.9999973E-3,
,,,12.2199999E-3,159.99999642E-3,
,,,12.2299995E-3,119.9999973E-3,
,,,12.2399991E-3,119.9999973E-3,
,,,12.2499997E-3,119.9999973E-3,
,,,12.2599993E-3,119.9999973E-3,
,,,12.2699998E-3,119.9999973E-3,
,,,12.2799994E-3,159.99999642E-3,
,,,12.2900000E-3,119.9999973E-3,
,,,12.2999996E-3,159.99999642E-3,
,,,12.3099992E-3,159.99999642E-3,
,,,12.3199997E-3,119.9999973E-3,
,,,12.3299994E-3,119.9999973E-3,
,,,12.3399999E-3,119.9999973E-3,
,,,12.3499995E-3,159.99999642E-3,
,,,12.3599991E-3,159.99999642E-3,
,,,12.3699997E-3,119.9999973E-3,
,,,12.3799993E-3,119.9999973E-3,
,,,12.3899998E-3,119.9999973E-3,
,,,12.3999994E-3,119.9999973E-3,
,,,12.4100000E-3,159.99999642E-3,
,,,12.4199996E-3,119.9999973E-3,
,,,12.4299992E-3,119.9999973E-3,
,,,12.4399997E-3,119.9999973E-3,
,,,12.4499993E-3,119.9999973E-3,
,,,12.4599999E-3,119.9999973E-3,
,,,12.4699995E-3,159.99999642E-3,
,,,12.4800000E-3,159.99999642E-3,
,,,12.4899996E-3,119.9999973E-3,
,,,12.4999993E-3,119.9999973E-3,
,,,12.5099998E-3,119.9999973E-3,
,,,12.5199994E-3,119.9999973E-3,
,,,12.5299999E-3,119.9999973E-3,
,,,12.5399996E-3,119.9999973E-3,
,,,12.5499992E-3,119.9999973E-3,
,,,12.5599997E-3,119.9999973E-3,
,,,12.5699993E-3,159.99999642E-3,
,,,12.5799999E-3,119.9999973E-3,
,,,12.5899995E-3,119.9999973E-3,
,,,12.6000000E-3,119.9999973E-3,
,,,12.6099996E-3,119.9999973E-3,
,,,12.6199992E-3,119.9999973E-3,
,,,12.6299998E-3,159.99999642E-3,
,,,12.6399994E-3,119.9999973E-3,
,,,12.6499999E-3,119.9999973E-3,
,,,12.6599995E-3,119.9999973E-3,
,,,12.6699992E-3,119.9999973E-3,
,,,12.6799997E-3,159.99999642E-3,
,,,12.6899993E-3,119.9999973E-3,
,,,12.6999998E-3,119.9999973E-3,
,,,12.7099995E-3,119.9999973E-3,
,,,12.7200000E-3,159.99999642E-3,
,,,12.7299996E-3,119.9999973E-3,
,,,12.7399992E-3,159.99999642E-3,
,,,12.7499998E-3,119.9999973E-3,
,,,12.7599994E-3,119.9999973E-3,
,,,12.7699999E-3,119.9999973E-3,
,,,12.7799995E-3,119.9999973E-3,
,,,12.7899991E-3,159.99999642E-3,
,,,12.7999997E-3,119.9999973E-3,
,,,12.8099993E-3,119.9999973E-3,
,,,12.8199998E-3,119.9999973E-3,
,,,12.8299994E-3,159.99999642E-3,
,,,12.8400000E-3,159.99999642E-3,
,,,12.8499996E-3,119.9999973E-3,
,,,12.8599992E-3,159.99999642E-3,
,,,12.8699997E-3,119.9999973E-3,
,,,12.8799994E-3,119.9999973E-3,
,,,12.8899999E-3,119.9999973E-3,
,,,12.8999995E-3,119.9999973E-3,
,,,12.9099991E-3,159.99999642E-3,
,,,12.9199997E-3,119.9999973E-3,
,,,12.9299993E-3,119.9999973E-3,
,,,12.9399998E-3,119.9999973E-3,
,,,12.9499994E-3,119.9999973E-3,
,,,12.9600000E-3,159.99999642E-3,
,,,12.9699996E-3,119.9999973E-3,
,,,12.9799992E-3,159.99999642E-3,
,,,12.9899997E-3,119.9999973E-3,
,,,12.9999993E-3,159.99999642E-3,
,,,13.0099999E-3,119.9999973E-3,
,,,13.0199995E-3,119.9999973E-3,
,,,13.0299991E-3,119.9999973E-3,
,,,13.0399996E-3,159.99999642E-3,
,,,13.0499993E-3,119.9999973E-3,
,,,13.0599998E-3,119.9999973E-3,
,,,13.0699994E-3,119.9999973E-3,
,,,13.0799999E-3,119.9999973E-3,
,,,13.0899996E-3,119.9999973E-3,
,,,13.0999992E-3,119.9999973E-3,
,,,13.1099997E-3,119.9999973E-3,
,,,13.1199993E-3,119.9999973E-3,
,,,13.1299999E-3,119.9999973E-3,
,,,13.1399995E-3,119.9999973E-3,
,,,13.1500000E-3,119.9999973E-3,
,,,13.1599996E-3,119.9999973E-3,
,,,13.1699992E-3,119.9999973E-3,
,,,13.1799998E-3,119.9999973E-3,
,,,13.1899994E-3,119.9999973E-3,
,,,13.1999999E-3,119.9999973E-3,
,,,13.2099995E-3,119.9999973E-3,
,,,13.2199991E-3,119.9999973E-3,
,,,13.2299997E-3,79.999998212E-3,
,,,13.2399993E-3,79.999998212E-3,
,,,13.2499998E-3,119.9999973E-3,
,,,13.2599995E-3,119.9999973E-3,
,,,13.2700000E-3,119.9999973E-3,
,,,13.2799996E-3,119.9999973E-3,
,,,13.2899992E-3,119.9999973E-3,
,,,13.2999998E-3,79.999998212E-3,
,,,13.3099994E-3,119.9999973E-3,
,,,13.3199999E-3,119.9999973E-3,
,,,13.3299995E-3,79.999998212E-3,
,,,13.3399991E-3,79.999998212E-3,
,,,13.3499997E-3,119.9999973E-3,
,,,13.3599993E-3,119.9999973E-3,
,,,13.3699998E-3,119.9999973E-3,
,,,13.3799994E-3,119.9999973E-3,
,,,13.3900000E-3,119.9999973E-3,
,,,13.3999996E-3,119.9999973E-3,
,,,13.4099992E-3,119.9999973E-3,
,,,13.4199997E-3,119.9999973E-3,
,,,13.4299994E-3,119.9999973E-3,
,,,13.4399999E-3,119.9999973E-3,
,,,13.4499995E-3,119.9999973E-3,
,,,13.4599991E-3,119.9999973E-3,
,,,13.4699997E-3,119.9999973E-3,
,,,13.4799993E-3,119.9999973E-3,
,,,13.4899998E-3,119.9999973E-3,
,,,13.4999994E-3,119.9999973E-3,
,,,13.5100000E-3,119.9999973E-3,
,,,13.5199996E-3,119.9999973E-3,
,,,13.5299992E-3,119.9999973E-3,
,,,13.5399997E-3,119.9999973E-3,
,,,13.5499993E-3,159.99999642E-3,
,,,13.5599999E-3,159.99999642E-3,
,,,13.5699995E-3,119.9999973E-3,
,,,13.5799991E-3,119.9999973E-3,
,,,13.5899996E-3,119.9999973E-3,
,,,13.5999992E-3,119.9999973E-3,
,,,13.6099998E-3,119.9999973E-3,
,,,13.6199994E-3,119.9999973E-3,
,,,13.6299999E-3,119.9999973E-3,
,,,13.6399996E-3,119.9999973E-3,
,,,13.6499992E-3,119.9999973E-3,
,,,13.6599997E-3,159.99999642E-3,
,,,13.6699993E-3,119.9999973E-3,
,,,13.6799999E-3,119.9999973E-3,
,,,13.6899995E-3,119.9999973E-3,
,,,13.6999991E-3,119.9999973E-3,
,,,13.7099996E-3,119.9999973E-3,
,,,13.7199992E-3,119.9999973E-3,
,,,13.7299998E-3,119.9999973E-3,
,,,13.7399994E-3,119.9999973E-3,
,,,13.7499999E-3,119.9999973E-3,
,,,13.7599995E-3,119.9999973E-3,
,,,13.7699991E-3,119.9999973E-3,
,,,13.7799997E-3,79.999998212E-3,
,,,13.7899993E-3,119.9999973E-3,
,,,13.7999998E-3,119.9999973E-3,
,,,13.8099995E-3,159.99999642E-3,
,,,13.8200000E-3,119.9999973E-3,
,,,13.8299996E-3,119.9999973E-3,
,,,13.8399992E-3,119.9999973E-3,
,,,13.8499998E-3,119.9999973E-3,
,,,13.8599994E-3,119.9999973E-3,
,,,13.8699999E-3,119.9999973E-3,
,,,13.8799995E-3,119.9999973E-3,
,,,13.8899991E-3,119.9999973E-3,
,,,13.8999997E-3,119.9999973E-3,
,,,13.9099993E-3,119.9999973E-3,
,,,13.9199998E-3,119.9999973E-3,
,,,13.9299994E-3,119.9999973E-3,
,,,13.9400000E-3,119.9999973E-3,
,,,13.9499996E-3,119.9999973E-3,
,,,13.9599992E-3,119.9999973E-3,
,,,13.9699997E-3,119.9999973E-3,
,,,13.9799993E-3,119.9999973E-3,
,,,13.9899999E-3,119.9999973E-3,
,,,13.9999995E-3,119.9999973E-3,
,,,14.0099991E-3,119.9999973E-3,
,,,14.0199997E-3,119.9999973E-3,
,,,14.0299993E-3,119.9999973E-3,
,,,14.0399998E-3,119.9999973E-3,
,,,14.0499994E-3,79.999998212E-3,
,,,14.0600000E-3,119.9999973E-3,
,,,14.0699996E-3,119.9999973E-3,
,,,14.0799992E-3,119.9999973E-3,
,,,14.0899997E-3,79.999998212E-3,
,,,14.0999993E-3,79.999998212E-3,
,,,14.1099999E-3,119.9999973E-3,
,,,14.1199995E-3,119.9999973E-3,
,,,14.1299991E-3,79.999998212E-3,
,,,14.1399996E-3,119.9999973E-3,
,,,14.1499992E-3,119.9999973E-3,
,,,14.1599998E-3,119.9999973E-3,
,,,14.1699994E-3,119.9999973E-3,
,,,14.1799999E-3,79.999998212E-3,
,,,14.1899996E-3,79.999998212E-3,
,,,14.1999992E-3,119.9999973E-3,
,,,14.2099997E-3,119.9999973E-3,
,,,14.2199993E-3,119.9999973E-3,
,,,14.2299999E-3,119.9999973E-3,
,,,14.2399995E-3,119.9999973E-3,
,,,14.2499991E-3,119.9999973E-3,
,,,14.2599996E-3,159.99999642E-3,
,,,14.2699992E-3,119.9999973E-3,
,,,14.2799998E-3,119.9999973E-3,
,,,14.2899994E-3,119.9999973E-3,
,,,14.2999999E-3,119.9999973E-3,
,,,14.3099995E-3,119.9999973E-3,
,,,14.3199991E-3,119.9999973E-3,
,,,14.3299997E-3,119.9999973E-3,
,,,14.3399993E-3,119.9999973E-3,
,,,14.3499998E-3,119.9999973E-3,
,,,14.3599994E-3,119.9999973E-3,
,,,14.3700000E-3,119.9999973E-3,
,,,14.3799996E-3,119.9999973E-3,
,,,14.3899992E-3,119.9999973E-3,
,,,14.3999998E-3,119.9999973E-3,
,,,14.4099994E-3,119.9999973E-3,
,,,14.4199999E-3,119.9999973E-3,
,,,14.4299995E-3,119.9999973E-3,
,,,14.4399991E-3,119.9999973E-3,
,,,14.4499997E-3,119.9999973E-3,
,,,14.4599993E-3,119.9999973E-3,
,,,14.4699998E-3,119.9999973E-3,
,,,14.4799994E-3,119.9999973E-3,
,,,14.4900000E-3,119.9999973E-3,
,,,14.4999996E-3,79.999998212E-3,
,,,14.5099992E-3,119.9999973E-3,
,,,14.5199997E-3,119.9999973E-3,
,,,14.5299993E-3,119.9999973E-3,
,,,14.5399999E-3,119.9999973E-3,
,,,14.5499995E-3,79.999998212E-3,
,,,14.5599991E-3,119.9999973E-3,
,,,14.5699997E-3,119.9999973E-3,
,,,14.5799993E-3,79.999998212E-3,
,,,14.5899998E-3,119.9999973E-3,
,,,14.5999994E-3,79.999998212E-3,
,,,14.6100000E-3,119.9999973E-3,
,,,14.6199996E-3,79.999998212E-3,
,,,14.6299992E-3,119.9999973E-3,
,,,14.6399997E-3,119.9999973E-3,
,,,14.6499993E-3,79.999998212E-3,
,,,14.6599999E-3,119.9999973E-3,
,,,14.6699995E-3,79.999998212E-3,
,,,14.6799991E-3,79.999998212E-3,
,,,14.6899996E-3,119.9999973E-3,
,,,14.6999992E-3,79.999998212E-3,
,,,14.7099998E-3,119.9999973E-3,
,,,14.7199994E-3,119.9999973E-3,
,,,14.7299999E-3,119.9999973E-3,
,,,14.7399995E-3,79.999998212E-3,
,,,14.7499992E-3,119.9999973E-3,
,,,14.7599997E-3,79.999998212E-3,
,,,14.7699993E-3,79.999998212E-3,
,,,14.7799999E-3,119.9999973E-3,
,,,14.7899995E-3,79.999998212E-3,
,,,14.7999991E-3,119.9999973E-3,
,,,14.8099996E-3,119.9999973E-3,
,,,14.8199992E-3,79.999998212E-3,
,,,14.8299998E-3,79.999998212E-3,
,,,14.8399994E-3,119.9999973E-3,
,,,14.8499999E-3,119.9999973E-3,
,,,14.8599995E-3,119.9999973E-3,
,,,14.8699991E-3,119.9999973E-3,
,,,14.8799997E-3,119.9999973E-3,
,,,14.8899993E-3,79.999998212E-3,
,,,14.8999998E-3,79.999998212E-3,
,,,14.9099994E-3,119.9999973E-3,
,,,14.9199991E-3,79.999998212E-3,
,,,14.9299996E-3,79.999998212E-3,
,,,14.9399992E-3,119.9999973E-3,
,,,14.9499997E-3,119.9999973E-3,
,,,14.9599994E-3,79.999998212E-3,
,,,14.9699999E-3,119.9999973E-3,
,,,14.9799995E-3,119.9999973E-3,
,,,14.9899991E-3,119.9999973E-3,
,,,14.9999997E-3,119.9999973E-3,
,,,15.0099993E-3,79.999998212E-3,
,,,15.0199998E-3,79.999998212E-3,
,,,15.0299994E-3,239.99999464E-3,
,,,15.0400000E-3,680.000007153E-3,
,,,15.0499996E-3,1.1200000,
,,,15.0599992E-3,1.4800000,
,,,15.0699997E-3,1.7600000,
,,,15.0799993E-3,2.0400000,
,,,15.0899999E-3,2.2800000,
,,,15.0999995E-3,2.5200000,
,,,15.1099991E-3,2.6799998,
,,,15.1199996E-3,2.83999991,
,,,15.1299993E-3,3.00000000,
,,,15.1399998E-3,3.11999989,
,,,15.1499994E-3,3.19999981,
,,,15.1600000E-3,3.31999993,
,,,15.1699996E-3,3.35999990,
,,,15.1799992E-3,3.39999986,
,,,15.1899997E-3,3.48000002,
,,,15.1999993E-3,3.51999998,
,,,15.2099999E-3,3.55999994,
,,,15.2199995E-3,3.55999994,
,,,15.2299991E-3,3.55999994,
,,,15.2399996E-3,3.55999994,
,,,15.2499992E-3,3.55999994,
,,,15.2599998E-3,3.55999994,
,,,15.2699994E-3,3.55999994,
,,,15.2799999E-3,3.51999998,
,,,15.2899995E-3,3.48000002,
,,,15.2999992E-3,3.48000002,
,,,15.3099997E-3,3.43999982,
,,,15.3199993E-3,3.43999982,
,,,15.3299998E-3,3.39999986,
,,,15.3399995E-3,3.35999990,
,,,15.3499991E-3,3.31999993,
,,,15.3599996E-3,3.27999997,
,,,15.3699992E-3,3.24000001,
,,,15.3799998E-3,3.19999981,
,,,15.3899994E-3,3.19999981,
,,,15.3999999E-3,3.11999989,
,,,15.4099995E-3,3.11999989,
,,,15.4199991E-3,3.07999992,
,,,15.4299997E-3,3.03999996,
,,,15.4399993E-3,3.00000000,
,,,15.4499998E-3,3.00000000,
,,,15.4599994E-3,3.00000000,
,,,15.4699991E-3,2.91999984,
,,,15.4799996E-3,2.87999988,
,,,15.4899992E-3,2.87999988,
,,,15.4999997E-3,2.83999991,
,,,15.5099994E-3,2.79999995,
,,,15.5199999E-3,2.79999995,
,,,15.5299995E-3,2.72000003,
,,,15.5399991E-3,2.72000003,
,,,15.5499997E-3,2.72000003,
,,,15.5599993E-3,2.6799998,
,,,15.5699998E-3,2.6799998,
,,,15.5799994E-3,2.6399999,
,,,15.5899990E-3,2.6399999,
,,,15.5999996E-3,2.6399999,
,,,15.6099992E-3,2.5999999,
,,,15.6199997E-3,2.5999999,
,,,15.6299993E-3,2.5599999,
,,,15.6399999E-3,2.5599999,
,,,15.6500004E-3,2.5200000,
,,,15.6599991E-3,2.5200000,
,,,15.6699996E-3,2.4800000,
,,,15.6800002E-3,2.4400001,
,,,15.6899989E-3,2.4400001,
,,,15.6999994E-3,2.4400001,
,,,15.7099999E-3,2.4400001,
,,,15.7199986E-3,2.3999999,
,,,15.7299992E-3,2.3999999,
,,,15.7399997E-3,2.3599999,
,,,15.7500003E-3,2.3999999,
,,,15.7599989E-3,2.3599999,
,,,15.7699995E-3,2.3599999,
,,,15.7800000E-3,2.3199999,
,,,15.7899987E-3,2.3599999,
,,,15.7999992E-3,2.2800000,
,,,15.8099998E-3,2.3199999,
,,,15.8200003E-3,2.2800000,
,,,15.8299990E-3,2.2800000,
,,,15.8399995E-3,2.2800000,
,,,15.8500001E-3,2.2400000,
,,,15.8599988E-3,2.2400000,
,,,15.8699993E-3,2.2000000,
,,,15.8799998E-3,2.2000000,
,,,15.8900004E-3,2.2000000,
,,,15.8999991E-3,2.2000000,
,,,15.9099996E-3,2.1599998,
,,,15.9200002E-3,2.1199999,
,,,15.9299988E-3,2.1199999,
,,,15.9399994E-3,2.1199999,
,,,15.9499999E-3,2.1199999,
,,,15.9599986E-3,2.1199999,
,,,15.9699991E-3,2.0799999,
,,,15.9799997E-3,2.0400000,
,,,15.9900002E-3,2.0400000,
,,,15.9999989E-3,2.0400000,
,,,16.0099994E-3,2.0400000,
,,,16.0200000E-3,2.0400000,
,,,16.0299987E-3,2.0400000,
,,,16.0399992E-3,2.0000000,
,,,16.0499997E-3,2.0000000,
,,,16.0600003E-3,2.0000000,
,,,16.0699990E-3,2.0000000,
,,,16.0799995E-3,1.9599999,
,,,16.0900000E-3,1.9599999,
,,,16.0999987E-3,1.9599999,
,,,16.1099993E-3,1.9599999,
,,,16.1199998E-3,1.9200000,
,,,16.1300004E-3,1.9200000,
,,,16.1399990E-3,1.9200000,
,,,16.1499996E-3,1.9200000,
,,,16.1600001E-3,1.9200000,
,,,16.1699988E-3,1.8800000,
,,,16.1799993E-3,1.8800000,
,,,16.1899999E-3,1.8800000,
,,,16.1999986E-3,1.8800000,
,,,16.2099991E-3,1.8800000,
,,,16.2199996E-3,1.8399999,
,,,16.2300002E-3,1.8000000,
,,,16.2399989E-3,1.8000000,
,,,16.2499994E-3,1.8000000,
,,,16.2599999E-3,1.8000000,
,,,16.2699986E-3,1.8000000,
,,,16.2799992E-3,1.7600000,
,,,16.2899997E-3,1.7600000,
,,,16.3000003E-3,1.8000000,
,,,16.3099989E-3,1.7600000,
,,,16.3199995E-3,1.7600000,
,,,16.3300000E-3,1.7600000,
,,,16.3399987E-3,1.7600000,
,,,16.3499992E-3,1.7600000,
,,,16.3599998E-3,1.7600000,
,,,16.3700003E-3,1.7199999,
,,,16.3799990E-3,1.7199999,
,,,16.3899995E-3,1.7199999,
,,,16.4000001E-3,1.7199999,
,,,16.4099988E-3,1.7199999,
,,,16.4199993E-3,1.6799999,
,,,16.4299998E-3,1.7199999,
,,,16.4400004E-3,1.6799999,
,,,16.4499991E-3,1.6799999,
,,,16.4599996E-3,1.6799999,
,,,16.4700001E-3,1.6799999,
,,,16.4799988E-3,1.6799999,
,,,16.4899994E-3,1.6799999,
,,,16.4999999E-3,1.6400000,
,,,16.5099986E-3,1.6400000,
,,,16.5199991E-3,1.6400000,
,,,16.5299997E-3,1.6400000,
,,,16.5400002E-3,1.6400000,
,,,16.5499989E-3,1.6400000,
,,,16.5599994E-3,1.6400000,
,,,16.5700000E-3,1.5999999,
,,,16.5799987E-3,1.5999999,
,,,16.5899992E-3,1.5999999,
,,,16.5999997E-3,1.5999999,
,,,16.6100003E-3,1.5599999,
,,,16.6199990E-3,1.5599999,
,,,16.6299995E-3,1.5599999,
,,,16.6400000E-3,1.5599999,
,,,16.6499987E-3,1.5599999,
,,,16.6599993E-3,1.5599999,
,,,16.6699998E-3,1.5200000,
,,,16.6800003E-3,1.5599999,
,,,16.6899990E-3,1.5599999,
,,,16.6999996E-3,1.5200000,
,,,16.7100001E-3,1.5599999,
,,,16.7199988E-3,1.5599999,
,,,16.7299993E-3,1.5200000,
,,,16.7399999E-3,1.4800000,
,,,16.7499986E-3,1.4800000,
,,,16.7599991E-3,1.5200000,
,,,16.7699996E-3,1.5200000,
,,,16.7800002E-3,1.4800000,
,,,16.7899989E-3,1.4800000,
,,,16.7999994E-3,1.4800000,
,,,16.8099999E-3,1.4800000,
,,,16.8199986E-3,1.4800000,
,,,16.8299992E-3,1.4399999,
,,,16.8399997E-3,1.4800000,
,,,16.8500002E-3,1.4399999,
,,,16.8599989E-3,1.4399999,
,,,16.8699995E-3,1.4399999,
,,,16.8800000E-3,1.4399999,
,,,16.8899987E-3,1.4000000,
,,,16.8999992E-3,1.4399999,
,,,16.9099998E-3,1.4000000,
,,,16.9200003E-3,1.4000000,
,,,16.9299990E-3,1.4000000,
,,,16.9399995E-3,1.4000000,
,,,16.9500001E-3,1.4000000,
,,,16.9599988E-3,1.4000000,
,,,16.9699993E-3,1.3600000,
,,,16.9799998E-3,1.3600000,
,,,16.9900004E-3,1.3600000,
,,,16.9999991E-3,1.3600000,
,,,17.0099996E-3,1.3600000,
,,,17.0200001E-3,1.3600000,
,,,17.0299988E-3,1.3600000,
,,,17.0399994E-3,1.3199999,
,,,17.0499999E-3,1.3199999,
,,,17.0599986E-3,1.3600000,
,,,17.0699991E-3,1.3199999,
,,,17.0799997E-3,1.3199999,
,,,17.0900002E-3,1.3199999,
,,,17.0999989E-3,1.2800000,
,,,17.1099994E-3,1.2800000,
,,,17.1200000E-3,1.2800000,
,,,17.1299987E-3,1.3199999,
,,,17.1399992E-3,1.3199999,
,,,17.1499997E-3,1.2800000,
,,,17.1600003E-3,1.2800000,
,,,17.1699990E-3,1.2800000,
,,,17.1799995E-3,1.2800000,
,,,17.1900000E-3,1.2800000,
,,,17.1999987E-3,1.2800000,
,,,17.2099993E-3,1.2400000,
,,,17.2199998E-3,1.2400000,
,,,17.2300003E-3,1.2400000,
,,,17.2399990E-3,1.2800000,
,,,17.2499996E-3,1.2400000,
,,,17.2600001E-3,1.2400000,
,,,17.2699988E-3,1.2400000,
,,,17.2799993E-3,1.2400000,
,,,17.2899999E-3,1.2400000,
,,,17.2999986E-3,1.2400000,
,,,17.3099991E-3,1.2400000,
,,,17.3199996E-3,1.1999999,
,,,17.3300002E-3,1.1999999,
,,,17.3399989E-3,1.1999999,
,,,17.3499994E-3,1.1600000,
,,,17.3599999E-3,1.1999999,
,,,17.3699986E-3,1.1600000,
,,,17.3799992E-3,1.1999999,
,,,17.3899997E-3,1.1600000,
,,,17.4000002E-3,1.1600000,
,,,17.4099989E-3,1.1200000,
,,,17.4199995E-3,1.1600000,
,,,17.4300000E-3,1.1200000,
,,,17.4399987E-3,1.1200000,
,,,17.4499992E-3,1.1600000,
,,,17.4599998E-3,1.1200000,
,,,17.4700003E-3,1.1200000,
,,,17.4799990E-3,1.1200000,
,,,17.4899995E-3,1.1200000,
,,,17.5000001E-3,1.1200000,
,,,17.5099988E-3,1.1200000,
,,,17.5199993E-3,1.0799999,
,,,17.5299998E-3,1.0799999,
,,,17.5400004E-3,1.1200000,
,,,17.5499991E-3,1.0799999,
,,,17.5599996E-3,1.0799999,
,,,17.5700001E-3,1.0799999,
,,,17.5799988E-3,1.0799999,
,,,17.5899994E-3,1.0799999,
,,,17.5999999E-3,1.0799999,
,,,17.6099986E-3,1.0400000,
,,,17.6199991E-3,1.0799999,
,,,17.6299997E-3,1.0799999,
,,,17.6400002E-3,1.0799999,
,,,17.6499989E-3,1.0400000,
,,,17.6599994E-3,1.0400000,
,,,17.6700000E-3,1.0400000,
,,,17.6799987E-3,1.0400000,
,,,17.6899992E-3,1.0400000,
,,,17.6999997E-3,1.0400000,
,,,17.7100003E-3,1.0400000,
,,,17.7199990E-3,1.0400000,
,,,17.7299995E-3,1.0400000,
,,,17.7400000E-3,1.0400000,
,,,17.7499987E-3,1.0400000,
,,,17.7599993E-3,1.000000,
,,,17.7699998E-3,1.000000,
,,,17.7800003E-3,1.000000,
,,,17.7899990E-3,1.000000,
,,,17.7999996E-3,1.000000,
,,,17.8100001E-3,1.000000,
,,,17.8199988E-3,1.000000,
,,,17.8299993E-3,959.999978542E-3,
,,,17.8399999E-3,1.000000,
,,,17.8499985E-3,959.999978542E-3,
,,,17.8599991E-3,959.999978542E-3,
,,,17.8699996E-3,959.999978542E-3,
,,,17.8800002E-3,959.999978542E-3,
,,,17.8899989E-3,1.000000,
,,,17.8999994E-3,1.000000,
,,,17.9099999E-3,1.000000,
,,,17.9199986E-3,1.000000,
,,,17.9299992E-3,959.999978542E-3,
,,,17.9399997E-3,1.000000,
,,,17.9500002E-3,959.999978542E-3,
,,,17.9599989E-3,959.999978542E-3,
,,,17.9699995E-3,959.999978542E-3,
,,,17.9800000E-3,959.999978542E-3,
,,,17.9899987E-3,959.999978542E-3,
,,,17.9999992E-3,919.999957085E-3,
,,,18.0099998E-3,959.999978542E-3,
,,,18.0200003E-3,959.999978542E-3,
,,,18.0299990E-3,919.999957085E-3,
,,,18.0399995E-3,959.999978542E-3,
,,,18.0500001E-3,919.999957085E-3,
,,,18.0599988E-3,959.999978542E-3,
,,,18.0699993E-3,919.999957085E-3,
,,,18.0799998E-3,919.999957085E-3,
,,,18.0899985E-3,919.999957085E-3,
,,,18.0999991E-3,919.999957085E-3,
,,,18.1099996E-3,919.999957085E-3,
,,,18.1200001E-3,919.999957085E-3,
,,,18.1299988E-3,919.999957085E-3,
,,,18.1399994E-3,919.999957085E-3,
,,,18.1499999E-3,919.999957085E-3,
,,,18.1599986E-3,919.999957085E-3,
,,,18.1699991E-3,919.999957085E-3,
,,,18.1799997E-3,919.999957085E-3,
,,,18.1900002E-3,919.999957085E-3,
,,,18.1999989E-3,919.999957085E-3,
,,,18.2099994E-3,879.999995232E-3,
,,,18.2200000E-3,919.999957085E-3,
,,,18.2299986E-3,879.999995232E-3,
,,,18.2399992E-3,879.999995232E-3,
,,,18.2499997E-3,879.999995232E-3,
,,,18.2600003E-3,879.999995232E-3,
,,,18.2699990E-3,919.999957085E-3,
,,,18.2799995E-3,879.999995232E-3,
,,,18.2900000E-3,919.999957085E-3,
,,,18.2999987E-3,879.999995232E-3,
,,,18.3099993E-3,879.999995232E-3,
,,,18.3199998E-3,879.999995232E-3,
,,,18.3300003E-3,879.999995232E-3,
,,,18.3399990E-3,879.999995232E-3,
,,,18.3499996E-3,839.999973774E-3,
,,,18.3600001E-3,839.999973774E-3,
,,,18.3699988E-3,839.999973774E-3,
,,,18.3799993E-3,839.999973774E-3,
,,,18.3899999E-3,839.999973774E-3,
,,,18.3999985E-3,839.999973774E-3,
,,,18.4099991E-3,839.999973774E-3,
,,,18.4199996E-3,839.999973774E-3,
,,,18.4300002E-3,839.999973774E-3,
,,,18.4399989E-3,839.999973774E-3,
,,,18.4499994E-3,839.999973774E-3,
,,,18.4599999E-3,839.999973774E-3,
,,,18.4699986E-3,839.999973774E-3,
,,,18.4799992E-3,839.999973774E-3,
,,,18.4899997E-3,839.999973774E-3,
,,,18.5000002E-3,839.999973774E-3,
,,,18.5099989E-3,839.999973774E-3,
,,,18.5199995E-3,839.999973774E-3,
,,,18.5300000E-3,799.999952316E-3,
,,,18.5399987E-3,799.999952316E-3,
,,,18.5499992E-3,799.999952316E-3,
,,,18.5599998E-3,799.999952316E-3,
,,,18.5700003E-3,799.999952316E-3,
,,,18.5799990E-3,799.999952316E-3,
,,,18.5899995E-3,799.999952316E-3,
,,,18.6000001E-3,799.999952316E-3,
,,,18.6099987E-3,799.999952316E-3,
,,,18.6199993E-3,799.999952316E-3,
,,,18.6299998E-3,799.999952316E-3,
,,,18.6399985E-3,799.999952316E-3,
,,,18.6499991E-3,759.999990463E-3,
,,,18.6599996E-3,799.999952316E-3,
,,,18.6700001E-3,799.999952316E-3,
,,,18.6799988E-3,759.999990463E-3,
,,,18.6899994E-3,799.999952316E-3,
,,,18.6999999E-3,799.999952316E-3,
,,,18.7099986E-3,799.999952316E-3,
,,,18.7199991E-3,799.999952316E-3,
,,,18.7299997E-3,799.999952316E-3,
,,,18.7400002E-3,799.999952316E-3,
,,,18.7499989E-3,759.999990463E-3,
,,,18.7599994E-3,759.999990463E-3,
,,,18.7700000E-3,759.999990463E-3,
,,,18.7799986E-3,759.999990463E-3,
,,,18.7899992E-3,759.999990463E-3,
,,,18.7999997E-3,759.999990463E-3,
,,,18.8100003E-3,759.999990463E-3,
,,,18.8199989E-3,799.999952316E-3,
,,,18.8299995E-3,799.999952316E-3,
,,,18.8400000E-3,759.999990463E-3,
,,,18.8499987E-3,759.999990463E-3,
,,,18.8599993E-3,759.999990463E-3,
,,,18.8699998E-3,759.999990463E-3,
,,,18.8800003E-3,759.999990463E-3,
,,,18.8899990E-3,719.999969006E-3,
,,,18.8999996E-3,759.999990463E-3,
,,,18.9100001E-3,719.999969006E-3,
,,,18.9199988E-3,759.999990463E-3,
,,,18.9299993E-3,759.999990463E-3,
,,,18.9399999E-3,759.999990463E-3,
,,,18.9499985E-3,759.999990463E-3,
,,,18.9599991E-3,759.999990463E-3,
,,,18.9699996E-3,759.999990463E-3,
,,,18.9800002E-3,719.999969006E-3,
,,,18.9899988E-3,719.999969006E-3,
,,,18.9999994E-3,759.999990463E-3,
,,,19.0099999E-3,759.999990463E-3,
,,,19.0199986E-3,759.999990463E-3,
,,,19.0299992E-3,719.999969006E-3,
,,,19.0399997E-3,719.999969006E-3,
,,,19.0500002E-3,759.999990463E-3,
,,,19.0599989E-3,719.999969006E-3,
,,,19.0699995E-3,719.999969006E-3,
,,,19.0800000E-3,680.000007153E-3,
,,,19.0899987E-3,719.999969006E-3,
,,,19.0999992E-3,680.000007153E-3,
,,,19.1099998E-3,719.999969006E-3,
,,,19.1200003E-3,680.000007153E-3,
,,,19.1299990E-3,719.999969006E-3,
,,,19.1399995E-3,680.000007153E-3,
,,,19.1500001E-3,719.999969006E-3,
,,,19.1599987E-3,719.999969006E-3,
,,,19.1699993E-3,680.000007153E-3,
,,,19.1799998E-3,719.999969006E-3,
,,,19.1899985E-3,719.999969006E-3,
,,,19.1999990E-3,719.999969006E-3,
,,,19.2099996E-3,719.999969006E-3,
,,,19.2200001E-3,719.999969006E-3,
,,,19.2299988E-3,680.000007153E-3,
,,,19.2399994E-3,680.000007153E-3,
,,,19.2499999E-3,680.000007153E-3,
,,,19.2599986E-3,680.000007153E-3,
,,,19.2699991E-3,680.000007153E-3,
,,,19.2799997E-3,680.000007153E-3,
,,,19.2900002E-3,680.000007153E-3,
,,,19.2999989E-3,680.000007153E-3,
,,,19.3099994E-3,680.000007153E-3,
,,,19.3200000E-3,639.999985695E-3,
,,,19.3299986E-3,680.000007153E-3,
,,,19.3399992E-3,680.000007153E-3,
,,,19.3499997E-3,680.000007153E-3,
,,,19.3600003E-3,680.000007153E-3,
,,,19.3699989E-3,680.000007153E-3,
,,,19.3799995E-3,680.000007153E-3,
,,,19.3900000E-3,680.000007153E-3,
,,,19.3999987E-3,680.000007153E-3,
,,,19.4099993E-3,680.000007153E-3,
,,,19.4199998E-3,680.000007153E-3,
,,,19.4299985E-3,680.000007153E-3,
,,,19.4399990E-3,680.000007153E-3,
,,,19.4499996E-3,680.000007153E-3,
,,,19.4600001E-3,639.999985695E-3,
,,,19.4699988E-3,680.000007153E-3,
,,,19.4799993E-3,639.999985695E-3,
,,,19.4899999E-3,639.999985695E-3,
,,,19.4999985E-3,639.999985695E-3,
,,,19.5099991E-3,639.999985695E-3,
,,,19.5199996E-3,639.999985695E-3,
,,,19.5300002E-3,639.999985695E-3,
,,,19.5399988E-3,639.999985695E-3,
,,,19.5499994E-3,680.000007153E-3,
,,,19.5599999E-3,639.999985695E-3,
,,,19.5699986E-3,639.999985695E-3,
,,,19.5799991E-3,680.000007153E-3,
,,,19.5899997E-3,639.999985695E-3,
,,,19.6000002E-3,639.999985695E-3,
,,,19.6099989E-3,639.999985695E-3,
,,,19.6199995E-3,639.999985695E-3,
,,,19.6300000E-3,639.999985695E-3,
,,,19.6399987E-3,599.999964237E-3,
,,,19.6499992E-3,599.999964237E-3,
,,,19.6599998E-3,599.999964237E-3,
,,,19.6700003E-3,639.999985695E-3,
,,,19.6799990E-3,599.999964237E-3,
,,,19.6899995E-3,639.999985695E-3,
,,,19.7000001E-3,599.999964237E-3,
,,,19.7099987E-3,639.999985695E-3,
,,,19.7199993E-3,639.999985695E-3,
,,,19.7299998E-3,599.999964237E-3,
,,,19.7399985E-3,599.999964237E-3,
,,,19.7499990E-3,599.999964237E-3,
,,,19.7599996E-3,599.999964237E-3,
,,,19.7700001E-3,639.999985695E-3,
,,,19.7799988E-3,639.999985695E-3,
,,,19.7899994E-3,599.999964237E-3,
,,,19.7999999E-3,599.999964237E-3,
,,,19.8099986E-3,599.999964237E-3,
,,,19.8199991E-3,599.999964237E-3,
,,,19.8299997E-3,599.999964237E-3,
,,,19.8400002E-3,599.999964237E-3,
,,,19.8499989E-3,599.999964237E-3,
,,,19.8599994E-3,599.999964237E-3,
,,,19.8700000E-3,599.999964237E-3,
,,,19.8799986E-3,560.000002384E-3,
,,,19.8899992E-3,599.999964237E-3,
,,,19.8999997E-3,599.999964237E-3,
,,,19.9100003E-3,599.999964237E-3,
,,,19.9199989E-3,599.999964237E-3,
,,,19.9299995E-3,560.000002384E-3,
,,,19.9400000E-3,560.000002384E-3,
,,,19.9499987E-3,599.999964237E-3,
,,,19.9599992E-3,599.999964237E-3,
,,,19.9699998E-3,560.000002384E-3,
,,,19.9799985E-3,599.999964237E-3,
,,,19.9899990E-3,560.000002384E-3,
,,,19.9999996E-3,560.000002384E-3,
,,,20.0100001E-3,560.000002384E-3,
,,,20.0199988E-3,560.000002384E-3,
,,,20.0299993E-3,560.000002384E-3,
,,,20.0399999E-3,560.000002384E-3,
,,,20.0499985E-3,599.999964237E-3,
,,,20.0599991E-3,560.000002384E-3,
,,,20.0699996E-3,560.000002384E-3,
,,,20.0800002E-3,560.000002384E-3,
,,,20.08999884E-3,560.000002384E-3,
,,,20.09999938E-3,560.000002384E-3,
,,,20.10999992E-3,560.000002384E-3,
,,,20.11999860E-3,560.000002384E-3,
,,,20.12999915E-3,560.000002384E-3,
,,,20.13999969E-3,560.000002384E-3,
,,,20.15000023E-3,560.000002384E-3,
,,,20.15999891E-3,560.000002384E-3,
,,,20.16999945E-3,560.000002384E-3,
,,,20.17999999E-3,560.000002384E-3,
,,,20.18999867E-3,560.000002384E-3,
,,,20.19999921E-3,560.000002384E-3,
,,,20.20999976E-3,560.000002384E-3,
,,,20.22000030E-3,560.000002384E-3,
,,,20.22999898E-3,560.000002384E-3,
,,,20.23999952E-3,560.000002384E-3,
,,,20.25000006E-3,519.999980927E-3,
,,,20.25999874E-3,560.000002384E-3,
,,,20.26999928E-3,560.000002384E-3,
,,,20.27999982E-3,560.000002384E-3,
,,,20.28999850E-3,560.000002384E-3,
,,,20.29999904E-3,599.999964237E-3,
,,,20.30999959E-3,560.000002384E-3,
,,,20.32000013E-3,560.000002384E-3,
,,,20.32999881E-3,560.000002384E-3,
,,,20.33999935E-3,560.000002384E-3,
,,,20.34999989E-3,560.000002384E-3,
,,,20.35999857E-3,560.000002384E-3,
,,,20.36999911E-3,519.999980927E-3,
,,,20.37999965E-3,519.999980927E-3,
,,,20.39000019E-3,519.999980927E-3,
,,,20.39999887E-3,519.999980927E-3,
,,,20.40999942E-3,479.999989271E-3,
,,,20.41999996E-3,519.999980927E-3,
,,,20.42999864E-3,519.999980927E-3,
,,,20.43999918E-3,479.999989271E-3,
,,,20.44999972E-3,519.999980927E-3,
,,,20.46000026E-3,479.999989271E-3,
,,,20.46999894E-3,519.999980927E-3,
,,,20.47999948E-3,519.999980927E-3,
,,,20.49000002E-3,560.000002384E-3,
,,,20.49999870E-3,519.999980927E-3,
,,,20.50999925E-3,519.999980927E-3,
,,,20.51999979E-3,519.999980927E-3,
,,,20.52999847E-3,519.999980927E-3,
,,,20.53999901E-3,519.999980927E-3,
,,,20.54999955E-3,560.000002384E-3,
,,,20.56000009E-3,519.999980927E-3,
,,,20.56999877E-3,519.999980927E-3,
,,,20.57999931E-3,479.999989271E-3,
,,,20.58999985E-3,519.999980927E-3,
,,,20.59999853E-3,519.999980927E-3,
,,,20.60999908E-3,519.999980927E-3,
,,,20.61999962E-3,560.000002384E-3,
,,,20.63000016E-3,560.000002384E-3,
,,,20.63999884E-3,560.000002384E-3,
,,,20.64999938E-3,519.999980927E-3,
,,,20.65999992E-3,479.999989271E-3,
,,,20.66999860E-3,560.000002384E-3,
,,,20.67999914E-3,519.999980927E-3,
,,,20.68999968E-3,519.999980927E-3,
,,,20.70000023E-3,519.999980927E-3,
,,,20.70999891E-3,519.999980927E-3,
,,,20.71999945E-3,519.999980927E-3,
,,,20.72999999E-3,519.999980927E-3,
,,,20.73999867E-3,519.999980927E-3,
,,,20.74999921E-3,479.999989271E-3,
,,,20.75999975E-3,519.999980927E-3,
,,,20.77000029E-3,519.999980927E-3,
,,,20.77999897E-3,519.999980927E-3,
,,,20.78999951E-3,519.999980927E-3,
,,,20.80000006E-3,479.999989271E-3,
,,,20.80999874E-3,479.999989271E-3,
,,,20.81999928E-3,479.999989271E-3,
,,,20.82999982E-3,479.999989271E-3,
,,,20.83999850E-3,479.999989271E-3,
,,,20.84999904E-3,479.999989271E-3,
,,,20.85999958E-3,479.999989271E-3,
,,,20.87000012E-3,519.999980927E-3,
,,,20.87999880E-3,479.999989271E-3,
,,,20.88999934E-3,479.999989271E-3,
,,,20.89999989E-3,479.999989271E-3,
,,,20.90999857E-3,479.999989271E-3,
,,,20.91999911E-3,519.999980927E-3,
,,,20.92999965E-3,479.999989271E-3,
,,,20.94000019E-3,479.999989271E-3,
,,,20.94999887E-3,479.999989271E-3,
,,,20.95999941E-3,479.999989271E-3,
,,,20.96999995E-3,479.999989271E-3,
,,,20.97999863E-3,479.999989271E-3,
,,,20.98999918E-3,519.999980927E-3,
,,,20.99999972E-3,479.999989271E-3,
,,,21.01000026E-3,479.999989271E-3,
,,,21.01999894E-3,479.999989271E-3,
,,,21.02999948E-3,479.999989271E-3,
,,,21.04000002E-3,479.999989271E-3,
,,,21.04999870E-3,479.999989271E-3,
,,,21.05999924E-3,479.999989271E-3,
,,,21.06999978E-3,479.999989271E-3,
,,,21.07999846E-3,479.999989271E-3,
,,,21.08999901E-3,439.999997616E-3,
,,,21.09999955E-3,439.999997616E-3,
,,,21.11000009E-3,439.999997616E-3,
,,,21.11999877E-3,479.999989271E-3,
,,,21.12999931E-3,479.999989271E-3,
,,,21.13999985E-3,479.999989271E-3,
,,,21.14999853E-3,479.999989271E-3,
,,,21.15999907E-3,479.999989271E-3,
,,,21.16999961E-3,479.999989271E-3,
,,,21.18000016E-3,479.999989271E-3,
,,,21.18999884E-3,439.999997616E-3,
,,,21.19999938E-3,479.999989271E-3,
,,,21.20999992E-3,439.999997616E-3,
,,,21.21999860E-3,439.999997616E-3,
,,,21.22999914E-3,439.999997616E-3,
,,,21.23999968E-3,439.999997616E-3,
,,,21.25000022E-3,439.999997616E-3,
,,,21.25999890E-3,439.999997616E-3,
,,,21.26999944E-3,439.999997616E-3,
,,,21.27999999E-3,439.999997616E-3,
,,,21.28999867E-3,439.999997616E-3,
,,,21.29999921E-3,439.999997616E-3,
,,,21.30999975E-3,439.999997616E-3,
,,,21.31999843E-3,399.99997616E-3,
,,,21.32999897E-3,439.999997616E-3,
,,,21.33999951E-3,439.999997616E-3,
,,,21.35000005E-3,439.999997616E-3,
,,,21.35999873E-3,439.999997616E-3,
,,,21.36999927E-3,439.999997616E-3,
,,,21.37999982E-3,439.999997616E-3,
,,,21.38999850E-3,439.999997616E-3,
,,,21.39999904E-3,439.999997616E-3,
,,,21.40999958E-3,439.999997616E-3,
,,,21.42000012E-3,479.999989271E-3,
,,,21.42999880E-3,439.999997616E-3,
,,,21.43999934E-3,439.999997616E-3,
,,,21.44999988E-3,479.999989271E-3,
,,,21.45999856E-3,479.999989271E-3,
,,,21.46999910E-3,439.999997616E-3,
,,,21.47999965E-3,479.999989271E-3,
,,,21.49000019E-3,439.999997616E-3,
,,,21.49999887E-3,439.999997616E-3,
,,,21.50999941E-3,439.999997616E-3,
,,,21.51999995E-3,439.999997616E-3,
,,,21.52999863E-3,479.999989271E-3,
,,,21.53999917E-3,439.999997616E-3,
,,,21.54999971E-3,439.999997616E-3,
,,,21.56000026E-3,439.999997616E-3,
,,,21.56999893E-3,439.999997616E-3,
,,,21.57999948E-3,439.999997616E-3,
,,,21.59000002E-3,479.999989271E-3,
,,,21.59999870E-3,439.999997616E-3,
,,,21.60999924E-3,439.999997616E-3,
,,,21.61999978E-3,439.999997616E-3,
,,,21.62999846E-3,439.999997616E-3,
,,,21.63999900E-3,399.99997616E-3,
,,,21.64999954E-3,399.99997616E-3,
,,,21.66000009E-3,439.999997616E-3,
,,,21.66999876E-3,439.999997616E-3,
,,,21.67999931E-3,439.999997616E-3,
,,,21.68999985E-3,399.99997616E-3,
,,,21.69999853E-3,439.999997616E-3,
,,,21.70999907E-3,439.999997616E-3,
,,,21.71999961E-3,439.999997616E-3,
,,,21.73000015E-3,439.999997616E-3,
,,,21.73999883E-3,439.999997616E-3,
,,,21.74999937E-3,439.999997616E-3,
,,,21.75999992E-3,399.99997616E-3,
,,,21.76999860E-3,439.999997616E-3,
,,,21.77999914E-3,399.99997616E-3,
,,,21.78999968E-3,399.99997616E-3,
,,,21.80000022E-3,399.99997616E-3,
,,,21.80999890E-3,399.99997616E-3,
,,,21.81999944E-3,439.999997616E-3,
,,,21.82999998E-3,399.99997616E-3,
,,,21.83999866E-3,439.999997616E-3,
,,,21.84999920E-3,439.999997616E-3,
,,,21.85999975E-3,399.99997616E-3,
,,,21.86999843E-3,399.99997616E-3,
,,,21.87999897E-3,439.999997616E-3,
,,,21.88999951E-3,399.99997616E-3,
,,,21.90000005E-3,399.99997616E-3,
,,,21.90999873E-3,399.99997616E-3,
,,,21.91999927E-3,439.999997616E-3,
,,,21.92999981E-3,439.999997616E-3,
,,,21.93999849E-3,399.99997616E-3,
,,,21.94999903E-3,399.99997616E-3,
,,,21.95999958E-3,399.99997616E-3,
,,,21.97000012E-3,399.99997616E-3,
,,,21.97999880E-3,399.99997616E-3,
,,,21.98999934E-3,399.99997616E-3,
,,,21.99999988E-3,399.99997616E-3,
,,,22.00999856E-3,399.99997616E-3,
,,,22.01999910E-3,399.99997616E-3,
,,,22.02999964E-3,359.99998450E-3,
,,,22.04000019E-3,399.99997616E-3,
,,,22.04999886E-3,399.99997616E-3,
,,,22.05999941E-3,399.99997616E-3,
,,,22.06999995E-3,399.99997616E-3,
,,,22.07999863E-3,439.999997616E-3,
,,,22.08999917E-3,399.99997616E-3,
,,,22.09999971E-3,399.99997616E-3,
,,,22.11000025E-3,399.99997616E-3,
,,,22.11999893E-3,399.99997616E-3,
,,,22.12999947E-3,399.99997616E-3,
,,,22.14000002E-3,399.99997616E-3,
,,,22.14999869E-3,399.99997616E-3,
,,,22.15999924E-3,399.99997616E-3,
,,,22.16999978E-3,399.99997616E-3,
,,,22.17999846E-3,399.99997616E-3,
,,,22.18999900E-3,399.99997616E-3,
,,,22.19999954E-3,399.99997616E-3,
,,,22.21000008E-3,399.99997616E-3,
,,,22.21999876E-3,399.99997616E-3,
,,,22.22999930E-3,399.99997616E-3,
,,,22.23999985E-3,399.99997616E-3,
,,,22.24999852E-3,399.99997616E-3,
,,,22.25999907E-3,399.99997616E-3,
,,,22.26999961E-3,439.999997616E-3,
,,,22.28000015E-3,399.99997616E-3,
,,,22.28999883E-3,399.99997616E-3,
,,,22.29999937E-3,399.99997616E-3,
,,,22.30999991E-3,399.99997616E-3,
,,,22.31999859E-3,399.99997616E-3,
,,,22.32999913E-3,399.99997616E-3,
,,,22.33999968E-3,399.99997616E-3,
,,,22.35000022E-3,399.99997616E-3,
,,,22.35999890E-3,399.99997616E-3,
,,,22.36999944E-3,399.99997616E-3,
,,,22.37999998E-3,439.999997616E-3,
,,,22.38999866E-3,439.999997616E-3,
,,,22.39999920E-3,399.99997616E-3,
,,,22.40999974E-3,399.99997616E-3,
,,,22.41999842E-3,399.99997616E-3,
,,,22.42999896E-3,399.99997616E-3,
,,,22.43999951E-3,399.99997616E-3,
,,,22.45000005E-3,399.99997616E-3,
,,,22.45999873E-3,399.99997616E-3,
,,,22.46999927E-3,359.99998450E-3,
,,,22.47999981E-3,399.99997616E-3,
,,,22.48999849E-3,399.99997616E-3,
,,,22.49999903E-3,399.99997616E-3,
,,,22.50999957E-3,399.99997616E-3,
,,,22.52000012E-3,399.99997616E-3,
,,,22.52999879E-3,359.99998450E-3,
,,,22.53999934E-3,359.99998450E-3,
,,,22.54999988E-3,359.99998450E-3,
,,,22.55999856E-3,359.99998450E-3,
,,,22.56999910E-3,359.99998450E-3,
,,,22.57999964E-3,359.99998450E-3,
,,,22.59000018E-3,359.99998450E-3,
,,,22.59999886E-3,359.99998450E-3,
,,,22.60999940E-3,359.99998450E-3,
,,,22.61999995E-3,359.99998450E-3,
,,,22.62999862E-3,399.99997616E-3,
,,,22.63999917E-3,399.99997616E-3,
,,,22.64999971E-3,359.99998450E-3,
,,,22.65999839E-3,359.99998450E-3,
,,,22.66999893E-3,359.99998450E-3,
,,,22.67999947E-3,359.99998450E-3,
,,,22.69000001E-3,359.99998450E-3,
