Record Length,2500,Points,-4.20000032E-3,239.99999464E-3,
Sample Interval,19.9999995E-6,s,-4.18000016E-3,239.99999464E-3,
Trigger Point,210.00002110,Samples,-4.16000048E-3,159.99999642E-3,
,,,-4.14000032E-3,239.99999464E-3,
,,,-4.12000017E-3,239.99999464E-3,
,,,-4.10000049E-3,159.99999642E-3,
Source,CH1,,-4.08000033E-3,159.99999642E-3,
Vertical Units,Volts,,-4.06000018E-3,159.99999642E-3,
Vertical Scale,2.0000000,,-4.04000049E-3,159.99999642E-3,
Vertical Offset,0,,-4.02000034E-3,159.99999642E-3,
Horizontal Units,s,,-4.00000019E-3,239.99999464E-3,
Horizontal Scale,4.99999987E-3,,-3.98000050E-3,239.99999464E-3,
Pt Fmt,Y,,-3.96000035E-3,239.99999464E-3,
Yzero,-3.88000000,,-3.94000020E-3,239.99999464E-3,
Probe Atten,1.000000,,-3.92000051E-3,159.99999642E-3,
,,,-3.90000036E-3,239.99999464E-3,
Note,TBS 1104 - 15:11:11   08/04/2021,,-3.88000021E-3,159.99999642E-3,
,,,-3.86000029E-3,159.99999642E-3,
,,,-3.84000037E-3,159.99999642E-3,
,,,-3.82000022E-3,239.99999464E-3,
,,,-3.80000030E-3,159.99999642E-3,
,,,-3.78000038E-3,159.99999642E-3,
,,,-3.76000023E-3,239.99999464E-3,
,,,-3.74000031E-3,159.99999642E-3,
,,,-3.72000039E-3,159.99999642E-3,
,,,-3.70000023E-3,159.99999642E-3,
,,,-3.68000031E-3,159.99999642E-3,
,,,-3.66000040E-3,159.99999642E-3,
,,,-3.64000024E-3,159.99999642E-3,
,,,-3.62000032E-3,159.99999642E-3,
,,,-3.60000040E-3,239.99999464E-3,
,,,-3.58000025E-3,159.99999642E-3,
,,,-3.56000033E-3,239.99999464E-3,
,,,-3.54000041E-3,159.99999642E-3,
,,,-3.52000026E-3,159.99999642E-3,
,,,-3.50000034E-3,159.99999642E-3,
,,,-3.48000042E-3,239.99999464E-3,
,,,-3.46000027E-3,159.99999642E-3,
,,,-3.44000035E-3,239.99999464E-3,
,,,-3.42000043E-3,159.99999642E-3,
,,,-3.40000028E-3,239.99999464E-3,
,,,-3.38000036E-3,159.99999642E-3,
,,,-3.36000044E-3,159.99999642E-3,
,,,-3.34000029E-3,159.99999642E-3,
,,,-3.32000037E-3,239.99999464E-3,
,,,-3.30000045E-3,239.99999464E-3,
,,,-3.28000030E-3,239.99999464E-3,
,,,-3.26000038E-3,239.99999464E-3,
,,,-3.24000046E-3,239.99999464E-3,
,,,-3.22000030E-3,239.99999464E-3,
,,,-3.20000038E-3,239.99999464E-3,
,,,-3.18000023E-3,159.99999642E-3,
,,,-3.16000031E-3,239.99999464E-3,
,,,-3.14000039E-3,239.99999464E-3,
,,,-3.12000024E-3,239.99999464E-3,
,,,-3.10000032E-3,239.99999464E-3,
,,,-3.08000040E-3,239.99999464E-3,
,,,-3.06000025E-3,239.99999464E-3,
,,,-3.04000033E-3,159.99999642E-3,
,,,-3.02000041E-3,159.99999642E-3,
,,,-3.00000026E-3,239.99999464E-3,
,,,-2.98000034E-3,159.99999642E-3,
,,,-2.96000042E-3,239.99999464E-3,
,,,-2.94000027E-3,239.99999464E-3,
,,,-2.92000035E-3,239.99999464E-3,
,,,-2.90000043E-3,159.99999642E-3,
,,,-2.88000028E-3,239.99999464E-3,
,,,-2.86000036E-3,239.99999464E-3,
,,,-2.84000044E-3,159.99999642E-3,
,,,-2.82000029E-3,239.99999464E-3,
,,,-2.80000037E-3,239.99999464E-3,
,,,-2.78000045E-3,159.99999642E-3,
,,,-2.76000029E-3,159.99999642E-3,
,,,-2.74000037E-3,239.99999464E-3,
,,,-2.72000046E-3,159.99999642E-3,
,,,-2.7000003E-3,159.99999642E-3,
,,,-2.6800004E-3,159.99999642E-3,
,,,-2.6600005E-3,159.99999642E-3,
,,,-2.6400003E-3,159.99999642E-3,
,,,-2.6200004E-3,239.99999464E-3,
,,,-2.6000002E-3,159.99999642E-3,
,,,-2.5800003E-3,239.99999464E-3,
,,,-2.5600004E-3,159.99999642E-3,
,,,-2.5400002E-3,239.99999464E-3,
,,,-2.5200003E-3,239.99999464E-3,
,,,-2.5000004E-3,239.99999464E-3,
,,,-2.4800003E-3,239.99999464E-3,
,,,-2.4600003E-3,159.99999642E-3,
,,,-2.4400004E-3,159.99999642E-3,
,,,-2.4200003E-3,159.99999642E-3,
,,,-2.4000003E-3,239.99999464E-3,
,,,-2.3800004E-3,159.99999642E-3,
,,,-2.3600003E-3,239.99999464E-3,
,,,-2.3400004E-3,159.99999642E-3,
,,,-2.3200004E-3,239.99999464E-3,
,,,-2.3000003E-3,239.99999464E-3,
,,,-2.2800004E-3,159.99999642E-3,
,,,-2.2600004E-3,239.99999464E-3,
,,,-2.2400003E-3,159.99999642E-3,
,,,-2.2200004E-3,159.99999642E-3,
,,,-2.2000005E-3,239.99999464E-3,
,,,-2.1800003E-3,159.99999642E-3,
,,,-2.1600004E-3,239.99999464E-3,
,,,-2.1400005E-3,239.99999464E-3,
,,,-2.1200003E-3,239.99999464E-3,
,,,-2.1000004E-3,159.99999642E-3,
,,,-2.0800005E-3,159.99999642E-3,
,,,-2.0600003E-3,159.99999642E-3,
,,,-2.0400004E-3,239.99999464E-3,
,,,-2.0200005E-3,239.99999464E-3,
,,,-2.0000003E-3,159.99999642E-3,
,,,-1.9800004E-3,239.99999464E-3,
,,,-1.9600005E-3,159.99999642E-3,
,,,-1.9400003E-3,239.99999464E-3,
,,,-1.9200004E-3,159.99999642E-3,
,,,-1.9000004E-3,159.99999642E-3,
,,,-1.8800003E-3,239.99999464E-3,
,,,-1.8600004E-3,239.99999464E-3,
,,,-1.8400004E-3,239.99999464E-3,
,,,-1.8200004E-3,239.99999464E-3,
,,,-1.8000004E-3,239.99999464E-3,
,,,-1.7800004E-3,239.99999464E-3,
,,,-1.7600004E-3,239.99999464E-3,
,,,-1.7400003E-3,239.99999464E-3,
,,,-1.7200004E-3,159.99999642E-3,
,,,-1.7000004E-3,159.99999642E-3,
,,,-1.6800003E-3,159.99999642E-3,
,,,-1.6600004E-3,159.99999642E-3,
,,,-1.6400004E-3,159.99999642E-3,
,,,-1.6200003E-3,239.99999464E-3,
,,,-1.6000004E-3,159.99999642E-3,
,,,-1.5800004E-3,159.99999642E-3,
,,,-1.5600004E-3,239.99999464E-3,
,,,-1.5400004E-3,159.99999642E-3,
,,,-1.5200004E-3,159.99999642E-3,
,,,-1.5000004E-3,239.99999464E-3,
,,,-1.4800003E-3,159.99999642E-3,
,,,-1.4600004E-3,239.99999464E-3,
,,,-1.4400004E-3,239.99999464E-3,
,,,-1.4200003E-3,159.99999642E-3,
,,,-1.4000004E-3,159.99999642E-3,
,,,-1.3800004E-3,239.99999464E-3,
,,,-1.3600003E-3,239.99999464E-3,
,,,-1.3400004E-3,239.99999464E-3,
,,,-1.3200004E-3,159.99999642E-3,
,,,-1.3000004E-3,239.99999464E-3,
,,,-1.2800004E-3,159.99999642E-3,
,,,-1.2600004E-3,159.99999642E-3,
,,,-1.2400004E-3,159.99999642E-3,
,,,-1.2200004E-3,159.99999642E-3,
,,,-1.2000004E-3,159.99999642E-3,
,,,-1.1800004E-3,239.99999464E-3,
,,,-1.1600005E-3,239.99999464E-3,
,,,-1.1400004E-3,159.99999642E-3,
,,,-1.1200004E-3,239.99999464E-3,
,,,-1.1000003E-3,239.99999464E-3,
,,,-1.0800004E-3,239.99999464E-3,
,,,-1.0600004E-3,239.99999464E-3,
,,,-1.0400004E-3,159.99999642E-3,
,,,-1.0200004E-3,239.99999464E-3,
,,,-1.0000004E-3,159.99999642E-3,
,,,-980.000360869E-6,159.99999642E-3,
,,,-960.000383202E-6,239.99999464E-3,
,,,-940.000405535E-6,239.99999464E-3,
,,,-920.000369661E-6,239.99999464E-3,
,,,-900.000391994E-6,239.99999464E-3,
,,,-880.000414327E-6,159.99999642E-3,
,,,-860.000378452E-6,159.99999642E-3,
,,,-840.000400785E-6,239.99999464E-3,
,,,-820.000423118E-6,239.99999464E-3,
,,,-800.000387244E-6,239.99999464E-3,
,,,-780.000409577E-6,159.99999642E-3,
,,,-760.000431910E-6,239.99999464E-3,
,,,-740.000396036E-6,239.99999464E-3,
,,,-720.000418369E-6,159.99999642E-3,
,,,-700.000382494E-6,159.99999642E-3,
,,,-680.000404827E-6,159.99999642E-3,
,,,-660.000427160E-6,159.99999642E-3,
,,,-640.000391286E-6,159.99999642E-3,
,,,-620.000413619E-6,159.99999642E-3,
,,,-600.000377744E-6,159.99999642E-3,
,,,-580.000400078E-6,159.99999642E-3,
,,,-560.000422411E-6,159.99999642E-3,
,,,-540.000386536E-6,159.99999642E-3,
,,,-520.000408869E-6,159.99999642E-3,
,,,-500.000431202E-6,159.99999642E-3,
,,,-480.000395328E-6,159.99999642E-3,
,,,-460.000417661E-6,239.99999464E-3,
,,,-440.000410890E-6,239.99999464E-3,
,,,-420.000404119E-6,159.99999642E-3,
,,,-400.00042645E-6,239.99999464E-3,
,,,-380.00041968E-6,239.99999464E-3,
,,,-360.00041291E-6,239.99999464E-3,
,,,-340.00040614E-6,239.99999464E-3,
,,,-320.00039937E-6,239.99999464E-3,
,,,-300.00042170E-6,239.99999464E-3,
,,,-280.00041493E-6,159.99999642E-3,
,,,-260.00040816E-6,159.99999642E-3,
,,,-240.00041594E-6,239.99999464E-3,
,,,-220.00042372E-6,159.99999642E-3,
,,,-200.00041695E-6,239.99999464E-3,
,,,-180.00041018E-6,239.99999464E-3,
,,,-160.00041796E-6,239.99999464E-3,
,,,-140.0004257E-6,239.99999464E-3,
,,,-120.0004190E-6,239.99999464E-3,
,,,-100.0004195E-6,239.99999464E-3,
,,,-80.000419985E-6,239.99999464E-3,
,,,-60.000420490E-6,239.99999464E-3,
,,,-40.00042100E-6,239.99999464E-3,
,,,-20.0004215E-6,239.99999464E-3,
,,,-422.005539894E-12,159.99999642E-3,
,,,19.9995775E-6,239.99999464E-3,
,,,39.99957698E-6,1.8399999,
,,,59.999576479E-6,3.59999990,
,,,79.999575973E-6,4.96000004,
,,,99.999575468E-6,6.00000000,
,,,119.9995750E-6,6.87999964,
,,,139.9995817E-6,7.440000057,
,,,159.99957395E-6,7.919999599,
,,,179.99956617E-6,8.239999771,
,,,199.99957294E-6,8.399999619,
,,,219.99957971E-6,8.559999466,
,,,239.99957193E-6,8.559999466,
,,,259.99956415E-6,8.559999466,
,,,279.99957092E-6,8.559999466,
,,,299.99957769E-6,8.479999542,
,,,319.99958446E-6,8.319999695,
,,,339.99956213E-6,8.239999771,
,,,359.99956890E-6,8.079999924,
,,,379.99957567E-6,7.919999599,
,,,399.99955334E-6,7.839999676,
,,,419.999560108E-6,7.679999828,
,,,439.999566879E-6,7.519999981,
,,,459.999573650E-6,7.35999966,
,,,479.999580421E-6,7.19999981,
,,,499.999558087E-6,7.11999989,
,,,519.999535754E-6,6.96000004,
,,,539.999571629E-6,6.79999971,
,,,559.999549296E-6,6.71999979,
,,,579.999585170E-6,6.63999987,
,,,599.999562837E-6,6.55999994,
,,,619.999540504E-6,6.48000002,
,,,639.999576379E-6,6.39999962,
,,,659.999554045E-6,6.31999969,
,,,679.999589920E-6,6.23999977,
,,,699.999567587E-6,6.15999985,
,,,719.999545254E-6,6.07999992,
,,,739.999581128E-6,6.00000000,
,,,759.999558795E-6,5.92000008,
,,,779.999536462E-6,5.83999968,
,,,799.999572337E-6,5.75999975,
,,,819.999550004E-6,5.67999983,
,,,839.999527670E-6,5.67999983,
,,,859.999563545E-6,5.59999990,
,,,879.999541212E-6,5.51999998,
,,,899.999577086E-6,5.51999998,
,,,919.999554753E-6,5.35999966,
,,,939.999532420E-6,5.27999973,
,,,959.999568295E-6,5.27999973,
,,,979.999545962E-6,5.19999981,
,,,999.999581836E-6,5.19999981,
,,,1.0199995E-3,5.03999996,
,,,1.0399995E-3,5.03999996,
,,,1.0599996E-3,4.96000004,
,,,1.0799996E-3,4.96000004,
,,,1.0999995E-3,4.88000011,
,,,1.1199996E-3,4.88000011,
,,,1.1399996E-3,4.79999971,
,,,1.1599995E-3,4.71999979,
,,,1.1799996E-3,4.63999987,
,,,1.1999996E-3,4.63999987,
,,,1.2199995E-3,4.55999994,
,,,1.2399995E-3,4.55999994,
,,,1.2599996E-3,4.55999994,
,,,1.2799995E-3,4.48000002,
,,,1.2999995E-3,4.48000002,
,,,1.3199996E-3,4.40000010,
,,,1.3399995E-3,4.40000010,
,,,1.3599995E-3,4.31999969,
,,,1.3799996E-3,4.31999969,
,,,1.3999995E-3,4.23999977,
,,,1.4199995E-3,4.23999977,
,,,1.4399996E-3,4.15999985,
,,,1.4599996E-3,4.15999985,
,,,1.4799995E-3,4.07999992,
,,,1.4999995E-3,4.07999992,
,,,1.5199996E-3,4.00000000,
,,,1.5399995E-3,4.00000000,
,,,1.5599995E-3,3.91999984,
,,,1.5799996E-3,3.91999984,
,,,1.5999995E-3,3.91999984,
,,,1.6199995E-3,3.83999991,
,,,1.6399996E-3,3.75999999,
,,,1.6599995E-3,3.75999999,
,,,1.6799995E-3,3.75999999,
,,,1.6999996E-3,3.75999999,
,,,1.7199996E-3,3.67999983,
,,,1.7399995E-3,3.59999990,
,,,1.7599995E-3,3.59999990,
,,,1.7799996E-3,3.59999990,
,,,1.7999995E-3,3.59999990,
,,,1.8199995E-3,3.51999998,
,,,1.8399996E-3,3.51999998,
,,,1.8599995E-3,3.43999982,
,,,1.8799995E-3,3.43999982,
,,,1.8999996E-3,3.35999990,
,,,1.9199995E-3,3.35999990,
,,,1.9399995E-3,3.27999997,
,,,1.9599996E-3,3.27999997,
,,,1.9799995E-3,3.27999997,
,,,1.9999996E-3,3.19999981,
,,,2.0199995E-3,3.19999981,
,,,2.0399995E-3,3.19999981,
,,,2.0599996E-3,3.19999981,
,,,2.0799995E-3,3.11999989,
,,,2.0999995E-3,3.11999989,
,,,2.1199996E-3,3.11999989,
,,,2.1399995E-3,3.03999996,
,,,2.1599995E-3,3.03999996,
,,,2.1799996E-3,3.03999996,
,,,2.1999995E-3,3.03999996,
,,,2.2199994E-3,2.96000004,
,,,2.2399996E-3,2.96000004,
,,,2.2599995E-3,2.96000004,
,,,2.2799994E-3,2.87999988,
,,,2.2999996E-3,2.87999988,
,,,2.3199995E-3,2.87999988,
,,,2.3399994E-3,2.87999988,
,,,2.3599996E-3,2.79999995,
,,,2.3799995E-3,2.79999995,
,,,2.3999994E-3,2.72000003,
,,,2.4199996E-3,2.72000003,
,,,2.4399995E-3,2.72000003,
,,,2.4599994E-3,2.72000003,
,,,2.4799996E-3,2.6399999,
,,,2.4999995E-3,2.6399999,
,,,2.5199996E-3,2.6399999,
,,,2.5399996E-3,2.6399999,
,,,2.5599995E-3,2.5599999,
,,,2.5799996E-3,2.5599999,
,,,2.5999995E-3,2.5599999,
,,,2.6199995E-3,2.4800000,
,,,2.6399996E-3,2.4800000,
,,,2.6599995E-3,2.4800000,
,,,2.6799995E-3,2.4800000,
,,,2.6999996E-3,2.4800000,
,,,2.71999952E-3,2.3999999,
,,,2.73999944E-3,2.3999999,
,,,2.75999960E-3,2.3999999,
,,,2.77999952E-3,2.3999999,
,,,2.79999943E-3,2.3199999,
,,,2.81999959E-3,2.3199999,
,,,2.83999951E-3,2.3199999,
,,,2.85999943E-3,2.3199999,
,,,2.87999958E-3,2.3199999,
,,,2.89999950E-3,2.3199999,
,,,2.91999942E-3,2.2400000,
,,,2.93999957E-3,2.2400000,
,,,2.95999949E-3,2.2400000,
,,,2.97999941E-3,2.2400000,
,,,2.99999956E-3,2.2400000,
,,,3.01999948E-3,2.1599998,
,,,3.03999940E-3,2.1599998,
,,,3.05999955E-3,2.1599998,
,,,3.07999947E-3,2.1599998,
,,,3.09999939E-3,2.1599998,
,,,3.11999954E-3,2.0799999,
,,,3.13999946E-3,2.0799999,
,,,3.15999938E-3,2.0799999,
,,,3.17999953E-3,2.0799999,
,,,3.19999945E-3,2.0799999,
,,,3.21999961E-3,2.0799999,
,,,3.23999953E-3,2.0000000,
,,,3.25999944E-3,2.0000000,
,,,3.27999960E-3,2.0000000,
,,,3.29999952E-3,2.0000000,
,,,3.31999944E-3,2.0000000,
,,,3.33999959E-3,2.0000000,
,,,3.35999951E-3,1.9200000,
,,,3.37999943E-3,1.9200000,
,,,3.39999958E-3,1.9200000,
,,,3.41999950E-3,1.9200000,
,,,3.43999942E-3,1.9200000,
,,,3.45999957E-3,1.8399999,
,,,3.47999949E-3,1.9200000,
,,,3.49999941E-3,1.9200000,
,,,3.51999956E-3,1.8399999,
,,,3.53999948E-3,1.8399999,
,,,3.55999940E-3,1.8399999,
,,,3.57999955E-3,1.8399999,
,,,3.59999947E-3,1.8399999,
,,,3.61999939E-3,1.8399999,
,,,3.63999954E-3,1.7600000,
,,,3.65999946E-3,1.7600000,
,,,3.67999938E-3,1.7600000,
,,,3.69999954E-3,1.7600000,
,,,3.71999945E-3,1.7600000,
,,,3.73999937E-3,1.7600000,
,,,3.75999953E-3,1.7600000,
,,,3.77999945E-3,1.7600000,
,,,3.79999960E-3,1.6799999,
,,,3.81999952E-3,1.7600000,
,,,3.83999944E-3,1.6799999,
,,,3.85999959E-3,1.6799999,
,,,3.87999951E-3,1.6799999,
,,,3.89999943E-3,1.6799999,
,,,3.91999958E-3,1.6799999,
,,,3.93999927E-3,1.6799999,
,,,3.95999942E-3,1.6799999,
,,,3.97999957E-3,1.6799999,
,,,3.99999926E-3,1.5999999,
,,,4.01999941E-3,1.5999999,
,,,4.03999956E-3,1.5999999,
,,,4.05999925E-3,1.5999999,
,,,4.07999940E-3,1.5999999,
,,,4.09999955E-3,1.5999999,
,,,4.11999971E-3,1.5999999,
,,,4.13999939E-3,1.5999999,
,,,4.15999955E-3,1.5999999,
,,,4.17999970E-3,1.5999999,
,,,4.19999938E-3,1.5999999,
,,,4.21999954E-3,1.5999999,
,,,4.23999969E-3,1.5999999,
,,,4.25999938E-3,1.5200000,
,,,4.27999953E-3,1.5200000,
,,,4.29999968E-3,1.5200000,
,,,4.31999937E-3,1.5200000,
,,,4.33999952E-3,1.5200000,
,,,4.35999967E-3,1.5200000,
,,,4.37999936E-3,1.5200000,
,,,4.39999951E-3,1.5200000,
,,,4.41999966E-3,1.4399999,
,,,4.43999935E-3,1.5200000,
,,,4.45999950E-3,1.5200000,
,,,4.47999965E-3,1.4399999,
,,,4.49999934E-3,1.4399999,
,,,4.51999949E-3,1.4399999,
,,,4.53999965E-3,1.4399999,
,,,4.55999933E-3,1.4399999,
,,,4.57999948E-3,1.4399999,
,,,4.59999964E-3,1.4399999,
,,,4.61999932E-3,1.4399999,
,,,4.63999948E-3,1.3600000,
,,,4.65999963E-3,1.3600000,
,,,4.67999931E-3,1.3600000,
,,,4.69999947E-3,1.4399999,
,,,4.71999962E-3,1.3600000,
,,,4.73999931E-3,1.3600000,
,,,4.75999946E-3,1.3600000,
,,,4.77999961E-3,1.3600000,
,,,4.79999930E-3,1.3600000,
,,,4.81999945E-3,1.3600000,
,,,4.83999960E-3,1.3600000,
,,,4.85999929E-3,1.3600000,
,,,4.87999944E-3,1.2800000,
,,,4.89999959E-3,1.3600000,
,,,4.91999928E-3,1.2800000,
,,,4.93999943E-3,1.2800000,
,,,4.95999958E-3,1.2800000,
,,,4.97999927E-3,1.2800000,
,,,4.99999942E-3,1.2800000,
,,,5.01999957E-3,1.2800000,
,,,5.03999926E-3,1.2800000,
,,,5.05999941E-3,1.2800000,
,,,5.07999957E-3,1.2800000,
,,,5.09999925E-3,1.1999999,
,,,5.11999940E-3,1.1999999,
,,,5.13999956E-3,1.1999999,
,,,5.15999924E-3,1.1999999,
,,,5.17999940E-3,1.1999999,
,,,5.19999955E-3,1.1999999,
,,,5.21999924E-3,1.1999999,
,,,5.23999939E-3,1.1999999,
,,,5.25999954E-3,1.1999999,
,,,5.27999923E-3,1.1999999,
,,,5.29999938E-3,1.1999999,
,,,5.31999953E-3,1.1999999,
,,,5.33999922E-3,1.1999999,
,,,5.35999937E-3,1.1200000,
,,,5.37999952E-3,1.1999999,
,,,5.39999921E-3,1.1200000,
,,,5.41999936E-3,1.1200000,
,,,5.43999951E-3,1.1200000,
,,,5.45999967E-3,1.1200000,
,,,5.47999935E-3,1.1200000,
,,,5.49999950E-3,1.1200000,
,,,5.51999966E-3,1.1200000,
,,,5.53999934E-3,1.1200000,
,,,5.55999950E-3,1.1200000,
,,,5.57999965E-3,1.1200000,
,,,5.59999933E-3,1.1200000,
,,,5.61999949E-3,1.0400000,
,,,5.63999964E-3,1.0400000,
,,,5.65999933E-3,1.1200000,
,,,5.67999948E-3,1.1200000,
,,,5.69999963E-3,1.1200000,
,,,5.71999932E-3,1.1200000,
,,,5.73999947E-3,1.0400000,
,,,5.75999962E-3,1.0400000,
,,,5.77999931E-3,1.0400000,
,,,5.79999946E-3,1.0400000,
,,,5.81999961E-3,1.0400000,
,,,5.83999930E-3,1.0400000,
,,,5.85999945E-3,1.0400000,
,,,5.87999960E-3,1.0400000,
,,,5.89999929E-3,1.0400000,
,,,5.91999944E-3,1.0400000,
,,,5.93999960E-3,1.0400000,
,,,5.95999928E-3,1.0400000,
,,,5.97999943E-3,1.0400000,
,,,5.99999959E-3,959.999978542E-3,
,,,6.01999927E-3,959.999978542E-3,
,,,6.03999943E-3,959.999978542E-3,
,,,6.05999958E-3,959.999978542E-3,
,,,6.07999926E-3,959.999978542E-3,
,,,6.09999942E-3,959.999978542E-3,
,,,6.11999957E-3,959.999978542E-3,
,,,6.13999926E-3,959.999978542E-3,
,,,6.15999941E-3,959.999978542E-3,
,,,6.17999956E-3,959.999978542E-3,
,,,6.19999925E-3,959.999978542E-3,
,,,6.21999940E-3,959.999978542E-3,
,,,6.23999955E-3,959.999978542E-3,
,,,6.25999924E-3,959.999978542E-3,
,,,6.27999939E-3,959.999978542E-3,
,,,6.29999954E-3,879.999995232E-3,
,,,6.31999923E-3,959.999978542E-3,
,,,6.33999938E-3,879.999995232E-3,
,,,6.35999953E-3,959.999978542E-3,
,,,6.37999922E-3,879.999995232E-3,
,,,6.39999937E-3,879.999995232E-3,
,,,6.41999952E-3,959.999978542E-3,
,,,6.43999921E-3,879.999995232E-3,
,,,6.45999936E-3,879.999995232E-3,
,,,6.47999952E-3,879.999995232E-3,
,,,6.49999920E-3,879.999995232E-3,
,,,6.51999936E-3,879.999995232E-3,
,,,6.53999951E-3,879.999995232E-3,
,,,6.55999919E-3,879.999995232E-3,
,,,6.57999935E-3,879.999995232E-3,
,,,6.59999950E-3,879.999995232E-3,
,,,6.61999919E-3,799.999952316E-3,
,,,6.63999934E-3,879.999995232E-3,
,,,6.65999949E-3,879.999995232E-3,
,,,6.67999964E-3,879.999995232E-3,
,,,6.69999933E-3,879.999995232E-3,
,,,6.71999948E-3,879.999995232E-3,
,,,6.73999963E-3,879.999995232E-3,
,,,6.75999932E-3,879.999995232E-3,
,,,6.77999947E-3,799.999952316E-3,
,,,6.79999962E-3,879.999995232E-3,
,,,6.81999931E-3,879.999995232E-3,
,,,6.83999946E-3,879.999995232E-3,
,,,6.85999962E-3,799.999952316E-3,
,,,6.87999930E-3,799.999952316E-3,
,,,6.89999945E-3,799.999952316E-3,
,,,6.91999961E-3,799.999952316E-3,
,,,6.93999929E-3,799.999952316E-3,
,,,6.95999945E-3,799.999952316E-3,
,,,6.97999960E-3,799.999952316E-3,
,,,6.99999928E-3,799.999952316E-3,
,,,7.01999944E-3,799.999952316E-3,
,,,7.03999959E-3,799.999952316E-3,
,,,7.05999928E-3,799.999952316E-3,
,,,7.07999943E-3,799.999952316E-3,
,,,7.09999958E-3,799.999952316E-3,
,,,7.11999927E-3,799.999952316E-3,
,,,7.13999942E-3,799.999952316E-3,
,,,7.15999957E-3,799.999952316E-3,
,,,7.17999926E-3,799.999952316E-3,
,,,7.19999941E-3,799.999952316E-3,
,,,7.21999956E-3,799.999952316E-3,
,,,7.23999925E-3,799.999952316E-3,
,,,7.25999940E-3,799.999952316E-3,
,,,7.27999955E-3,799.999952316E-3,
,,,7.29999924E-3,799.999952316E-3,
,,,7.31999939E-3,799.999952316E-3,
,,,7.33999955E-3,799.999952316E-3,
,,,7.35999923E-3,799.999952316E-3,
,,,7.37999938E-3,799.999952316E-3,
,,,7.399999537E-3,799.999952316E-3,
,,,7.419999223E-3,799.999952316E-3,
,,,7.439999375E-3,799.999952316E-3,
,,,7.459999528E-3,799.999952316E-3,
,,,7.479999214E-3,799.999952316E-3,
,,,7.499999367E-3,799.999952316E-3,
,,,7.519999519E-3,799.999952316E-3,
,,,7.539999206E-3,719.999969006E-3,
,,,7.559999358E-3,799.999952316E-3,
,,,7.579999510E-3,719.999969006E-3,
,,,7.599999197E-3,719.999969006E-3,
,,,7.619999349E-3,719.999969006E-3,
,,,7.639999501E-3,719.999969006E-3,
,,,7.659999188E-3,719.999969006E-3,
,,,7.679999340E-3,719.999969006E-3,
,,,7.699999493E-3,719.999969006E-3,
,,,7.719999179E-3,719.999969006E-3,
,,,7.739999332E-3,719.999969006E-3,
,,,7.759999484E-3,719.999969006E-3,
,,,7.779999170E-3,719.999969006E-3,
,,,7.799999323E-3,719.999969006E-3,
,,,7.819999009E-3,719.999969006E-3,
,,,7.839999162E-3,719.999969006E-3,
,,,7.859999314E-3,719.999969006E-3,
,,,7.879999466E-3,719.999969006E-3,
,,,7.899999619E-3,719.999969006E-3,
,,,7.919999771E-3,719.999969006E-3,
,,,7.939998992E-3,719.999969006E-3,
,,,7.959999144E-3,719.999969006E-3,
,,,7.979999296E-3,639.999985695E-3,
,,,7.999999449E-3,719.999969006E-3,
,,,8.019999601E-3,639.999985695E-3,
,,,8.039999753E-3,639.999985695E-3,
,,,8.059998974E-3,639.999985695E-3,
,,,8.079999126E-3,639.999985695E-3,
,,,8.099999279E-3,639.999985695E-3,
,,,8.119999431E-3,719.999969006E-3,
,,,8.139999583E-3,639.999985695E-3,
,,,8.159999736E-3,639.999985695E-3,
,,,8.179998957E-3,639.999985695E-3,
,,,8.199999109E-3,639.999985695E-3,
,,,8.219999261E-3,639.999985695E-3,
,,,8.239999413E-3,639.999985695E-3,
,,,8.259999566E-3,639.999985695E-3,
,,,8.279999718E-3,639.999985695E-3,
,,,8.299998939E-3,639.999985695E-3,
,,,8.319999091E-3,639.999985695E-3,
,,,8.339999244E-3,639.999985695E-3,
,,,8.359999396E-3,639.999985695E-3,
,,,8.379999548E-3,639.999985695E-3,
,,,8.399999700E-3,639.999985695E-3,
,,,8.419998921E-3,639.999985695E-3,
,,,8.439999074E-3,639.999985695E-3,
,,,8.459999226E-3,560.000002384E-3,
,,,8.479999378E-3,639.999985695E-3,
,,,8.499999531E-3,560.000002384E-3,
,,,8.519999683E-3,639.999985695E-3,
,,,8.539998904E-3,639.999985695E-3,
,,,8.559999056E-3,639.999985695E-3,
,,,8.579999208E-3,560.000002384E-3,
,,,8.599999361E-3,560.000002384E-3,
,,,8.619999513E-3,560.000002384E-3,
,,,8.639999665E-3,560.000002384E-3,
,,,8.659999818E-3,560.000002384E-3,
,,,8.679999039E-3,560.000002384E-3,
,,,8.699999191E-3,560.000002384E-3,
,,,8.719999343E-3,560.000002384E-3,
,,,8.739999495E-3,560.000002384E-3,
,,,8.759999648E-3,560.000002384E-3,
,,,8.779999800E-3,560.000002384E-3,
,,,8.799999021E-3,560.000002384E-3,
,,,8.819999173E-3,560.000002384E-3,
,,,8.839999326E-3,560.000002384E-3,
,,,8.859999478E-3,560.000002384E-3,
,,,8.879999630E-3,560.000002384E-3,
,,,8.899999782E-3,560.000002384E-3,
,,,8.919999003E-3,560.000002384E-3,
,,,8.939999156E-3,560.000002384E-3,
,,,8.959999308E-3,560.000002384E-3,
,,,8.979999460E-3,560.000002384E-3,
,,,8.999999613E-3,560.000002384E-3,
,,,9.019999765E-3,560.000002384E-3,
,,,9.039998986E-3,560.000002384E-3,
,,,9.059999138E-3,560.000002384E-3,
,,,9.079999290E-3,560.000002384E-3,
,,,9.099999443E-3,560.000002384E-3,
,,,9.119999595E-3,560.000002384E-3,
,,,9.139999747E-3,560.000002384E-3,
,,,9.159998968E-3,479.999989271E-3,
,,,9.179999121E-3,560.000002384E-3,
,,,9.199999273E-3,560.000002384E-3,
,,,9.219999425E-3,560.000002384E-3,
,,,9.239999577E-3,560.000002384E-3,
,,,9.259999730E-3,479.999989271E-3,
,,,9.279998951E-3,479.999989271E-3,
,,,9.299999103E-3,479.999989271E-3,
,,,9.319999255E-3,479.999989271E-3,
,,,9.339999408E-3,479.999989271E-3,
,,,9.359999560E-3,560.000002384E-3,
,,,9.379999712E-3,479.999989271E-3,
,,,9.399998933E-3,479.999989271E-3,
,,,9.419999085E-3,479.999989271E-3,
,,,9.439999238E-3,479.999989271E-3,
,,,9.459999390E-3,560.000002384E-3,
,,,9.479999542E-3,479.999989271E-3,
,,,9.499999695E-3,479.999989271E-3,
,,,9.519998915E-3,479.999989271E-3,
,,,9.539999068E-3,479.999989271E-3,
,,,9.559999220E-3,479.999989271E-3,
,,,9.579999372E-3,479.999989271E-3,
,,,9.599999525E-3,479.999989271E-3,
,,,9.619999677E-3,479.999989271E-3,
,,,9.639998898E-3,479.999989271E-3,
,,,9.659999050E-3,479.999989271E-3,
,,,9.679999202E-3,479.999989271E-3,
,,,9.699999355E-3,479.999989271E-3,
,,,9.719999507E-3,479.999989271E-3,
,,,9.739999659E-3,479.999989271E-3,
,,,9.759998880E-3,479.999989271E-3,
,,,9.779999033E-3,479.999989271E-3,
,,,9.799999185E-3,479.999989271E-3,
,,,9.819999337E-3,479.999989271E-3,
,,,9.839999489E-3,479.999989271E-3,
,,,9.859999642E-3,479.999989271E-3,
,,,9.879998863E-3,479.999989271E-3,
,,,9.899999015E-3,479.999989271E-3,
,,,9.919999167E-3,479.999989271E-3,
,,,9.939999320E-3,479.999989271E-3,
,,,9.959999472E-3,479.999989271E-3,
,,,9.979999624E-3,479.999989271E-3,
,,,9.999999776E-3,479.999989271E-3,
,,,10.0199990E-3,479.999989271E-3,
,,,10.0399991E-3,479.999989271E-3,
,,,10.0599993E-3,479.999989271E-3,
,,,10.0799995E-3,479.999989271E-3,
,,,10.0999996E-3,479.999989271E-3,
,,,10.1199998E-3,479.999989271E-3,
,,,10.1399990E-3,399.99997616E-3,
,,,10.1599991E-3,479.999989271E-3,
,,,10.1799993E-3,399.99997616E-3,
,,,10.1999994E-3,399.99997616E-3,
,,,10.2199996E-3,399.99997616E-3,
,,,10.2399997E-3,399.99997616E-3,
,,,10.2599990E-3,479.999989271E-3,
,,,10.2799991E-3,399.99997616E-3,
,,,10.2999993E-3,399.99997616E-3,
,,,10.3199994E-3,479.999989271E-3,
,,,10.3399996E-3,479.999989271E-3,
,,,10.3599997E-3,399.99997616E-3,
,,,10.3799989E-3,399.99997616E-3,
,,,10.3999991E-3,399.99997616E-3,
,,,10.4199992E-3,399.99997616E-3,
,,,10.4399994E-3,399.99997616E-3,
,,,10.4599996E-3,399.99997616E-3,
,,,10.4799997E-3,399.99997616E-3,
,,,10.4999989E-3,399.99997616E-3,
,,,10.5199991E-3,399.99997616E-3,
,,,10.5399992E-3,399.99997616E-3,
,,,10.5599994E-3,399.99997616E-3,
,,,10.5799995E-3,399.99997616E-3,
,,,10.5999997E-3,399.99997616E-3,
,,,10.6199989E-3,399.99997616E-3,
,,,10.6399991E-3,399.99997616E-3,
,,,10.6599992E-3,399.99997616E-3,
,,,10.6799994E-3,399.99997616E-3,
,,,10.6999995E-3,399.99997616E-3,
,,,10.7199997E-3,399.99997616E-3,
,,,10.7399989E-3,399.99997616E-3,
,,,10.7599990E-3,399.99997616E-3,
,,,10.7799992E-3,399.99997616E-3,
,,,10.7999993E-3,399.99997616E-3,
,,,10.8199995E-3,399.99997616E-3,
,,,10.8399997E-3,399.99997616E-3,
,,,10.8599989E-3,399.99997616E-3,
,,,10.8799990E-3,399.99997616E-3,
,,,10.8999992E-3,399.99997616E-3,
,,,10.9199993E-3,399.99997616E-3,
,,,10.9399995E-3,399.99997616E-3,
,,,10.9599996E-3,399.99997616E-3,
,,,10.9799989E-3,399.99997616E-3,
,,,10.9999990E-3,399.99997616E-3,
,,,11.0199992E-3,399.99997616E-3,
,,,11.0399993E-3,399.99997616E-3,
,,,11.0599995E-3,399.99997616E-3,
,,,11.0799996E-3,399.99997616E-3,
,,,11.0999988E-3,399.99997616E-3,
,,,11.1199990E-3,399.99997616E-3,
,,,11.1399991E-3,399.99997616E-3,
,,,11.1599993E-3,399.99997616E-3,
,,,11.1799994E-3,399.99997616E-3,
,,,11.1999996E-3,399.99997616E-3,
,,,11.2199998E-3,399.99997616E-3,
,,,11.2399990E-3,399.99997616E-3,
,,,11.2599991E-3,399.99997616E-3,
,,,11.2799993E-3,399.99997616E-3,
,,,11.2999994E-3,399.99997616E-3,
,,,11.3199996E-3,399.99997616E-3,
,,,11.3399997E-3,319.99999285E-3,
,,,11.3599990E-3,319.99999285E-3,
,,,11.3799991E-3,399.99997616E-3,
,,,11.3999993E-3,399.99997616E-3,
,,,11.4199994E-3,399.99997616E-3,
,,,11.4399996E-3,399.99997616E-3,
,,,11.4599997E-3,399.99997616E-3,
,,,11.4799989E-3,399.99997616E-3,
,,,11.4999991E-3,319.99999285E-3,
,,,11.5199992E-3,399.99997616E-3,
,,,11.5399994E-3,399.99997616E-3,
,,,11.5599995E-3,399.99997616E-3,
,,,11.5799997E-3,399.99997616E-3,
,,,11.5999989E-3,319.99999285E-3,
,,,11.6199991E-3,399.99997616E-3,
,,,11.6399992E-3,399.99997616E-3,
,,,11.6599994E-3,319.99999285E-3,
,,,11.6799995E-3,399.99997616E-3,
,,,11.6999997E-3,399.99997616E-3,
,,,11.7199989E-3,319.99999285E-3,
,,,11.7399991E-3,399.99997616E-3,
,,,11.7599992E-3,319.99999285E-3,
,,,11.7799994E-3,319.99999285E-3,
,,,11.7999995E-3,399.99997616E-3,
,,,11.8199997E-3,399.99997616E-3,
,,,11.8399989E-3,399.99997616E-3,
,,,11.8599990E-3,399.99997616E-3,
,,,11.8799992E-3,319.99999285E-3,
,,,11.8999993E-3,399.99997616E-3,
,,,11.9199995E-3,319.99999285E-3,
,,,11.9399996E-3,319.99999285E-3,
,,,11.9599989E-3,319.99999285E-3,
,,,11.9799990E-3,319.99999285E-3,
,,,11.9999992E-3,319.99999285E-3,
,,,12.0199993E-3,319.99999285E-3,
,,,12.0399995E-3,319.99999285E-3,
,,,12.0599996E-3,319.99999285E-3,
,,,12.0799989E-3,319.99999285E-3,
,,,12.0999990E-3,319.99999285E-3,
,,,12.1199992E-3,319.99999285E-3,
,,,12.1399993E-3,319.99999285E-3,
,,,12.1599995E-3,319.99999285E-3,
,,,12.1799996E-3,319.99999285E-3,
,,,12.1999988E-3,319.99999285E-3,
,,,12.2199990E-3,319.99999285E-3,
,,,12.2399991E-3,319.99999285E-3,
,,,12.2599993E-3,319.99999285E-3,
,,,12.2799994E-3,319.99999285E-3,
,,,12.2999996E-3,319.99999285E-3,
,,,12.3199988E-3,319.99999285E-3,
,,,12.3399990E-3,319.99999285E-3,
,,,12.3599991E-3,319.99999285E-3,
,,,12.3799993E-3,319.99999285E-3,
,,,12.3999994E-3,319.99999285E-3,
,,,12.4199996E-3,319.99999285E-3,
,,,12.4399997E-3,319.99999285E-3,
,,,12.4599990E-3,319.99999285E-3,
,,,12.4799991E-3,319.99999285E-3,
,,,12.4999993E-3,319.99999285E-3,
,,,12.5199994E-3,319.99999285E-3,
,,,12.5399996E-3,319.99999285E-3,
,,,12.5599997E-3,319.99999285E-3,
,,,12.5799989E-3,319.99999285E-3,
,,,12.5999991E-3,319.99999285E-3,
,,,12.6199992E-3,319.99999285E-3,
,,,12.6399994E-3,319.99999285E-3,
,,,12.6599995E-3,319.99999285E-3,
,,,12.6799997E-3,319.99999285E-3,
,,,12.6999989E-3,319.99999285E-3,
,,,12.7199991E-3,319.99999285E-3,
,,,12.7399992E-3,319.99999285E-3,
,,,12.7599994E-3,319.99999285E-3,
,,,12.7799995E-3,319.99999285E-3,
,,,12.7999997E-3,319.99999285E-3,
,,,12.8199989E-3,319.99999285E-3,
,,,12.8399990E-3,319.99999285E-3,
,,,12.8599992E-3,319.99999285E-3,
,,,12.8799994E-3,319.99999285E-3,
,,,12.8999995E-3,319.99999285E-3,
,,,12.9199997E-3,319.99999285E-3,
,,,12.9399989E-3,239.99999464E-3,
,,,12.9599990E-3,319.99999285E-3,
,,,12.9799992E-3,319.99999285E-3,
,,,12.9999993E-3,319.99999285E-3,
,,,13.0199995E-3,319.99999285E-3,
,,,13.0399996E-3,319.99999285E-3,
,,,13.0599989E-3,319.99999285E-3,
,,,13.0799990E-3,319.99999285E-3,
,,,13.0999992E-3,319.99999285E-3,
,,,13.1199993E-3,319.99999285E-3,
,,,13.1399995E-3,319.99999285E-3,
,,,13.1599996E-3,319.99999285E-3,
,,,13.1799988E-3,319.99999285E-3,
,,,13.1999990E-3,319.99999285E-3,
,,,13.2199991E-3,319.99999285E-3,
,,,13.2399993E-3,319.99999285E-3,
,,,13.2599995E-3,319.99999285E-3,
,,,13.2799996E-3,239.99999464E-3,
,,,13.2999988E-3,239.99999464E-3,
,,,13.3199990E-3,319.99999285E-3,
,,,13.3399991E-3,319.99999285E-3,
,,,13.3599993E-3,319.99999285E-3,
,,,13.3799994E-3,319.99999285E-3,
,,,13.3999996E-3,319.99999285E-3,
,,,13.4199988E-3,319.99999285E-3,
,,,13.4399990E-3,319.99999285E-3,
,,,13.4599991E-3,319.99999285E-3,
,,,13.4799993E-3,319.99999285E-3,
,,,13.4999994E-3,319.99999285E-3,
,,,13.5199996E-3,239.99999464E-3,
,,,13.5399988E-3,319.99999285E-3,
,,,13.5599989E-3,239.99999464E-3,
,,,13.5799991E-3,319.99999285E-3,
,,,13.5999992E-3,239.99999464E-3,
,,,13.6199994E-3,239.99999464E-3,
,,,13.6399996E-3,319.99999285E-3,
,,,13.6599988E-3,319.99999285E-3,
,,,13.6799989E-3,319.99999285E-3,
,,,13.6999991E-3,319.99999285E-3,
,,,13.7199992E-3,319.99999285E-3,
,,,13.7399994E-3,319.99999285E-3,
,,,13.7599995E-3,319.99999285E-3,
,,,13.7799997E-3,319.99999285E-3,
,,,13.7999989E-3,239.99999464E-3,
,,,13.8199991E-3,319.99999285E-3,
,,,13.8399992E-3,319.99999285E-3,
,,,13.8599994E-3,319.99999285E-3,
,,,13.8799995E-3,319.99999285E-3,
,,,13.8999997E-3,239.99999464E-3,
,,,13.9199989E-3,239.99999464E-3,
,,,13.9399990E-3,239.99999464E-3,
,,,13.9599992E-3,319.99999285E-3,
,,,13.9799993E-3,319.99999285E-3,
,,,13.9999995E-3,319.99999285E-3,
,,,14.0199997E-3,319.99999285E-3,
,,,14.0399989E-3,239.99999464E-3,
,,,14.0599990E-3,239.99999464E-3,
,,,14.0799992E-3,239.99999464E-3,
,,,14.0999993E-3,319.99999285E-3,
,,,14.1199995E-3,239.99999464E-3,
,,,14.1399996E-3,319.99999285E-3,
,,,14.1599989E-3,319.99999285E-3,
,,,14.1799990E-3,239.99999464E-3,
,,,14.1999992E-3,239.99999464E-3,
,,,14.2199993E-3,239.99999464E-3,
,,,14.2399995E-3,239.99999464E-3,
,,,14.2599996E-3,319.99999285E-3,
,,,14.2799988E-3,319.99999285E-3,
,,,14.2999990E-3,239.99999464E-3,
,,,14.3199991E-3,239.99999464E-3,
,,,14.3399993E-3,239.99999464E-3,
,,,14.3599994E-3,239.99999464E-3,
,,,14.3799996E-3,239.99999464E-3,
,,,14.3999988E-3,319.99999285E-3,
,,,14.4199990E-3,239.99999464E-3,
,,,14.4399991E-3,319.99999285E-3,
,,,14.4599993E-3,239.99999464E-3,
,,,14.4799994E-3,239.99999464E-3,
,,,14.4999996E-3,239.99999464E-3,
,,,14.5199988E-3,319.99999285E-3,
,,,14.5399990E-3,319.99999285E-3,
,,,14.5599991E-3,239.99999464E-3,
,,,14.5799993E-3,319.99999285E-3,
,,,14.5999994E-3,239.99999464E-3,
,,,14.6199996E-3,239.99999464E-3,
,,,14.6399988E-3,239.99999464E-3,
,,,14.6599989E-3,239.99999464E-3,
,,,14.6799991E-3,239.99999464E-3,
,,,14.6999992E-3,239.99999464E-3,
,,,14.7199994E-3,319.99999285E-3,
,,,14.7399995E-3,319.99999285E-3,
,,,14.7599988E-3,239.99999464E-3,
,,,14.7799989E-3,239.99999464E-3,
,,,14.7999991E-3,239.99999464E-3,
,,,14.8199992E-3,239.99999464E-3,
,,,14.8399994E-3,239.99999464E-3,
,,,14.8599995E-3,239.99999464E-3,
,,,14.8799988E-3,239.99999464E-3,
,,,14.8999989E-3,239.99999464E-3,
,,,14.9199991E-3,239.99999464E-3,
,,,14.9399992E-3,239.99999464E-3,
,,,14.9599994E-3,239.99999464E-3,
,,,14.9799995E-3,239.99999464E-3,
,,,14.9999987E-3,239.99999464E-3,
,,,15.0199989E-3,239.99999464E-3,
,,,15.0399990E-3,239.99999464E-3,
,,,15.0599992E-3,239.99999464E-3,
,,,15.0799993E-3,239.99999464E-3,
,,,15.0999995E-3,239.99999464E-3,
,,,15.1199996E-3,239.99999464E-3,
,,,15.1399989E-3,239.99999464E-3,
,,,15.1599990E-3,239.99999464E-3,
,,,15.1799992E-3,239.99999464E-3,
,,,15.1999993E-3,239.99999464E-3,
,,,15.2199995E-3,239.99999464E-3,
,,,15.2399996E-3,239.99999464E-3,
,,,15.2599989E-3,239.99999464E-3,
,,,15.2799990E-3,239.99999464E-3,
,,,15.2999992E-3,239.99999464E-3,
,,,15.3199993E-3,239.99999464E-3,
,,,15.3399995E-3,239.99999464E-3,
,,,15.3599996E-3,239.99999464E-3,
,,,15.3799988E-3,239.99999464E-3,
,,,15.3999990E-3,239.99999464E-3,
,,,15.4199991E-3,239.99999464E-3,
,,,15.4399993E-3,239.99999464E-3,
,,,15.4599994E-3,239.99999464E-3,
,,,15.4799996E-3,239.99999464E-3,
,,,15.4999988E-3,239.99999464E-3,
,,,15.5199990E-3,239.99999464E-3,
,,,15.5399991E-3,239.99999464E-3,
,,,15.5599993E-3,239.99999464E-3,
,,,15.5799994E-3,239.99999464E-3,
,,,15.5999996E-3,239.99999464E-3,
,,,15.6199988E-3,239.99999464E-3,
,,,15.6399999E-3,239.99999464E-3,
,,,15.6599991E-3,239.99999464E-3,
,,,15.6799983E-3,239.99999464E-3,
,,,15.6999994E-3,239.99999464E-3,
,,,15.7199986E-3,239.99999464E-3,
,,,15.7399997E-3,239.99999464E-3,
,,,15.7599989E-3,239.99999464E-3,
,,,15.7800000E-3,239.99999464E-3,
,,,15.7999992E-3,239.99999464E-3,
,,,15.8199985E-3,239.99999464E-3,
,,,15.8399995E-3,239.99999464E-3,
,,,15.8599988E-3,239.99999464E-3,
,,,15.8799998E-3,239.99999464E-3,
,,,15.8999991E-3,239.99999464E-3,
,,,15.9199983E-3,319.99999285E-3,
,,,15.9399994E-3,239.99999464E-3,
,,,15.9599986E-3,239.99999464E-3,
,,,15.9799997E-3,239.99999464E-3,
,,,15.9999989E-3,239.99999464E-3,
,,,16.0200000E-3,239.99999464E-3,
,,,16.0399992E-3,239.99999464E-3,
,,,16.0599984E-3,239.99999464E-3,
,,,16.0799995E-3,239.99999464E-3,
,,,16.0999987E-3,239.99999464E-3,
,,,16.1199998E-3,239.99999464E-3,
,,,16.1399990E-3,239.99999464E-3,
,,,16.1599983E-3,239.99999464E-3,
,,,16.1799993E-3,239.99999464E-3,
,,,16.1999986E-3,239.99999464E-3,
,,,16.2199996E-3,239.99999464E-3,
,,,16.2399989E-3,239.99999464E-3,
,,,16.2599999E-3,239.99999464E-3,
,,,16.2799992E-3,239.99999464E-3,
,,,16.2999984E-3,239.99999464E-3,
,,,16.3199995E-3,239.99999464E-3,
,,,16.3399987E-3,239.99999464E-3,
,,,16.3599998E-3,239.99999464E-3,
,,,16.3799990E-3,239.99999464E-3,
,,,16.4000001E-3,239.99999464E-3,
,,,16.4199993E-3,239.99999464E-3,
,,,16.4399985E-3,239.99999464E-3,
,,,16.4599996E-3,239.99999464E-3,
,,,16.4799988E-3,239.99999464E-3,
,,,16.4999999E-3,239.99999464E-3,
,,,16.5199991E-3,239.99999464E-3,
,,,16.5399984E-3,239.99999464E-3,
,,,16.5599994E-3,239.99999464E-3,
,,,16.5799987E-3,239.99999464E-3,
,,,16.5999997E-3,239.99999464E-3,
,,,16.6199990E-3,239.99999464E-3,
,,,16.6400000E-3,239.99999464E-3,
,,,16.6599993E-3,239.99999464E-3,
,,,16.6799985E-3,239.99999464E-3,
,,,16.6999996E-3,239.99999464E-3,
,,,16.7199988E-3,239.99999464E-3,
,,,16.7399999E-3,239.99999464E-3,
,,,16.7599991E-3,239.99999464E-3,
,,,16.7799983E-3,239.99999464E-3,
,,,16.7999994E-3,239.99999464E-3,
,,,16.8199986E-3,239.99999464E-3,
,,,16.8399997E-3,239.99999464E-3,
,,,16.8599989E-3,239.99999464E-3,
,,,16.8800000E-3,239.99999464E-3,
,,,16.8999992E-3,239.99999464E-3,
,,,16.9199985E-3,239.99999464E-3,
,,,16.9399995E-3,239.99999464E-3,
,,,16.9599988E-3,239.99999464E-3,
,,,16.9799998E-3,239.99999464E-3,
,,,16.9999991E-3,239.99999464E-3,
,,,17.0199983E-3,239.99999464E-3,
,,,17.0399994E-3,239.99999464E-3,
,,,17.0599986E-3,239.99999464E-3,
,,,17.0799997E-3,239.99999464E-3,
,,,17.0999989E-3,239.99999464E-3,
,,,17.1200000E-3,239.99999464E-3,
,,,17.1399992E-3,239.99999464E-3,
,,,17.1599984E-3,239.99999464E-3,
,,,17.1799995E-3,239.99999464E-3,
,,,17.1999987E-3,239.99999464E-3,
,,,17.2199998E-3,239.99999464E-3,
,,,17.2399990E-3,239.99999464E-3,
,,,17.2599982E-3,239.99999464E-3,
,,,17.2799993E-3,159.99999642E-3,
,,,17.2999986E-3,239.99999464E-3,
,,,17.3199996E-3,159.99999642E-3,
,,,17.3399989E-3,239.99999464E-3,
,,,17.3599999E-3,239.99999464E-3,
,,,17.3799992E-3,239.99999464E-3,
,,,17.3999984E-3,239.99999464E-3,
,,,17.4199995E-3,239.99999464E-3,
,,,17.4399987E-3,239.99999464E-3,
,,,17.4599998E-3,239.99999464E-3,
,,,17.4799990E-3,239.99999464E-3,
,,,17.4999982E-3,239.99999464E-3,
,,,17.5199993E-3,239.99999464E-3,
,,,17.5399985E-3,239.99999464E-3,
,,,17.5599996E-3,239.99999464E-3,
,,,17.5799988E-3,239.99999464E-3,
,,,17.5999999E-3,239.99999464E-3,
,,,17.6199991E-3,239.99999464E-3,
,,,17.6399983E-3,239.99999464E-3,
,,,17.6599994E-3,239.99999464E-3,
,,,17.6799987E-3,239.99999464E-3,
,,,17.6999997E-3,239.99999464E-3,
,,,17.7199990E-3,239.99999464E-3,
,,,17.7400000E-3,239.99999464E-3,
,,,17.7599993E-3,239.99999464E-3,
,,,17.7799985E-3,239.99999464E-3,
,,,17.7999996E-3,239.99999464E-3,
,,,17.8199988E-3,239.99999464E-3,
,,,17.8399999E-3,239.99999464E-3,
,,,17.8599991E-3,239.99999464E-3,
,,,17.8799983E-3,239.99999464E-3,
,,,17.8999994E-3,239.99999464E-3,
,,,17.9199986E-3,239.99999464E-3,
,,,17.9399997E-3,239.99999464E-3,
,,,17.9599989E-3,239.99999464E-3,
,,,17.9800000E-3,239.99999464E-3,
,,,17.9999992E-3,239.99999464E-3,
,,,18.0199984E-3,239.99999464E-3,
,,,18.0399995E-3,239.99999464E-3,
,,,18.0599988E-3,239.99999464E-3,
,,,18.0799998E-3,239.99999464E-3,
,,,18.0999991E-3,239.99999464E-3,
,,,18.1199983E-3,239.99999464E-3,
,,,18.1399994E-3,239.99999464E-3,
,,,18.1599986E-3,239.99999464E-3,
,,,18.1799997E-3,239.99999464E-3,
,,,18.1999989E-3,239.99999464E-3,
,,,18.2200000E-3,239.99999464E-3,
,,,18.2399992E-3,239.99999464E-3,
,,,18.2599984E-3,239.99999464E-3,
,,,18.2799995E-3,159.99999642E-3,
,,,18.2999987E-3,159.99999642E-3,
,,,18.3199998E-3,239.99999464E-3,
,,,18.3399990E-3,239.99999464E-3,
,,,18.3599982E-3,159.99999642E-3,
,,,18.3799993E-3,239.99999464E-3,
,,,18.3999985E-3,159.99999642E-3,
,,,18.4199996E-3,239.99999464E-3,
,,,18.4399989E-3,159.99999642E-3,
,,,18.4599999E-3,239.99999464E-3,
,,,18.4799992E-3,239.99999464E-3,
,,,18.4999984E-3,239.99999464E-3,
,,,18.5199995E-3,239.99999464E-3,
,,,18.5399987E-3,239.99999464E-3,
,,,18.5599998E-3,159.99999642E-3,
,,,18.5799990E-3,239.99999464E-3,
,,,18.5999982E-3,239.99999464E-3,
,,,18.6199993E-3,239.99999464E-3,
,,,18.6399985E-3,239.99999464E-3,
,,,18.6599996E-3,239.99999464E-3,
,,,18.6799988E-3,239.99999464E-3,
,,,18.6999999E-3,159.99999642E-3,
,,,18.7199991E-3,239.99999464E-3,
,,,18.7399983E-3,239.99999464E-3,
,,,18.7599994E-3,159.99999642E-3,
,,,18.7799986E-3,239.99999464E-3,
,,,18.7999997E-3,239.99999464E-3,
,,,18.8199989E-3,159.99999642E-3,
,,,18.8400000E-3,239.99999464E-3,
,,,18.8599993E-3,239.99999464E-3,
,,,18.8799985E-3,239.99999464E-3,
,,,18.8999996E-3,159.99999642E-3,
,,,18.9199988E-3,159.99999642E-3,
,,,18.9399999E-3,239.99999464E-3,
,,,18.9599991E-3,159.99999642E-3,
,,,18.9799983E-3,159.99999642E-3,
,,,18.9999994E-3,239.99999464E-3,
,,,19.0199986E-3,159.99999642E-3,
,,,19.0399997E-3,399.99997616E-3,
,,,19.0599989E-3,799.999952316E-3,
,,,19.0800000E-3,1.0400000,
,,,19.0999992E-3,1.2800000,
,,,19.1199984E-3,1.4399999,
,,,19.1399995E-3,1.5999999,
,,,19.1599987E-3,1.6799999,
,,,19.1799998E-3,1.6799999,
,,,19.1999990E-3,1.7600000,
,,,19.2199983E-3,1.7600000,
,,,19.2399994E-3,1.7600000,
,,,19.2599986E-3,1.7600000,
,,,19.2799997E-3,1.6799999,
,,,19.2999989E-3,1.6799999,
,,,19.3200000E-3,1.6799999,
,,,19.3399992E-3,1.5999999,
,,,19.3599984E-3,1.5999999,
,,,19.3799995E-3,1.5999999,
,,,19.3999987E-3,1.5999999,
,,,19.4199998E-3,1.5200000,
,,,19.4399990E-3,1.5200000,
,,,19.4599982E-3,1.5200000,
,,,19.4799993E-3,1.4399999,
,,,19.4999985E-3,1.3600000,
,,,19.5199996E-3,1.3600000,
,,,19.5399988E-3,1.3600000,
,,,19.5599999E-3,1.3600000,
,,,19.5799991E-3,1.3600000,
,,,19.5999984E-3,1.3600000,
,,,19.6199995E-3,1.2800000,
,,,19.6399987E-3,1.2800000,
,,,19.6599998E-3,1.2800000,
,,,19.6799990E-3,1.1999999,
,,,19.6999982E-3,1.1999999,
,,,19.7199993E-3,1.1999999,
,,,19.7399985E-3,1.1999999,
,,,19.7599996E-3,1.1200000,
,,,19.7799988E-3,1.1200000,
,,,19.7999999E-3,1.1200000,
,,,19.8199991E-3,1.1200000,
,,,19.8399983E-3,1.1200000,
,,,19.8599994E-3,1.0400000,
,,,19.8799986E-3,1.1200000,
,,,19.8999997E-3,1.0400000,
,,,19.9199989E-3,1.0400000,
,,,19.9399982E-3,1.0400000,
,,,19.9599992E-3,1.0400000,
,,,19.9799985E-3,1.0400000,
,,,19.9999996E-3,1.0400000,
,,,20.0199988E-3,959.999978542E-3,
,,,20.0399999E-3,959.999978542E-3,
,,,20.0599991E-3,959.999978542E-3,
,,,20.0799983E-3,959.999978542E-3,
,,,20.09999938E-3,959.999978542E-3,
,,,20.11999860E-3,959.999978542E-3,
,,,20.13999969E-3,959.999978542E-3,
,,,20.15999891E-3,879.999995232E-3,
,,,20.17999999E-3,879.999995232E-3,
,,,20.19999921E-3,879.999995232E-3,
,,,20.21999843E-3,879.999995232E-3,
,,,20.23999952E-3,879.999995232E-3,
,,,20.25999874E-3,879.999995232E-3,
,,,20.27999982E-3,879.999995232E-3,
,,,20.29999904E-3,879.999995232E-3,
,,,20.31999826E-3,879.999995232E-3,
,,,20.33999935E-3,879.999995232E-3,
,,,20.35999857E-3,879.999995232E-3,
,,,20.37999965E-3,799.999952316E-3,
,,,20.39999887E-3,799.999952316E-3,
,,,20.41999996E-3,799.999952316E-3,
,,,20.43999918E-3,799.999952316E-3,
,,,20.45999840E-3,799.999952316E-3,
,,,20.47999948E-3,799.999952316E-3,
,,,20.49999870E-3,799.999952316E-3,
,,,20.51999979E-3,799.999952316E-3,
,,,20.53999901E-3,799.999952316E-3,
,,,20.55999823E-3,799.999952316E-3,
,,,20.57999931E-3,799.999952316E-3,
,,,20.59999853E-3,799.999952316E-3,
,,,20.61999962E-3,799.999952316E-3,
,,,20.63999884E-3,799.999952316E-3,
,,,20.65999992E-3,799.999952316E-3,
,,,20.67999914E-3,799.999952316E-3,
,,,20.69999836E-3,719.999969006E-3,
,,,20.71999945E-3,799.999952316E-3,
,,,20.73999867E-3,719.999969006E-3,
,,,20.75999975E-3,719.999969006E-3,
,,,20.77999897E-3,719.999969006E-3,
,,,20.79999819E-3,719.999969006E-3,
,,,20.81999928E-3,719.999969006E-3,
,,,20.83999850E-3,719.999969006E-3,
,,,20.85999958E-3,719.999969006E-3,
,,,20.87999880E-3,639.999985695E-3,
,,,20.89999989E-3,719.999969006E-3,
,,,20.91999911E-3,719.999969006E-3,
,,,20.93999833E-3,719.999969006E-3,
,,,20.95999941E-3,719.999969006E-3,
,,,20.97999863E-3,639.999985695E-3,
,,,20.99999972E-3,639.999985695E-3,
,,,21.01999894E-3,639.999985695E-3,
,,,21.03999816E-3,639.999985695E-3,
,,,21.05999924E-3,639.999985695E-3,
,,,21.07999846E-3,639.999985695E-3,
,,,21.09999955E-3,639.999985695E-3,
,,,21.11999877E-3,639.999985695E-3,
,,,21.13999985E-3,639.999985695E-3,
,,,21.15999907E-3,639.999985695E-3,
,,,21.17999829E-3,560.000002384E-3,
,,,21.19999938E-3,560.000002384E-3,
,,,21.21999860E-3,560.000002384E-3,
,,,21.23999968E-3,560.000002384E-3,
,,,21.25999890E-3,560.000002384E-3,
,,,21.27999812E-3,560.000002384E-3,
,,,21.29999921E-3,560.000002384E-3,
,,,21.31999843E-3,560.000002384E-3,
,,,21.33999951E-3,560.000002384E-3,
,,,21.35999873E-3,560.000002384E-3,
,,,21.37999982E-3,560.000002384E-3,
,,,21.39999904E-3,560.000002384E-3,
,,,21.41999826E-3,560.000002384E-3,
,,,21.43999934E-3,560.000002384E-3,
,,,21.45999856E-3,560.000002384E-3,
,,,21.47999965E-3,560.000002384E-3,
,,,21.49999887E-3,560.000002384E-3,
,,,21.51999995E-3,479.999989271E-3,
,,,21.53999917E-3,560.000002384E-3,
,,,21.55999839E-3,560.000002384E-3,
,,,21.57999948E-3,479.999989271E-3,
,,,21.59999870E-3,479.999989271E-3,
,,,21.61999978E-3,479.999989271E-3,
,,,21.63999900E-3,479.999989271E-3,
,,,21.65999822E-3,479.999989271E-3,
,,,21.67999931E-3,479.999989271E-3,
,,,21.69999853E-3,479.999989271E-3,
,,,21.71999961E-3,479.999989271E-3,
,,,21.73999883E-3,479.999989271E-3,
,,,21.75999992E-3,479.999989271E-3,
,,,21.77999914E-3,479.999989271E-3,
,,,21.79999836E-3,479.999989271E-3,
,,,21.81999944E-3,479.999989271E-3,
,,,21.83999866E-3,479.999989271E-3,
,,,21.85999975E-3,479.999989271E-3,
,,,21.87999897E-3,479.999989271E-3,
,,,21.89999819E-3,479.999989271E-3,
,,,21.91999927E-3,479.999989271E-3,
,,,21.93999849E-3,399.99997616E-3,
,,,21.95999958E-3,479.999989271E-3,
,,,21.97999880E-3,399.99997616E-3,
,,,21.99999988E-3,399.99997616E-3,
,,,22.01999910E-3,399.99997616E-3,
,,,22.03999832E-3,479.999989271E-3,
,,,22.05999941E-3,479.999989271E-3,
,,,22.07999863E-3,399.99997616E-3,
,,,22.09999971E-3,399.99997616E-3,
,,,22.11999893E-3,399.99997616E-3,
,,,22.13999815E-3,399.99997616E-3,
,,,22.15999924E-3,399.99997616E-3,
,,,22.17999846E-3,399.99997616E-3,
,,,22.19999954E-3,399.99997616E-3,
,,,22.21999876E-3,399.99997616E-3,
,,,22.23999985E-3,399.99997616E-3,
,,,22.25999907E-3,399.99997616E-3,
,,,22.27999829E-3,399.99997616E-3,
,,,22.29999937E-3,399.99997616E-3,
,,,22.31999859E-3,399.99997616E-3,
,,,22.33999968E-3,399.99997616E-3,
,,,22.35999890E-3,399.99997616E-3,
,,,22.37999812E-3,399.99997616E-3,
,,,22.39999920E-3,399.99997616E-3,
,,,22.41999842E-3,399.99997616E-3,
,,,22.43999951E-3,399.99997616E-3,
,,,22.45999873E-3,399.99997616E-3,
,,,22.47999981E-3,319.99999285E-3,
,,,22.49999903E-3,319.99999285E-3,
,,,22.51999825E-3,399.99997616E-3,
,,,22.53999934E-3,319.99999285E-3,
,,,22.55999856E-3,319.99999285E-3,
,,,22.57999964E-3,399.99997616E-3,
,,,22.59999886E-3,319.99999285E-3,
,,,22.61999808E-3,319.99999285E-3,
,,,22.63999917E-3,319.99999285E-3,
,,,22.65999839E-3,319.99999285E-3,
,,,22.67999947E-3,319.99999285E-3,
,,,22.69999869E-3,319.99999285E-3,
,,,22.71999978E-3,319.99999285E-3,
,,,22.73999900E-3,319.99999285E-3,
,,,22.75999822E-3,319.99999285E-3,
,,,22.77999930E-3,399.99997616E-3,
,,,22.79999852E-3,319.99999285E-3,
,,,22.81999961E-3,319.99999285E-3,
,,,22.83999883E-3,319.99999285E-3,
,,,22.85999991E-3,319.99999285E-3,
,,,22.87999913E-3,319.99999285E-3,
,,,22.89999835E-3,319.99999285E-3,
,,,22.91999944E-3,319.99999285E-3,
,,,22.93999866E-3,319.99999285E-3,
,,,22.95999974E-3,319.99999285E-3,
,,,22.97999896E-3,319.99999285E-3,
,,,22.99999818E-3,319.99999285E-3,
,,,23.01999927E-3,319.99999285E-3,
,,,23.03999849E-3,319.99999285E-3,
,,,23.05999957E-3,319.99999285E-3,
,,,23.07999879E-3,319.99999285E-3,
,,,23.09999987E-3,319.99999285E-3,
,,,23.11999910E-3,319.99999285E-3,
,,,23.13999832E-3,319.99999285E-3,
,,,23.15999940E-3,319.99999285E-3,
,,,23.17999862E-3,319.99999285E-3,
,,,23.19999970E-3,319.99999285E-3,
,,,23.21999893E-3,319.99999285E-3,
,,,23.23999815E-3,319.99999285E-3,
,,,23.25999923E-3,319.99999285E-3,
,,,23.27999845E-3,319.99999285E-3,
,,,23.29999954E-3,239.99999464E-3,
,,,23.31999876E-3,319.99999285E-3,
,,,23.33999984E-3,319.99999285E-3,
,,,23.35999906E-3,239.99999464E-3,
,,,23.37999828E-3,319.99999285E-3,
,,,23.39999937E-3,319.99999285E-3,
,,,23.41999859E-3,319.99999285E-3,
,,,23.43999967E-3,239.99999464E-3,
,,,23.45999889E-3,239.99999464E-3,
,,,23.47999811E-3,239.99999464E-3,
,,,23.49999920E-3,239.99999464E-3,
,,,23.51999842E-3,319.99999285E-3,
,,,23.53999950E-3,239.99999464E-3,
,,,23.55999872E-3,319.99999285E-3,
,,,23.57999980E-3,239.99999464E-3,
,,,23.59999903E-3,239.99999464E-3,
,,,23.61999825E-3,239.99999464E-3,
,,,23.63999933E-3,239.99999464E-3,
,,,23.65999855E-3,319.99999285E-3,
,,,23.67999963E-3,239.99999464E-3,
,,,23.69999886E-3,239.99999464E-3,
,,,23.71999808E-3,239.99999464E-3,
,,,23.73999916E-3,239.99999464E-3,
,,,23.75999838E-3,239.99999464E-3,
,,,23.77999946E-3,239.99999464E-3,
,,,23.79999869E-3,239.99999464E-3,
,,,23.81999977E-3,239.99999464E-3,
,,,23.83999899E-3,239.99999464E-3,
,,,23.85999821E-3,239.99999464E-3,
,,,23.87999929E-3,239.99999464E-3,
,,,23.89999852E-3,239.99999464E-3,
,,,23.91999960E-3,239.99999464E-3,
,,,23.93999882E-3,239.99999464E-3,
,,,23.95999804E-3,239.99999464E-3,
,,,23.97999913E-3,239.99999464E-3,
,,,23.99999835E-3,239.99999464E-3,
,,,24.01999943E-3,239.99999464E-3,
,,,24.03999865E-3,239.99999464E-3,
,,,24.05999973E-3,239.99999464E-3,
,,,24.07999896E-3,239.99999464E-3,
,,,24.09999818E-3,239.99999464E-3,
,,,24.11999926E-3,239.99999464E-3,
,,,24.13999848E-3,239.99999464E-3,
,,,24.15999956E-3,239.99999464E-3,
,,,24.17999879E-3,239.99999464E-3,
,,,24.19999987E-3,239.99999464E-3,
,,,24.21999909E-3,239.99999464E-3,
,,,24.23999831E-3,239.99999464E-3,
,,,24.25999939E-3,239.99999464E-3,
,,,24.27999862E-3,239.99999464E-3,
,,,24.29999970E-3,239.99999464E-3,
,,,24.31999892E-3,239.99999464E-3,
,,,24.33999814E-3,239.99999464E-3,
,,,24.35999922E-3,239.99999464E-3,
,,,24.37999845E-3,239.99999464E-3,
,,,24.39999953E-3,239.99999464E-3,
,,,24.41999875E-3,239.99999464E-3,
,,,24.43999983E-3,239.99999464E-3,
,,,24.45999905E-3,239.99999464E-3,
,,,24.47999828E-3,239.99999464E-3,
,,,24.49999936E-3,239.99999464E-3,
,,,24.51999858E-3,239.99999464E-3,
,,,24.53999966E-3,239.99999464E-3,
,,,24.55999888E-3,159.99999642E-3,
,,,24.57999811E-3,239.99999464E-3,
,,,24.59999919E-3,239.99999464E-3,
,,,24.61999841E-3,239.99999464E-3,
,,,24.63999949E-3,239.99999464E-3,
,,,24.65999871E-3,239.99999464E-3,
,,,24.67999980E-3,239.99999464E-3,
,,,24.69999902E-3,239.99999464E-3,
,,,24.71999824E-3,239.99999464E-3,
,,,24.73999932E-3,239.99999464E-3,
,,,24.75999855E-3,239.99999464E-3,
,,,24.77999963E-3,239.99999464E-3,
,,,24.79999885E-3,239.99999464E-3,
,,,24.81999807E-3,239.99999464E-3,
,,,24.83999915E-3,159.99999642E-3,
,,,24.85999838E-3,239.99999464E-3,
,,,24.87999946E-3,239.99999464E-3,
,,,24.89999868E-3,239.99999464E-3,
,,,24.91999976E-3,239.99999464E-3,
,,,24.93999898E-3,239.99999464E-3,
,,,24.95999821E-3,239.99999464E-3,
,,,24.97999929E-3,239.99999464E-3,
,,,24.99999851E-3,239.99999464E-3,
,,,25.01999959E-3,239.99999464E-3,
,,,25.03999881E-3,159.99999642E-3,
,,,25.05999804E-3,239.99999464E-3,
,,,25.07999912E-3,239.99999464E-3,
,,,25.09999834E-3,239.99999464E-3,
,,,25.11999942E-3,239.99999464E-3,
,,,25.13999864E-3,239.99999464E-3,
,,,25.15999973E-3,239.99999464E-3,
,,,25.17999895E-3,239.99999464E-3,
,,,25.19999817E-3,239.99999464E-3,
,,,25.21999925E-3,239.99999464E-3,
,,,25.23999847E-3,239.99999464E-3,
,,,25.25999956E-3,239.99999464E-3,
,,,25.27999878E-3,239.99999464E-3,
,,,25.29999986E-3,239.99999464E-3,
,,,25.31999908E-3,159.99999642E-3,
,,,25.33999830E-3,239.99999464E-3,
,,,25.35999939E-3,239.99999464E-3,
,,,25.37999861E-3,239.99999464E-3,
,,,25.39999969E-3,239.99999464E-3,
,,,25.41999891E-3,159.99999642E-3,
,,,25.43999813E-3,239.99999464E-3,
,,,25.45999922E-3,239.99999464E-3,
,,,25.47999844E-3,239.99999464E-3,
,,,25.49999952E-3,239.99999464E-3,
,,,25.51999874E-3,239.99999464E-3,
,,,25.53999983E-3,159.99999642E-3,
,,,25.55999905E-3,239.99999464E-3,
,,,25.57999827E-3,239.99999464E-3,
,,,25.59999935E-3,239.99999464E-3,
,,,25.61999857E-3,159.99999642E-3,
,,,25.63999966E-3,159.99999642E-3,
,,,25.65999888E-3,159.99999642E-3,
,,,25.67999810E-3,239.99999464E-3,
,,,25.69999918E-3,159.99999642E-3,
,,,25.71999840E-3,159.99999642E-3,
,,,25.73999949E-3,159.99999642E-3,
,,,25.75999871E-3,159.99999642E-3,
,,,25.77999979E-3,239.99999464E-3,
,,,25.79999901E-3,239.99999464E-3,
,,,25.81999823E-3,239.99999464E-3,
,,,25.83999932E-3,239.99999464E-3,
,,,25.85999854E-3,159.99999642E-3,
,,,25.87999962E-3,159.99999642E-3,
,,,25.89999884E-3,239.99999464E-3,
,,,25.91999806E-3,239.99999464E-3,
,,,25.93999915E-3,159.99999642E-3,
,,,25.95999837E-3,239.99999464E-3,
,,,25.97999945E-3,239.99999464E-3,
,,,25.99999867E-3,239.99999464E-3,
,,,26.01999976E-3,239.99999464E-3,
,,,26.03999898E-3,239.99999464E-3,
,,,26.05999820E-3,159.99999642E-3,
,,,26.07999928E-3,159.99999642E-3,
,,,26.09999850E-3,159.99999642E-3,
,,,26.11999959E-3,159.99999642E-3,
,,,26.13999881E-3,239.99999464E-3,
,,,26.15999803E-3,239.99999464E-3,
,,,26.17999911E-3,159.99999642E-3,
,,,26.19999833E-3,239.99999464E-3,
,,,26.21999942E-3,239.99999464E-3,
,,,26.23999864E-3,239.99999464E-3,
,,,26.25999972E-3,159.99999642E-3,
,,,26.27999894E-3,239.99999464E-3,
,,,26.29999816E-3,159.99999642E-3,
,,,26.31999925E-3,239.99999464E-3,
,,,26.33999847E-3,159.99999642E-3,
,,,26.35999955E-3,239.99999464E-3,
,,,26.37999877E-3,239.99999464E-3,
,,,26.39999799E-3,239.99999464E-3,
,,,26.41999908E-3,159.99999642E-3,
,,,26.43999830E-3,159.99999642E-3,
,,,26.45999938E-3,239.99999464E-3,
,,,26.47999860E-3,239.99999464E-3,
,,,26.49999969E-3,239.99999464E-3,
,,,26.51999891E-3,239.99999464E-3,
,,,26.53999813E-3,239.99999464E-3,
,,,26.55999921E-3,239.99999464E-3,
,,,26.57999843E-3,159.99999642E-3,
,,,26.59999952E-3,239.99999464E-3,
,,,26.61999874E-3,239.99999464E-3,
,,,26.63999982E-3,159.99999642E-3,
,,,26.65999904E-3,239.99999464E-3,
,,,26.67999826E-3,239.99999464E-3,
,,,26.69999935E-3,239.99999464E-3,
,,,26.71999857E-3,239.99999464E-3,
,,,26.73999965E-3,239.99999464E-3,
,,,26.75999887E-3,159.99999642E-3,
,,,26.77999809E-3,239.99999464E-3,
,,,26.79999918E-3,239.99999464E-3,
,,,26.81999840E-3,239.99999464E-3,
,,,26.83999948E-3,239.99999464E-3,
,,,26.85999870E-3,239.99999464E-3,
,,,26.87999979E-3,239.99999464E-3,
,,,26.89999901E-3,239.99999464E-3,
,,,26.91999823E-3,159.99999642E-3,
,,,26.93999931E-3,239.99999464E-3,
,,,26.95999853E-3,239.99999464E-3,
,,,26.97999962E-3,239.99999464E-3,
,,,26.99999884E-3,239.99999464E-3,
,,,27.01999806E-3,239.99999464E-3,
,,,27.03999914E-3,239.99999464E-3,
,,,27.05999836E-3,239.99999464E-3,
,,,27.07999945E-3,239.99999464E-3,
,,,27.09999867E-3,239.99999464E-3,
,,,27.11999975E-3,239.99999464E-3,
,,,27.13999897E-3,239.99999464E-3,
,,,27.15999819E-3,239.99999464E-3,
,,,27.17999928E-3,239.99999464E-3,
,,,27.19999850E-3,239.99999464E-3,
,,,27.21999958E-3,239.99999464E-3,
,,,27.23999880E-3,239.99999464E-3,
,,,27.25999802E-3,239.99999464E-3,
,,,27.27999911E-3,239.99999464E-3,
,,,27.29999833E-3,239.99999464E-3,
,,,27.31999941E-3,239.99999464E-3,
,,,27.33999863E-3,239.99999464E-3,
,,,27.35999972E-3,239.99999464E-3,
,,,27.37999894E-3,239.99999464E-3,
,,,27.39999816E-3,239.99999464E-3,
,,,27.41999924E-3,239.99999464E-3,
,,,27.43999846E-3,239.99999464E-3,
,,,27.45999955E-3,239.99999464E-3,
,,,27.47999877E-3,239.99999464E-3,
,,,27.49999799E-3,239.99999464E-3,
,,,27.51999907E-3,239.99999464E-3,
,,,27.53999829E-3,239.99999464E-3,
,,,27.55999938E-3,239.99999464E-3,
,,,27.57999860E-3,239.99999464E-3,
,,,27.59999968E-3,239.99999464E-3,
,,,27.61999890E-3,239.99999464E-3,
,,,27.63999812E-3,239.99999464E-3,
,,,27.65999921E-3,239.99999464E-3,
,,,27.67999843E-3,239.99999464E-3,
,,,27.69999951E-3,239.99999464E-3,
,,,27.71999873E-3,239.99999464E-3,
,,,27.73999795E-3,239.99999464E-3,
,,,27.75999904E-3,239.99999464E-3,
,,,27.77999826E-3,239.99999464E-3,
,,,27.79999934E-3,239.99999464E-3,
,,,27.81999856E-3,239.99999464E-3,
,,,27.83999965E-3,239.99999464E-3,
,,,27.85999887E-3,239.99999464E-3,
,,,27.87999809E-3,239.99999464E-3,
,,,27.89999917E-3,239.99999464E-3,
,,,27.91999839E-3,239.99999464E-3,
,,,27.93999948E-3,239.99999464E-3,
,,,27.95999870E-3,239.99999464E-3,
,,,27.97999978E-3,239.99999464E-3,
,,,27.99999900E-3,239.99999464E-3,
,,,28.01999822E-3,239.99999464E-3,
,,,28.03999931E-3,239.99999464E-3,
,,,28.05999853E-3,239.99999464E-3,
,,,28.07999961E-3,239.99999464E-3,
,,,28.09999883E-3,239.99999464E-3,
,,,28.11999805E-3,239.99999464E-3,
,,,28.13999914E-3,239.99999464E-3,
,,,28.15999836E-3,239.99999464E-3,
,,,28.17999944E-3,319.99999285E-3,
,,,28.19999866E-3,239.99999464E-3,
,,,28.21999975E-3,239.99999464E-3,
,,,28.23999897E-3,319.99999285E-3,
,,,28.25999819E-3,239.99999464E-3,
,,,28.27999927E-3,239.99999464E-3,
,,,28.29999849E-3,239.99999464E-3,
,,,28.31999958E-3,239.99999464E-3,
,,,28.33999880E-3,239.99999464E-3,
,,,28.35999802E-3,239.99999464E-3,
,,,28.37999910E-3,239.99999464E-3,
,,,28.39999832E-3,239.99999464E-3,
,,,28.41999941E-3,239.99999464E-3,
,,,28.43999863E-3,239.99999464E-3,
,,,28.45999971E-3,239.99999464E-3,
,,,28.47999893E-3,239.99999464E-3,
,,,28.49999815E-3,239.99999464E-3,
,,,28.51999924E-3,239.99999464E-3,
,,,28.53999846E-3,239.99999464E-3,
,,,28.55999954E-3,239.99999464E-3,
,,,28.57999876E-3,239.99999464E-3,
,,,28.59999798E-3,319.99999285E-3,
,,,28.61999907E-3,239.99999464E-3,
,,,28.63999829E-3,319.99999285E-3,
,,,28.65999937E-3,239.99999464E-3,
,,,28.67999859E-3,319.99999285E-3,
,,,28.69999968E-3,319.99999285E-3,
,,,28.71999890E-3,319.99999285E-3,
,,,28.73999812E-3,319.99999285E-3,
,,,28.75999920E-3,239.99999464E-3,
,,,28.77999842E-3,239.99999464E-3,
,,,28.79999951E-3,239.99999464E-3,
,,,28.81999873E-3,319.99999285E-3,
,,,28.83999795E-3,319.99999285E-3,
,,,28.85999903E-3,239.99999464E-3,
,,,28.87999825E-3,319.99999285E-3,
,,,28.89999934E-3,239.99999464E-3,
,,,28.91999856E-3,319.99999285E-3,
,,,28.93999964E-3,239.99999464E-3,
,,,28.95999886E-3,319.99999285E-3,
,,,28.97999808E-3,239.99999464E-3,
,,,28.99999917E-3,319.99999285E-3,
,,,29.01999839E-3,319.99999285E-3,
,,,29.03999947E-3,319.99999285E-3,
,,,29.05999869E-3,319.99999285E-3,
,,,29.07999977E-3,319.99999285E-3,
,,,29.09999900E-3,319.99999285E-3,
,,,29.11999822E-3,239.99999464E-3,
,,,29.13999930E-3,319.99999285E-3,
,,,29.15999852E-3,319.99999285E-3,
,,,29.17999960E-3,319.99999285E-3,
,,,29.19999883E-3,319.99999285E-3,
,,,29.21999805E-3,319.99999285E-3,
,,,29.23999913E-3,319.99999285E-3,
,,,29.25999835E-3,319.99999285E-3,
,,,29.27999943E-3,319.99999285E-3,
,,,29.29999866E-3,319.99999285E-3,
,,,29.31999974E-3,319.99999285E-3,
,,,29.33999896E-3,319.99999285E-3,
,,,29.35999818E-3,319.99999285E-3,
,,,29.37999927E-3,319.99999285E-3,
,,,29.39999849E-3,319.99999285E-3,
,,,29.41999957E-3,319.99999285E-3,
,,,29.43999879E-3,319.99999285E-3,
,,,29.45999801E-3,319.99999285E-3,
,,,29.47999910E-3,319.99999285E-3,
,,,29.49999832E-3,319.99999285E-3,
,,,29.51999940E-3,319.99999285E-3,
,,,29.53999862E-3,319.99999285E-3,
,,,29.55999970E-3,319.99999285E-3,
,,,29.57999893E-3,319.99999285E-3,
,,,29.59999815E-3,319.99999285E-3,
,,,29.61999923E-3,319.99999285E-3,
,,,29.63999845E-3,319.99999285E-3,
,,,29.65999953E-3,319.99999285E-3,
,,,29.67999876E-3,319.99999285E-3,
,,,29.69999798E-3,319.99999285E-3,
,,,29.71999906E-3,319.99999285E-3,
,,,29.73999828E-3,319.99999285E-3,
,,,29.75999936E-3,319.99999285E-3,
,,,29.77999859E-3,319.99999285E-3,
,,,29.79999967E-3,319.99999285E-3,
,,,29.81999889E-3,319.99999285E-3,
,,,29.83999811E-3,319.99999285E-3,
,,,29.85999919E-3,319.99999285E-3,
,,,29.87999842E-3,319.99999285E-3,
,,,29.89999950E-3,319.99999285E-3,
,,,29.91999872E-3,319.99999285E-3,
,,,29.93999794E-3,319.99999285E-3,
,,,29.95999902E-3,319.99999285E-3,
,,,29.97999825E-3,319.99999285E-3,
,,,29.99999933E-3,319.99999285E-3,
,,,30.01999855E-3,319.99999285E-3,
,,,30.03999963E-3,319.99999285E-3,
,,,30.05999885E-3,319.99999285E-3,
,,,30.07999808E-3,399.99997616E-3,
,,,30.09999916E-3,319.99999285E-3,
,,,30.11999838E-3,319.99999285E-3,
,,,30.13999946E-3,319.99999285E-3,
,,,30.15999869E-3,319.99999285E-3,
,,,30.17999791E-3,319.99999285E-3,
,,,30.19999899E-3,319.99999285E-3,
,,,30.21999821E-3,319.99999285E-3,
,,,30.23999929E-3,319.99999285E-3,
,,,30.25999852E-3,319.99999285E-3,
,,,30.27999960E-3,319.99999285E-3,
,,,30.29999882E-3,319.99999285E-3,
,,,30.31999804E-3,319.99999285E-3,
,,,30.33999912E-3,319.99999285E-3,
,,,30.35999835E-3,399.99997616E-3,
,,,30.37999943E-3,319.99999285E-3,
,,,30.39999865E-3,319.99999285E-3,
,,,30.41999973E-3,319.99999285E-3,
,,,30.43999895E-3,319.99999285E-3,
,,,30.45999818E-3,319.99999285E-3,
,,,30.47999926E-3,399.99997616E-3,
,,,30.49999848E-3,399.99997616E-3,
,,,30.51999956E-3,399.99997616E-3,
,,,30.53999878E-3,319.99999285E-3,
,,,30.55999801E-3,319.99999285E-3,
,,,30.57999909E-3,399.99997616E-3,
,,,30.59999831E-3,319.99999285E-3,
,,,30.61999939E-3,399.99997616E-3,
,,,30.63999861E-3,399.99997616E-3,
,,,30.65999970E-3,399.99997616E-3,
,,,30.67999892E-3,399.99997616E-3,
,,,30.69999814E-3,399.99997616E-3,
,,,30.71999922E-3,399.99997616E-3,
,,,30.73999844E-3,399.99997616E-3,
,,,30.75999953E-3,399.99997616E-3,
,,,30.77999875E-3,399.99997616E-3,
,,,30.79999797E-3,399.99997616E-3,
,,,30.81999905E-3,399.99997616E-3,
,,,30.83999828E-3,399.99997616E-3,
,,,30.85999936E-3,399.99997616E-3,
,,,30.87999858E-3,399.99997616E-3,
,,,30.89999966E-3,399.99997616E-3,
,,,30.91999888E-3,399.99997616E-3,
,,,30.93999811E-3,399.99997616E-3,
,,,30.95999919E-3,399.99997616E-3,
,,,30.97999841E-3,399.99997616E-3,
,,,30.99999949E-3,399.99997616E-3,
,,,31.01999871E-3,399.99997616E-3,
,,,31.03999794E-3,399.99997616E-3,
,,,31.05999902E-3,399.99997616E-3,
,,,31.07999824E-3,399.99997616E-3,
,,,31.09999932E-3,399.99997616E-3,
,,,31.11999854E-3,399.99997616E-3,
,,,31.13999963E-3,399.99997616E-3,
,,,31.15999885E-3,399.99997616E-3,
,,,31.17999807E-3,399.99997616E-3,
,,,31.19999915E-3,399.99997616E-3,
,,,31.21999837E-3,399.99997616E-3,
,,,31.23999946E-3,399.99997616E-3,
,,,31.25999868E-3,399.99997616E-3,
,,,31.27999976E-3,399.99997616E-3,
,,,31.29999712E-3,399.99997616E-3,
,,,31.31999820E-3,399.99997616E-3,
,,,31.33999929E-3,399.99997616E-3,
,,,31.36000037E-3,399.99997616E-3,
,,,31.37999773E-3,399.99997616E-3,
,,,31.39999881E-3,399.99997616E-3,
,,,31.41999990E-3,399.99997616E-3,
,,,31.43999726E-3,399.99997616E-3,
,,,31.45999834E-3,479.999989271E-3,
,,,31.47999942E-3,479.999989271E-3,
,,,31.50000051E-3,399.99997616E-3,
,,,31.51999786E-3,399.99997616E-3,
,,,31.53999895E-3,399.99997616E-3,
,,,31.56000003E-3,399.99997616E-3,
,,,31.57999739E-3,399.99997616E-3,
,,,31.59999847E-3,399.99997616E-3,
,,,31.61999956E-3,479.999989271E-3,
,,,31.64000064E-3,479.999989271E-3,
,,,31.65999800E-3,479.999989271E-3,
,,,31.67999908E-3,399.99997616E-3,
,,,31.70000017E-3,399.99997616E-3,
,,,31.71999753E-3,399.99997616E-3,
,,,31.73999861E-3,399.99997616E-3,
,,,31.75999969E-3,399.99997616E-3,
,,,31.77999705E-3,479.999989271E-3,
,,,31.79999813E-3,479.999989271E-3,
,,,31.81999922E-3,399.99997616E-3,
,,,31.84000030E-3,399.99997616E-3,
,,,31.85999766E-3,399.99997616E-3,
,,,31.87999874E-3,399.99997616E-3,
,,,31.89999983E-3,479.999989271E-3,
,,,31.91999719E-3,479.999989271E-3,
,,,31.93999827E-3,479.999989271E-3,
,,,31.95999935E-3,479.999989271E-3,
,,,31.98000044E-3,479.999989271E-3,
,,,31.99999779E-3,479.999989271E-3,
,,,32.01999888E-3,479.999989271E-3,
,,,32.03999996E-3,479.999989271E-3,
,,,32.05999732E-3,479.999989271E-3,
,,,32.07999840E-3,479.999989271E-3,
,,,32.09999949E-3,479.999989271E-3,
,,,32.12000057E-3,479.999989271E-3,
,,,32.13999793E-3,479.999989271E-3,
,,,32.15999901E-3,479.999989271E-3,
,,,32.18000010E-3,479.999989271E-3,
,,,32.19999745E-3,479.999989271E-3,
,,,32.21999854E-3,479.999989271E-3,
,,,32.23999962E-3,479.999989271E-3,
,,,32.25999698E-3,479.999989271E-3,
,,,32.27999806E-3,479.999989271E-3,
,,,32.29999915E-3,479.999989271E-3,
,,,32.32000023E-3,479.999989271E-3,
,,,32.33999759E-3,479.999989271E-3,
,,,32.35999867E-3,479.999989271E-3,
,,,32.37999976E-3,479.999989271E-3,
,,,32.39999712E-3,479.999989271E-3,
,,,32.41999820E-3,479.999989271E-3,
,,,32.43999928E-3,479.999989271E-3,
,,,32.46000037E-3,479.999989271E-3,
,,,32.47999772E-3,479.999989271E-3,
,,,32.49999881E-3,479.999989271E-3,
,,,32.51999989E-3,479.999989271E-3,
,,,32.53999725E-3,479.999989271E-3,
,,,32.55999833E-3,479.999989271E-3,
,,,32.57999942E-3,479.999989271E-3,
,,,32.60000050E-3,479.999989271E-3,
,,,32.61999786E-3,479.999989271E-3,
,,,32.63999894E-3,479.999989271E-3,
,,,32.66000003E-3,479.999989271E-3,
,,,32.67999738E-3,479.999989271E-3,
,,,32.69999847E-3,479.999989271E-3,
,,,32.71999955E-3,479.999989271E-3,
,,,32.73999691E-3,560.000002384E-3,
,,,32.75999799E-3,560.000002384E-3,
,,,32.77999908E-3,560.000002384E-3,
,,,32.80000016E-3,560.000002384E-3,
,,,32.81999752E-3,560.000002384E-3,
,,,32.83999860E-3,560.000002384E-3,
,,,32.85999969E-3,560.000002384E-3,
,,,32.87999704E-3,479.999989271E-3,
,,,32.89999813E-3,560.000002384E-3,
,,,32.91999921E-3,560.000002384E-3,
,,,32.94000030E-3,560.000002384E-3,
,,,32.95999765E-3,560.000002384E-3,
,,,32.97999874E-3,560.000002384E-3,
,,,32.99999982E-3,560.000002384E-3,
,,,33.01999718E-3,560.000002384E-3,
,,,33.03999826E-3,560.000002384E-3,
,,,33.05999935E-3,560.000002384E-3,
,,,33.08000043E-3,560.000002384E-3,
,,,33.09999779E-3,560.000002384E-3,
,,,33.11999887E-3,560.000002384E-3,
,,,33.13999996E-3,560.000002384E-3,
,,,33.15999731E-3,560.000002384E-3,
,,,33.17999840E-3,560.000002384E-3,
,,,33.19999948E-3,560.000002384E-3,
,,,33.22000057E-3,560.000002384E-3,
,,,33.23999792E-3,560.000002384E-3,
,,,33.25999901E-3,560.000002384E-3,
,,,33.28000009E-3,560.000002384E-3,
,,,33.29999745E-3,560.000002384E-3,
,,,33.31999853E-3,560.000002384E-3,
,,,33.33999962E-3,560.000002384E-3,
,,,33.35999697E-3,560.000002384E-3,
,,,33.37999806E-3,560.000002384E-3,
,,,33.39999914E-3,560.000002384E-3,
,,,33.42000023E-3,560.000002384E-3,
,,,33.43999758E-3,639.999985695E-3,
,,,33.45999867E-3,560.000002384E-3,
,,,33.47999975E-3,560.000002384E-3,
,,,33.49999711E-3,560.000002384E-3,
,,,33.51999819E-3,560.000002384E-3,
,,,33.53999928E-3,639.999985695E-3,
,,,33.56000036E-3,560.000002384E-3,
,,,33.57999772E-3,560.000002384E-3,
,,,33.59999880E-3,560.000002384E-3,
,,,33.61999989E-3,560.000002384E-3,
,,,33.63999724E-3,560.000002384E-3,
,,,33.65999833E-3,639.999985695E-3,
,,,33.67999941E-3,639.999985695E-3,
,,,33.70000049E-3,560.000002384E-3,
,,,33.71999785E-3,560.000002384E-3,
,,,33.73999894E-3,639.999985695E-3,
,,,33.76000002E-3,639.999985695E-3,
,,,33.77999738E-3,560.000002384E-3,
,,,33.79999846E-3,560.000002384E-3,
,,,33.81999955E-3,639.999985695E-3,
,,,33.83999690E-3,639.999985695E-3,
,,,33.85999799E-3,560.000002384E-3,
,,,33.87999907E-3,639.999985695E-3,
,,,33.90000015E-3,639.999985695E-3,
,,,33.91999751E-3,639.999985695E-3,
,,,33.93999860E-3,639.999985695E-3,
,,,33.95999968E-3,639.999985695E-3,
,,,33.97999704E-3,639.999985695E-3,
,,,33.99999812E-3,639.999985695E-3,
,,,34.01999921E-3,639.999985695E-3,
,,,34.04000029E-3,639.999985695E-3,
,,,34.05999765E-3,639.999985695E-3,
,,,34.07999873E-3,639.999985695E-3,
,,,34.09999982E-3,639.999985695E-3,
,,,34.11999717E-3,639.999985695E-3,
,,,34.13999826E-3,639.999985695E-3,
,,,34.15999934E-3,639.999985695E-3,
,,,34.18000042E-3,639.999985695E-3,
,,,34.19999778E-3,719.999969006E-3,
,,,34.21999887E-3,719.999969006E-3,
,,,34.23999995E-3,719.999969006E-3,
,,,34.25999731E-3,719.999969006E-3,
,,,34.27999839E-3,639.999985695E-3,
,,,34.29999948E-3,719.999969006E-3,
,,,34.32000056E-3,719.999969006E-3,
,,,34.33999792E-3,719.999969006E-3,
,,,34.35999900E-3,719.999969006E-3,
,,,34.38000008E-3,719.999969006E-3,
,,,34.39999744E-3,719.999969006E-3,
,,,34.41999853E-3,719.999969006E-3,
,,,34.43999961E-3,719.999969006E-3,
,,,34.45999697E-3,719.999969006E-3,
,,,34.47999805E-3,719.999969006E-3,
,,,34.49999914E-3,719.999969006E-3,
,,,34.52000022E-3,719.999969006E-3,
,,,34.53999758E-3,719.999969006E-3,
,,,34.55999866E-3,719.999969006E-3,
,,,34.57999974E-3,719.999969006E-3,
,,,34.59999710E-3,719.999969006E-3,
,,,34.61999819E-3,719.999969006E-3,
,,,34.63999927E-3,719.999969006E-3,
,,,34.66000035E-3,719.999969006E-3,
,,,34.67999771E-3,719.999969006E-3,
,,,34.69999880E-3,799.999952316E-3,
,,,34.71999988E-3,719.999969006E-3,
,,,34.73999724E-3,719.999969006E-3,
,,,34.75999832E-3,719.999969006E-3,
,,,34.77999941E-3,799.999952316E-3,
,,,34.80000049E-3,799.999952316E-3,
,,,34.81999785E-3,799.999952316E-3,
,,,34.83999893E-3,799.999952316E-3,
,,,34.86000001E-3,799.999952316E-3,
,,,34.87999737E-3,799.999952316E-3,
,,,34.89999846E-3,799.999952316E-3,
,,,34.91999954E-3,799.999952316E-3,
,,,34.93999690E-3,799.999952316E-3,
,,,34.95999798E-3,799.999952316E-3,
,,,34.97999907E-3,799.999952316E-3,
,,,35.00000015E-3,799.999952316E-3,
,,,35.01999751E-3,799.999952316E-3,
,,,35.03999859E-3,799.999952316E-3,
,,,35.05999967E-3,799.999952316E-3,
,,,35.07999703E-3,799.999952316E-3,
,,,35.09999812E-3,799.999952316E-3,
,,,35.11999920E-3,799.999952316E-3,
,,,35.14000028E-3,799.999952316E-3,
,,,35.15999764E-3,799.999952316E-3,
,,,35.17999873E-3,799.999952316E-3,
,,,35.19999981E-3,799.999952316E-3,
,,,35.21999717E-3,799.999952316E-3,
,,,35.23999825E-3,799.999952316E-3,
,,,35.25999933E-3,799.999952316E-3,
,,,35.28000042E-3,799.999952316E-3,
,,,35.29999778E-3,799.999952316E-3,
,,,35.31999886E-3,799.999952316E-3,
,,,35.33999994E-3,799.999952316E-3,
,,,35.35999730E-3,799.999952316E-3,
,,,35.37999839E-3,879.999995232E-3,
,,,35.39999947E-3,799.999952316E-3,
,,,35.41999683E-3,799.999952316E-3,
,,,35.43999791E-3,799.999952316E-3,
,,,35.45999900E-3,879.999995232E-3,
,,,35.48000008E-3,879.999995232E-3,
,,,35.49999744E-3,879.999995232E-3,
,,,35.51999852E-3,879.999995232E-3,
,,,35.53999960E-3,879.999995232E-3,
,,,35.55999696E-3,879.999995232E-3,
,,,35.57999805E-3,879.999995232E-3,
,,,35.59999913E-3,879.999995232E-3,
,,,35.62000021E-3,879.999995232E-3,
,,,35.63999757E-3,879.999995232E-3,
,,,35.65999866E-3,879.999995232E-3,
,,,35.67999974E-3,879.999995232E-3,
,,,35.69999710E-3,879.999995232E-3,
,,,35.71999818E-3,879.999995232E-3,
,,,35.73999926E-3,959.999978542E-3,
,,,35.76000035E-3,959.999978542E-3,
,,,35.77999771E-3,879.999995232E-3,
,,,35.79999879E-3,959.999978542E-3,
,,,35.81999987E-3,959.999978542E-3,
,,,35.83999723E-3,959.999978542E-3,
,,,35.85999832E-3,959.999978542E-3,
,,,35.87999940E-3,959.999978542E-3,
,,,35.90000048E-3,959.999978542E-3,
,,,35.91999784E-3,959.999978542E-3,
,,,35.93999892E-3,959.999978542E-3,
,,,35.96000001E-3,959.999978542E-3,
,,,35.97999737E-3,959.999978542E-3,
,,,35.99999845E-3,1.0400000,
,,,36.01999953E-3,959.999978542E-3,
,,,36.03999689E-3,1.0400000,
,,,36.05999798E-3,1.0400000,
,,,36.07999906E-3,1.0400000,
,,,36.10000014E-3,1.0400000,
,,,36.11999750E-3,1.0400000,
,,,36.13999858E-3,1.0400000,
,,,36.15999967E-3,1.0400000,
,,,36.17999703E-3,1.0400000,
,,,36.19999811E-3,1.0400000,
,,,36.21999919E-3,1.0400000,
,,,36.24000028E-3,1.1200000,
,,,36.25999764E-3,1.0400000,
,,,36.27999872E-3,1.1200000,
,,,36.29999980E-3,1.1200000,
,,,36.31999716E-3,1.1200000,
,,,36.33999825E-3,1.1200000,
,,,36.35999933E-3,1.1200000,
,,,36.38000041E-3,1.1200000,
,,,36.39999777E-3,1.1200000,
,,,36.41999885E-3,1.1200000,
,,,36.43999994E-3,1.1200000,
,,,36.45999730E-3,1.1200000,
,,,36.47999838E-3,1.1999999,
,,,36.49999946E-3,1.1999999,
,,,36.51999682E-3,1.1999999,
,,,36.53999791E-3,1.1999999,
,,,36.55999899E-3,1.1999999,
,,,36.58000007E-3,1.1999999,
,,,36.59999743E-3,1.1999999,
,,,36.61999851E-3,1.1999999,
,,,36.63999960E-3,1.2800000,
,,,36.65999696E-3,1.2800000,
,,,36.67999804E-3,1.2800000,
,,,36.69999912E-3,1.2800000,
,,,36.72000021E-3,1.2800000,
,,,36.73999757E-3,1.2800000,
,,,36.75999865E-3,1.3600000,
,,,36.77999973E-3,1.3600000,
,,,36.79999709E-3,1.3600000,
,,,36.81999817E-3,1.3600000,
,,,36.83999926E-3,1.3600000,
,,,36.86000034E-3,1.3600000,
,,,36.87999770E-3,1.3600000,
,,,36.89999878E-3,1.3600000,
,,,36.91999987E-3,1.3600000,
,,,36.93999723E-3,1.4399999,
,,,36.95999831E-3,1.4399999,
,,,36.97999939E-3,1.4399999,
,,,37.00000048E-3,1.4399999,
,,,37.01999784E-3,1.4399999,
,,,37.03999892E-3,1.5200000,
,,,37.06000000E-3,1.5200000,
,,,37.07999736E-3,1.5200000,
,,,37.09999844E-3,1.5200000,
,,,37.11999953E-3,1.5200000,
,,,37.13999689E-3,1.5200000,
,,,37.15999797E-3,1.5200000,
,,,37.17999905E-3,1.5999999,
,,,37.20000014E-3,1.5999999,
,,,37.21999750E-3,1.5999999,
,,,37.23999858E-3,1.5999999,
,,,37.25999966E-3,1.5999999,
,,,37.27999702E-3,1.5999999,
,,,37.29999810E-3,1.5999999,
,,,37.31999919E-3,1.5999999,
,,,37.34000027E-3,1.6799999,
,,,37.35999763E-3,1.6799999,
,,,37.37999871E-3,1.6799999,
,,,37.39999980E-3,1.6799999,
,,,37.41999716E-3,1.6799999,
,,,37.43999824E-3,1.7600000,
,,,37.45999932E-3,1.7600000,
,,,37.48000041E-3,1.7600000,
,,,37.49999776E-3,1.7600000,
,,,37.51999885E-3,1.8399999,
,,,37.53999993E-3,1.8399999,
,,,37.55999729E-3,1.8399999,
,,,37.57999837E-3,1.8399999,
,,,37.59999946E-3,1.9200000,
,,,37.61999682E-3,1.9200000,
,,,37.63999790E-3,1.9200000,
,,,37.65999898E-3,2.0000000,
,,,37.68000007E-3,2.0799999,
,,,37.69999743E-3,2.0799999,
,,,37.71999851E-3,2.0799999,
,,,37.73999959E-3,2.1599998,
,,,37.75999695E-3,2.2400000,
,,,37.77999803E-3,2.3199999,
,,,37.79999912E-3,2.3199999,
,,,37.82000020E-3,2.3999999,
,,,37.83999756E-3,2.4800000,
,,,37.85999864E-3,2.5599999,
,,,37.87999973E-3,2.6399999,
,,,37.89999709E-3,2.72000003,
,,,37.91999817E-3,2.79999995,
,,,37.93999925E-3,2.87999988,
,,,37.96000034E-3,2.96000004,
,,,37.97999769E-3,3.03999996,
,,,37.99999878E-3,3.11999989,
,,,38.01999986E-3,3.11999989,
,,,38.03999722E-3,3.11999989,
,,,38.05999830E-3,3.19999981,
,,,38.07999939E-3,3.19999981,
,,,38.10000047E-3,3.19999981,
,,,38.11999783E-3,3.11999989,
,,,38.13999891E-3,3.11999989,
,,,38.16000000E-3,3.11999989,
,,,38.17999735E-3,3.03999996,
,,,38.19999844E-3,2.96000004,
,,,38.21999952E-3,2.87999988,
,,,38.23999688E-3,2.79999995,
,,,38.25999796E-3,2.79999995,
,,,38.27999905E-3,2.6399999,
,,,38.30000013E-3,2.6399999,
,,,38.31999749E-3,2.5599999,
,,,38.33999857E-3,2.4800000,
,,,38.35999966E-3,2.3999999,
,,,38.37999701E-3,2.3999999,
,,,38.39999810E-3,2.3199999,
,,,38.41999918E-3,2.2400000,
,,,38.44000027E-3,2.2400000,
,,,38.45999762E-3,2.1599998,
,,,38.47999871E-3,2.0799999,
,,,38.49999979E-3,2.0799999,
,,,38.51999715E-3,2.0000000,
,,,38.53999823E-3,2.0000000,
,,,38.55999932E-3,1.9200000,
,,,38.58000040E-3,1.9200000,
,,,38.59999776E-3,1.8399999,
,,,38.61999884E-3,1.8399999,
,,,38.63999993E-3,1.8399999,
,,,38.65999728E-3,1.7600000,
,,,38.67999837E-3,1.7600000,
,,,38.69999945E-3,1.7600000,
,,,38.71999681E-3,1.7600000,
,,,38.73999789E-3,1.6799999,
,,,38.75999898E-3,1.6799999,
,,,38.78000006E-3,1.6799999,
,,,38.79999742E-3,1.6799999,
,,,38.81999850E-3,1.5999999,
,,,38.83999959E-3,1.5999999,
,,,38.85999694E-3,1.5999999,
,,,38.87999803E-3,1.5999999,
,,,38.89999911E-3,1.5999999,
,,,38.92000020E-3,1.5200000,
,,,38.93999755E-3,1.5200000,
,,,38.95999864E-3,1.5200000,
,,,38.97999972E-3,1.5200000,
,,,38.99999708E-3,1.5200000,
,,,39.01999816E-3,1.5200000,
,,,39.03999925E-3,1.4399999,
,,,39.06000033E-3,1.4399999,
,,,39.07999769E-3,1.4399999,
,,,39.09999877E-3,1.4399999,
,,,39.11999986E-3,1.4399999,
,,,39.13999721E-3,1.3600000,
,,,39.15999830E-3,1.3600000,
,,,39.17999938E-3,1.3600000,
,,,39.19999674E-3,1.3600000,
,,,39.21999782E-3,1.3600000,
,,,39.23999891E-3,1.3600000,
,,,39.25999999E-3,1.3600000,
,,,39.27999735E-3,1.3600000,
,,,39.29999843E-3,1.2800000,
,,,39.31999952E-3,1.2800000,
,,,39.33999687E-3,1.2800000,
,,,39.35999796E-3,1.2800000,
,,,39.37999904E-3,1.2800000,
,,,39.40000013E-3,1.1999999,
,,,39.41999748E-3,1.1999999,
,,,39.43999857E-3,1.1999999,
,,,39.45999965E-3,1.1999999,
,,,39.47999701E-3,1.1999999,
,,,39.49999809E-3,1.1999999,
,,,39.51999918E-3,1.1999999,
,,,39.54000026E-3,1.1200000,
,,,39.55999762E-3,1.1200000,
,,,39.57999870E-3,1.1200000,
,,,39.59999979E-3,1.1200000,
,,,39.61999714E-3,1.1200000,
,,,39.63999823E-3,1.1200000,
,,,39.65999931E-3,1.1200000,
,,,39.68000039E-3,1.1200000,
,,,39.69999775E-3,1.1200000,
,,,39.71999884E-3,1.0400000,
,,,39.73999992E-3,1.0400000,
,,,39.75999728E-3,1.0400000,
,,,39.77999836E-3,1.0400000,
,,,39.79999945E-3,1.0400000,
,,,39.81999680E-3,1.0400000,
,,,39.83999789E-3,1.0400000,
,,,39.85999897E-3,1.0400000,
,,,39.88000005E-3,1.0400000,
,,,39.89999741E-3,1.0400000,
,,,39.91999850E-3,1.0400000,
,,,39.93999958E-3,1.0400000,
,,,39.95999694E-3,959.999978542E-3,
,,,39.97999802E-3,959.999978542E-3,
,,,39.99999911E-3,959.999978542E-3,
,,,40.02000019E-3,959.999978542E-3,
,,,40.03999755E-3,959.999978542E-3,
,,,40.05999863E-3,959.999978542E-3,
,,,40.07999972E-3,959.999978542E-3,
,,,40.09999707E-3,879.999995232E-3,
,,,40.11999816E-3,959.999978542E-3,
,,,40.13999924E-3,879.999995232E-3,
,,,40.16000032E-3,879.999995232E-3,
,,,40.17999768E-3,879.999995232E-3,
,,,40.19999877E-3,879.999995232E-3,
,,,40.21999985E-3,879.999995232E-3,
,,,40.23999721E-3,879.999995232E-3,
,,,40.25999829E-3,879.999995232E-3,
,,,40.27999938E-3,879.999995232E-3,
,,,40.29999673E-3,879.999995232E-3,
,,,40.31999782E-3,879.999995232E-3,
,,,40.33999890E-3,879.999995232E-3,
,,,40.35999998E-3,799.999952316E-3,
,,,40.37999734E-3,799.999952316E-3,
,,,40.39999843E-3,879.999995232E-3,
,,,40.41999951E-3,799.999952316E-3,
,,,40.43999687E-3,799.999952316E-3,
,,,40.45999795E-3,799.999952316E-3,
,,,40.47999904E-3,799.999952316E-3,
,,,40.50000012E-3,799.999952316E-3,
,,,40.51999748E-3,799.999952316E-3,
,,,40.53999856E-3,799.999952316E-3,
,,,40.55999964E-3,799.999952316E-3,
,,,40.57999700E-3,799.999952316E-3,
,,,40.59999809E-3,799.999952316E-3,
,,,40.61999917E-3,799.999952316E-3,
,,,40.64000025E-3,799.999952316E-3,
,,,40.65999761E-3,799.999952316E-3,
,,,40.67999870E-3,799.999952316E-3,
,,,40.69999978E-3,799.999952316E-3,
,,,40.71999714E-3,799.999952316E-3,
,,,40.73999822E-3,799.999952316E-3,
,,,40.75999931E-3,799.999952316E-3,
,,,40.78000039E-3,799.999952316E-3,
,,,40.79999775E-3,799.999952316E-3,
,,,40.81999883E-3,719.999969006E-3,
,,,40.83999991E-3,719.999969006E-3,
,,,40.85999727E-3,719.999969006E-3,
,,,40.87999836E-3,719.999969006E-3,
,,,40.89999944E-3,719.999969006E-3,
,,,40.91999680E-3,719.999969006E-3,
,,,40.93999788E-3,719.999969006E-3,
,,,40.95999897E-3,719.999969006E-3,
,,,40.98000005E-3,719.999969006E-3,
,,,40.99999741E-3,719.999969006E-3,
,,,41.01999849E-3,719.999969006E-3,
,,,41.03999957E-3,719.999969006E-3,
,,,41.05999693E-3,719.999969006E-3,
,,,41.07999802E-3,719.999969006E-3,
,,,41.09999910E-3,719.999969006E-3,
,,,41.12000018E-3,719.999969006E-3,
,,,41.13999754E-3,719.999969006E-3,
,,,41.15999863E-3,719.999969006E-3,
,,,41.17999971E-3,719.999969006E-3,
,,,41.19999707E-3,719.999969006E-3,
,,,41.21999815E-3,719.999969006E-3,
,,,41.23999923E-3,719.999969006E-3,
,,,41.26000032E-3,719.999969006E-3,
,,,41.27999768E-3,719.999969006E-3,
,,,41.29999876E-3,639.999985695E-3,
,,,41.31999984E-3,639.999985695E-3,
,,,41.33999720E-3,639.999985695E-3,
,,,41.35999829E-3,639.999985695E-3,
,,,41.37999937E-3,639.999985695E-3,
,,,41.39999673E-3,639.999985695E-3,
,,,41.41999781E-3,639.999985695E-3,
,,,41.43999889E-3,639.999985695E-3,
,,,41.45999998E-3,639.999985695E-3,
,,,41.47999734E-3,639.999985695E-3,
,,,41.49999842E-3,639.999985695E-3,
,,,41.51999950E-3,639.999985695E-3,
,,,41.53999686E-3,639.999985695E-3,
,,,41.55999795E-3,639.999985695E-3,
,,,41.57999903E-3,639.999985695E-3,
,,,41.60000011E-3,560.000002384E-3,
,,,41.61999747E-3,560.000002384E-3,
,,,41.63999856E-3,639.999985695E-3,
,,,41.65999964E-3,639.999985695E-3,
,,,41.67999700E-3,560.000002384E-3,
,,,41.69999808E-3,560.000002384E-3,
,,,41.71999916E-3,639.999985695E-3,
,,,41.74000025E-3,560.000002384E-3,
,,,41.75999761E-3,560.000002384E-3,
,,,41.77999869E-3,560.000002384E-3,
,,,41.79999977E-3,560.000002384E-3,
,,,41.81999713E-3,560.000002384E-3,
,,,41.83999822E-3,560.000002384E-3,
,,,41.85999930E-3,560.000002384E-3,
,,,41.87999666E-3,560.000002384E-3,
,,,41.89999774E-3,560.000002384E-3,
,,,41.91999882E-3,560.000002384E-3,
,,,41.93999991E-3,560.000002384E-3,
,,,41.95999727E-3,560.000002384E-3,
,,,41.97999835E-3,560.000002384E-3,
,,,41.99999943E-3,560.000002384E-3,
,,,42.01999679E-3,479.999989271E-3,
,,,42.03999788E-3,560.000002384E-3,
,,,42.05999896E-3,560.000002384E-3,
,,,42.08000004E-3,560.000002384E-3,
,,,42.09999740E-3,560.000002384E-3,
,,,42.11999848E-3,479.999989271E-3,
,,,42.13999957E-3,560.000002384E-3,
,,,42.15999693E-3,560.000002384E-3,
,,,42.17999801E-3,560.000002384E-3,
,,,42.19999909E-3,560.000002384E-3,
,,,42.22000018E-3,479.999989271E-3,
,,,42.23999754E-3,479.999989271E-3,
,,,42.25999862E-3,560.000002384E-3,
,,,42.27999970E-3,560.000002384E-3,
,,,42.29999706E-3,560.000002384E-3,
,,,42.31999815E-3,560.000002384E-3,
,,,42.33999923E-3,479.999989271E-3,
,,,42.36000031E-3,560.000002384E-3,
,,,42.37999767E-3,479.999989271E-3,
,,,42.39999875E-3,479.999989271E-3,
,,,42.41999984E-3,479.999989271E-3,
,,,42.43999720E-3,479.999989271E-3,
,,,42.45999828E-3,479.999989271E-3,
,,,42.47999936E-3,479.999989271E-3,
,,,42.49999672E-3,479.999989271E-3,
,,,42.51999781E-3,479.999989271E-3,
,,,42.53999889E-3,479.999989271E-3,
,,,42.55999997E-3,479.999989271E-3,
,,,42.57999733E-3,479.999989271E-3,
,,,42.59999841E-3,479.999989271E-3,
,,,42.61999950E-3,479.999989271E-3,
,,,42.63999686E-3,479.999989271E-3,
,,,42.65999794E-3,479.999989271E-3,
,,,42.67999902E-3,479.999989271E-3,
,,,42.70000011E-3,479.999989271E-3,
,,,42.71999747E-3,479.999989271E-3,
,,,42.73999855E-3,479.999989271E-3,
,,,42.75999963E-3,479.999989271E-3,
,,,42.77999699E-3,479.999989271E-3,
,,,42.79999807E-3,479.999989271E-3,
,,,42.81999916E-3,479.999989271E-3,
,,,42.84000024E-3,479.999989271E-3,
,,,42.85999760E-3,479.999989271E-3,
,,,42.87999868E-3,479.999989271E-3,
,,,42.89999977E-3,479.999989271E-3,
,,,42.91999713E-3,479.999989271E-3,
,,,42.93999821E-3,399.99997616E-3,
,,,42.95999929E-3,479.999989271E-3,
,,,42.97999665E-3,399.99997616E-3,
,,,42.99999774E-3,479.999989271E-3,
,,,43.01999882E-3,479.999989271E-3,
,,,43.03999990E-3,399.99997616E-3,
,,,43.05999726E-3,479.999989271E-3,
,,,43.07999834E-3,399.99997616E-3,
,,,43.09999943E-3,399.99997616E-3,
,,,43.11999679E-3,399.99997616E-3,
,,,43.13999787E-3,479.999989271E-3,
,,,43.15999895E-3,479.999989271E-3,
,,,43.18000004E-3,399.99997616E-3,
,,,43.19999740E-3,399.99997616E-3,
,,,43.21999848E-3,399.99997616E-3,
,,,43.23999956E-3,399.99997616E-3,
,,,43.25999692E-3,479.999989271E-3,
,,,43.27999800E-3,399.99997616E-3,
,,,43.29999909E-3,399.99997616E-3,
,,,43.32000017E-3,399.99997616E-3,
,,,43.33999753E-3,399.99997616E-3,
,,,43.35999861E-3,399.99997616E-3,
,,,43.37999970E-3,399.99997616E-3,
,,,43.39999706E-3,399.99997616E-3,
,,,43.41999814E-3,399.99997616E-3,
,,,43.43999922E-3,399.99997616E-3,
,,,43.46000031E-3,399.99997616E-3,
,,,43.47999766E-3,399.99997616E-3,
,,,43.49999875E-3,399.99997616E-3,
,,,43.51999983E-3,399.99997616E-3,
,,,43.53999719E-3,399.99997616E-3,
,,,43.55999827E-3,399.99997616E-3,
,,,43.57999936E-3,399.99997616E-3,
,,,43.59999672E-3,399.99997616E-3,
,,,43.61999780E-3,399.99997616E-3,
,,,43.63999888E-3,399.99997616E-3,
,,,43.65999997E-3,399.99997616E-3,
,,,43.67999732E-3,399.99997616E-3,
,,,43.69999841E-3,399.99997616E-3,
,,,43.71999949E-3,399.99997616E-3,
,,,43.73999685E-3,399.99997616E-3,
,,,43.75999793E-3,399.99997616E-3,
,,,43.77999902E-3,399.99997616E-3,
,,,43.80000010E-3,399.99997616E-3,
,,,43.81999746E-3,399.99997616E-3,
,,,43.83999854E-3,399.99997616E-3,
,,,43.85999963E-3,399.99997616E-3,
,,,43.87999699E-3,399.99997616E-3,
,,,43.89999807E-3,399.99997616E-3,
,,,43.91999915E-3,399.99997616E-3,
,,,43.94000024E-3,399.99997616E-3,
,,,43.95999759E-3,399.99997616E-3,
,,,43.97999868E-3,399.99997616E-3,
,,,43.99999976E-3,319.99999285E-3,
,,,44.01999712E-3,399.99997616E-3,
,,,44.03999820E-3,399.99997616E-3,
,,,44.05999929E-3,399.99997616E-3,
,,,44.07999665E-3,319.99999285E-3,
,,,44.09999773E-3,399.99997616E-3,
,,,44.11999881E-3,399.99997616E-3,
,,,44.13999990E-3,399.99997616E-3,
,,,44.15999725E-3,319.99999285E-3,
,,,44.17999834E-3,319.99999285E-3,
,,,44.19999942E-3,399.99997616E-3,
,,,44.21999678E-3,319.99999285E-3,
,,,44.23999786E-3,319.99999285E-3,
,,,44.25999895E-3,319.99999285E-3,
,,,44.28000003E-3,319.99999285E-3,
,,,44.29999739E-3,319.99999285E-3,
,,,44.31999847E-3,319.99999285E-3,
,,,44.33999956E-3,319.99999285E-3,
,,,44.35999691E-3,319.99999285E-3,
,,,44.37999800E-3,319.99999285E-3,
,,,44.39999908E-3,319.99999285E-3,
,,,44.42000017E-3,319.99999285E-3,
,,,44.43999752E-3,319.99999285E-3,
,,,44.45999861E-3,319.99999285E-3,
,,,44.47999969E-3,319.99999285E-3,
,,,44.49999705E-3,319.99999285E-3,
,,,44.51999813E-3,319.99999285E-3,
,,,44.53999922E-3,319.99999285E-3,
,,,44.56000030E-3,319.99999285E-3,
,,,44.57999766E-3,319.99999285E-3,
,,,44.59999874E-3,319.99999285E-3,
,,,44.61999983E-3,319.99999285E-3,
,,,44.63999718E-3,319.99999285E-3,
,,,44.65999827E-3,319.99999285E-3,
,,,44.67999935E-3,319.99999285E-3,
,,,44.69999671E-3,319.99999285E-3,
,,,44.71999779E-3,319.99999285E-3,
,,,44.73999888E-3,319.99999285E-3,
,,,44.75999996E-3,319.99999285E-3,
,,,44.77999732E-3,319.99999285E-3,
,,,44.79999840E-3,319.99999285E-3,
,,,44.81999949E-3,319.99999285E-3,
,,,44.83999684E-3,319.99999285E-3,
,,,44.85999793E-3,319.99999285E-3,
,,,44.87999901E-3,319.99999285E-3,
,,,44.90000010E-3,319.99999285E-3,
,,,44.91999745E-3,319.99999285E-3,
,,,44.93999854E-3,319.99999285E-3,
,,,44.95999962E-3,319.99999285E-3,
,,,44.97999698E-3,319.99999285E-3,
,,,44.99999806E-3,319.99999285E-3,
,,,45.01999915E-3,319.99999285E-3,
,,,45.04000023E-3,319.99999285E-3,
,,,45.05999759E-3,319.99999285E-3,
,,,45.07999867E-3,319.99999285E-3,
,,,45.09999976E-3,319.99999285E-3,
,,,45.11999711E-3,319.99999285E-3,
,,,45.13999820E-3,319.99999285E-3,
,,,45.15999928E-3,319.99999285E-3,
,,,45.17999664E-3,319.99999285E-3,
,,,45.19999772E-3,319.99999285E-3,
,,,45.21999881E-3,319.99999285E-3,
,,,45.23999989E-3,319.99999285E-3,
,,,45.25999725E-3,319.99999285E-3,
,,,45.27999833E-3,319.99999285E-3,
,,,45.29999942E-3,239.99999464E-3,
,,,45.31999677E-3,319.99999285E-3,
,,,45.33999786E-3,319.99999285E-3,
,,,45.35999894E-3,319.99999285E-3,
,,,45.38000003E-3,319.99999285E-3,
,,,45.39999738E-3,319.99999285E-3,
,,,45.41999847E-3,319.99999285E-3,
,,,45.43999955E-3,319.99999285E-3,
,,,45.45999691E-3,319.99999285E-3,
,,,45.47999799E-3,319.99999285E-3,
,,,45.49999908E-3,319.99999285E-3,
,,,45.52000016E-3,319.99999285E-3,
,,,45.53999752E-3,319.99999285E-3,
,,,45.55999860E-3,319.99999285E-3,
,,,45.57999969E-3,319.99999285E-3,
,,,45.59999704E-3,319.99999285E-3,
,,,45.61999813E-3,239.99999464E-3,
,,,45.63999921E-3,319.99999285E-3,
,,,45.65999657E-3,239.99999464E-3,
,,,45.67999765E-3,239.99999464E-3,
,,,45.69999874E-3,319.99999285E-3,
,,,45.71999982E-3,239.99999464E-3,
,,,45.73999718E-3,319.99999285E-3,
,,,45.75999826E-3,319.99999285E-3,
,,,45.77999935E-3,319.99999285E-3,
