I(mA), V(mV)
1.00, -1.0
2.3, -2.4
3.33, -3.5
4.67, -4.9
6.16, -6.5
7.38, -7.9
9.26, -9.9
10.72, -11.6
11.81, -12.9
12.73, -13.9
14.1, -15.5 
15.31, -17.0
16.48, -18.35
17.72, -19.8
18.95, -21.4
19.67, -22.3 

